('param : ', '5 2-2-14-14 5-5-8-4 1-1-1-1-1\n')
Loading data...
Parameters : [ 2  2 14 14]	[5 5 8 4]	[1 1 1 1 1]
Building model and compiling functions...
Nombre de parametres:	(188,)
Starting training...
Epoch 1 of 5 took 15.768s
  training loss:		2.301314
  validation loss:		2.301279
  validation accuracy:		10.64 %
Epoch 2 of 5 took 16.671s
  training loss:		2.299991
  validation loss:		2.300048
  validation accuracy:		10.64 %
Epoch 3 of 5 took 17.946s
  training loss:		2.297984
  validation loss:		2.296814
  validation accuracy:		10.64 %
Epoch 4 of 5 took 17.973s
  training loss:		2.290442
  validation loss:		2.280533
  validation accuracy:		11.46 %
Epoch 5 of 5 took 18.101s
  training loss:		2.224225
  validation loss:		2.068952
  validation accuracy:		32.70 %
Final results:
  test loss:			2.066147
  test accuracy:		32.82 %
Total time 87.515s
('param : ', '5 2-2-14-14 5-5-8-4 1-1-1-2-1\n')
Loading data...
Parameters : [ 2  2 14 14]	[5 5 8 4]	[1 1 1 2 1]
Building model and compiling functions...
Nombre de parametres:	(356,)
Starting training...
Epoch 1 of 5 took 17.462s
  training loss:		2.298374
  validation loss:		2.293346
  validation accuracy:		10.64 %
Epoch 2 of 5 took 17.251s
  training loss:		2.278557
  validation loss:		2.249782
  validation accuracy:		24.74 %
Epoch 3 of 5 took 17.397s
  training loss:		1.992913
  validation loss:		1.248600
  validation accuracy:		66.80 %
Epoch 4 of 5 took 17.988s
  training loss:		0.664498
  validation loss:		0.323868
  validation accuracy:		90.54 %
Epoch 5 of 5 took 18.091s
  training loss:		0.284856
  validation loss:		0.204760
  validation accuracy:		94.10 %
Final results:
  test loss:			0.219596
  test accuracy:		93.59 %
Total time 89.290s
('param : ', '5 2-2-14-14 5-5-8-4 1-1-1-3-1\n')
Loading data...
Parameters : [ 2  2 14 14]	[5 5 8 4]	[1 1 1 3 1]
Building model and compiling functions...
Nombre de parametres:	(524,)
Starting training...
Epoch 1 of 5 took 18.792s
  training loss:		2.300867
  validation loss:		2.300226
  validation accuracy:		10.64 %
Epoch 2 of 5 took 18.880s
  training loss:		2.297877
  validation loss:		2.296299
  validation accuracy:		10.64 %
Epoch 3 of 5 took 18.640s
  training loss:		2.290353
  validation loss:		2.281745
  validation accuracy:		10.88 %
Epoch 4 of 5 took 18.663s
  training loss:		2.244194
  validation loss:		2.155177
  validation accuracy:		36.37 %
Epoch 5 of 5 took 18.200s
  training loss:		1.539420
  validation loss:		0.608911
  validation accuracy:		80.81 %
Final results:
  test loss:			0.633562
  test accuracy:		80.04 %
Total time 94.281s
('param : ', '5 2-2-14-14 5-5-8-4 1-1-1-4-1\n')
Loading data...
Parameters : [ 2  2 14 14]	[5 5 8 4]	[1 1 1 4 1]
Building model and compiling functions...
Nombre de parametres:	(692,)
Starting training...
Epoch 1 of 5 took 18.805s
  training loss:		2.301602
  validation loss:		2.301908
  validation accuracy:		10.64 %
Epoch 2 of 5 took 18.465s
  training loss:		2.301117
  validation loss:		2.301998
  validation accuracy:		10.64 %
Epoch 3 of 5 took 18.521s
  training loss:		2.301062
  validation loss:		2.301918
  validation accuracy:		10.64 %
Epoch 4 of 5 took 18.869s
  training loss:		2.301053
  validation loss:		2.301901
  validation accuracy:		10.64 %
Epoch 5 of 5 took 18.841s
  training loss:		2.301017
  validation loss:		2.301841
  validation accuracy:		10.64 %
Final results:
  test loss:			2.300804
  test accuracy:		11.35 %
Total time 94.638s
('param : ', '5 2-2-14-14 5-5-8-4 1-1-1-5-1\n')
Loading data...
Parameters : [ 2  2 14 14]	[5 5 8 4]	[1 1 1 5 1]
Building model and compiling functions...
Nombre de parametres:	(860,)
Starting training...
Epoch 1 of 5 took 19.660s
  training loss:		2.295249
  validation loss:		2.284701
  validation accuracy:		10.64 %
Epoch 2 of 5 took 19.267s
  training loss:		2.245656
  validation loss:		2.147366
  validation accuracy:		38.79 %
Epoch 3 of 5 took 19.998s
  training loss:		1.497641
  validation loss:		0.639902
  validation accuracy:		81.13 %
Epoch 4 of 5 took 19.698s
  training loss:		0.444730
  validation loss:		0.272724
  validation accuracy:		92.19 %
Epoch 5 of 5 took 19.932s
  training loss:		0.268221
  validation loss:		0.200465
  validation accuracy:		94.29 %
Final results:
  test loss:			0.217313
  test accuracy:		93.69 %
Total time 99.767s
('param : ', '5 2-2-14-14 5-5-8-4 1-1-1-6-1\n')
Loading data...
Parameters : [ 2  2 14 14]	[5 5 8 4]	[1 1 1 6 1]
Building model and compiling functions...
Nombre de parametres:	(1028,)
Starting training...
Epoch 1 of 5 took 20.448s
  training loss:		2.298451
  validation loss:		2.293671
  validation accuracy:		10.64 %
Epoch 2 of 5 took 20.110s
  training loss:		2.277970
  validation loss:		2.247215
  validation accuracy:		27.52 %
Epoch 3 of 5 took 19.915s
  training loss:		1.968700
  validation loss:		1.081666
  validation accuracy:		70.02 %
Epoch 4 of 5 took 19.970s
  training loss:		0.625283
  validation loss:		0.355819
  validation accuracy:		89.90 %
Epoch 5 of 5 took 19.818s
  training loss:		0.314269
  validation loss:		0.239695
  validation accuracy:		93.33 %
Final results:
  test loss:			0.248549
  test accuracy:		92.74 %
Total time 101.532s
('param : ', '5 2-2-14-14 5-5-8-4 1-1-1-7-1\n')
Loading data...
Parameters : [ 2  2 14 14]	[5 5 8 4]	[1 1 1 7 1]
Building model and compiling functions...
Nombre de parametres:	(1196,)
Starting training...
Epoch 1 of 5 took 20.799s
  training loss:		2.301203
  validation loss:		2.300959
  validation accuracy:		10.64 %
Epoch 2 of 5 took 19.919s
  training loss:		2.299346
  validation loss:		2.298861
  validation accuracy:		10.64 %
Epoch 3 of 5 took 19.714s
  training loss:		2.295378
  validation loss:		2.291605
  validation accuracy:		10.64 %
Epoch 4 of 5 took 20.402s
  training loss:		2.276460
  validation loss:		2.246399
  validation accuracy:		28.05 %
Epoch 5 of 5 took 19.714s
  training loss:		1.976434
  validation loss:		1.204762
  validation accuracy:		68.12 %
Final results:
  test loss:			1.214258
  test accuracy:		67.44 %
Total time 101.820s
('param : ', '5 2-2-14-14 5-5-8-4 1-1-1-8-1\n')
Loading data...
Parameters : [ 2  2 14 14]	[5 5 8 4]	[1 1 1 8 1]
Building model and compiling functions...
Nombre de parametres:	(1364,)
Starting training...
Epoch 1 of 5 took 20.907s
  training loss:		2.301486
  validation loss:		2.301687
  validation accuracy:		10.64 %
Epoch 2 of 5 took 19.841s
  training loss:		2.300784
  validation loss:		2.301376
  validation accuracy:		10.64 %
Epoch 3 of 5 took 19.661s
  training loss:		2.300304
  validation loss:		2.300687
  validation accuracy:		10.64 %
Epoch 4 of 5 took 20.625s
  training loss:		2.299382
  validation loss:		2.299454
  validation accuracy:		10.64 %
Epoch 5 of 5 took 20.623s
  training loss:		2.297217
  validation loss:		2.295706
  validation accuracy:		10.64 %
Final results:
  test loss:			2.294842
  test accuracy:		11.35 %
Total time 102.985s
('param : ', '5 2-2-14-14 5-5-8-4 1-1-1-9-1\n')
Loading data...
Parameters : [ 2  2 14 14]	[5 5 8 4]	[1 1 1 9 1]
Building model and compiling functions...
Nombre de parametres:	(1532,)
Starting training...
Epoch 1 of 5 took 20.504s
  training loss:		2.299905
  validation loss:		2.297276
  validation accuracy:		10.64 %
Epoch 2 of 5 took 21.143s
  training loss:		2.289504
  validation loss:		2.276509
  validation accuracy:		13.67 %
Epoch 3 of 5 took 19.979s
  training loss:		2.205573
  validation loss:		2.023421
  validation accuracy:		32.62 %
Epoch 4 of 5 took 20.151s
  training loss:		1.539657
  validation loss:		0.844049
  validation accuracy:		73.08 %
Epoch 5 of 5 took 20.549s
  training loss:		0.535758
  validation loss:		0.294789
  validation accuracy:		91.22 %
Final results:
  test loss:			0.309582
  test accuracy:		91.33 %
Total time 103.618s
('param : ', '5 2-2-14-14 5-5-8-4 1-1-1-10-1\n')
Loading data...
Parameters : [ 2  2 14 14]	[5 5 8 4]	[ 1  1  1 10  1]
Building model and compiling functions...
Nombre de parametres:	(1700,)
Starting training...
Epoch 1 of 5 took 21.771s
  training loss:		2.301326
  validation loss:		2.301084
  validation accuracy:		10.64 %
Epoch 2 of 5 took 21.750s
  training loss:		2.299769
  validation loss:		2.299575
  validation accuracy:		10.64 %
Epoch 3 of 5 took 21.068s
  training loss:		2.297170
  validation loss:		2.294881
  validation accuracy:		10.64 %
Epoch 4 of 5 took 21.504s
  training loss:		2.286856
  validation loss:		2.272461
  validation accuracy:		17.24 %
Epoch 5 of 5 took 21.686s
  training loss:		2.209622
  validation loss:		2.043947
  validation accuracy:		33.22 %
Final results:
  test loss:			2.048457
  test accuracy:		34.02 %
Total time 109.140s
('param : ', '5 2-2-14-14 5-5-8-4 1-1-2-1-1\n')
Loading data...
Parameters : [ 2  2 14 14]	[5 5 8 4]	[1 1 2 1 1]
Building model and compiling functions...
Nombre de parametres:	(310,)
Starting training...
Epoch 1 of 5 took 17.493s
  training loss:		2.300316
  validation loss:		2.299019
  validation accuracy:		10.64 %
Epoch 2 of 5 took 18.070s
  training loss:		2.294976
  validation loss:		2.290419
  validation accuracy:		10.64 %
Epoch 3 of 5 took 17.960s
  training loss:		2.271435
  validation loss:		2.232893
  validation accuracy:		27.92 %
Epoch 4 of 5 took 16.155s
  training loss:		2.014243
  validation loss:		1.528975
  validation accuracy:		59.13 %
Epoch 5 of 5 took 16.690s
  training loss:		0.825597
  validation loss:		0.415824
  validation accuracy:		87.99 %
Final results:
  test loss:			0.457046
  test accuracy:		87.10 %
Total time 87.410s
('param : ', '5 2-2-14-14 5-5-8-4 1-1-2-2-1\n')
Loading data...
Parameters : [ 2  2 14 14]	[5 5 8 4]	[1 1 2 2 1]
Building model and compiling functions...
Nombre de parametres:	(590,)
Starting training...
Epoch 1 of 5 took 16.409s
  training loss:		2.301380
  validation loss:		2.301487
  validation accuracy:		10.64 %
Epoch 2 of 5 took 17.321s
  training loss:		2.300427
  validation loss:		2.300899
  validation accuracy:		10.64 %
Epoch 3 of 5 took 18.598s
  training loss:		2.299470
  validation loss:		2.299600
  validation accuracy:		10.64 %
Epoch 4 of 5 took 18.748s
  training loss:		2.297148
  validation loss:		2.295432
  validation accuracy:		10.64 %
Epoch 5 of 5 took 18.275s
  training loss:		2.289185
  validation loss:		2.279104
  validation accuracy:		10.64 %
Final results:
  test loss:			2.279190
  test accuracy:		11.36 %
Total time 90.430s
('param : ', '5 2-2-14-14 5-5-8-4 1-1-2-3-1\n')
Loading data...
Parameters : [ 2  2 14 14]	[5 5 8 4]	[1 1 2 3 1]
Building model and compiling functions...
Nombre de parametres:	(870,)
Starting training...
Epoch 1 of 5 took 17.317s
  training loss:		2.298556
  validation loss:		2.293983
  validation accuracy:		10.64 %
Epoch 2 of 5 took 16.937s
  training loss:		2.282644
  validation loss:		2.261631
  validation accuracy:		17.72 %
Epoch 3 of 5 took 17.872s
  training loss:		2.164116
  validation loss:		1.930255
  validation accuracy:		36.87 %
Epoch 4 of 5 took 18.290s
  training loss:		1.358860
  validation loss:		0.655305
  validation accuracy:		80.21 %
Epoch 5 of 5 took 18.584s
  training loss:		0.453519
  validation loss:		0.272951
  validation accuracy:		92.39 %
Final results:
  test loss:			0.283343
  test accuracy:		91.94 %
Total time 90.147s
('param : ', '5 2-2-14-14 5-5-8-4 1-1-2-4-1\n')
Loading data...
Parameters : [ 2  2 14 14]	[5 5 8 4]	[1 1 2 4 1]
Building model and compiling functions...
Nombre de parametres:	(1150,)
Starting training...
Epoch 1 of 5 took 17.729s
  training loss:		2.300594
  validation loss:		2.299327
  validation accuracy:		10.64 %
Epoch 2 of 5 took 18.440s
  training loss:		2.295930
  validation loss:		2.292210
  validation accuracy:		10.64 %
Epoch 3 of 5 took 18.578s
  training loss:		2.280074
  validation loss:		2.257224
  validation accuracy:		12.94 %
Epoch 4 of 5 took 19.073s
  training loss:		2.108217
  validation loss:		1.601772
  validation accuracy:		53.14 %
Epoch 5 of 5 took 19.357s
  training loss:		0.806901
  validation loss:		0.366344
  validation accuracy:		89.13 %
Final results:
  test loss:			0.387239
  test accuracy:		88.67 %
Total time 94.350s
('param : ', '5 2-2-14-14 5-5-8-4 1-1-2-5-1\n')
Loading data...
Parameters : [ 2  2 14 14]	[5 5 8 4]	[1 1 2 5 1]
Building model and compiling functions...
Nombre de parametres:	(1430,)
Starting training...
Epoch 1 of 5 took 19.705s
  training loss:		2.301485
  validation loss:		2.301714
  validation accuracy:		10.64 %
Epoch 2 of 5 took 19.661s
  training loss:		2.300761
  validation loss:		2.301243
  validation accuracy:		10.64 %
Epoch 3 of 5 took 19.200s
  training loss:		2.300228
  validation loss:		2.300698
  validation accuracy:		10.64 %
Epoch 4 of 5 took 19.216s
  training loss:		2.299158
  validation loss:		2.298998
  validation accuracy:		10.64 %
Epoch 5 of 5 took 19.106s
  training loss:		2.296433
  validation loss:		2.294106
  validation accuracy:		10.64 %
Final results:
  test loss:			2.293300
  test accuracy:		11.35 %
Total time 98.044s
('param : ', '5 2-2-14-14 5-5-8-4 1-1-2-6-1\n')
Loading data...
Parameters : [ 2  2 14 14]	[5 5 8 4]	[1 1 2 6 1]
Building model and compiling functions...
Nombre de parametres:	(1710,)
Starting training...
Epoch 1 of 5 took 19.653s
  training loss:		2.301576
  validation loss:		2.301643
  validation accuracy:		10.64 %
Epoch 2 of 5 took 19.908s
  training loss:		2.300822
  validation loss:		2.301493
  validation accuracy:		10.64 %
Epoch 3 of 5 took 18.680s
  training loss:		2.300381
  validation loss:		2.300899
  validation accuracy:		10.64 %
Epoch 4 of 5 took 18.520s
  training loss:		2.299482
  validation loss:		2.299357
  validation accuracy:		10.64 %
Epoch 5 of 5 took 20.029s
  training loss:		2.297123
  validation loss:		2.295459
  validation accuracy:		10.64 %
Final results:
  test loss:			2.294559
  test accuracy:		11.35 %
Total time 98.055s
('param : ', '5 2-2-14-14 5-5-8-4 1-1-2-7-1\n')
Loading data...
Parameters : [ 2  2 14 14]	[5 5 8 4]	[1 1 2 7 1]
Building model and compiling functions...
Nombre de parametres:	(1990,)
Starting training...
Epoch 1 of 5 took 21.056s
  training loss:		2.301012
  validation loss:		2.300486
  validation accuracy:		10.64 %
Epoch 2 of 5 took 21.093s
  training loss:		2.298537
  validation loss:		2.297486
  validation accuracy:		10.64 %
Epoch 3 of 5 took 20.789s
  training loss:		2.293250
  validation loss:		2.288284
  validation accuracy:		10.64 %
Epoch 4 of 5 took 20.517s
  training loss:		2.267648
  validation loss:		2.224841
  validation accuracy:		26.17 %
Epoch 5 of 5 took 19.717s
  training loss:		1.926196
  validation loss:		1.252225
  validation accuracy:		63.83 %
Final results:
  test loss:			1.263400
  test accuracy:		62.26 %
Total time 104.460s
('param : ', '5 2-2-14-14 5-5-8-4 1-1-2-8-1\n')
Loading data...
Parameters : [ 2  2 14 14]	[5 5 8 4]	[1 1 2 8 1]
Building model and compiling functions...
Nombre de parametres:	(2270,)
Starting training...
Epoch 1 of 5 took 20.727s
  training loss:		2.299619
  validation loss:		2.296691
  validation accuracy:		10.64 %
Epoch 2 of 5 took 21.360s
  training loss:		2.289893
  validation loss:		2.279193
  validation accuracy:		10.64 %
Epoch 3 of 5 took 21.036s
  training loss:		2.242583
  validation loss:		2.154741
  validation accuracy:		41.62 %
Epoch 4 of 5 took 20.766s
  training loss:		1.594385
  validation loss:		0.766215
  validation accuracy:		76.49 %
Epoch 5 of 5 took 20.245s
  training loss:		0.534636
  validation loss:		0.320380
  validation accuracy:		90.57 %
Final results:
  test loss:			0.337017
  test accuracy:		90.27 %
Total time 105.454s
('param : ', '5 2-2-14-14 5-5-8-4 1-1-2-9-1\n')
Loading data...
Parameters : [ 2  2 14 14]	[5 5 8 4]	[1 1 2 9 1]
Building model and compiling functions...
Nombre de parametres:	(2550,)
Starting training...
Epoch 1 of 5 took 21.452s
  training loss:		2.299470
  validation loss:		2.295953
  validation accuracy:		10.64 %
Epoch 2 of 5 took 21.802s
  training loss:		2.286930
  validation loss:		2.271438
  validation accuracy:		10.86 %
Epoch 3 of 5 took 21.217s
  training loss:		2.178092
  validation loss:		1.905948
  validation accuracy:		46.44 %
Epoch 4 of 5 took 21.668s
  training loss:		1.141386
  validation loss:		0.465217
  validation accuracy:		86.43 %
Epoch 5 of 5 took 19.805s
  training loss:		0.376980
  validation loss:		0.257743
  validation accuracy:		92.61 %
Final results:
  test loss:			0.270108
  test accuracy:		92.38 %
Total time 107.154s
('param : ', '5 2-2-14-14 5-5-8-4 1-1-2-10-1\n')
Loading data...
Parameters : [ 2  2 14 14]	[5 5 8 4]	[ 1  1  2 10  1]
Building model and compiling functions...
Nombre de parametres:	(2830,)
Starting training...
Epoch 1 of 5 took 21.054s
  training loss:		2.300694
  validation loss:		2.299366
  validation accuracy:		10.64 %
Epoch 2 of 5 took 21.847s
  training loss:		2.295281
  validation loss:		2.290052
  validation accuracy:		10.64 %
Epoch 3 of 5 took 21.952s
  training loss:		2.267717
  validation loss:		2.218817
  validation accuracy:		24.07 %
Epoch 4 of 5 took 21.494s
  training loss:		2.003645
  validation loss:		1.630991
  validation accuracy:		52.41 %
Epoch 5 of 5 took 20.475s
  training loss:		0.972413
  validation loss:		0.449779
  validation accuracy:		86.90 %
Final results:
  test loss:			0.476418
  test accuracy:		85.95 %
Total time 108.020s
('param : ', '5 2-2-14-14 5-5-8-4 1-1-3-1-1\n')
Loading data...
Parameters : [ 2  2 14 14]	[5 5 8 4]	[1 1 3 1 1]
Building model and compiling functions...
Nombre de parametres:	(432,)
Starting training...
Epoch 1 of 5 took 16.370s
  training loss:		2.297934
  validation loss:		2.292520
  validation accuracy:		10.64 %
Epoch 2 of 5 took 17.039s
  training loss:		2.275149
  validation loss:		2.237987
  validation accuracy:		30.11 %
Epoch 3 of 5 took 17.138s
  training loss:		1.968374
  validation loss:		1.419236
  validation accuracy:		52.08 %
Epoch 4 of 5 took 17.723s
  training loss:		0.896066
  validation loss:		0.487733
  validation accuracy:		85.45 %
Epoch 5 of 5 took 18.068s
  training loss:		0.376645
  validation loss:		0.256700
  validation accuracy:		92.55 %
Final results:
  test loss:			0.254031
  test accuracy:		92.86 %
Total time 87.418s
('param : ', '5 2-2-14-14 5-5-8-4 1-1-3-2-1\n')
Loading data...
Parameters : [ 2  2 14 14]	[5 5 8 4]	[1 1 3 2 1]
Building model and compiling functions...
Nombre de parametres:	(824,)
Starting training...
Epoch 1 of 5 took 17.610s
  training loss:		2.301235
  validation loss:		2.301191
  validation accuracy:		10.64 %
Epoch 2 of 5 took 16.852s
  training loss:		2.299887
  validation loss:		2.299869
  validation accuracy:		10.64 %
Epoch 3 of 5 took 17.737s
  training loss:		2.297844
  validation loss:		2.296720
  validation accuracy:		10.64 %
Epoch 4 of 5 took 18.377s
  training loss:		2.291304
  validation loss:		2.283554
  validation accuracy:		10.64 %
Epoch 5 of 5 took 18.465s
  training loss:		2.255653
  validation loss:		2.190701
  validation accuracy:		30.43 %
Final results:
  test loss:			2.193826
  test accuracy:		30.17 %
Total time 90.087s
('param : ', '5 2-2-14-14 5-5-8-4 1-1-3-3-1\n')
Loading data...
Parameters : [ 2  2 14 14]	[5 5 8 4]	[1 1 3 3 1]
Building model and compiling functions...
Nombre de parametres:	(1216,)
Starting training...
Epoch 1 of 5 took 18.316s
  training loss:		2.300592
  validation loss:		2.299164
  validation accuracy:		10.64 %
Epoch 2 of 5 took 18.924s
  training loss:		2.295438
  validation loss:		2.291349
  validation accuracy:		10.64 %
Epoch 3 of 5 took 18.740s
  training loss:		2.278182
  validation loss:		2.254070
  validation accuracy:		18.80 %
Epoch 4 of 5 took 18.118s
  training loss:		2.106900
  validation loss:		1.669198
  validation accuracy:		51.08 %
Epoch 5 of 5 took 18.508s
  training loss:		0.916893
  validation loss:		0.432308
  validation accuracy:		87.40 %
Final results:
  test loss:			0.458958
  test accuracy:		86.83 %
Total time 93.725s
('param : ', '5 2-2-14-14 5-5-8-4 1-1-3-4-1\n')
Loading data...
Parameters : [ 2  2 14 14]	[5 5 8 4]	[1 1 3 4 1]
Building model and compiling functions...
Nombre de parametres:	(1608,)
Starting training...
Epoch 1 of 5 took 18.837s
  training loss:		2.300903
  validation loss:		2.300304
  validation accuracy:		10.64 %
Epoch 2 of 5 took 19.129s
  training loss:		2.297785
  validation loss:		2.296005
  validation accuracy:		10.64 %
Epoch 3 of 5 took 18.926s
  training loss:		2.289871
  validation loss:		2.280699
  validation accuracy:		12.37 %
Epoch 4 of 5 took 18.740s
  training loss:		2.245487
  validation loss:		2.163474
  validation accuracy:		33.79 %
Epoch 5 of 5 took 19.458s
  training loss:		1.655186
  validation loss:		0.818993
  validation accuracy:		74.76 %
Final results:
  test loss:			0.837407
  test accuracy:		74.15 %
Total time 96.226s
('param : ', '5 2-2-14-14 5-5-8-4 1-1-3-5-1\n')
Loading data...
Parameters : [ 2  2 14 14]	[5 5 8 4]	[1 1 3 5 1]
Building model and compiling functions...
Nombre de parametres:	(2000,)
Starting training...
Epoch 1 of 5 took 19.505s
  training loss:		2.298936
  validation loss:		2.294713
  validation accuracy:		10.64 %
Epoch 2 of 5 took 19.445s
  training loss:		2.283144
  validation loss:		2.261981
  validation accuracy:		17.54 %
Epoch 3 of 5 took 19.744s
  training loss:		2.144957
  validation loss:		1.851114
  validation accuracy:		49.32 %
Epoch 4 of 5 took 19.432s
  training loss:		1.140878
  validation loss:		0.468455
  validation accuracy:		86.36 %
Epoch 5 of 5 took 19.543s
  training loss:		0.383116
  validation loss:		0.269800
  validation accuracy:		92.07 %
Final results:
  test loss:			0.278788
  test accuracy:		92.19 %
Total time 98.851s
('param : ', '5 2-2-14-14 5-5-8-4 1-1-3-6-1\n')
Loading data...
Parameters : [ 2  2 14 14]	[5 5 8 4]	[1 1 3 6 1]
Building model and compiling functions...
Nombre de parametres:	(2392,)
Starting training...
Epoch 1 of 5 took 19.400s
  training loss:		2.300200
  validation loss:		2.298164
  validation accuracy:		10.64 %
Epoch 2 of 5 took 19.614s
  training loss:		2.292068
  validation loss:		2.283928
  validation accuracy:		10.64 %
Epoch 3 of 5 took 19.876s
  training loss:		2.247728
  validation loss:		2.163252
  validation accuracy:		41.64 %
Epoch 4 of 5 took 20.182s
  training loss:		1.622072
  validation loss:		0.818872
  validation accuracy:		75.01 %
Epoch 5 of 5 took 20.320s
  training loss:		0.554114
  validation loss:		0.321293
  validation accuracy:		90.64 %
Final results:
  test loss:			0.350545
  test accuracy:		90.11 %
Total time 100.692s
('param : ', '5 2-2-14-14 5-5-8-4 1-1-3-7-1\n')
Loading data...
Parameters : [ 2  2 14 14]	[5 5 8 4]	[1 1 3 7 1]
Building model and compiling functions...
Nombre de parametres:	(2784,)
Starting training...
Epoch 1 of 5 took 19.694s
  training loss:		2.300119
  validation loss:		2.298086
  validation accuracy:		10.64 %
Epoch 2 of 5 took 19.545s
  training loss:		2.292845
  validation loss:		2.285594
  validation accuracy:		10.64 %
Epoch 3 of 5 took 19.389s
  training loss:		2.258450
  validation loss:		2.197017
  validation accuracy:		28.81 %
Epoch 4 of 5 took 20.435s
  training loss:		1.826801
  validation loss:		1.078579
  validation accuracy:		65.36 %
Epoch 5 of 5 took 20.431s
  training loss:		0.678107
  validation loss:		0.357986
  validation accuracy:		89.10 %
Final results:
  test loss:			0.373509
  test accuracy:		89.04 %
Total time 100.730s
('param : ', '5 2-2-14-14 5-5-8-4 1-1-3-8-1\n')
Loading data...
Parameters : [ 2  2 14 14]	[5 5 8 4]	[1 1 3 8 1]
Building model and compiling functions...
Nombre de parametres:	(3176,)
Starting training...
Epoch 1 of 5 took 21.163s
  training loss:		2.299820
  validation loss:		2.297499
  validation accuracy:		10.64 %
Epoch 2 of 5 took 20.421s
  training loss:		2.290887
  validation loss:		2.281534
  validation accuracy:		10.64 %
Epoch 3 of 5 took 20.751s
  training loss:		2.240702
  validation loss:		2.142752
  validation accuracy:		41.95 %
Epoch 4 of 5 took 20.698s
  training loss:		1.629429
  validation loss:		0.860130
  validation accuracy:		74.56 %
Epoch 5 of 5 took 20.968s
  training loss:		0.562294
  validation loss:		0.334753
  validation accuracy:		90.18 %
Final results:
  test loss:			0.352032
  test accuracy:		90.22 %
Total time 105.336s
('param : ', '5 2-2-14-14 5-5-8-4 1-1-3-9-1\n')
Loading data...
Parameters : [ 2  2 14 14]	[5 5 8 4]	[1 1 3 9 1]
Building model and compiling functions...
Nombre de parametres:	(3568,)
Starting training...
Epoch 1 of 5 took 20.955s
  training loss:		2.301494
  validation loss:		2.301608
  validation accuracy:		10.64 %
Epoch 2 of 5 took 20.729s
  training loss:		2.300588
  validation loss:		2.301064
  validation accuracy:		10.64 %
Epoch 3 of 5 took 20.959s
  training loss:		2.299709
  validation loss:		2.299854
  validation accuracy:		10.64 %
Epoch 4 of 5 took 21.004s
  training loss:		2.297485
  validation loss:		2.295749
  validation accuracy:		10.64 %
Epoch 5 of 5 took 20.614s
  training loss:		2.288953
  validation loss:		2.277443
  validation accuracy:		10.64 %
Final results:
  test loss:			2.277089
  test accuracy:		11.35 %
Total time 105.539s
('param : ', '5 2-2-14-14 5-5-8-4 1-1-3-10-1\n')
Loading data...
Parameters : [ 2  2 14 14]	[5 5 8 4]	[ 1  1  3 10  1]
Building model and compiling functions...
Nombre de parametres:	(3960,)
Starting training...
Epoch 1 of 5 took 19.590s
  training loss:		2.301084
  validation loss:		2.300456
  validation accuracy:		10.64 %
Epoch 2 of 5 took 19.511s
  training loss:		2.298165
  validation loss:		2.296532
  validation accuracy:		10.64 %
Epoch 3 of 5 took 20.403s
  training loss:		2.290382
  validation loss:		2.281671
  validation accuracy:		10.64 %
Epoch 4 of 5 took 19.922s
  training loss:		2.247478
  validation loss:		2.168623
  validation accuracy:		54.77 %
Epoch 5 of 5 took 20.355s
  training loss:		1.627707
  validation loss:		0.822865
  validation accuracy:		74.62 %
Final results:
  test loss:			0.843771
  test accuracy:		73.66 %
Total time 101.179s
('param : ', '5 2-2-14-14 5-5-8-4 1-1-4-1-1\n')
Loading data...
Parameters : [ 2  2 14 14]	[5 5 8 4]	[1 1 4 1 1]
Building model and compiling functions...
Nombre de parametres:	(554,)
Starting training...
Epoch 1 of 5 took 18.311s
  training loss:		2.301087
  validation loss:		2.300507
  validation accuracy:		10.64 %
Epoch 2 of 5 took 18.516s
  training loss:		2.298216
  validation loss:		2.296410
  validation accuracy:		10.64 %
Epoch 3 of 5 took 18.377s
  training loss:		2.287603
  validation loss:		2.272468
  validation accuracy:		18.67 %
Epoch 4 of 5 took 18.346s
  training loss:		2.185323
  validation loss:		1.953262
  validation accuracy:		32.38 %
Epoch 5 of 5 took 18.268s
  training loss:		1.312107
  validation loss:		0.568606
  validation accuracy:		82.65 %
Final results:
  test loss:			0.594884
  test accuracy:		82.22 %
Total time 92.899s
('param : ', '5 2-2-14-14 5-5-8-4 1-1-4-2-1\n')
Loading data...
Parameters : [ 2  2 14 14]	[5 5 8 4]	[1 1 4 2 1]
Building model and compiling functions...
Nombre de parametres:	(1058,)
Starting training...
Epoch 1 of 5 took 18.203s
  training loss:		2.290424
  validation loss:		2.270442
  validation accuracy:		24.34 %
Epoch 2 of 5 took 18.726s
  training loss:		2.184750
  validation loss:		1.950085
  validation accuracy:		37.20 %
Epoch 3 of 5 took 19.227s
  training loss:		1.397881
  validation loss:		0.798988
  validation accuracy:		74.13 %
Epoch 4 of 5 took 18.722s
  training loss:		0.504355
  validation loss:		0.296126
  validation accuracy:		91.81 %
Epoch 5 of 5 took 19.122s
  training loss:		0.267411
  validation loss:		0.205310
  validation accuracy:		94.27 %
Final results:
  test loss:			0.208593
  test accuracy:		93.93 %
Total time 95.113s
('param : ', '5 2-2-14-14 5-5-8-4 1-1-4-3-1\n')
Loading data...
Parameters : [ 2  2 14 14]	[5 5 8 4]	[1 1 4 3 1]
Building model and compiling functions...
Nombre de parametres:	(1562,)
Starting training...
Epoch 1 of 5 took 18.559s
  training loss:		2.295696
  validation loss:		2.284762
  validation accuracy:		11.28 %
Epoch 2 of 5 took 18.539s
  training loss:		2.243090
  validation loss:		2.139441
  validation accuracy:		30.53 %
Epoch 3 of 5 took 19.438s
  training loss:		1.669670
  validation loss:		0.857869
  validation accuracy:		73.87 %
Epoch 4 of 5 took 19.407s
  training loss:		0.566886
  validation loss:		0.361505
  validation accuracy:		89.27 %
Epoch 5 of 5 took 17.862s
  training loss:		0.347156
  validation loss:		0.264080
  validation accuracy:		92.27 %
Final results:
  test loss:			0.275420
  test accuracy:		92.17 %
Total time 94.868s
('param : ', '5 2-2-14-14 5-5-8-4 1-1-4-4-1\n')
Loading data...
Parameters : [ 2  2 14 14]	[5 5 8 4]	[1 1 4 4 1]
Building model and compiling functions...
Nombre de parametres:	(2066,)
Starting training...
Epoch 1 of 5 took 18.295s
  training loss:		2.298289
  validation loss:		2.293553
  validation accuracy:		10.64 %
Epoch 2 of 5 took 19.053s
  training loss:		2.282036
  validation loss:		2.262607
  validation accuracy:		18.96 %
Epoch 3 of 5 took 19.040s
  training loss:		2.168586
  validation loss:		1.912381
  validation accuracy:		44.14 %
Epoch 4 of 5 took 19.290s
  training loss:		1.108732
  validation loss:		0.480604
  validation accuracy:		85.32 %
Epoch 5 of 5 took 19.226s
  training loss:		0.391504
  validation loss:		0.275162
  validation accuracy:		92.09 %
Final results:
  test loss:			0.289152
  test accuracy:		91.84 %
Total time 96.086s
('param : ', '5 2-2-14-14 5-5-8-4 1-1-4-5-1\n')
Loading data...
Parameters : [ 2  2 14 14]	[5 5 8 4]	[1 1 4 5 1]
Building model and compiling functions...
Nombre de parametres:	(2570,)
Starting training...
Epoch 1 of 5 took 20.404s
  training loss:		2.285480
  validation loss:		2.253265
  validation accuracy:		25.20 %
Epoch 2 of 5 took 19.860s
  training loss:		2.017507
  validation loss:		1.292194
  validation accuracy:		62.56 %
Epoch 3 of 5 took 20.250s
  training loss:		0.763475
  validation loss:		0.397102
  validation accuracy:		88.33 %
Epoch 4 of 5 took 20.351s
  training loss:		0.343705
  validation loss:		0.246715
  validation accuracy:		93.06 %
Epoch 5 of 5 took 20.541s
  training loss:		0.241962
  validation loss:		0.190954
  validation accuracy:		94.73 %
Final results:
  test loss:			0.195122
  test accuracy:		94.45 %
Total time 102.664s
('param : ', '5 2-2-14-14 5-5-8-4 1-1-4-6-1\n')
Loading data...
Parameters : [ 2  2 14 14]	[5 5 8 4]	[1 1 4 6 1]
Building model and compiling functions...
Nombre de parametres:	(3074,)
Starting training...
Epoch 1 of 5 took 20.324s
  training loss:		2.301373
  validation loss:		2.301276
  validation accuracy:		10.64 %
Epoch 2 of 5 took 20.935s
  training loss:		2.300180
  validation loss:		2.300450
  validation accuracy:		10.64 %
Epoch 3 of 5 took 20.757s
  training loss:		2.298691
  validation loss:		2.298115
  validation accuracy:		10.64 %
Epoch 4 of 5 took 20.067s
  training loss:		2.294864
  validation loss:		2.291437
  validation accuracy:		10.64 %
Epoch 5 of 5 took 19.946s
  training loss:		2.281097
  validation loss:		2.262605
  validation accuracy:		19.48 %
Final results:
  test loss:			2.262989
  test accuracy:		19.53 %
Total time 103.278s
('param : ', '5 2-2-14-14 5-5-8-4 1-1-4-7-1\n')
Loading data...
Parameters : [ 2  2 14 14]	[5 5 8 4]	[1 1 4 7 1]
Building model and compiling functions...
Nombre de parametres:	(3578,)
Starting training...
Epoch 1 of 5 took 21.239s
  training loss:		2.297645
  validation loss:		2.291043
  validation accuracy:		10.64 %
Epoch 2 of 5 took 19.915s
  training loss:		2.272164
  validation loss:		2.234173
  validation accuracy:		26.71 %
Epoch 3 of 5 took 19.759s
  training loss:		1.972746
  validation loss:		1.266362
  validation accuracy:		63.13 %
Epoch 4 of 5 took 20.501s
  training loss:		0.724380
  validation loss:		0.374286
  validation accuracy:		89.00 %
Epoch 5 of 5 took 19.992s
  training loss:		0.335983
  validation loss:		0.249083
  validation accuracy:		92.62 %
Final results:
  test loss:			0.259989
  test accuracy:		92.68 %
Total time 102.659s
('param : ', '5 2-2-14-14 5-5-8-4 1-1-4-8-1\n')
Loading data...
Parameters : [ 2  2 14 14]	[5 5 8 4]	[1 1 4 8 1]
Building model and compiling functions...
Nombre de parametres:	(4082,)
Starting training...
Epoch 1 of 5 took 21.503s
  training loss:		2.301291
  validation loss:		2.301192
  validation accuracy:		10.64 %
Epoch 2 of 5 took 21.630s
  training loss:		2.299924
  validation loss:		2.299887
  validation accuracy:		10.64 %
Epoch 3 of 5 took 21.220s
  training loss:		2.298029
  validation loss:		2.297039
  validation accuracy:		10.64 %
Epoch 4 of 5 took 20.682s
  training loss:		2.293057
  validation loss:		2.288168
  validation accuracy:		10.64 %
Epoch 5 of 5 took 20.931s
  training loss:		2.273721
  validation loss:		2.245900
  validation accuracy:		25.64 %
Final results:
  test loss:			2.246936
  test accuracy:		25.24 %
Total time 107.290s
('param : ', '5 2-2-14-14 5-5-8-4 1-1-4-9-1\n')
Loading data...
Parameters : [ 2  2 14 14]	[5 5 8 4]	[1 1 4 9 1]
Building model and compiling functions...
Nombre de parametres:	(4586,)
Starting training...
Epoch 1 of 5 took 20.362s
  training loss:		2.299650
  validation loss:		2.296448
  validation accuracy:		10.64 %
Epoch 2 of 5 took 20.565s
  training loss:		2.288921
  validation loss:		2.277067
  validation accuracy:		11.71 %
Epoch 3 of 5 took 20.717s
  training loss:		2.228814
  validation loss:		2.108330
  validation accuracy:		34.59 %
Epoch 4 of 5 took 21.766s
  training loss:		1.588274
  validation loss:		0.810749
  validation accuracy:		74.77 %
Epoch 5 of 5 took 20.920s
  training loss:		0.511974
  validation loss:		0.311992
  validation accuracy:		90.81 %
Final results:
  test loss:			0.314074
  test accuracy:		90.92 %
Total time 105.686s
('param : ', '5 2-2-14-14 5-5-8-4 1-1-4-10-1\n')
Loading data...
Parameters : [ 2  2 14 14]	[5 5 8 4]	[ 1  1  4 10  1]
Building model and compiling functions...
Nombre de parametres:	(5090,)
Starting training...
Epoch 1 of 5 took 22.636s
  training loss:		2.293178
  validation loss:		2.278528
  validation accuracy:		11.62 %
Epoch 2 of 5 took 22.551s
  training loss:		2.228108
  validation loss:		2.097045
  validation accuracy:		50.45 %
Epoch 3 of 5 took 22.280s
  training loss:		1.354498
  validation loss:		0.615659
  validation accuracy:		81.73 %
Epoch 4 of 5 took 22.290s
  training loss:		0.449886
  validation loss:		0.297208
  validation accuracy:		91.38 %
Epoch 5 of 5 took 21.573s
  training loss:		0.287263
  validation loss:		0.220420
  validation accuracy:		93.64 %
Final results:
  test loss:			0.231329
  test accuracy:		93.41 %
Total time 112.756s
('param : ', '5 2-2-14-14 5-5-8-4 1-1-5-1-1\n')
Loading data...
Parameters : [ 2  2 14 14]	[5 5 8 4]	[1 1 5 1 1]
Building model and compiling functions...
Nombre de parametres:	(676,)
Starting training...
Epoch 1 of 5 took 17.721s
  training loss:		2.301655
  validation loss:		2.301928
  validation accuracy:		10.64 %
Epoch 2 of 5 took 18.451s
  training loss:		2.301165
  validation loss:		2.301947
  validation accuracy:		10.64 %
Epoch 3 of 5 took 17.963s
  training loss:		2.301131
  validation loss:		2.302021
  validation accuracy:		10.64 %
Epoch 4 of 5 took 18.127s
  training loss:		2.301129
  validation loss:		2.302049
  validation accuracy:		10.64 %
Epoch 5 of 5 took 18.523s
  training loss:		2.301103
  validation loss:		2.302135
  validation accuracy:		10.64 %
Final results:
  test loss:			2.301056
  test accuracy:		11.35 %
Total time 91.948s
('param : ', '5 2-2-14-14 5-5-8-4 1-1-5-2-1\n')
Loading data...
Parameters : [ 2  2 14 14]	[5 5 8 4]	[1 1 5 2 1]
Building model and compiling functions...
Nombre de parametres:	(1292,)
Starting training...
Epoch 1 of 5 took 18.812s
  training loss:		2.291717
  validation loss:		2.274934
  validation accuracy:		18.49 %
Epoch 2 of 5 took 19.105s
  training loss:		2.198574
  validation loss:		1.989164
  validation accuracy:		37.66 %
Epoch 3 of 5 took 19.314s
  training loss:		1.391152
  validation loss:		0.743737
  validation accuracy:		76.60 %
Epoch 4 of 5 took 18.709s
  training loss:		0.555489
  validation loss:		0.363032
  validation accuracy:		89.38 %
Epoch 5 of 5 took 18.138s
  training loss:		0.303764
  validation loss:		0.222407
  validation accuracy:		93.47 %
Final results:
  test loss:			0.218772
  test accuracy:		93.72 %
Total time 95.179s
('param : ', '5 2-2-14-14 5-5-8-4 1-1-5-3-1\n')
Loading data...
Parameters : [ 2  2 14 14]	[5 5 8 4]	[1 1 5 3 1]
Building model and compiling functions...
Nombre de parametres:	(1908,)
Starting training...
Epoch 1 of 5 took 19.064s
  training loss:		2.290101
  validation loss:		2.268966
  validation accuracy:		15.80 %
Epoch 2 of 5 took 18.352s
  training loss:		2.171938
  validation loss:		1.903391
  validation accuracy:		40.55 %
Epoch 3 of 5 took 18.999s
  training loss:		1.309060
  validation loss:		0.694788
  validation accuracy:		79.10 %
Epoch 4 of 5 took 19.270s
  training loss:		0.478239
  validation loss:		0.283316
  validation accuracy:		91.92 %
Epoch 5 of 5 took 19.433s
  training loss:		0.261285
  validation loss:		0.198965
  validation accuracy:		94.34 %
Final results:
  test loss:			0.199831
  test accuracy:		93.97 %
Total time 96.342s
('param : ', '5 2-2-14-14 5-5-8-4 1-1-5-4-1\n')
Loading data...
Parameters : [ 2  2 14 14]	[5 5 8 4]	[1 1 5 4 1]
Building model and compiling functions...
Nombre de parametres:	(2524,)
Starting training...
Epoch 1 of 5 took 19.158s
  training loss:		2.295022
  validation loss:		2.284179
  validation accuracy:		11.97 %
Epoch 2 of 5 took 19.818s
  training loss:		2.251555
  validation loss:		2.180077
  validation accuracy:		35.24 %
Epoch 3 of 5 took 19.287s
  training loss:		1.834797
  validation loss:		1.345943
  validation accuracy:		56.77 %
Epoch 4 of 5 took 18.688s
  training loss:		0.902923
  validation loss:		0.449664
  validation accuracy:		86.36 %
Epoch 5 of 5 took 18.906s
  training loss:		0.351003
  validation loss:		0.248940
  validation accuracy:		92.76 %
Final results:
  test loss:			0.246898
  test accuracy:		92.68 %
Total time 97.037s
('param : ', '5 2-2-14-14 5-5-8-4 1-1-5-5-1\n')
Loading data...
Parameters : [ 2  2 14 14]	[5 5 8 4]	[1 1 5 5 1]
Building model and compiling functions...
Nombre de parametres:	(3140,)
Starting training...
Epoch 1 of 5 took 20.071s
  training loss:		2.282988
  validation loss:		2.246833
  validation accuracy:		26.43 %
Epoch 2 of 5 took 20.247s
  training loss:		2.005258
  validation loss:		1.454541
  validation accuracy:		52.23 %
Epoch 3 of 5 took 20.014s
  training loss:		0.887022
  validation loss:		0.431102
  validation accuracy:		87.14 %
Epoch 4 of 5 took 19.317s
  training loss:		0.361090
  validation loss:		0.255224
  validation accuracy:		92.82 %
Epoch 5 of 5 took 19.394s
  training loss:		0.248558
  validation loss:		0.191312
  validation accuracy:		94.56 %
Final results:
  test loss:			0.192451
  test accuracy:		94.43 %
Total time 100.302s
('param : ', '5 2-2-14-14 5-5-8-4 1-1-5-6-1\n')
Loading data...
Parameters : [ 2  2 14 14]	[5 5 8 4]	[1 1 5 6 1]
Building model and compiling functions...
Nombre de parametres:	(3756,)
Starting training...
Epoch 1 of 5 took 21.099s
  training loss:		2.299564
  validation loss:		2.296084
  validation accuracy:		10.64 %
Epoch 2 of 5 took 20.008s
  training loss:		2.286464
  validation loss:		2.269530
  validation accuracy:		17.01 %
Epoch 3 of 5 took 18.795s
  training loss:		2.172881
  validation loss:		1.915421
  validation accuracy:		40.48 %
Epoch 4 of 5 took 19.215s
  training loss:		1.192243
  validation loss:		0.497807
  validation accuracy:		85.16 %
Epoch 5 of 5 took 20.036s
  training loss:		0.397234
  validation loss:		0.283917
  validation accuracy:		91.70 %
Final results:
  test loss:			0.290592
  test accuracy:		91.78 %
Total time 100.440s
('param : ', '5 2-2-14-14 5-5-8-4 1-1-5-7-1\n')
Loading data...
Parameters : [ 2  2 14 14]	[5 5 8 4]	[1 1 5 7 1]
Building model and compiling functions...
Nombre de parametres:	(4372,)
Starting training...
Epoch 1 of 5 took 21.494s
  training loss:		2.296794
  validation loss:		2.288937
  validation accuracy:		10.64 %
Epoch 2 of 5 took 21.809s
  training loss:		2.264692
  validation loss:		2.210758
  validation accuracy:		35.32 %
Epoch 3 of 5 took 20.537s
  training loss:		1.867706
  validation loss:		1.103615
  validation accuracy:		65.32 %
Epoch 4 of 5 took 19.202s
  training loss:		0.634236
  validation loss:		0.353527
  validation accuracy:		90.09 %
Epoch 5 of 5 took 20.210s
  training loss:		0.317724
  validation loss:		0.254939
  validation accuracy:		92.63 %
Final results:
  test loss:			0.261582
  test accuracy:		92.58 %
Total time 104.531s
('param : ', '5 2-2-14-14 5-5-8-4 1-1-5-8-1\n')
Loading data...
Parameters : [ 2  2 14 14]	[5 5 8 4]	[1 1 5 8 1]
Building model and compiling functions...
Nombre de parametres:	(4988,)
Starting training...
Epoch 1 of 5 took 21.464s
  training loss:		2.295798
  validation loss:		2.285932
  validation accuracy:		10.64 %
Epoch 2 of 5 took 21.884s
  training loss:		2.257877
  validation loss:		2.195772
  validation accuracy:		37.45 %
Epoch 3 of 5 took 21.634s
  training loss:		1.718523
  validation loss:		0.796577
  validation accuracy:		76.05 %
Epoch 4 of 5 took 21.226s
  training loss:		0.541933
  validation loss:		0.334995
  validation accuracy:		89.94 %
Epoch 5 of 5 took 20.765s
  training loss:		0.308948
  validation loss:		0.234330
  validation accuracy:		93.11 %
Final results:
  test loss:			0.245122
  test accuracy:		92.90 %
Total time 108.339s
('param : ', '5 2-2-14-14 5-5-8-4 1-1-5-9-1\n')
Loading data...
Parameters : [ 2  2 14 14]	[5 5 8 4]	[1 1 5 9 1]
Building model and compiling functions...
Nombre de parametres:	(5604,)
Starting training...
Epoch 1 of 5 took 22.367s
  training loss:		2.297616
  validation loss:		2.291316
  validation accuracy:		10.64 %
Epoch 2 of 5 took 22.410s
  training loss:		2.274366
  validation loss:		2.241329
  validation accuracy:		32.21 %
Epoch 3 of 5 took 22.305s
  training loss:		2.044218
  validation loss:		1.522745
  validation accuracy:		51.23 %
Epoch 4 of 5 took 21.978s
  training loss:		0.888122
  validation loss:		0.420041
  validation accuracy:		87.87 %
Epoch 5 of 5 took 22.003s
  training loss:		0.357345
  validation loss:		0.260919
  validation accuracy:		92.33 %
Final results:
  test loss:			0.272262
  test accuracy:		92.28 %
Total time 112.499s
('param : ', '5 2-2-14-14 5-5-8-4 1-1-5-10-1\n')
Loading data...
Parameters : [ 2  2 14 14]	[5 5 8 4]	[ 1  1  5 10  1]
Building model and compiling functions...
Nombre de parametres:	(6220,)
Starting training...
Epoch 1 of 5 took 22.847s
  training loss:		2.298031
  validation loss:		2.292528
  validation accuracy:		10.64 %
Epoch 2 of 5 took 23.157s
  training loss:		2.276599
  validation loss:		2.246283
  validation accuracy:		26.18 %
Epoch 3 of 5 took 22.547s
  training loss:		2.097370
  validation loss:		1.819988
  validation accuracy:		38.53 %
Epoch 4 of 5 took 23.071s
  training loss:		1.204888
  validation loss:		0.604375
  validation accuracy:		81.62 %
Epoch 5 of 5 took 22.264s
  training loss:		0.445063
  validation loss:		0.281685
  validation accuracy:		91.76 %
Final results:
  test loss:			0.293228
  test accuracy:		91.67 %
Total time 115.433s
('param : ', '5 2-2-14-14 5-5-8-4 1-1-6-1-1\n')
Loading data...
Parameters : [ 2  2 14 14]	[5 5 8 4]	[1 1 6 1 1]
Building model and compiling functions...
Nombre de parametres:	(798,)
Starting training...
Epoch 1 of 5 took 18.196s
  training loss:		2.301620
  validation loss:		2.301887
  validation accuracy:		10.64 %
Epoch 2 of 5 took 18.315s
  training loss:		2.301108
  validation loss:		2.301737
  validation accuracy:		10.64 %
Epoch 3 of 5 took 18.918s
  training loss:		2.300407
  validation loss:		2.299269
  validation accuracy:		10.64 %
Epoch 4 of 5 took 18.491s
  training loss:		2.283970
  validation loss:		2.248984
  validation accuracy:		20.16 %
Epoch 5 of 5 took 17.995s
  training loss:		1.907452
  validation loss:		1.069670
  validation accuracy:		65.50 %
Final results:
  test loss:			1.104347
  test accuracy:		63.66 %
Total time 93.000s
('param : ', '5 2-2-14-14 5-5-8-4 1-1-6-2-1\n')
Loading data...
Parameters : [ 2  2 14 14]	[5 5 8 4]	[1 1 6 2 1]
Building model and compiling functions...
Nombre de parametres:	(1526,)
Starting training...
Epoch 1 of 5 took 18.160s
  training loss:		2.257136
  validation loss:		2.121803
  validation accuracy:		33.75 %
Epoch 2 of 5 took 18.774s
  training loss:		1.615303
  validation loss:		1.085211
  validation accuracy:		66.05 %
Epoch 3 of 5 took 18.836s
  training loss:		0.665548
  validation loss:		0.354213
  validation accuracy:		89.82 %
Epoch 4 of 5 took 18.669s
  training loss:		0.304288
  validation loss:		0.221260
  validation accuracy:		93.94 %
Epoch 5 of 5 took 18.604s
  training loss:		0.219872
  validation loss:		0.174619
  validation accuracy:		95.09 %
Final results:
  test loss:			0.179446
  test accuracy:		94.70 %
Total time 94.198s
('param : ', '5 2-2-14-14 5-5-8-4 1-1-6-3-1\n')
Loading data...
Parameters : [ 2  2 14 14]	[5 5 8 4]	[1 1 6 3 1]
Building model and compiling functions...
Nombre de parametres:	(2254,)
Starting training...
Epoch 1 of 5 took 19.469s
  training loss:		2.290970
  validation loss:		2.270871
  validation accuracy:		27.35 %
Epoch 2 of 5 took 18.846s
  training loss:		2.157682
  validation loss:		1.817980
  validation accuracy:		41.74 %
Epoch 3 of 5 took 18.922s
  training loss:		1.232120
  validation loss:		0.666081
  validation accuracy:		79.42 %
Epoch 4 of 5 took 18.970s
  training loss:		0.480971
  validation loss:		0.304853
  validation accuracy:		91.25 %
Epoch 5 of 5 took 19.518s
  training loss:		0.284121
  validation loss:		0.222995
  validation accuracy:		93.85 %
Final results:
  test loss:			0.225610
  test accuracy:		93.16 %
Total time 96.918s
('param : ', '5 2-2-14-14 5-5-8-4 1-1-6-4-1\n')
Loading data...
Parameters : [ 2  2 14 14]	[5 5 8 4]	[1 1 6 4 1]
Building model and compiling functions...
Nombre de parametres:	(2982,)
Starting training...
Epoch 1 of 5 took 20.574s
  training loss:		2.294920
  validation loss:		2.283967
  validation accuracy:		10.64 %
Epoch 2 of 5 took 18.951s
  training loss:		2.247247
  validation loss:		2.163770
  validation accuracy:		38.59 %
Epoch 3 of 5 took 18.665s
  training loss:		1.700367
  validation loss:		1.069959
  validation accuracy:		65.31 %
Epoch 4 of 5 took 19.763s
  training loss:		0.695661
  validation loss:		0.392235
  validation accuracy:		88.70 %
Epoch 5 of 5 took 19.120s
  training loss:		0.323233
  validation loss:		0.234216
  validation accuracy:		93.29 %
Final results:
  test loss:			0.231353
  test accuracy:		93.22 %
Total time 98.289s
('param : ', '5 2-2-14-14 5-5-8-4 1-1-6-5-1\n')
Loading data...
Parameters : [ 2  2 14 14]	[5 5 8 4]	[1 1 6 5 1]
Building model and compiling functions...
Nombre de parametres:	(3710,)
Starting training...
Epoch 1 of 5 took 19.780s
  training loss:		2.296107
  validation loss:		2.286901
  validation accuracy:		13.41 %
Epoch 2 of 5 took 19.917s
  training loss:		2.255022
  validation loss:		2.182975
  validation accuracy:		27.43 %
Epoch 3 of 5 took 18.942s
  training loss:		1.916435
  validation loss:		1.528705
  validation accuracy:		47.49 %
Epoch 4 of 5 took 19.391s
  training loss:		1.056824
  validation loss:		0.500579
  validation accuracy:		84.82 %
Epoch 5 of 5 took 19.628s
  training loss:		0.391195
  validation loss:		0.265072
  validation accuracy:		92.45 %
Final results:
  test loss:			0.278197
  test accuracy:		91.92 %
Total time 98.962s
('param : ', '5 2-2-14-14 5-5-8-4 1-1-6-6-1\n')
Loading data...
Parameters : [ 2  2 14 14]	[5 5 8 4]	[1 1 6 6 1]
Building model and compiling functions...
Nombre de parametres:	(4438,)
Starting training...
Epoch 1 of 5 took 21.173s
  training loss:		2.294586
  validation loss:		2.282927
  validation accuracy:		10.64 %
Epoch 2 of 5 took 21.391s
  training loss:		2.239401
  validation loss:		2.127078
  validation accuracy:		38.70 %
Epoch 3 of 5 took 21.039s
  training loss:		1.582018
  validation loss:		0.897597
  validation accuracy:		70.55 %
Epoch 4 of 5 took 21.091s
  training loss:		0.611169
  validation loss:		0.364582
  validation accuracy:		89.42 %
Epoch 5 of 5 took 20.233s
  training loss:		0.313020
  validation loss:		0.237542
  validation accuracy:		93.12 %
Final results:
  test loss:			0.241428
  test accuracy:		93.11 %
Total time 106.162s
('param : ', '5 2-2-14-14 5-5-8-4 1-1-6-7-1\n')
Loading data...
Parameters : [ 2  2 14 14]	[5 5 8 4]	[1 1 6 7 1]
Building model and compiling functions...
Nombre de parametres:	(5166,)
Starting training...
Epoch 1 of 5 took 19.276s
  training loss:		2.300386
  validation loss:		2.298892
  validation accuracy:		10.64 %
Epoch 2 of 5 took 20.906s
  training loss:		2.294886
  validation loss:		2.290111
  validation accuracy:		10.64 %
Epoch 3 of 5 took 21.787s
  training loss:		2.273853
  validation loss:		2.242357
  validation accuracy:		26.71 %
Epoch 4 of 5 took 21.892s
  training loss:		2.074707
  validation loss:		1.689731
  validation accuracy:		44.40 %
Epoch 5 of 5 took 21.611s
  training loss:		1.131818
  validation loss:		0.545112
  validation accuracy:		83.28 %
Final results:
  test loss:			0.550994
  test accuracy:		83.32 %
Total time 106.859s
('param : ', '5 2-2-14-14 5-5-8-4 1-1-6-8-1\n')
Loading data...
Parameters : [ 2  2 14 14]	[5 5 8 4]	[1 1 6 8 1]
Building model and compiling functions...
Nombre de parametres:	(5894,)
Starting training...
Epoch 1 of 5 took 21.968s
  training loss:		2.298016
  validation loss:		2.292383
  validation accuracy:		10.64 %
Epoch 2 of 5 took 21.852s
  training loss:		2.277239
  validation loss:		2.247534
  validation accuracy:		24.94 %
Epoch 3 of 5 took 21.764s
  training loss:		2.091956
  validation loss:		1.728641
  validation accuracy:		40.58 %
Epoch 4 of 5 took 20.767s
  training loss:		1.196098
  validation loss:		0.595915
  validation accuracy:		81.87 %
Epoch 5 of 5 took 20.641s
  training loss:		0.426280
  validation loss:		0.272356
  validation accuracy:		92.22 %
Final results:
  test loss:			0.279538
  test accuracy:		91.75 %
Total time 108.288s
('param : ', '5 2-2-14-14 5-5-8-4 1-1-6-9-1\n')
Loading data...
Parameters : [ 2  2 14 14]	[5 5 8 4]	[1 1 6 9 1]
Building model and compiling functions...
Nombre de parametres:	(6622,)
Starting training...
Epoch 1 of 5 took 21.913s
  training loss:		2.297993
  validation loss:		2.292514
  validation accuracy:		10.64 %
Epoch 2 of 5 took 22.328s
  training loss:		2.277468
  validation loss:		2.249186
  validation accuracy:		25.29 %
Epoch 3 of 5 took 22.570s
  training loss:		2.093127
  validation loss:		1.717425
  validation accuracy:		40.52 %
Epoch 4 of 5 took 22.477s
  training loss:		1.165274
  validation loss:		0.540336
  validation accuracy:		83.59 %
Epoch 5 of 5 took 21.322s
  training loss:		0.393901
  validation loss:		0.267720
  validation accuracy:		92.55 %
Final results:
  test loss:			0.278174
  test accuracy:		91.85 %
Total time 111.998s
('param : ', '5 2-2-14-14 5-5-8-4 1-1-6-10-1\n')
Loading data...
Parameters : [ 2  2 14 14]	[5 5 8 4]	[ 1  1  6 10  1]
Building model and compiling functions...
Nombre de parametres:	(7350,)
Starting training...
Epoch 1 of 5 took 23.212s
  training loss:		2.301503
  validation loss:		2.301640
  validation accuracy:		10.64 %
Epoch 2 of 5 took 22.950s
  training loss:		2.300742
  validation loss:		2.301293
  validation accuracy:		10.64 %
Epoch 3 of 5 took 23.354s
  training loss:		2.300150
  validation loss:		2.300502
  validation accuracy:		10.64 %
Epoch 4 of 5 took 22.814s
  training loss:		2.298969
  validation loss:		2.298673
  validation accuracy:		10.64 %
Epoch 5 of 5 took 22.448s
  training loss:		2.295755
  validation loss:		2.293223
  validation accuracy:		10.64 %
Final results:
  test loss:			2.292303
  test accuracy:		11.35 %
Total time 116.292s
('param : ', '5 2-2-14-14 5-5-8-4 1-1-7-1-1\n')
Loading data...
Parameters : [ 2  2 14 14]	[5 5 8 4]	[1 1 7 1 1]
Building model and compiling functions...
Nombre de parametres:	(920,)
Starting training...
Epoch 1 of 5 took 18.184s
  training loss:		2.301617
  validation loss:		2.301864
  validation accuracy:		10.64 %
Epoch 2 of 5 took 18.309s
  training loss:		2.301112
  validation loss:		2.301931
  validation accuracy:		10.64 %
Epoch 3 of 5 took 18.827s
  training loss:		2.301067
  validation loss:		2.301950
  validation accuracy:		10.64 %
Epoch 4 of 5 took 17.990s
  training loss:		2.300944
  validation loss:		2.301461
  validation accuracy:		10.64 %
Epoch 5 of 5 took 18.273s
  training loss:		2.299746
  validation loss:		2.298411
  validation accuracy:		10.64 %
Final results:
  test loss:			2.297463
  test accuracy:		11.35 %
Total time 92.656s
('param : ', '5 2-2-14-14 5-5-8-4 1-1-7-2-1\n')
Loading data...
Parameters : [ 2  2 14 14]	[5 5 8 4]	[1 1 7 2 1]
Building model and compiling functions...
Nombre de parametres:	(1760,)
Starting training...
Epoch 1 of 5 took 17.214s
  training loss:		2.270377
  validation loss:		2.194570
  validation accuracy:		33.56 %
Epoch 2 of 5 took 17.343s
  training loss:		1.708712
  validation loss:		1.027404
  validation accuracy:		67.10 %
Epoch 3 of 5 took 18.034s
  training loss:		0.638571
  validation loss:		0.351956
  validation accuracy:		89.89 %
Epoch 4 of 5 took 18.710s
  training loss:		0.309727
  validation loss:		0.226667
  validation accuracy:		93.56 %
Epoch 5 of 5 took 18.706s
  training loss:		0.219511
  validation loss:		0.174652
  validation accuracy:		95.06 %
Final results:
  test loss:			0.181700
  test accuracy:		94.53 %
Total time 91.139s
('param : ', '5 2-2-14-14 5-5-8-4 1-1-7-3-1\n')
Loading data...
Parameters : [ 2  2 14 14]	[5 5 8 4]	[1 1 7 3 1]
Building model and compiling functions...
Nombre de parametres:	(2600,)
Starting training...
Epoch 1 of 5 took 18.697s
  training loss:		2.292005
  validation loss:		2.275474
  validation accuracy:		22.21 %
Epoch 2 of 5 took 17.329s
  training loss:		2.207364
  validation loss:		2.039750
  validation accuracy:		31.87 %
Epoch 3 of 5 took 17.092s
  training loss:		1.547798
  validation loss:		0.910437
  validation accuracy:		72.26 %
Epoch 4 of 5 took 17.383s
  training loss:		0.553865
  validation loss:		0.330008
  validation accuracy:		90.54 %
Epoch 5 of 5 took 19.617s
  training loss:		0.299008
  validation loss:		0.228421
  validation accuracy:		93.48 %
Final results:
  test loss:			0.230725
  test accuracy:		93.44 %
Total time 91.381s
('param : ', '5 2-2-14-14 5-5-8-4 1-1-7-4-1\n')
Loading data...
Parameters : [ 2  2 14 14]	[5 5 8 4]	[1 1 7 4 1]
Building model and compiling functions...
Nombre de parametres:	(3440,)
Starting training...
Epoch 1 of 5 took 20.699s
  training loss:		2.271258
  validation loss:		2.200138
  validation accuracy:		31.92 %
Epoch 2 of 5 took 20.607s
  training loss:		1.853441
  validation loss:		1.227306
  validation accuracy:		61.20 %
Epoch 3 of 5 took 19.990s
  training loss:		0.735450
  validation loss:		0.382396
  validation accuracy:		88.23 %
Epoch 4 of 5 took 19.554s
  training loss:		0.315363
  validation loss:		0.234424
  validation accuracy:		93.19 %
Epoch 5 of 5 took 17.923s
  training loss:		0.226217
  validation loss:		0.185144
  validation accuracy:		94.80 %
Final results:
  test loss:			0.185747
  test accuracy:		94.41 %
Total time 99.930s
('param : ', '5 2-2-14-14 5-5-8-4 1-1-7-5-1\n')
Loading data...
Parameters : [ 2  2 14 14]	[5 5 8 4]	[1 1 7 5 1]
Building model and compiling functions...
Nombre de parametres:	(4280,)
Starting training...
Epoch 1 of 5 took 21.222s
  training loss:		2.297147
  validation loss:		2.290237
  validation accuracy:		10.64 %
Epoch 2 of 5 took 20.770s
  training loss:		2.270389
  validation loss:		2.228269
  validation accuracy:		32.84 %
Epoch 3 of 5 took 20.492s
  training loss:		2.026234
  validation loss:		1.679257
  validation accuracy:		45.62 %
Epoch 4 of 5 took 18.831s
  training loss:		1.149116
  validation loss:		0.591165
  validation accuracy:		81.16 %
Epoch 5 of 5 took 18.851s
  training loss:		0.437841
  validation loss:		0.282598
  validation accuracy:		91.81 %
Final results:
  test loss:			0.290032
  test accuracy:		91.91 %
Total time 101.413s
('param : ', '5 2-2-14-14 5-5-8-4 1-1-7-6-1\n')
Loading data...
Parameters : [ 2  2 14 14]	[5 5 8 4]	[1 1 7 6 1]
Building model and compiling functions...
Nombre de parametres:	(5120,)
Starting training...
Epoch 1 of 5 took 19.398s
  training loss:		2.295060
  validation loss:		2.283381
  validation accuracy:		10.64 %
Epoch 2 of 5 took 19.346s
  training loss:		2.237292
  validation loss:		2.119048
  validation accuracy:		33.21 %
Epoch 3 of 5 took 20.475s
  training loss:		1.642747
  validation loss:		0.896081
  validation accuracy:		71.36 %
Epoch 4 of 5 took 21.239s
  training loss:		0.596802
  validation loss:		0.345335
  validation accuracy:		90.20 %
Epoch 5 of 5 took 20.578s
  training loss:		0.312837
  validation loss:		0.235474
  validation accuracy:		93.23 %
Final results:
  test loss:			0.245564
  test accuracy:		93.02 %
Total time 102.386s
('param : ', '5 2-2-14-14 5-5-8-4 1-1-7-7-1\n')
Loading data...
Parameters : [ 2  2 14 14]	[5 5 8 4]	[1 1 7 7 1]
Building model and compiling functions...
Nombre de parametres:	(5960,)
Starting training...
Epoch 1 of 5 took 22.719s
  training loss:		2.287612
  validation loss:		2.260680
  validation accuracy:		18.28 %
Epoch 2 of 5 took 21.949s
  training loss:		2.137760
  validation loss:		1.820497
  validation accuracy:		39.38 %
Epoch 3 of 5 took 21.941s
  training loss:		1.264253
  validation loss:		0.698046
  validation accuracy:		78.44 %
Epoch 4 of 5 took 21.351s
  training loss:		0.516465
  validation loss:		0.327731
  validation accuracy:		90.09 %
Epoch 5 of 5 took 21.539s
  training loss:		0.291947
  validation loss:		0.225345
  validation accuracy:		93.36 %
Final results:
  test loss:			0.225257
  test accuracy:		93.36 %
Total time 110.839s
('param : ', '5 2-2-14-14 5-5-8-4 1-1-7-8-1\n')
Loading data...
Parameters : [ 2  2 14 14]	[5 5 8 4]	[1 1 7 8 1]
Building model and compiling functions...
Nombre de parametres:	(6800,)
Starting training...
Epoch 1 of 5 took 22.518s
  training loss:		2.297867
  validation loss:		2.291843
  validation accuracy:		10.64 %
Epoch 2 of 5 took 22.187s
  training loss:		2.277251
  validation loss:		2.249776
  validation accuracy:		23.70 %
Epoch 3 of 5 took 22.310s
  training loss:		2.134363
  validation loss:		1.858186
  validation accuracy:		35.77 %
Epoch 4 of 5 took 22.155s
  training loss:		1.368221
  validation loss:		0.756014
  validation accuracy:		76.93 %
Epoch 5 of 5 took 21.827s
  training loss:		0.522207
  validation loss:		0.316266
  validation accuracy:		90.82 %
Final results:
  test loss:			0.339298
  test accuracy:		90.49 %
Total time 112.338s
('param : ', '5 2-2-14-14 5-5-8-4 1-1-7-9-1\n')
Loading data...
Parameters : [ 2  2 14 14]	[5 5 8 4]	[1 1 7 9 1]
Building model and compiling functions...
Nombre de parametres:	(7640,)
Starting training...
Epoch 1 of 5 took 23.458s
  training loss:		2.301492
  validation loss:		2.301585
  validation accuracy:		10.64 %
Epoch 2 of 5 took 22.425s
  training loss:		2.300588
  validation loss:		2.301090
  validation accuracy:		10.64 %
Epoch 3 of 5 took 22.479s
  training loss:		2.299705
  validation loss:		2.299898
  validation accuracy:		10.64 %
Epoch 4 of 5 took 23.080s
  training loss:		2.297563
  validation loss:		2.296112
  validation accuracy:		10.64 %
Epoch 5 of 5 took 22.872s
  training loss:		2.290256
  validation loss:		2.281010
  validation accuracy:		15.56 %
Final results:
  test loss:			2.280693
  test accuracy:		16.50 %
Total time 115.712s
('param : ', '5 2-2-14-14 5-5-8-4 1-1-7-10-1\n')
Loading data...
Parameters : [ 2  2 14 14]	[5 5 8 4]	[ 1  1  7 10  1]
Building model and compiling functions...
Nombre de parametres:	(8480,)
Starting training...
Epoch 1 of 5 took 23.469s
  training loss:		2.299048
  validation loss:		2.295079
  validation accuracy:		10.64 %
Epoch 2 of 5 took 23.523s
  training loss:		2.285030
  validation loss:		2.267937
  validation accuracy:		17.83 %
Epoch 3 of 5 took 21.198s
  training loss:		2.188316
  validation loss:		1.978214
  validation accuracy:		37.33 %
Epoch 4 of 5 took 22.656s
  training loss:		1.460193
  validation loss:		0.884427
  validation accuracy:		72.70 %
Epoch 5 of 5 took 22.953s
  training loss:		0.559534
  validation loss:		0.324790
  validation accuracy:		90.60 %
Final results:
  test loss:			0.337465
  test accuracy:		90.11 %
Total time 115.288s
('param : ', '5 2-2-14-14 5-5-8-4 1-1-8-1-1\n')
Loading data...
Parameters : [ 2  2 14 14]	[5 5 8 4]	[1 1 8 1 1]
Building model and compiling functions...
Nombre de parametres:	(1042,)
Starting training...
Epoch 1 of 5 took 17.284s
  training loss:		2.301532
  validation loss:		2.301880
  validation accuracy:		10.64 %
Epoch 2 of 5 took 17.590s
  training loss:		2.301087
  validation loss:		2.301781
  validation accuracy:		10.64 %
Epoch 3 of 5 took 17.769s
  training loss:		2.300522
  validation loss:		2.299776
  validation accuracy:		10.64 %
Epoch 4 of 5 took 18.398s
  training loss:		2.288161
  validation loss:		2.262365
  validation accuracy:		22.94 %
Epoch 5 of 5 took 18.517s
  training loss:		1.983203
  validation loss:		1.114841
  validation accuracy:		70.41 %
Final results:
  test loss:			1.112056
  test accuracy:		70.24 %
Total time 90.616s
('param : ', '5 2-2-14-14 5-5-8-4 1-1-8-2-1\n')
Loading data...
Parameters : [ 2  2 14 14]	[5 5 8 4]	[1 1 8 2 1]
Building model and compiling functions...
Nombre de parametres:	(1994,)
Starting training...
Epoch 1 of 5 took 18.948s
  training loss:		2.296724
  validation loss:		2.288935
  validation accuracy:		10.64 %
Epoch 2 of 5 took 19.591s
  training loss:		2.262450
  validation loss:		2.204395
  validation accuracy:		34.37 %
Epoch 3 of 5 took 18.755s
  training loss:		1.836248
  validation loss:		1.240311
  validation accuracy:		61.15 %
Epoch 4 of 5 took 19.508s
  training loss:		0.751450
  validation loss:		0.360437
  validation accuracy:		89.36 %
Epoch 5 of 5 took 19.368s
  training loss:		0.306842
  validation loss:		0.225015
  validation accuracy:		93.52 %
Final results:
  test loss:			0.234005
  test accuracy:		93.30 %
Total time 97.314s
('param : ', '5 2-2-14-14 5-5-8-4 1-1-8-3-1\n')
Loading data...
Parameters : [ 2  2 14 14]	[5 5 8 4]	[1 1 8 3 1]
Building model and compiling functions...
Nombre de parametres:	(2946,)
Starting training...
Epoch 1 of 5 took 19.872s
  training loss:		2.268365
  validation loss:		2.180775
  validation accuracy:		34.69 %
Epoch 2 of 5 took 20.397s
  training loss:		1.527220
  validation loss:		0.737420
  validation accuracy:		77.67 %
Epoch 3 of 5 took 19.689s
  training loss:		0.454434
  validation loss:		0.277154
  validation accuracy:		91.96 %
Epoch 4 of 5 took 19.814s
  training loss:		0.257698
  validation loss:		0.205690
  validation accuracy:		93.96 %
Epoch 5 of 5 took 20.766s
  training loss:		0.198323
  validation loss:		0.174494
  validation accuracy:		94.85 %
Final results:
  test loss:			0.171068
  test accuracy:		95.19 %
Total time 101.768s
('param : ', '5 2-2-14-14 5-5-8-4 1-1-8-4-1\n')
Loading data...
Parameters : [ 2  2 14 14]	[5 5 8 4]	[1 1 8 4 1]
Building model and compiling functions...
Nombre de parametres:	(3898,)
Starting training...
Epoch 1 of 5 took 19.972s
  training loss:		2.281658
  validation loss:		2.239473
  validation accuracy:		29.77 %
Epoch 2 of 5 took 20.577s
  training loss:		1.955751
  validation loss:		1.366011
  validation accuracy:		56.08 %
Epoch 3 of 5 took 20.161s
  training loss:		0.876770
  validation loss:		0.430485
  validation accuracy:		87.71 %
Epoch 4 of 5 took 20.033s
  training loss:		0.343308
  validation loss:		0.245709
  validation accuracy:		92.89 %
Epoch 5 of 5 took 20.682s
  training loss:		0.233523
  validation loss:		0.187181
  validation accuracy:		94.59 %
Final results:
  test loss:			0.187675
  test accuracy:		94.63 %
Total time 102.741s
('param : ', '5 2-2-14-14 5-5-8-4 1-1-8-5-1\n')
Loading data...
Parameters : [ 2  2 14 14]	[5 5 8 4]	[1 1 8 5 1]
Building model and compiling functions...
Nombre de parametres:	(4850,)
Starting training...
Epoch 1 of 5 took 20.391s
  training loss:		2.296554
  validation loss:		2.288276
  validation accuracy:		10.64 %
Epoch 2 of 5 took 21.236s
  training loss:		2.260073
  validation loss:		2.197288
  validation accuracy:		32.12 %
Epoch 3 of 5 took 20.081s
  training loss:		1.831840
  validation loss:		1.268049
  validation accuracy:		59.20 %
Epoch 4 of 5 took 20.770s
  training loss:		0.849486
  validation loss:		0.450001
  validation accuracy:		86.90 %
Epoch 5 of 5 took 20.789s
  training loss:		0.355156
  validation loss:		0.249192
  validation accuracy:		92.78 %
Final results:
  test loss:			0.258421
  test accuracy:		92.56 %
Total time 104.550s
('param : ', '5 2-2-14-14 5-5-8-4 1-1-8-6-1\n')
Loading data...
Parameters : [ 2  2 14 14]	[5 5 8 4]	[1 1 8 6 1]
Building model and compiling functions...
Nombre de parametres:	(5802,)
Starting training...
Epoch 1 of 5 took 20.909s
  training loss:		2.298077
  validation loss:		2.292938
  validation accuracy:		10.64 %
Epoch 2 of 5 took 21.574s
  training loss:		2.278750
  validation loss:		2.252489
  validation accuracy:		18.33 %
Epoch 3 of 5 took 20.663s
  training loss:		2.119430
  validation loss:		1.797549
  validation accuracy:		40.95 %
Epoch 4 of 5 took 20.376s
  training loss:		1.302473
  validation loss:		0.741041
  validation accuracy:		76.86 %
Epoch 5 of 5 took 21.758s
  training loss:		0.491078
  validation loss:		0.301371
  validation accuracy:		91.46 %
Final results:
  test loss:			0.313719
  test accuracy:		90.84 %
Total time 106.675s
('param : ', '5 2-2-14-14 5-5-8-4 1-1-8-7-1\n')
Loading data...
Parameters : [ 2  2 14 14]	[5 5 8 4]	[1 1 8 7 1]
Building model and compiling functions...
Nombre de parametres:	(6754,)
Starting training...
Epoch 1 of 5 took 21.891s
  training loss:		2.298023
  validation loss:		2.292741
  validation accuracy:		10.64 %
Epoch 2 of 5 took 21.987s
  training loss:		2.280067
  validation loss:		2.257959
  validation accuracy:		22.67 %
Epoch 3 of 5 took 22.690s
  training loss:		2.171604
  validation loss:		1.970306
  validation accuracy:		37.16 %
Epoch 4 of 5 took 22.703s
  training loss:		1.518978
  validation loss:		0.904441
  validation accuracy:		71.24 %
Epoch 5 of 5 took 22.504s
  training loss:		0.562574
  validation loss:		0.320980
  validation accuracy:		90.57 %
Final results:
  test loss:			0.327069
  test accuracy:		90.32 %
Total time 113.226s
('param : ', '5 2-2-14-14 5-5-8-4 1-1-8-8-1\n')
Loading data...
Parameters : [ 2  2 14 14]	[5 5 8 4]	[1 1 8 8 1]
Building model and compiling functions...
Nombre de parametres:	(7706,)
Starting training...
Epoch 1 of 5 took 22.268s
  training loss:		2.285220
  validation loss:		2.250862
  validation accuracy:		33.27 %
Epoch 2 of 5 took 21.615s
  training loss:		2.023024
  validation loss:		1.401013
  validation accuracy:		56.68 %
Epoch 3 of 5 took 22.010s
  training loss:		0.862358
  validation loss:		0.422063
  validation accuracy:		87.62 %
Epoch 4 of 5 took 20.603s
  training loss:		0.341858
  validation loss:		0.248879
  validation accuracy:		92.85 %
Epoch 5 of 5 took 20.131s
  training loss:		0.232381
  validation loss:		0.189263
  validation accuracy:		94.56 %
Final results:
  test loss:			0.181326
  test accuracy:		94.79 %
Total time 107.895s
('param : ', '5 2-2-14-14 5-5-8-4 1-1-8-9-1\n')
Loading data...
Parameters : [ 2  2 14 14]	[5 5 8 4]	[1 1 8 9 1]
Building model and compiling functions...
Nombre de parametres:	(8658,)
Starting training...
Epoch 1 of 5 took 20.514s
  training loss:		2.294115
  validation loss:		2.280775
  validation accuracy:		12.63 %
Epoch 2 of 5 took 21.141s
  training loss:		2.225986
  validation loss:		2.082773
  validation accuracy:		35.08 %
Epoch 3 of 5 took 21.168s
  training loss:		1.575032
  validation loss:		0.899404
  validation accuracy:		71.21 %
Epoch 4 of 5 took 21.736s
  training loss:		0.558039
  validation loss:		0.310822
  validation accuracy:		91.05 %
Epoch 5 of 5 took 23.113s
  training loss:		0.275835
  validation loss:		0.211707
  validation accuracy:		93.88 %
Final results:
  test loss:			0.213250
  test accuracy:		93.92 %
Total time 109.231s
('param : ', '5 2-2-14-14 5-5-8-4 1-1-8-10-1\n')
Loading data...
Parameters : [ 2  2 14 14]	[5 5 8 4]	[ 1  1  8 10  1]
Building model and compiling functions...
Nombre de parametres:	(9610,)
Starting training...
Epoch 1 of 5 took 24.046s
  training loss:		2.298297
  validation loss:		2.292917
  validation accuracy:		10.64 %
Epoch 2 of 5 took 24.097s
  training loss:		2.278608
  validation loss:		2.251882
  validation accuracy:		24.33 %
Epoch 3 of 5 took 24.237s
  training loss:		2.116413
  validation loss:		1.752028
  validation accuracy:		43.30 %
Epoch 4 of 5 took 22.728s
  training loss:		1.192515
  validation loss:		0.624080
  validation accuracy:		80.84 %
Epoch 5 of 5 took 23.019s
  training loss:		0.434830
  validation loss:		0.279328
  validation accuracy:		92.18 %
Final results:
  test loss:			0.290760
  test accuracy:		91.69 %
Total time 119.642s
('param : ', '5 2-2-14-14 5-5-8-4 1-1-9-1-1\n')
Loading data...
Parameters : [ 2  2 14 14]	[5 5 8 4]	[1 1 9 1 1]
Building model and compiling functions...
Nombre de parametres:	(1164,)
Starting training...
Epoch 1 of 5 took 19.388s
  training loss:		2.301599
  validation loss:		2.301930
  validation accuracy:		10.64 %
Epoch 2 of 5 took 19.605s
  training loss:		2.300987
  validation loss:		2.301460
  validation accuracy:		10.64 %
Epoch 3 of 5 took 19.302s
  training loss:		2.295605
  validation loss:		2.282032
  validation accuracy:		10.78 %
Epoch 4 of 5 took 19.209s
  training loss:		2.154289
  validation loss:		1.755222
  validation accuracy:		42.21 %
Epoch 5 of 5 took 18.751s
  training loss:		1.103105
  validation loss:		0.532659
  validation accuracy:		84.76 %
Final results:
  test loss:			0.566523
  test accuracy:		83.68 %
Total time 97.428s
('param : ', '5 2-2-14-14 5-5-8-4 1-1-9-2-1\n')
Loading data...
Parameters : [ 2  2 14 14]	[5 5 8 4]	[1 1 9 2 1]
Building model and compiling functions...
Nombre de parametres:	(2228,)
Starting training...
Epoch 1 of 5 took 19.568s
  training loss:		2.289461
  validation loss:		2.265804
  validation accuracy:		26.79 %
Epoch 2 of 5 took 20.394s
  training loss:		2.078457
  validation loss:		1.503507
  validation accuracy:		52.96 %
Epoch 3 of 5 took 20.476s
  training loss:		0.857011
  validation loss:		0.361809
  validation accuracy:		89.66 %
Epoch 4 of 5 took 20.704s
  training loss:		0.308664
  validation loss:		0.227865
  validation accuracy:		93.57 %
Epoch 5 of 5 took 19.827s
  training loss:		0.216616
  validation loss:		0.176591
  validation accuracy:		94.90 %
Final results:
  test loss:			0.177080
  test accuracy:		94.59 %
Total time 102.155s
('param : ', '5 2-2-14-14 5-5-8-4 1-1-9-3-1\n')
Loading data...
Parameters : [ 2  2 14 14]	[5 5 8 4]	[1 1 9 3 1]
Building model and compiling functions...
Nombre de parametres:	(3292,)
Starting training...
Epoch 1 of 5 took 19.558s
  training loss:		2.267451
  validation loss:		2.171972
  validation accuracy:		41.51 %
Epoch 2 of 5 took 18.492s
  training loss:		1.526276
  validation loss:		0.763656
  validation accuracy:		76.04 %
Epoch 3 of 5 took 19.443s
  training loss:		0.478374
  validation loss:		0.281414
  validation accuracy:		92.06 %
Epoch 4 of 5 took 20.450s
  training loss:		0.261763
  validation loss:		0.204808
  validation accuracy:		94.01 %
Epoch 5 of 5 took 20.814s
  training loss:		0.197979
  validation loss:		0.165617
  validation accuracy:		95.27 %
Final results:
  test loss:			0.167472
  test accuracy:		95.38 %
Total time 100.029s
('param : ', '5 2-2-14-14 5-5-8-4 1-1-9-4-1\n')
Loading data...
Parameters : [ 2  2 14 14]	[5 5 8 4]	[1 1 9 4 1]
Building model and compiling functions...
Nombre de parametres:	(4356,)
Starting training...
Epoch 1 of 5 took 20.623s
  training loss:		2.283386
  validation loss:		2.242257
  validation accuracy:		33.40 %
Epoch 2 of 5 took 21.123s
  training loss:		1.836523
  validation loss:		1.082380
  validation accuracy:		65.71 %
Epoch 3 of 5 took 20.887s
  training loss:		0.696394
  validation loss:		0.395001
  validation accuracy:		88.34 %
Epoch 4 of 5 took 20.732s
  training loss:		0.328511
  validation loss:		0.231852
  validation accuracy:		93.57 %
Epoch 5 of 5 took 20.879s
  training loss:		0.222182
  validation loss:		0.180335
  validation accuracy:		94.88 %
Final results:
  test loss:			0.183765
  test accuracy:		94.70 %
Total time 105.571s
('param : ', '5 2-2-14-14 5-5-8-4 1-1-9-5-1\n')
Loading data...
Parameters : [ 2  2 14 14]	[5 5 8 4]	[1 1 9 5 1]
Building model and compiling functions...
Nombre de parametres:	(5420,)
Starting training...
Epoch 1 of 5 took 20.493s
  training loss:		2.288640
  validation loss:		2.263187
  validation accuracy:		23.91 %
Epoch 2 of 5 took 19.522s
  training loss:		2.081637
  validation loss:		1.571859
  validation accuracy:		45.47 %
Epoch 3 of 5 took 19.739s
  training loss:		1.095488
  validation loss:		0.548740
  validation accuracy:		83.31 %
Epoch 4 of 5 took 19.071s
  training loss:		0.394979
  validation loss:		0.266750
  validation accuracy:		92.56 %
Epoch 5 of 5 took 20.682s
  training loss:		0.250904
  validation loss:		0.198711
  validation accuracy:		94.29 %
Final results:
  test loss:			0.203955
  test accuracy:		93.93 %
Total time 100.858s
('param : ', '5 2-2-14-14 5-5-8-4 1-1-9-6-1\n')
Loading data...
Parameters : [ 2  2 14 14]	[5 5 8 4]	[1 1 9 6 1]
Building model and compiling functions...
Nombre de parametres:	(6484,)
Starting training...
Epoch 1 of 5 took 21.725s
  training loss:		2.294850
  validation loss:		2.283168
  validation accuracy:		13.33 %
Epoch 2 of 5 took 21.294s
  training loss:		2.236497
  validation loss:		2.111363
  validation accuracy:		39.48 %
Epoch 3 of 5 took 20.612s
  training loss:		1.623783
  validation loss:		0.931740
  validation accuracy:		70.66 %
Epoch 4 of 5 took 21.313s
  training loss:		0.586916
  validation loss:		0.329217
  validation accuracy:		90.60 %
Epoch 5 of 5 took 21.488s
  training loss:		0.287264
  validation loss:		0.222355
  validation accuracy:		93.45 %
Final results:
  test loss:			0.221061
  test accuracy:		93.71 %
Total time 107.745s
('param : ', '5 2-2-14-14 5-5-8-4 1-1-9-7-1\n')
Loading data...
Parameters : [ 2  2 14 14]	[5 5 8 4]	[1 1 9 7 1]
Building model and compiling functions...
Nombre de parametres:	(7548,)
Starting training...
Epoch 1 of 5 took 21.746s
  training loss:		2.290045
  validation loss:		2.268742
  validation accuracy:		23.15 %
Epoch 2 of 5 took 22.001s
  training loss:		2.171015
  validation loss:		1.909001
  validation accuracy:		37.82 %
Epoch 3 of 5 took 21.270s
  training loss:		1.391371
  validation loss:		0.814299
  validation accuracy:		74.62 %
Epoch 4 of 5 took 22.707s
  training loss:		0.526999
  validation loss:		0.312267
  validation accuracy:		90.81 %
Epoch 5 of 5 took 22.940s
  training loss:		0.286282
  validation loss:		0.215401
  validation accuracy:		93.88 %
Final results:
  test loss:			0.221804
  test accuracy:		93.48 %
Total time 112.118s
('param : ', '5 2-2-14-14 5-5-8-4 1-1-9-8-1\n')
Loading data...
Parameters : [ 2  2 14 14]	[5 5 8 4]	[1 1 9 8 1]
Building model and compiling functions...
Nombre de parametres:	(8612,)
Starting training...
Epoch 1 of 5 took 23.194s
  training loss:		2.297139
  validation loss:		2.289771
  validation accuracy:		10.64 %
Epoch 2 of 5 took 23.092s
  training loss:		2.268433
  validation loss:		2.224853
  validation accuracy:		34.29 %
Epoch 3 of 5 took 22.538s
  training loss:		1.970925
  validation loss:		1.430526
  validation accuracy:		55.35 %
Epoch 4 of 5 took 22.580s
  training loss:		0.858996
  validation loss:		0.425945
  validation accuracy:		87.54 %
Epoch 5 of 5 took 22.986s
  training loss:		0.343144
  validation loss:		0.256998
  validation accuracy:		92.59 %
Final results:
  test loss:			0.262991
  test accuracy:		92.48 %
Total time 115.931s
('param : ', '5 2-2-14-14 5-5-8-4 1-1-9-9-1\n')
Loading data...
Parameters : [ 2  2 14 14]	[5 5 8 4]	[1 1 9 9 1]
Building model and compiling functions...
Nombre de parametres:	(9676,)
Starting training...
Epoch 1 of 5 took 24.468s
  training loss:		2.293830
  validation loss:		2.280170
  validation accuracy:		10.89 %
Epoch 2 of 5 took 22.908s
  training loss:		2.221788
  validation loss:		2.064528
  validation accuracy:		39.95 %
Epoch 3 of 5 took 22.757s
  training loss:		1.464608
  validation loss:		0.828575
  validation accuracy:		73.25 %
Epoch 4 of 5 took 23.863s
  training loss:		0.556690
  validation loss:		0.333366
  validation accuracy:		90.09 %
Epoch 5 of 5 took 23.325s
  training loss:		0.300899
  validation loss:		0.234118
  validation accuracy:		93.41 %
Final results:
  test loss:			0.238325
  test accuracy:		93.11 %
Total time 118.850s
('param : ', '5 2-2-14-14 5-5-8-4 1-1-9-10-1\n')
Loading data...
Parameters : [ 2  2 14 14]	[5 5 8 4]	[ 1  1  9 10  1]
Building model and compiling functions...
Nombre de parametres:	(10740,)
Starting training...
Epoch 1 of 5 took 25.070s
  training loss:		2.295120
  validation loss:		2.284049
  validation accuracy:		10.64 %
Epoch 2 of 5 took 23.606s
  training loss:		2.247725
  validation loss:		2.162117
  validation accuracy:		33.18 %
Epoch 3 of 5 took 23.963s
  training loss:		1.799283
  validation loss:		1.138059
  validation accuracy:		64.12 %
Epoch 4 of 5 took 24.780s
  training loss:		0.707893
  validation loss:		0.367060
  validation accuracy:		89.11 %
Epoch 5 of 5 took 23.149s
  training loss:		0.320594
  validation loss:		0.240860
  validation accuracy:		92.96 %
Final results:
  test loss:			0.242904
  test accuracy:		92.80 %
Total time 122.076s
('param : ', '5 2-2-14-14 5-5-8-4 1-1-10-1-1\n')
Loading data...
Parameters : [ 2  2 14 14]	[5 5 8 4]	[ 1  1 10  1  1]
Building model and compiling functions...
Nombre de parametres:	(1286,)
Starting training...
Epoch 1 of 5 took 18.912s
  training loss:		2.301571
  validation loss:		2.301885
  validation accuracy:		10.64 %
Epoch 2 of 5 took 18.214s
  training loss:		2.301146
  validation loss:		2.302006
  validation accuracy:		10.64 %
Epoch 3 of 5 took 18.571s
  training loss:		2.301124
  validation loss:		2.302079
  validation accuracy:		10.64 %
Epoch 4 of 5 took 19.258s
  training loss:		2.301110
  validation loss:		2.301938
  validation accuracy:		10.64 %
Epoch 5 of 5 took 18.794s
  training loss:		2.301138
  validation loss:		2.301914
  validation accuracy:		10.64 %
Final results:
  test loss:			2.300962
  test accuracy:		11.35 %
Total time 94.937s
('param : ', '5 2-2-14-14 5-5-8-4 1-1-10-2-1\n')
Loading data...
Parameters : [ 2  2 14 14]	[5 5 8 4]	[ 1  1 10  2  1]
Building model and compiling functions...
Nombre de parametres:	(2462,)
Starting training...
Epoch 1 of 5 took 19.573s
  training loss:		2.300937
  validation loss:		2.300057
  validation accuracy:		10.64 %
Epoch 2 of 5 took 19.815s
  training loss:		2.295662
  validation loss:		2.288659
  validation accuracy:		10.64 %
Epoch 3 of 5 took 19.003s
  training loss:		2.252758
  validation loss:		2.159526
  validation accuracy:		41.94 %
Epoch 4 of 5 took 18.867s
  training loss:		1.380313
  validation loss:		0.564786
  validation accuracy:		82.40 %
Epoch 5 of 5 took 19.266s
  training loss:		0.395078
  validation loss:		0.259671
  validation accuracy:		92.46 %
Final results:
  test loss:			0.269430
  test accuracy:		92.05 %
Total time 97.738s
('param : ', '5 2-2-14-14 5-5-8-4 1-1-10-3-1\n')
Loading data...
Parameters : [ 2  2 14 14]	[5 5 8 4]	[ 1  1 10  3  1]
Building model and compiling functions...
Nombre de parametres:	(3638,)
Starting training...
Epoch 1 of 5 took 18.931s
  training loss:		2.282438
  validation loss:		2.243530
  validation accuracy:		27.06 %
Epoch 2 of 5 took 18.243s
  training loss:		1.956108
  validation loss:		1.393208
  validation accuracy:		55.01 %
Epoch 3 of 5 took 19.944s
  training loss:		0.885557
  validation loss:		0.431661
  validation accuracy:		87.30 %
Epoch 4 of 5 took 20.050s
  training loss:		0.349374
  validation loss:		0.249014
  validation accuracy:		92.67 %
Epoch 5 of 5 took 20.973s
  training loss:		0.236025
  validation loss:		0.189687
  validation accuracy:		94.55 %
Final results:
  test loss:			0.188586
  test accuracy:		94.40 %
Total time 99.417s
('param : ', '5 2-2-14-14 5-5-8-4 1-1-10-4-1\n')
Loading data...
Parameters : [ 2  2 14 14]	[5 5 8 4]	[ 1  1 10  4  1]
Building model and compiling functions...
Nombre de parametres:	(4814,)
Starting training...
Epoch 1 of 5 took 21.168s
  training loss:		2.279318
  validation loss:		2.226256
  validation accuracy:		35.90 %
Epoch 2 of 5 took 21.463s
  training loss:		1.770873
  validation loss:		0.934866
  validation accuracy:		70.49 %
Epoch 3 of 5 took 19.983s
  training loss:		0.581724
  validation loss:		0.321875
  validation accuracy:		90.51 %
Epoch 4 of 5 took 19.923s
  training loss:		0.283710
  validation loss:		0.212426
  validation accuracy:		93.83 %
Epoch 5 of 5 took 20.444s
  training loss:		0.205376
  validation loss:		0.178353
  validation accuracy:		94.93 %
Final results:
  test loss:			0.178873
  test accuracy:		94.50 %
Total time 104.302s
('param : ', '5 2-2-14-14 5-5-8-4 1-1-10-5-1\n')
Loading data...
Parameters : [ 2  2 14 14]	[5 5 8 4]	[ 1  1 10  5  1]
Building model and compiling functions...
Nombre de parametres:	(5990,)
Starting training...
Epoch 1 of 5 took 21.613s
  training loss:		2.293646
  validation loss:		2.280259
  validation accuracy:		15.13 %
Epoch 2 of 5 took 21.940s
  training loss:		2.237597
  validation loss:		2.135158
  validation accuracy:		33.45 %
Epoch 3 of 5 took 22.560s
  training loss:		1.747793
  validation loss:		1.217783
  validation accuracy:		60.65 %
Epoch 4 of 5 took 22.271s
  training loss:		0.816127
  validation loss:		0.426201
  validation accuracy:		87.62 %
Epoch 5 of 5 took 22.966s
  training loss:		0.343192
  validation loss:		0.245840
  validation accuracy:		93.01 %
Final results:
  test loss:			0.246922
  test accuracy:		92.61 %
Total time 112.804s
('param : ', '5 2-2-14-14 5-5-8-4 1-1-10-6-1\n')
Loading data...
Parameters : [ 2  2 14 14]	[5 5 8 4]	[ 1  1 10  6  1]
Building model and compiling functions...
Nombre de parametres:	(7166,)
Starting training...
Epoch 1 of 5 took 20.852s
  training loss:		2.282600
  validation loss:		2.244722
  validation accuracy:		28.54 %
Epoch 2 of 5 took 21.022s
  training loss:		2.004724
  validation loss:		1.479540
  validation accuracy:		50.85 %
Epoch 3 of 5 took 20.807s
  training loss:		0.978311
  validation loss:		0.481056
  validation accuracy:		85.77 %
Epoch 4 of 5 took 22.533s
  training loss:		0.383186
  validation loss:		0.261901
  validation accuracy:		92.40 %
Epoch 5 of 5 took 23.392s
  training loss:		0.252448
  validation loss:		0.200010
  validation accuracy:		94.22 %
Final results:
  test loss:			0.208132
  test accuracy:		93.85 %
Total time 110.104s
('param : ', '5 2-2-14-14 5-5-8-4 1-1-10-7-1\n')
Loading data...
Parameters : [ 2  2 14 14]	[5 5 8 4]	[ 1  1 10  7  1]
Building model and compiling functions...
Nombre de parametres:	(8342,)
Starting training...
Epoch 1 of 5 took 23.386s
  training loss:		2.292381
  validation loss:		2.277040
  validation accuracy:		18.33 %
Epoch 2 of 5 took 23.949s
  training loss:		2.217667
  validation loss:		2.060000
  validation accuracy:		38.48 %
Epoch 3 of 5 took 22.989s
  training loss:		1.441034
  validation loss:		0.788405
  validation accuracy:		75.53 %
Epoch 4 of 5 took 22.802s
  training loss:		0.551054
  validation loss:		0.323038
  validation accuracy:		90.97 %
Epoch 5 of 5 took 23.267s
  training loss:		0.289414
  validation loss:		0.224053
  validation accuracy:		93.51 %
Final results:
  test loss:			0.222448
  test accuracy:		93.42 %
Total time 117.871s
('param : ', '5 2-2-14-14 5-5-8-4 1-1-10-8-1\n')
Loading data...
Parameters : [ 2  2 14 14]	[5 5 8 4]	[ 1  1 10  8  1]
Building model and compiling functions...
Nombre de parametres:	(9518,)
Starting training...
Epoch 1 of 5 took 22.525s
  training loss:		2.298823
  validation loss:		2.294494
  validation accuracy:		10.64 %
Epoch 2 of 5 took 21.610s
  training loss:		2.283209
  validation loss:		2.262424
  validation accuracy:		23.01 %
Epoch 3 of 5 took 22.616s
  training loss:		2.157227
  validation loss:		1.899570
  validation accuracy:		36.79 %
Epoch 4 of 5 took 23.467s
  training loss:		1.392776
  validation loss:		0.789846
  validation accuracy:		76.22 %
Epoch 5 of 5 took 23.392s
  training loss:		0.543407
  validation loss:		0.330241
  validation accuracy:		90.55 %
Final results:
  test loss:			0.334257
  test accuracy:		89.97 %
Total time 115.172s
('param : ', '5 2-2-14-14 5-5-8-4 1-1-10-9-1\n')
Loading data...
Parameters : [ 2  2 14 14]	[5 5 8 4]	[ 1  1 10  9  1]
Building model and compiling functions...
Nombre de parametres:	(10694,)
Starting training...
Epoch 1 of 5 took 24.455s
  training loss:		2.298642
  validation loss:		2.294114
  validation accuracy:		10.64 %
Epoch 2 of 5 took 23.848s
  training loss:		2.282659
  validation loss:		2.261991
  validation accuracy:		24.55 %
Epoch 3 of 5 took 24.515s
  training loss:		2.170025
  validation loss:		1.923713
  validation accuracy:		38.33 %
Epoch 4 of 5 took 24.103s
  training loss:		1.372446
  validation loss:		0.758742
  validation accuracy:		77.02 %
Epoch 5 of 5 took 24.191s
  training loss:		0.482318
  validation loss:		0.297835
  validation accuracy:		91.93 %
Final results:
  test loss:			0.308688
  test accuracy:		91.73 %
Total time 122.691s
('param : ', '5 2-2-14-14 5-5-8-4 1-1-10-10-1\n')
Loading data...
Parameters : [ 2  2 14 14]	[5 5 8 4]	[ 1  1 10 10  1]
Building model and compiling functions...
Nombre de parametres:	(11870,)
Starting training...
Epoch 1 of 5 took 24.514s
  training loss:		2.293958
  validation loss:		2.280663
  validation accuracy:		13.43 %
Epoch 2 of 5 took 24.508s
  training loss:		2.225715
  validation loss:		2.079538
  validation accuracy:		38.07 %
Epoch 3 of 5 took 23.706s
  training loss:		1.489991
  validation loss:		0.766826
  validation accuracy:		75.77 %
Epoch 4 of 5 took 24.463s
  training loss:		0.501380
  validation loss:		0.289443
  validation accuracy:		91.85 %
Epoch 5 of 5 took 24.632s
  training loss:		0.272573
  validation loss:		0.209737
  validation accuracy:		93.98 %
Final results:
  test loss:			0.213358
  test accuracy:		93.71 %
Total time 123.525s
