('param : ', '5 2-2-14-14 5-5-8-4 1-2-1-1-1\n')
Loading data...
Parameters : [ 2  2 14 14]	[5 5 8 4]	[1 2 1 1 1]
Building model and compiling functions...
Nombre de parametres:	(208,)
Starting training...
Epoch 1 of 5 took 14.957s
  training loss:		2.296343
  validation loss:		2.287652
  validation accuracy:		10.64 %
Epoch 2 of 5 took 16.418s
  training loss:		2.259160
  validation loss:		2.193095
  validation accuracy:		34.48 %
Epoch 3 of 5 took 17.438s
  training loss:		1.770248
  validation loss:		1.006292
  validation accuracy:		70.26 %
Epoch 4 of 5 took 17.997s
  training loss:		0.580045
  validation loss:		0.333849
  validation accuracy:		90.35 %
Epoch 5 of 5 took 18.302s
  training loss:		0.308191
  validation loss:		0.231212
  validation accuracy:		93.50 %
Final results:
  test loss:			0.242772
  test accuracy:		93.14 %
Total time 86.227s
('param : ', '5 2-2-14-14 5-5-8-4 1-2-1-2-1\n')
Loading data...
Parameters : [ 2  2 14 14]	[5 5 8 4]	[1 2 1 2 1]
Building model and compiling functions...
Nombre de parametres:	(376,)
Starting training...
Epoch 1 of 5 took 18.449s
  training loss:		2.294034
  validation loss:		2.280821
  validation accuracy:		10.64 %
Epoch 2 of 5 took 18.186s
  training loss:		2.224332
  validation loss:		2.055873
  validation accuracy:		45.71 %
Epoch 3 of 5 took 17.673s
  training loss:		1.274198
  validation loss:		0.482846
  validation accuracy:		86.25 %
Epoch 4 of 5 took 18.183s
  training loss:		0.386723
  validation loss:		0.273696
  validation accuracy:		92.10 %
Epoch 5 of 5 took 18.851s
  training loss:		0.261869
  validation loss:		0.209538
  validation accuracy:		93.82 %
Final results:
  test loss:			0.210830
  test accuracy:		93.90 %
Total time 92.500s
('param : ', '5 2-2-14-14 5-5-8-4 1-2-1-3-1\n')
Loading data...
Parameters : [ 2  2 14 14]	[5 5 8 4]	[1 2 1 3 1]
Building model and compiling functions...
Nombre de parametres:	(544,)
Starting training...
Epoch 1 of 5 took 19.389s
  training loss:		2.296751
  validation loss:		2.288984
  validation accuracy:		10.64 %
Epoch 2 of 5 took 19.131s
  training loss:		2.266361
  validation loss:		2.218497
  validation accuracy:		34.73 %
Epoch 3 of 5 took 19.099s
  training loss:		1.801609
  validation loss:		0.868651
  validation accuracy:		76.01 %
Epoch 4 of 5 took 19.039s
  training loss:		0.521066
  validation loss:		0.310603
  validation accuracy:		91.07 %
Epoch 5 of 5 took 18.770s
  training loss:		0.297406
  validation loss:		0.227339
  validation accuracy:		93.53 %
Final results:
  test loss:			0.235412
  test accuracy:		93.17 %
Total time 96.541s
('param : ', '5 2-2-14-14 5-5-8-4 1-2-1-4-1\n')
Loading data...
Parameters : [ 2  2 14 14]	[5 5 8 4]	[1 2 1 4 1]
Building model and compiling functions...
Nombre de parametres:	(712,)
Starting training...
Epoch 1 of 5 took 18.542s
  training loss:		2.299807
  validation loss:		2.297156
  validation accuracy:		10.64 %
Epoch 2 of 5 took 18.573s
  training loss:		2.290270
  validation loss:		2.279432
  validation accuracy:		10.64 %
Epoch 3 of 5 took 19.005s
  training loss:		2.231335
  validation loss:		2.102247
  validation accuracy:		45.09 %
Epoch 4 of 5 took 18.933s
  training loss:		1.419574
  validation loss:		0.631253
  validation accuracy:		81.31 %
Epoch 5 of 5 took 18.402s
  training loss:		0.449546
  validation loss:		0.282007
  validation accuracy:		92.11 %
Final results:
  test loss:			0.300603
  test accuracy:		91.91 %
Total time 94.578s
('param : ', '5 2-2-14-14 5-5-8-4 1-2-1-5-1\n')
Loading data...
Parameters : [ 2  2 14 14]	[5 5 8 4]	[1 2 1 5 1]
Building model and compiling functions...
Nombre de parametres:	(880,)
Starting training...
Epoch 1 of 5 took 19.456s
  training loss:		2.298298
  validation loss:		2.293109
  validation accuracy:		10.64 %
Epoch 2 of 5 took 19.520s
  training loss:		2.278779
  validation loss:		2.252144
  validation accuracy:		25.68 %
Epoch 3 of 5 took 19.167s
  training loss:		2.075762
  validation loss:		1.574197
  validation accuracy:		55.44 %
Epoch 4 of 5 took 18.744s
  training loss:		0.839343
  validation loss:		0.411757
  validation accuracy:		88.15 %
Epoch 5 of 5 took 20.015s
  training loss:		0.345821
  validation loss:		0.239899
  validation accuracy:		93.30 %
Final results:
  test loss:			0.256928
  test accuracy:		92.97 %
Total time 98.077s
('param : ', '5 2-2-14-14 5-5-8-4 1-2-1-6-1\n')
Loading data...
Parameters : [ 2  2 14 14]	[5 5 8 4]	[1 2 1 6 1]
Building model and compiling functions...
Nombre de parametres:	(1048,)
Starting training...
Epoch 1 of 5 took 20.479s
  training loss:		2.300377
  validation loss:		2.298782
  validation accuracy:		10.64 %
Epoch 2 of 5 took 20.098s
  training loss:		2.294112
  validation loss:		2.288005
  validation accuracy:		10.64 %
Epoch 3 of 5 took 20.191s
  training loss:		2.262655
  validation loss:		2.205846
  validation accuracy:		31.09 %
Epoch 4 of 5 took 20.493s
  training loss:		1.826691
  validation loss:		1.072409
  validation accuracy:		68.91 %
Epoch 5 of 5 took 20.167s
  training loss:		0.666738
  validation loss:		0.373055
  validation accuracy:		89.25 %
Final results:
  test loss:			0.394484
  test accuracy:		88.78 %
Total time 102.725s
('param : ', '5 2-2-14-14 5-5-8-4 1-2-1-7-1\n')
Loading data...
Parameters : [ 2  2 14 14]	[5 5 8 4]	[1 2 1 7 1]
Building model and compiling functions...
Nombre de parametres:	(1216,)
Starting training...
Epoch 1 of 5 took 20.814s
  training loss:		2.299408
  validation loss:		2.296304
  validation accuracy:		10.64 %
Epoch 2 of 5 took 20.128s
  training loss:		2.288391
  validation loss:		2.275797
  validation accuracy:		11.35 %
Epoch 3 of 5 took 20.571s
  training loss:		2.218141
  validation loss:		2.063810
  validation accuracy:		43.74 %
Epoch 4 of 5 took 21.188s
  training loss:		1.279005
  validation loss:		0.558613
  validation accuracy:		83.71 %
Epoch 5 of 5 took 20.066s
  training loss:		0.429660
  validation loss:		0.298763
  validation accuracy:		91.28 %
Final results:
  test loss:			0.308396
  test accuracy:		91.28 %
Total time 104.036s
('param : ', '5 2-2-14-14 5-5-8-4 1-2-1-8-1\n')
Loading data...
Parameters : [ 2  2 14 14]	[5 5 8 4]	[1 2 1 8 1]
Building model and compiling functions...
Nombre de parametres:	(1384,)
Starting training...
Epoch 1 of 5 took 21.120s
  training loss:		2.295852
  validation loss:		2.286353
  validation accuracy:		10.64 %
Epoch 2 of 5 took 20.546s
  training loss:		2.257840
  validation loss:		2.192258
  validation accuracy:		34.65 %
Epoch 3 of 5 took 21.333s
  training loss:		1.817870
  validation loss:		1.077304
  validation accuracy:		68.32 %
Epoch 4 of 5 took 20.737s
  training loss:		0.632581
  validation loss:		0.329660
  validation accuracy:		90.44 %
Epoch 5 of 5 took 20.068s
  training loss:		0.296322
  validation loss:		0.220648
  validation accuracy:		93.62 %
Final results:
  test loss:			0.229028
  test accuracy:		93.75 %
Total time 105.120s
('param : ', '5 2-2-14-14 5-5-8-4 1-2-1-9-1\n')
Loading data...
Parameters : [ 2  2 14 14]	[5 5 8 4]	[1 2 1 9 1]
Building model and compiling functions...
Nombre de parametres:	(1552,)
Starting training...
Epoch 1 of 5 took 22.190s
  training loss:		2.300191
  validation loss:		2.298210
  validation accuracy:		10.64 %
Epoch 2 of 5 took 21.025s
  training loss:		2.293071
  validation loss:		2.285973
  validation accuracy:		10.64 %
Epoch 3 of 5 took 20.363s
  training loss:		2.260644
  validation loss:		2.203618
  validation accuracy:		32.37 %
Epoch 4 of 5 took 22.043s
  training loss:		1.849099
  validation loss:		1.138306
  validation accuracy:		65.84 %
Epoch 5 of 5 took 21.387s
  training loss:		0.661660
  validation loss:		0.345910
  validation accuracy:		90.39 %
Final results:
  test loss:			0.362762
  test accuracy:		90.10 %
Total time 108.327s
('param : ', '5 2-2-14-14 5-5-8-4 1-2-1-10-1\n')
Loading data...
Parameters : [ 2  2 14 14]	[5 5 8 4]	[ 1  2  1 10  1]
Building model and compiling functions...
Nombre de parametres:	(1720,)
Starting training...
Epoch 1 of 5 took 21.606s
  training loss:		2.301404
  validation loss:		2.301432
  validation accuracy:		10.64 %
Epoch 2 of 5 took 21.265s
  training loss:		2.300091
  validation loss:		2.300162
  validation accuracy:		10.64 %
Epoch 3 of 5 took 22.115s
  training loss:		2.297955
  validation loss:		2.296335
  validation accuracy:		10.64 %
Epoch 4 of 5 took 21.830s
  training loss:		2.290146
  validation loss:		2.280158
  validation accuracy:		10.64 %
Epoch 5 of 5 took 21.332s
  training loss:		2.234283
  validation loss:		2.112454
  validation accuracy:		40.40 %
Final results:
  test loss:			2.112876
  test accuracy:		39.83 %
Total time 109.611s
('param : ', '5 2-2-14-14 5-5-8-4 1-2-2-1-1\n')
Loading data...
Parameters : [ 2  2 14 14]	[5 5 8 4]	[1 2 2 1 1]
Building model and compiling functions...
Nombre de parametres:	(340,)
Starting training...
Epoch 1 of 5 took 19.023s
  training loss:		2.301633
  validation loss:		2.301842
  validation accuracy:		10.64 %
Epoch 2 of 5 took 18.367s
  training loss:		2.301139
  validation loss:		2.301894
  validation accuracy:		10.64 %
Epoch 3 of 5 took 18.342s
  training loss:		2.301094
  validation loss:		2.301990
  validation accuracy:		10.64 %
Epoch 4 of 5 took 18.930s
  training loss:		2.301033
  validation loss:		2.301823
  validation accuracy:		10.64 %
Epoch 5 of 5 took 18.386s
  training loss:		2.300440
  validation loss:		2.300100
  validation accuracy:		10.64 %
Final results:
  test loss:			2.299170
  test accuracy:		11.35 %
Total time 94.091s
('param : ', '5 2-2-14-14 5-5-8-4 1-2-2-2-1\n')
Loading data...
Parameters : [ 2  2 14 14]	[5 5 8 4]	[1 2 2 2 1]
Building model and compiling functions...
Nombre de parametres:	(620,)
Starting training...
Epoch 1 of 5 took 18.529s
  training loss:		2.270038
  validation loss:		2.191976
  validation accuracy:		39.64 %
Epoch 2 of 5 took 18.824s
  training loss:		1.577032
  validation loss:		0.771495
  validation accuracy:		75.88 %
Epoch 3 of 5 took 18.461s
  training loss:		0.524157
  validation loss:		0.316029
  validation accuracy:		91.12 %
Epoch 4 of 5 took 17.686s
  training loss:		0.286650
  validation loss:		0.224304
  validation accuracy:		93.48 %
Epoch 5 of 5 took 17.770s
  training loss:		0.213385
  validation loss:		0.182762
  validation accuracy:		94.98 %
Final results:
  test loss:			0.181827
  test accuracy:		94.43 %
Total time 92.427s
('param : ', '5 2-2-14-14 5-5-8-4 1-2-2-3-1\n')
Loading data...
Parameters : [ 2  2 14 14]	[5 5 8 4]	[1 2 2 3 1]
Building model and compiling functions...
Nombre de parametres:	(900,)
Starting training...
Epoch 1 of 5 took 17.238s
  training loss:		2.295922
  validation loss:		2.286959
  validation accuracy:		10.64 %
Epoch 2 of 5 took 17.943s
  training loss:		2.260525
  validation loss:		2.202667
  validation accuracy:		37.39 %
Epoch 3 of 5 took 18.770s
  training loss:		1.787859
  validation loss:		0.969994
  validation accuracy:		70.24 %
Epoch 4 of 5 took 18.830s
  training loss:		0.609877
  validation loss:		0.346160
  validation accuracy:		89.94 %
Epoch 5 of 5 took 18.874s
  training loss:		0.323782
  validation loss:		0.246553
  validation accuracy:		92.88 %
Final results:
  test loss:			0.258587
  test accuracy:		92.75 %
Total time 92.797s
('param : ', '5 2-2-14-14 5-5-8-4 1-2-2-4-1\n')
Loading data...
Parameters : [ 2  2 14 14]	[5 5 8 4]	[1 2 2 4 1]
Building model and compiling functions...
Nombre de parametres:	(1180,)
Starting training...
Epoch 1 of 5 took 18.470s
  training loss:		2.287233
  validation loss:		2.261423
  validation accuracy:		14.59 %
Epoch 2 of 5 took 18.516s
  training loss:		2.116766
  validation loss:		1.656803
  validation accuracy:		56.21 %
Epoch 3 of 5 took 19.306s
  training loss:		0.863733
  validation loss:		0.432284
  validation accuracy:		87.14 %
Epoch 4 of 5 took 19.295s
  training loss:		0.360406
  validation loss:		0.259896
  validation accuracy:		92.47 %
Epoch 5 of 5 took 19.290s
  training loss:		0.250372
  validation loss:		0.198750
  validation accuracy:		94.35 %
Final results:
  test loss:			0.205785
  test accuracy:		94.03 %
Total time 96.047s
('param : ', '5 2-2-14-14 5-5-8-4 1-2-2-5-1\n')
Loading data...
Parameters : [ 2  2 14 14]	[5 5 8 4]	[1 2 2 5 1]
Building model and compiling functions...
Nombre de parametres:	(1460,)
Starting training...
Epoch 1 of 5 took 20.250s
  training loss:		2.296040
  validation loss:		2.287185
  validation accuracy:		10.64 %
Epoch 2 of 5 took 19.629s
  training loss:		2.262020
  validation loss:		2.208039
  validation accuracy:		35.59 %
Epoch 3 of 5 took 19.085s
  training loss:		1.813059
  validation loss:		1.011250
  validation accuracy:		68.83 %
Epoch 4 of 5 took 19.234s
  training loss:		0.619204
  validation loss:		0.336304
  validation accuracy:		90.39 %
Epoch 5 of 5 took 19.285s
  training loss:		0.304352
  validation loss:		0.229685
  validation accuracy:		93.43 %
Final results:
  test loss:			0.237064
  test accuracy:		93.19 %
Total time 98.678s
('param : ', '5 2-2-14-14 5-5-8-4 1-2-2-6-1\n')
Loading data...
Parameters : [ 2  2 14 14]	[5 5 8 4]	[1 2 2 6 1]
Building model and compiling functions...
Nombre de parametres:	(1740,)
Starting training...
Epoch 1 of 5 took 20.554s
  training loss:		2.297961
  validation loss:		2.292318
  validation accuracy:		10.64 %
Epoch 2 of 5 took 19.615s
  training loss:		2.278171
  validation loss:		2.251991
  validation accuracy:		25.19 %
Epoch 3 of 5 took 19.073s
  training loss:		2.118458
  validation loss:		1.798036
  validation accuracy:		44.49 %
Epoch 4 of 5 took 19.673s
  training loss:		1.089601
  validation loss:		0.528539
  validation accuracy:		84.72 %
Epoch 5 of 5 took 20.286s
  training loss:		0.415817
  validation loss:		0.285625
  validation accuracy:		91.75 %
Final results:
  test loss:			0.296311
  test accuracy:		91.74 %
Total time 100.479s
('param : ', '5 2-2-14-14 5-5-8-4 1-2-2-7-1\n')
Loading data...
Parameters : [ 2  2 14 14]	[5 5 8 4]	[1 2 2 7 1]
Building model and compiling functions...
Nombre de parametres:	(2020,)
Starting training...
Epoch 1 of 5 took 21.133s
  training loss:		2.285582
  validation loss:		2.254894
  validation accuracy:		22.72 %
Epoch 2 of 5 took 20.798s
  training loss:		2.057622
  validation loss:		1.453464
  validation accuracy:		56.24 %
Epoch 3 of 5 took 20.517s
  training loss:		0.832265
  validation loss:		0.441770
  validation accuracy:		86.98 %
Epoch 4 of 5 took 19.338s
  training loss:		0.364907
  validation loss:		0.265572
  validation accuracy:		92.08 %
Epoch 5 of 5 took 20.046s
  training loss:		0.254798
  validation loss:		0.197820
  validation accuracy:		94.18 %
Final results:
  test loss:			0.203941
  test accuracy:		94.17 %
Total time 103.125s
('param : ', '5 2-2-14-14 5-5-8-4 1-2-2-8-1\n')
Loading data...
Parameters : [ 2  2 14 14]	[5 5 8 4]	[1 2 2 8 1]
Building model and compiling functions...
Nombre de parametres:	(2300,)
Starting training...
Epoch 1 of 5 took 21.880s
  training loss:		2.296678
  validation loss:		2.288547
  validation accuracy:		10.64 %
Epoch 2 of 5 took 21.563s
  training loss:		2.267470
  validation loss:		2.223080
  validation accuracy:		32.10 %
Epoch 3 of 5 took 21.421s
  training loss:		2.019636
  validation loss:		1.597431
  validation accuracy:		48.64 %
Epoch 4 of 5 took 20.573s
  training loss:		0.992511
  validation loss:		0.498319
  validation accuracy:		85.31 %
Epoch 5 of 5 took 20.718s
  training loss:		0.407438
  validation loss:		0.282035
  validation accuracy:		91.96 %
Final results:
  test loss:			0.295245
  test accuracy:		91.82 %
Total time 107.502s
('param : ', '5 2-2-14-14 5-5-8-4 1-2-2-9-1\n')
Loading data...
Parameters : [ 2  2 14 14]	[5 5 8 4]	[1 2 2 9 1]
Building model and compiling functions...
Nombre de parametres:	(2580,)
Starting training...
Epoch 1 of 5 took 22.201s
  training loss:		2.295679
  validation loss:		2.285681
  validation accuracy:		10.64 %
Epoch 2 of 5 took 21.766s
  training loss:		2.254440
  validation loss:		2.181679
  validation accuracy:		38.25 %
Epoch 3 of 5 took 21.914s
  training loss:		1.653090
  validation loss:		0.831533
  validation accuracy:		73.95 %
Epoch 4 of 5 took 21.242s
  training loss:		0.565175
  validation loss:		0.352623
  validation accuracy:		89.95 %
Epoch 5 of 5 took 19.562s
  training loss:		0.338889
  validation loss:		0.262282
  validation accuracy:		92.67 %
Final results:
  test loss:			0.272205
  test accuracy:		92.37 %
Total time 107.982s
('param : ', '5 2-2-14-14 5-5-8-4 1-2-2-10-1\n')
Loading data...
Parameters : [ 2  2 14 14]	[5 5 8 4]	[ 1  2  2 10  1]
Building model and compiling functions...
Nombre de parametres:	(2860,)
Starting training...
Epoch 1 of 5 took 22.476s
  training loss:		2.293539
  validation loss:		2.280019
  validation accuracy:		10.64 %
Epoch 2 of 5 took 22.846s
  training loss:		2.239740
  validation loss:		2.144491
  validation accuracy:		37.45 %
Epoch 3 of 5 took 22.079s
  training loss:		1.707354
  validation loss:		0.916994
  validation accuracy:		72.42 %
Epoch 4 of 5 took 20.329s
  training loss:		0.573876
  validation loss:		0.364183
  validation accuracy:		89.17 %
Epoch 5 of 5 took 19.009s
  training loss:		0.331787
  validation loss:		0.253342
  validation accuracy:		92.59 %
Final results:
  test loss:			0.262650
  test accuracy:		92.49 %
Total time 108.028s
('param : ', '5 2-2-14-14 5-5-8-4 1-2-3-1-1\n')
Loading data...
Parameters : [ 2  2 14 14]	[5 5 8 4]	[1 2 3 1 1]
Building model and compiling functions...
Nombre de parametres:	(472,)
Starting training...
Epoch 1 of 5 took 17.481s
  training loss:		2.301563
  validation loss:		2.301983
  validation accuracy:		10.64 %
Epoch 2 of 5 took 17.887s
  training loss:		2.301124
  validation loss:		2.302082
  validation accuracy:		10.64 %
Epoch 3 of 5 took 18.394s
  training loss:		2.301099
  validation loss:		2.301997
  validation accuracy:		10.64 %
Epoch 4 of 5 took 17.618s
  training loss:		2.301094
  validation loss:		2.302017
  validation accuracy:		10.64 %
Epoch 5 of 5 took 17.904s
  training loss:		2.301103
  validation loss:		2.301938
  validation accuracy:		10.64 %
Final results:
  test loss:			2.301003
  test accuracy:		11.35 %
Total time 90.389s
('param : ', '5 2-2-14-14 5-5-8-4 1-2-3-2-1\n')
Loading data...
Parameters : [ 2  2 14 14]	[5 5 8 4]	[1 2 3 2 1]
Building model and compiling functions...
Nombre de parametres:	(864,)
Starting training...
Epoch 1 of 5 took 18.685s
  training loss:		2.297633
  validation loss:		2.291843
  validation accuracy:		10.64 %
Epoch 2 of 5 took 17.966s
  training loss:		2.278017
  validation loss:		2.252600
  validation accuracy:		27.51 %
Epoch 3 of 5 took 18.113s
  training loss:		2.135487
  validation loss:		1.822670
  validation accuracy:		39.05 %
Epoch 4 of 5 took 18.812s
  training loss:		1.218148
  validation loss:		0.641757
  validation accuracy:		79.91 %
Epoch 5 of 5 took 18.881s
  training loss:		0.467723
  validation loss:		0.301554
  validation accuracy:		91.38 %
Final results:
  test loss:			0.314879
  test accuracy:		90.82 %
Total time 93.564s
('param : ', '5 2-2-14-14 5-5-8-4 1-2-3-3-1\n')
Loading data...
Parameters : [ 2  2 14 14]	[5 5 8 4]	[1 2 3 3 1]
Building model and compiling functions...
Nombre de parametres:	(1256,)
Starting training...
Epoch 1 of 5 took 18.710s
  training loss:		2.292568
  validation loss:		2.276532
  validation accuracy:		12.53 %
Epoch 2 of 5 took 18.751s
  training loss:		2.210818
  validation loss:		2.032693
  validation accuracy:		41.08 %
Epoch 3 of 5 took 18.836s
  training loss:		1.284168
  validation loss:		0.521574
  validation accuracy:		84.41 %
Epoch 4 of 5 took 18.971s
  training loss:		0.431215
  validation loss:		0.315750
  validation accuracy:		90.91 %
Epoch 5 of 5 took 19.075s
  training loss:		0.306696
  validation loss:		0.239479
  validation accuracy:		92.88 %
Final results:
  test loss:			0.245268
  test accuracy:		92.88 %
Total time 95.484s
('param : ', '5 2-2-14-14 5-5-8-4 1-2-3-4-1\n')
Loading data...
Parameters : [ 2  2 14 14]	[5 5 8 4]	[1 2 3 4 1]
Building model and compiling functions...
Nombre de parametres:	(1648,)
Starting training...
Epoch 1 of 5 took 19.938s
  training loss:		2.287436
  validation loss:		2.261852
  validation accuracy:		22.89 %
Epoch 2 of 5 took 18.629s
  training loss:		2.114097
  validation loss:		1.632185
  validation accuracy:		53.45 %
Epoch 3 of 5 took 18.573s
  training loss:		0.831420
  validation loss:		0.398786
  validation accuracy:		88.47 %
Epoch 4 of 5 took 19.023s
  training loss:		0.347687
  validation loss:		0.266453
  validation accuracy:		92.16 %
Epoch 5 of 5 took 19.518s
  training loss:		0.248620
  validation loss:		0.197489
  validation accuracy:		94.27 %
Final results:
  test loss:			0.200378
  test accuracy:		94.13 %
Total time 96.862s
('param : ', '5 2-2-14-14 5-5-8-4 1-2-3-5-1\n')
Loading data...
Parameters : [ 2  2 14 14]	[5 5 8 4]	[1 2 3 5 1]
Building model and compiling functions...
Nombre de parametres:	(2040,)
Starting training...
Epoch 1 of 5 took 20.530s
  training loss:		2.298723
  validation loss:		2.294594
  validation accuracy:		10.64 %
Epoch 2 of 5 took 19.836s
  training loss:		2.285313
  validation loss:		2.270470
  validation accuracy:		11.68 %
Epoch 3 of 5 took 19.580s
  training loss:		2.215189
  validation loss:		2.075888
  validation accuracy:		40.35 %
Epoch 4 of 5 took 18.983s
  training loss:		1.482000
  validation loss:		0.657843
  validation accuracy:		79.88 %
Epoch 5 of 5 took 19.879s
  training loss:		0.452859
  validation loss:		0.298858
  validation accuracy:		91.36 %
Final results:
  test loss:			0.305429
  test accuracy:		91.35 %
Total time 100.027s
('param : ', '5 2-2-14-14 5-5-8-4 1-2-3-6-1\n')
Loading data...
Parameters : [ 2  2 14 14]	[5 5 8 4]	[1 2 3 6 1]
Building model and compiling functions...
Nombre de parametres:	(2432,)
Starting training...
Epoch 1 of 5 took 20.830s
  training loss:		2.285126
  validation loss:		2.252548
  validation accuracy:		21.37 %
Epoch 2 of 5 took 20.586s
  training loss:		2.019440
  validation loss:		1.323933
  validation accuracy:		63.03 %
Epoch 3 of 5 took 20.176s
  training loss:		0.755804
  validation loss:		0.409621
  validation accuracy:		88.06 %
Epoch 4 of 5 took 19.703s
  training loss:		0.362391
  validation loss:		0.268061
  validation accuracy:		92.28 %
Epoch 5 of 5 took 19.480s
  training loss:		0.265026
  validation loss:		0.211629
  validation accuracy:		93.88 %
Final results:
  test loss:			0.217881
  test accuracy:		93.74 %
Total time 102.008s
('param : ', '5 2-2-14-14 5-5-8-4 1-2-3-7-1\n')
Loading data...
Parameters : [ 2  2 14 14]	[5 5 8 4]	[1 2 3 7 1]
Building model and compiling functions...
Nombre de parametres:	(2824,)
Starting training...
Epoch 1 of 5 took 21.247s
  training loss:		2.299617
  validation loss:		2.296752
  validation accuracy:		10.64 %
Epoch 2 of 5 took 21.032s
  training loss:		2.290307
  validation loss:		2.281375
  validation accuracy:		10.64 %
Epoch 3 of 5 took 21.190s
  training loss:		2.250310
  validation loss:		2.181568
  validation accuracy:		34.67 %
Epoch 4 of 5 took 20.522s
  training loss:		1.747895
  validation loss:		0.991547
  validation accuracy:		68.33 %
Epoch 5 of 5 took 20.832s
  training loss:		0.661072
  validation loss:		0.384338
  validation accuracy:		88.69 %
Final results:
  test loss:			0.395343
  test accuracy:		88.56 %
Total time 106.109s
('param : ', '5 2-2-14-14 5-5-8-4 1-2-3-8-1\n')
Loading data...
Parameters : [ 2  2 14 14]	[5 5 8 4]	[1 2 3 8 1]
Building model and compiling functions...
Nombre de parametres:	(3216,)
Starting training...
Epoch 1 of 5 took 21.703s
  training loss:		2.293379
  validation loss:		2.279333
  validation accuracy:		13.40 %
Epoch 2 of 5 took 20.784s
  training loss:		2.228092
  validation loss:		2.105178
  validation accuracy:		39.25 %
Epoch 3 of 5 took 21.103s
  training loss:		1.439139
  validation loss:		0.704590
  validation accuracy:		78.42 %
Epoch 4 of 5 took 20.958s
  training loss:		0.519993
  validation loss:		0.325612
  validation accuracy:		90.70 %
Epoch 5 of 5 took 20.838s
  training loss:		0.311805
  validation loss:		0.242133
  validation accuracy:		93.06 %
Final results:
  test loss:			0.257187
  test accuracy:		92.71 %
Total time 106.765s
('param : ', '5 2-2-14-14 5-5-8-4 1-2-3-9-1\n')
Loading data...
Parameters : [ 2  2 14 14]	[5 5 8 4]	[1 2 3 9 1]
Building model and compiling functions...
Nombre de parametres:	(3608,)
Starting training...
Epoch 1 of 5 took 20.261s
  training loss:		2.296792
  validation loss:		2.288560
  validation accuracy:		10.64 %
Epoch 2 of 5 took 19.526s
  training loss:		2.267050
  validation loss:		2.222675
  validation accuracy:		31.51 %
Epoch 3 of 5 took 19.259s
  training loss:		1.902186
  validation loss:		1.097686
  validation accuracy:		67.34 %
Epoch 4 of 5 took 19.958s
  training loss:		0.667615
  validation loss:		0.361298
  validation accuracy:		89.36 %
Epoch 5 of 5 took 20.552s
  training loss:		0.332384
  validation loss:		0.241844
  validation accuracy:		92.92 %
Final results:
  test loss:			0.257640
  test accuracy:		92.56 %
Total time 100.839s
('param : ', '5 2-2-14-14 5-5-8-4 1-2-3-10-1\n')
Loading data...
Parameters : [ 2  2 14 14]	[5 5 8 4]	[ 1  2  3 10  1]
Building model and compiling functions...
Nombre de parametres:	(4000,)
Starting training...
Epoch 1 of 5 took 22.165s
  training loss:		2.298808
  validation loss:		2.294655
  validation accuracy:		10.64 %
Epoch 2 of 5 took 22.428s
  training loss:		2.284560
  validation loss:		2.267321
  validation accuracy:		14.13 %
Epoch 3 of 5 took 22.388s
  training loss:		2.193740
  validation loss:		2.006817
  validation accuracy:		42.28 %
Epoch 4 of 5 took 22.276s
  training loss:		1.390547
  validation loss:		0.691227
  validation accuracy:		79.19 %
Epoch 5 of 5 took 22.363s
  training loss:		0.494943
  validation loss:		0.336831
  validation accuracy:		90.20 %
Final results:
  test loss:			0.346113
  test accuracy:		90.09 %
Total time 112.943s
('param : ', '5 2-2-14-14 5-5-8-4 1-2-4-1-1\n')
Loading data...
Parameters : [ 2  2 14 14]	[5 5 8 4]	[1 2 4 1 1]
Building model and compiling functions...
Nombre de parametres:	(604,)
Starting training...
Epoch 1 of 5 took 17.320s
  training loss:		2.301568
  validation loss:		2.301844
  validation accuracy:		10.64 %
Epoch 2 of 5 took 17.936s
  training loss:		2.301139
  validation loss:		2.301959
  validation accuracy:		10.64 %
Epoch 3 of 5 took 18.694s
  training loss:		2.301123
  validation loss:		2.301983
  validation accuracy:		10.64 %
Epoch 4 of 5 took 18.329s
  training loss:		2.301115
  validation loss:		2.301984
  validation accuracy:		10.64 %
Epoch 5 of 5 took 18.519s
  training loss:		2.301116
  validation loss:		2.301993
  validation accuracy:		10.64 %
Final results:
  test loss:			2.301012
  test accuracy:		11.35 %
Total time 91.978s
('param : ', '5 2-2-14-14 5-5-8-4 1-2-4-2-1\n')
Loading data...
Parameters : [ 2  2 14 14]	[5 5 8 4]	[1 2 4 2 1]
Building model and compiling functions...
Nombre de parametres:	(1108,)
Starting training...
Epoch 1 of 5 took 18.960s
  training loss:		2.293705
  validation loss:		2.279517
  validation accuracy:		17.31 %
Epoch 2 of 5 took 18.717s
  training loss:		2.215566
  validation loss:		2.043438
  validation accuracy:		33.69 %
Epoch 3 of 5 took 18.960s
  training loss:		1.427730
  validation loss:		0.709321
  validation accuracy:		78.96 %
Epoch 4 of 5 took 19.857s
  training loss:		0.463013
  validation loss:		0.284224
  validation accuracy:		91.79 %
Epoch 5 of 5 took 19.821s
  training loss:		0.260177
  validation loss:		0.200141
  validation accuracy:		94.09 %
Final results:
  test loss:			0.204143
  test accuracy:		93.89 %
Total time 97.506s
('param : ', '5 2-2-14-14 5-5-8-4 1-2-4-3-1\n')
Loading data...
Parameters : [ 2  2 14 14]	[5 5 8 4]	[1 2 4 3 1]
Building model and compiling functions...
Nombre de parametres:	(1612,)
Starting training...
Epoch 1 of 5 took 18.693s
  training loss:		2.291051
  validation loss:		2.273214
  validation accuracy:		17.36 %
Epoch 2 of 5 took 18.982s
  training loss:		2.204873
  validation loss:		2.031065
  validation accuracy:		37.48 %
Epoch 3 of 5 took 19.721s
  training loss:		1.425241
  validation loss:		0.758814
  validation accuracy:		76.35 %
Epoch 4 of 5 took 19.169s
  training loss:		0.505475
  validation loss:		0.311241
  validation accuracy:		91.06 %
Epoch 5 of 5 took 19.736s
  training loss:		0.288907
  validation loss:		0.227133
  validation accuracy:		93.44 %
Final results:
  test loss:			0.228712
  test accuracy:		93.37 %
Total time 97.505s
('param : ', '5 2-2-14-14 5-5-8-4 1-2-4-4-1\n')
Loading data...
Parameters : [ 2  2 14 14]	[5 5 8 4]	[1 2 4 4 1]
Building model and compiling functions...
Nombre de parametres:	(2116,)
Starting training...
Epoch 1 of 5 took 19.966s
  training loss:		2.285731
  validation loss:		2.255591
  validation accuracy:		31.48 %
Epoch 2 of 5 took 19.326s
  training loss:		2.090738
  validation loss:		1.635952
  validation accuracy:		44.88 %
Epoch 3 of 5 took 19.758s
  training loss:		1.114079
  validation loss:		0.620072
  validation accuracy:		81.06 %
Epoch 4 of 5 took 19.880s
  training loss:		0.447633
  validation loss:		0.294775
  validation accuracy:		91.82 %
Epoch 5 of 5 took 19.982s
  training loss:		0.269791
  validation loss:		0.209356
  validation accuracy:		94.05 %
Final results:
  test loss:			0.215904
  test accuracy:		93.59 %
Total time 100.126s
('param : ', '5 2-2-14-14 5-5-8-4 1-2-4-5-1\n')
Loading data...
Parameters : [ 2  2 14 14]	[5 5 8 4]	[1 2 4 5 1]
Building model and compiling functions...
Nombre de parametres:	(2620,)
Starting training...
Epoch 1 of 5 took 21.189s
  training loss:		2.278149
  validation loss:		2.225525
  validation accuracy:		33.76 %
Epoch 2 of 5 took 21.601s
  training loss:		1.802073
  validation loss:		1.003253
  validation accuracy:		68.60 %
Epoch 3 of 5 took 20.926s
  training loss:		0.623825
  validation loss:		0.363252
  validation accuracy:		89.37 %
Epoch 4 of 5 took 20.264s
  training loss:		0.323308
  validation loss:		0.240780
  validation accuracy:		93.22 %
Epoch 5 of 5 took 19.856s
  training loss:		0.236601
  validation loss:		0.198899
  validation accuracy:		94.52 %
Final results:
  test loss:			0.201171
  test accuracy:		93.97 %
Total time 105.035s
('param : ', '5 2-2-14-14 5-5-8-4 1-2-4-6-1\n')
Loading data...
Parameters : [ 2  2 14 14]	[5 5 8 4]	[1 2 4 6 1]
Building model and compiling functions...
Nombre de parametres:	(3124,)
Starting training...
Epoch 1 of 5 took 19.856s
  training loss:		2.268658
  validation loss:		2.194377
  validation accuracy:		38.01 %
Epoch 2 of 5 took 20.974s
  training loss:		1.653850
  validation loss:		0.789824
  validation accuracy:		75.11 %
Epoch 3 of 5 took 19.727s
  training loss:		0.543218
  validation loss:		0.330909
  validation accuracy:		90.17 %
Epoch 4 of 5 took 19.820s
  training loss:		0.300663
  validation loss:		0.230150
  validation accuracy:		93.34 %
Epoch 5 of 5 took 20.394s
  training loss:		0.225299
  validation loss:		0.184294
  validation accuracy:		94.67 %
Final results:
  test loss:			0.194708
  test accuracy:		94.38 %
Total time 102.051s
('param : ', '5 2-2-14-14 5-5-8-4 1-2-4-7-1\n')
Loading data...
Parameters : [ 2  2 14 14]	[5 5 8 4]	[1 2 4 7 1]
Building model and compiling functions...
Nombre de parametres:	(3628,)
Starting training...
Epoch 1 of 5 took 21.206s
  training loss:		2.284402
  validation loss:		2.247605
  validation accuracy:		21.61 %
Epoch 2 of 5 took 22.473s
  training loss:		1.950960
  validation loss:		1.134255
  validation accuracy:		68.57 %
Epoch 3 of 5 took 21.967s
  training loss:		0.661980
  validation loss:		0.363114
  validation accuracy:		89.61 %
Epoch 4 of 5 took 21.248s
  training loss:		0.332330
  validation loss:		0.249777
  validation accuracy:		92.66 %
Epoch 5 of 5 took 20.844s
  training loss:		0.247113
  validation loss:		0.195102
  validation accuracy:		94.35 %
Final results:
  test loss:			0.208370
  test accuracy:		94.02 %
Total time 109.046s
('param : ', '5 2-2-14-14 5-5-8-4 1-2-4-8-1\n')
Loading data...
Parameters : [ 2  2 14 14]	[5 5 8 4]	[1 2 4 8 1]
Building model and compiling functions...
Nombre de parametres:	(4132,)
Starting training...
Epoch 1 of 5 took 20.401s
  training loss:		2.286496
  validation loss:		2.257444
  validation accuracy:		24.11 %
Epoch 2 of 5 took 21.329s
  training loss:		2.044887
  validation loss:		1.359283
  validation accuracy:		60.81 %
Epoch 3 of 5 took 21.568s
  training loss:		0.737031
  validation loss:		0.374868
  validation accuracy:		89.09 %
Epoch 4 of 5 took 20.923s
  training loss:		0.329419
  validation loss:		0.240175
  validation accuracy:		93.15 %
Epoch 5 of 5 took 21.185s
  training loss:		0.236484
  validation loss:		0.194054
  validation accuracy:		94.25 %
Final results:
  test loss:			0.192210
  test accuracy:		94.18 %
Total time 106.812s
('param : ', '5 2-2-14-14 5-5-8-4 1-2-4-9-1\n')
Loading data...
Parameters : [ 2  2 14 14]	[5 5 8 4]	[1 2 4 9 1]
Building model and compiling functions...
Nombre de parametres:	(4636,)
Starting training...
Epoch 1 of 5 took 22.547s
  training loss:		2.288362
  validation loss:		2.263853
  validation accuracy:		19.92 %
Epoch 2 of 5 took 21.702s
  training loss:		2.140380
  validation loss:		1.797226
  validation accuracy:		44.38 %
Epoch 3 of 5 took 22.280s
  training loss:		1.067837
  validation loss:		0.517025
  validation accuracy:		85.27 %
Epoch 4 of 5 took 21.230s
  training loss:		0.406418
  validation loss:		0.277104
  validation accuracy:		92.12 %
Epoch 5 of 5 took 21.095s
  training loss:		0.272752
  validation loss:		0.209697
  validation accuracy:		94.02 %
Final results:
  test loss:			0.223538
  test accuracy:		93.45 %
Total time 110.207s
('param : ', '5 2-2-14-14 5-5-8-4 1-2-4-10-1\n')
Loading data...
Parameters : [ 2  2 14 14]	[5 5 8 4]	[ 1  2  4 10  1]
Building model and compiling functions...
Nombre de parametres:	(5140,)
Starting training...
Epoch 1 of 5 took 22.987s
  training loss:		2.283930
  validation loss:		2.248508
  validation accuracy:		21.35 %
Epoch 2 of 5 took 22.213s
  training loss:		1.983730
  validation loss:		1.199793
  validation accuracy:		66.68 %
Epoch 3 of 5 took 22.816s
  training loss:		0.729881
  validation loss:		0.406989
  validation accuracy:		88.16 %
Epoch 4 of 5 took 22.121s
  training loss:		0.362008
  validation loss:		0.271876
  validation accuracy:		91.97 %
Epoch 5 of 5 took 21.967s
  training loss:		0.271341
  validation loss:		0.217837
  validation accuracy:		93.57 %
Final results:
  test loss:			0.224912
  test accuracy:		93.41 %
Total time 113.537s
('param : ', '5 2-2-14-14 5-5-8-4 1-2-5-1-1\n')
Loading data...
Parameters : [ 2  2 14 14]	[5 5 8 4]	[1 2 5 1 1]
Building model and compiling functions...
Nombre de parametres:	(736,)
Starting training...
Epoch 1 of 5 took 18.816s
  training loss:		2.301612
  validation loss:		2.301960
  validation accuracy:		10.64 %
Epoch 2 of 5 took 18.943s
  training loss:		2.301122
  validation loss:		2.301962
  validation accuracy:		10.64 %
Epoch 3 of 5 took 17.887s
  training loss:		2.300707
  validation loss:		2.300486
  validation accuracy:		10.64 %
Epoch 4 of 5 took 17.569s
  training loss:		2.291189
  validation loss:		2.270404
  validation accuracy:		18.50 %
Epoch 5 of 5 took 18.321s
  training loss:		2.089484
  validation loss:		1.641583
  validation accuracy:		45.14 %
Final results:
  test loss:			1.644048
  test accuracy:		42.48 %
Total time 92.653s
('param : ', '5 2-2-14-14 5-5-8-4 1-2-5-2-1\n')
Loading data...
Parameters : [ 2  2 14 14]	[5 5 8 4]	[1 2 5 2 1]
Building model and compiling functions...
Nombre de parametres:	(1352,)
Starting training...
Epoch 1 of 5 took 19.018s
  training loss:		2.301599
  validation loss:		2.301869
  validation accuracy:		10.64 %
Epoch 2 of 5 took 19.234s
  training loss:		2.301108
  validation loss:		2.301961
  validation accuracy:		10.64 %
Epoch 3 of 5 took 19.453s
  training loss:		2.301061
  validation loss:		2.301938
  validation accuracy:		10.64 %
Epoch 4 of 5 took 18.231s
  training loss:		2.300658
  validation loss:		2.300330
  validation accuracy:		10.64 %
Epoch 5 of 5 took 19.036s
  training loss:		2.288868
  validation loss:		2.262457
  validation accuracy:		20.03 %
Final results:
  test loss:			2.261134
  test accuracy:		20.90 %
Total time 96.196s
('param : ', '5 2-2-14-14 5-5-8-4 1-2-5-3-1\n')
Loading data...
Parameters : [ 2  2 14 14]	[5 5 8 4]	[1 2 5 3 1]
Building model and compiling functions...
Nombre de parametres:	(1968,)
Starting training...
Epoch 1 of 5 took 19.365s
  training loss:		2.287820
  validation loss:		2.261259
  validation accuracy:		22.52 %
Epoch 2 of 5 took 18.898s
  training loss:		2.122270
  validation loss:		1.722160
  validation accuracy:		45.13 %
Epoch 3 of 5 took 19.045s
  training loss:		1.170486
  validation loss:		0.636129
  validation accuracy:		80.58 %
Epoch 4 of 5 took 18.880s
  training loss:		0.493045
  validation loss:		0.310996
  validation accuracy:		91.06 %
Epoch 5 of 5 took 18.845s
  training loss:		0.280661
  validation loss:		0.216296
  validation accuracy:		93.69 %
Final results:
  test loss:			0.218832
  test accuracy:		93.52 %
Total time 96.208s
('param : ', '5 2-2-14-14 5-5-8-4 1-2-5-4-1\n')
Loading data...
Parameters : [ 2  2 14 14]	[5 5 8 4]	[1 2 5 4 1]
Building model and compiling functions...
Nombre de parametres:	(2584,)
Starting training...
Epoch 1 of 5 took 20.845s
  training loss:		2.284061
  validation loss:		2.249027
  validation accuracy:		29.87 %
Epoch 2 of 5 took 20.902s
  training loss:		2.043138
  validation loss:		1.574921
  validation accuracy:		47.65 %
Epoch 3 of 5 took 20.760s
  training loss:		0.968461
  validation loss:		0.432090
  validation accuracy:		87.21 %
Epoch 4 of 5 took 19.939s
  training loss:		0.348748
  validation loss:		0.246034
  validation accuracy:		93.05 %
Epoch 5 of 5 took 20.082s
  training loss:		0.241283
  validation loss:		0.196724
  validation accuracy:		94.30 %
Final results:
  test loss:			0.196566
  test accuracy:		94.27 %
Total time 103.704s
('param : ', '5 2-2-14-14 5-5-8-4 1-2-5-5-1\n')
Loading data...
Parameters : [ 2  2 14 14]	[5 5 8 4]	[1 2 5 5 1]
Building model and compiling functions...
Nombre de parametres:	(3200,)
Starting training...
Epoch 1 of 5 took 19.124s
  training loss:		2.290192
  validation loss:		2.270730
  validation accuracy:		17.90 %
Epoch 2 of 5 took 20.283s
  training loss:		2.187677
  validation loss:		1.958828
  validation accuracy:		39.42 %
Epoch 3 of 5 took 20.801s
  training loss:		1.357947
  validation loss:		0.760028
  validation accuracy:		76.17 %
Epoch 4 of 5 took 19.829s
  training loss:		0.511641
  validation loss:		0.320568
  validation accuracy:		90.80 %
Epoch 5 of 5 took 18.653s
  training loss:		0.296791
  validation loss:		0.236043
  validation accuracy:		93.10 %
Final results:
  test loss:			0.242180
  test accuracy:		92.97 %
Total time 99.898s
('param : ', '5 2-2-14-14 5-5-8-4 1-2-5-6-1\n')
Loading data...
Parameters : [ 2  2 14 14]	[5 5 8 4]	[1 2 5 6 1]
Building model and compiling functions...
Nombre de parametres:	(3816,)
Starting training...
Epoch 1 of 5 took 20.496s
  training loss:		2.276911
  validation loss:		2.224626
  validation accuracy:		33.59 %
Epoch 2 of 5 took 20.660s
  training loss:		1.892083
  validation loss:		1.344098
  validation accuracy:		54.68 %
Epoch 3 of 5 took 21.105s
  training loss:		0.916420
  validation loss:		0.468249
  validation accuracy:		86.00 %
Epoch 4 of 5 took 21.220s
  training loss:		0.371110
  validation loss:		0.259515
  validation accuracy:		92.58 %
Epoch 5 of 5 took 21.372s
  training loss:		0.250363
  validation loss:		0.200117
  validation accuracy:		94.15 %
Final results:
  test loss:			0.204960
  test accuracy:		93.96 %
Total time 106.144s
('param : ', '5 2-2-14-14 5-5-8-4 1-2-5-7-1\n')
Loading data...
Parameters : [ 2  2 14 14]	[5 5 8 4]	[1 2 5 7 1]
Building model and compiling functions...
Nombre de parametres:	(4432,)
Starting training...
Epoch 1 of 5 took 19.906s
  training loss:		2.282997
  validation loss:		2.244861
  validation accuracy:		28.14 %
Epoch 2 of 5 took 20.838s
  training loss:		2.022838
  validation loss:		1.526463
  validation accuracy:		49.64 %
Epoch 3 of 5 took 21.170s
  training loss:		1.007150
  validation loss:		0.508946
  validation accuracy:		84.82 %
Epoch 4 of 5 took 21.792s
  training loss:		0.390486
  validation loss:		0.270567
  validation accuracy:		92.18 %
Epoch 5 of 5 took 21.719s
  training loss:		0.255630
  validation loss:		0.201629
  validation accuracy:		94.15 %
Final results:
  test loss:			0.207205
  test accuracy:		93.99 %
Total time 106.799s
('param : ', '5 2-2-14-14 5-5-8-4 1-2-5-8-1\n')
Loading data...
Parameters : [ 2  2 14 14]	[5 5 8 4]	[1 2 5 8 1]
Building model and compiling functions...
Nombre de parametres:	(5048,)
Starting training...
Epoch 1 of 5 took 21.800s
  training loss:		2.281612
  validation loss:		2.240219
  validation accuracy:		26.60 %
Epoch 2 of 5 took 21.222s
  training loss:		1.965162
  validation loss:		1.375922
  validation accuracy:		54.91 %
Epoch 3 of 5 took 21.635s
  training loss:		0.921451
  validation loss:		0.470210
  validation accuracy:		86.01 %
Epoch 4 of 5 took 21.891s
  training loss:		0.382892
  validation loss:		0.276512
  validation accuracy:		92.25 %
Epoch 5 of 5 took 22.361s
  training loss:		0.261943
  validation loss:		0.211064
  validation accuracy:		93.98 %
Final results:
  test loss:			0.211228
  test accuracy:		93.79 %
Total time 110.232s
('param : ', '5 2-2-14-14 5-5-8-4 1-2-5-9-1\n')
Loading data...
Parameters : [ 2  2 14 14]	[5 5 8 4]	[1 2 5 9 1]
Building model and compiling functions...
Nombre de parametres:	(5664,)
Starting training...
Epoch 1 of 5 took 22.418s
  training loss:		2.291060
  validation loss:		2.272352
  validation accuracy:		12.74 %
Epoch 2 of 5 took 22.064s
  training loss:		2.203614
  validation loss:		2.016983
  validation accuracy:		53.31 %
Epoch 3 of 5 took 21.915s
  training loss:		1.234555
  validation loss:		0.566501
  validation accuracy:		82.94 %
Epoch 4 of 5 took 22.322s
  training loss:		0.436521
  validation loss:		0.295141
  validation accuracy:		91.32 %
Epoch 5 of 5 took 22.427s
  training loss:		0.284658
  validation loss:		0.222057
  validation accuracy:		93.62 %
Final results:
  test loss:			0.226781
  test accuracy:		93.71 %
Total time 112.581s
('param : ', '5 2-2-14-14 5-5-8-4 1-2-5-10-1\n')
Loading data...
Parameters : [ 2  2 14 14]	[5 5 8 4]	[ 1  2  5 10  1]
Building model and compiling functions...
Nombre de parametres:	(6280,)
Starting training...
Epoch 1 of 5 took 22.343s
  training loss:		2.278496
  validation loss:		2.229801
  validation accuracy:		35.19 %
Epoch 2 of 5 took 22.637s
  training loss:		1.906526
  validation loss:		1.238117
  validation accuracy:		59.82 %
Epoch 3 of 5 took 22.393s
  training loss:		0.755921
  validation loss:		0.385621
  validation accuracy:		88.82 %
Epoch 4 of 5 took 22.825s
  training loss:		0.348111
  validation loss:		0.270459
  validation accuracy:		92.40 %
Epoch 5 of 5 took 23.095s
  training loss:		0.257431
  validation loss:		0.204183
  validation accuracy:		94.23 %
Final results:
  test loss:			0.210336
  test accuracy:		94.09 %
Total time 114.777s
('param : ', '5 2-2-14-14 5-5-8-4 1-2-6-1-1\n')
Loading data...
Parameters : [ 2  2 14 14]	[5 5 8 4]	[1 2 6 1 1]
Building model and compiling functions...
Nombre de parametres:	(868,)
Starting training...
Epoch 1 of 5 took 18.270s
  training loss:		2.301614
  validation loss:		2.301958
  validation accuracy:		10.64 %
Epoch 2 of 5 took 17.401s
  training loss:		2.301141
  validation loss:		2.301853
  validation accuracy:		10.64 %
Epoch 3 of 5 took 18.595s
  training loss:		2.300971
  validation loss:		2.301417
  validation accuracy:		10.64 %
Epoch 4 of 5 took 19.250s
  training loss:		2.297455
  validation loss:		2.290099
  validation accuracy:		10.64 %
Epoch 5 of 5 took 19.116s
  training loss:		2.226902
  validation loss:		2.007578
  validation accuracy:		31.11 %
Final results:
  test loss:			2.004936
  test accuracy:		30.03 %
Total time 93.836s
('param : ', '5 2-2-14-14 5-5-8-4 1-2-6-2-1\n')
Loading data...
Parameters : [ 2  2 14 14]	[5 5 8 4]	[1 2 6 2 1]
Building model and compiling functions...
Nombre de parametres:	(1596,)
Starting training...
Epoch 1 of 5 took 19.072s
  training loss:		2.301534
  validation loss:		2.302070
  validation accuracy:		10.64 %
Epoch 2 of 5 took 18.377s
  training loss:		2.301152
  validation loss:		2.302012
  validation accuracy:		10.64 %
Epoch 3 of 5 took 19.219s
  training loss:		2.301100
  validation loss:		2.302042
  validation accuracy:		10.64 %
Epoch 4 of 5 took 19.160s
  training loss:		2.301077
  validation loss:		2.301975
  validation accuracy:		10.64 %
Epoch 5 of 5 took 18.890s
  training loss:		2.300765
  validation loss:		2.300868
  validation accuracy:		10.64 %
Final results:
  test loss:			2.299836
  test accuracy:		11.35 %
Total time 95.912s
('param : ', '5 2-2-14-14 5-5-8-4 1-2-6-3-1\n')
Loading data...
Parameters : [ 2  2 14 14]	[5 5 8 4]	[1 2 6 3 1]
Building model and compiling functions...
Nombre de parametres:	(2324,)
Starting training...
Epoch 1 of 5 took 20.128s
  training loss:		2.287325
  validation loss:		2.259771
  validation accuracy:		30.07 %
Epoch 2 of 5 took 20.072s
  training loss:		2.060836
  validation loss:		1.464212
  validation accuracy:		53.67 %
Epoch 3 of 5 took 19.820s
  training loss:		0.885143
  validation loss:		0.424297
  validation accuracy:		87.15 %
Epoch 4 of 5 took 20.421s
  training loss:		0.342864
  validation loss:		0.242470
  validation accuracy:		92.89 %
Epoch 5 of 5 took 19.218s
  training loss:		0.235579
  validation loss:		0.189066
  validation accuracy:		94.73 %
Final results:
  test loss:			0.192625
  test accuracy:		94.60 %
Total time 100.813s
('param : ', '5 2-2-14-14 5-5-8-4 1-2-6-4-1\n')
Loading data...
Parameters : [ 2  2 14 14]	[5 5 8 4]	[1 2 6 4 1]
Building model and compiling functions...
Nombre de parametres:	(3052,)
Starting training...
Epoch 1 of 5 took 20.170s
  training loss:		2.216343
  validation loss:		1.885447
  validation accuracy:		43.36 %
Epoch 2 of 5 took 20.024s
  training loss:		1.214506
  validation loss:		0.623649
  validation accuracy:		81.58 %
Epoch 3 of 5 took 19.420s
  training loss:		0.454324
  validation loss:		0.283078
  validation accuracy:		91.75 %
Epoch 4 of 5 took 19.772s
  training loss:		0.263237
  validation loss:		0.203675
  validation accuracy:		94.20 %
Epoch 5 of 5 took 19.581s
  training loss:		0.200642
  validation loss:		0.167839
  validation accuracy:		95.04 %
Final results:
  test loss:			0.164098
  test accuracy:		94.99 %
Total time 100.177s
('param : ', '5 2-2-14-14 5-5-8-4 1-2-6-5-1\n')
Loading data...
Parameters : [ 2  2 14 14]	[5 5 8 4]	[1 2 6 5 1]
Building model and compiling functions...
Nombre de parametres:	(3780,)
Starting training...
Epoch 1 of 5 took 19.954s
  training loss:		2.282890
  validation loss:		2.242732
  validation accuracy:		30.79 %
Epoch 2 of 5 took 20.135s
  training loss:		1.976928
  validation loss:		1.386503
  validation accuracy:		56.57 %
Epoch 3 of 5 took 20.581s
  training loss:		0.864585
  validation loss:		0.426262
  validation accuracy:		87.59 %
Epoch 4 of 5 took 21.417s
  training loss:		0.346202
  validation loss:		0.247924
  validation accuracy:		92.90 %
Epoch 5 of 5 took 21.680s
  training loss:		0.238315
  validation loss:		0.191310
  validation accuracy:		94.46 %
Final results:
  test loss:			0.194695
  test accuracy:		94.38 %
Total time 105.173s
('param : ', '5 2-2-14-14 5-5-8-4 1-2-6-6-1\n')
Loading data...
Parameters : [ 2  2 14 14]	[5 5 8 4]	[1 2 6 6 1]
Building model and compiling functions...
Nombre de parametres:	(4508,)
Starting training...
Epoch 1 of 5 took 21.847s
  training loss:		2.289429
  validation loss:		2.267591
  validation accuracy:		22.55 %
Epoch 2 of 5 took 21.517s
  training loss:		2.175572
  validation loss:		1.931031
  validation accuracy:		42.32 %
Epoch 3 of 5 took 19.814s
  training loss:		1.369071
  validation loss:		0.791515
  validation accuracy:		75.13 %
Epoch 4 of 5 took 19.269s
  training loss:		0.540129
  validation loss:		0.324395
  validation accuracy:		90.68 %
Epoch 5 of 5 took 20.529s
  training loss:		0.291837
  validation loss:		0.226045
  validation accuracy:		93.56 %
Final results:
  test loss:			0.228931
  test accuracy:		93.40 %
Total time 104.403s
('param : ', '5 2-2-14-14 5-5-8-4 1-2-6-7-1\n')
Loading data...
Parameters : [ 2  2 14 14]	[5 5 8 4]	[1 2 6 7 1]
Building model and compiling functions...
Nombre de parametres:	(5236,)
Starting training...
Epoch 1 of 5 took 22.647s
  training loss:		2.277255
  validation loss:		2.219029
  validation accuracy:		33.86 %
Epoch 2 of 5 took 22.255s
  training loss:		1.909283
  validation loss:		1.337285
  validation accuracy:		56.78 %
Epoch 3 of 5 took 21.851s
  training loss:		0.869552
  validation loss:		0.459093
  validation accuracy:		86.46 %
Epoch 4 of 5 took 21.990s
  training loss:		0.370095
  validation loss:		0.267458
  validation accuracy:		92.38 %
Epoch 5 of 5 took 21.692s
  training loss:		0.255124
  validation loss:		0.203304
  validation accuracy:		94.04 %
Final results:
  test loss:			0.209955
  test accuracy:		93.69 %
Total time 111.879s
('param : ', '5 2-2-14-14 5-5-8-4 1-2-6-8-1\n')
Loading data...
Parameters : [ 2  2 14 14]	[5 5 8 4]	[1 2 6 8 1]
Building model and compiling functions...
Nombre de parametres:	(5964,)
Starting training...
Epoch 1 of 5 took 22.139s
  training loss:		2.286292
  validation loss:		2.255756
  validation accuracy:		27.67 %
Epoch 2 of 5 took 21.009s
  training loss:		2.073105
  validation loss:		1.564692
  validation accuracy:		51.17 %
Epoch 3 of 5 took 21.279s
  training loss:		0.936164
  validation loss:		0.412294
  validation accuracy:		87.89 %
Epoch 4 of 5 took 21.921s
  training loss:		0.349335
  validation loss:		0.251415
  validation accuracy:		92.61 %
Epoch 5 of 5 took 22.564s
  training loss:		0.243777
  validation loss:		0.198006
  validation accuracy:		94.16 %
Final results:
  test loss:			0.201591
  test accuracy:		94.03 %
Total time 110.393s
('param : ', '5 2-2-14-14 5-5-8-4 1-2-6-9-1\n')
Loading data...
Parameters : [ 2  2 14 14]	[5 5 8 4]	[1 2 6 9 1]
Building model and compiling functions...
Nombre de parametres:	(6692,)
Starting training...
Epoch 1 of 5 took 23.650s
  training loss:		2.273983
  validation loss:		2.210894
  validation accuracy:		29.11 %
Epoch 2 of 5 took 22.174s
  training loss:		1.815870
  validation loss:		1.220057
  validation accuracy:		61.99 %
Epoch 3 of 5 took 22.157s
  training loss:		0.767295
  validation loss:		0.408963
  validation accuracy:		87.95 %
Epoch 4 of 5 took 23.128s
  training loss:		0.346488
  validation loss:		0.259098
  validation accuracy:		92.76 %
Epoch 5 of 5 took 23.069s
  training loss:		0.246948
  validation loss:		0.196615
  validation accuracy:		94.38 %
Final results:
  test loss:			0.199043
  test accuracy:		94.18 %
Total time 115.670s
('param : ', '5 2-2-14-14 5-5-8-4 1-2-6-10-1\n')
Loading data...
Parameters : [ 2  2 14 14]	[5 5 8 4]	[ 1  2  6 10  1]
Building model and compiling functions...
Nombre de parametres:	(7420,)
Starting training...
Epoch 1 of 5 took 24.671s
  training loss:		2.293622
  validation loss:		2.280858
  validation accuracy:		10.64 %
Epoch 2 of 5 took 23.433s
  training loss:		2.238102
  validation loss:		2.142342
  validation accuracy:		37.98 %
Epoch 3 of 5 took 23.540s
  training loss:		1.698792
  validation loss:		1.065913
  validation accuracy:		67.19 %
Epoch 4 of 5 took 23.133s
  training loss:		0.683426
  validation loss:		0.396671
  validation accuracy:		88.20 %
Epoch 5 of 5 took 23.366s
  training loss:		0.351995
  validation loss:		0.262800
  validation accuracy:		92.34 %
Final results:
  test loss:			0.276523
  test accuracy:		92.24 %
Total time 119.654s
('param : ', '5 2-2-14-14 5-5-8-4 1-2-7-1-1\n')
Loading data...
Parameters : [ 2  2 14 14]	[5 5 8 4]	[1 2 7 1 1]
Building model and compiling functions...
Nombre de parametres:	(1000,)
Starting training...
Epoch 1 of 5 took 20.061s
  training loss:		2.301593
  validation loss:		2.301935
  validation accuracy:		10.64 %
Epoch 2 of 5 took 19.048s
  training loss:		2.301144
  validation loss:		2.301882
  validation accuracy:		10.64 %
Epoch 3 of 5 took 18.790s
  training loss:		2.301021
  validation loss:		2.301743
  validation accuracy:		10.64 %
Epoch 4 of 5 took 17.546s
  training loss:		2.298922
  validation loss:		2.294093
  validation accuracy:		10.64 %
Epoch 5 of 5 took 18.049s
  training loss:		2.251217
  validation loss:		2.135113
  validation accuracy:		26.90 %
Final results:
  test loss:			2.129909
  test accuracy:		27.40 %
Total time 94.621s
('param : ', '5 2-2-14-14 5-5-8-4 1-2-7-2-1\n')
Loading data...
Parameters : [ 2  2 14 14]	[5 5 8 4]	[1 2 7 2 1]
Building model and compiling functions...
Nombre de parametres:	(1840,)
Starting training...
Epoch 1 of 5 took 19.677s
  training loss:		2.301635
  validation loss:		2.301848
  validation accuracy:		10.64 %
Epoch 2 of 5 took 19.059s
  training loss:		2.301141
  validation loss:		2.301979
  validation accuracy:		10.64 %
Epoch 3 of 5 took 18.510s
  training loss:		2.301150
  validation loss:		2.302010
  validation accuracy:		10.64 %
Epoch 4 of 5 took 18.711s
  training loss:		2.301154
  validation loss:		2.302032
  validation accuracy:		10.64 %
Epoch 5 of 5 took 17.620s
  training loss:		2.301096
  validation loss:		2.302118
  validation accuracy:		10.64 %
Final results:
  test loss:			2.301024
  test accuracy:		11.35 %
Total time 94.654s
('param : ', '5 2-2-14-14 5-5-8-4 1-2-7-3-1\n')
Loading data...
Parameters : [ 2  2 14 14]	[5 5 8 4]	[1 2 7 3 1]
Building model and compiling functions...
Nombre de parametres:	(2680,)
Starting training...
Epoch 1 of 5 took 20.150s
  training loss:		2.266367
  validation loss:		2.157754
  validation accuracy:		40.00 %
Epoch 2 of 5 took 20.433s
  training loss:		1.293172
  validation loss:		0.437441
  validation accuracy:		87.45 %
Epoch 3 of 5 took 20.801s
  training loss:		0.342130
  validation loss:		0.236050
  validation accuracy:		93.20 %
Epoch 4 of 5 took 20.671s
  training loss:		0.231492
  validation loss:		0.178122
  validation accuracy:		94.99 %
Epoch 5 of 5 took 20.020s
  training loss:		0.182083
  validation loss:		0.157009
  validation accuracy:		95.52 %
Final results:
  test loss:			0.160918
  test accuracy:		95.17 %
Total time 103.306s
('param : ', '5 2-2-14-14 5-5-8-4 1-2-7-4-1\n')
Loading data...
Parameters : [ 2  2 14 14]	[5 5 8 4]	[1 2 7 4 1]
Building model and compiling functions...
Nombre de parametres:	(3520,)
Starting training...
Epoch 1 of 5 took 18.690s
  training loss:		2.287533
  validation loss:		2.259937
  validation accuracy:		24.11 %
Epoch 2 of 5 took 19.263s
  training loss:		2.064161
  validation loss:		1.538500
  validation accuracy:		50.64 %
Epoch 3 of 5 took 20.726s
  training loss:		1.010666
  validation loss:		0.550854
  validation accuracy:		83.27 %
Epoch 4 of 5 took 20.827s
  training loss:		0.400086
  validation loss:		0.250989
  validation accuracy:		92.92 %
Epoch 5 of 5 took 20.966s
  training loss:		0.242048
  validation loss:		0.195240
  validation accuracy:		94.38 %
Final results:
  test loss:			0.197940
  test accuracy:		94.08 %
Total time 101.826s
('param : ', '5 2-2-14-14 5-5-8-4 1-2-7-5-1\n')
Loading data...
Parameters : [ 2  2 14 14]	[5 5 8 4]	[1 2 7 5 1]
Building model and compiling functions...
Nombre de parametres:	(4360,)
Starting training...
Epoch 1 of 5 took 19.608s
  training loss:		2.293996
  validation loss:		2.281203
  validation accuracy:		11.11 %
Epoch 2 of 5 took 19.542s
  training loss:		2.236515
  validation loss:		2.131432
  validation accuracy:		36.56 %
Epoch 3 of 5 took 19.163s
  training loss:		1.710530
  validation loss:		1.189472
  validation accuracy:		63.03 %
Epoch 4 of 5 took 19.905s
  training loss:		0.730364
  validation loss:		0.373173
  validation accuracy:		88.93 %
Epoch 5 of 5 took 19.492s
  training loss:		0.321274
  validation loss:		0.237843
  validation accuracy:		93.17 %
Final results:
  test loss:			0.243423
  test accuracy:		92.87 %
Total time 98.914s
('param : ', '5 2-2-14-14 5-5-8-4 1-2-7-6-1\n')
Loading data...
Parameters : [ 2  2 14 14]	[5 5 8 4]	[1 2 7 6 1]
Building model and compiling functions...
Nombre de parametres:	(5200,)
Starting training...
Epoch 1 of 5 took 21.211s
  training loss:		2.254064
  validation loss:		2.103151
  validation accuracy:		42.88 %
Epoch 2 of 5 took 21.835s
  training loss:		1.433090
  validation loss:		0.739874
  validation accuracy:		76.94 %
Epoch 3 of 5 took 21.336s
  training loss:		0.497347
  validation loss:		0.296718
  validation accuracy:		91.80 %
Epoch 4 of 5 took 21.744s
  training loss:		0.270569
  validation loss:		0.209704
  validation accuracy:		93.94 %
Epoch 5 of 5 took 22.867s
  training loss:		0.204527
  validation loss:		0.169710
  validation accuracy:		95.03 %
Final results:
  test loss:			0.168046
  test accuracy:		95.02 %
Total time 110.443s
('param : ', '5 2-2-14-14 5-5-8-4 1-2-7-7-1\n')
Loading data...
Parameters : [ 2  2 14 14]	[5 5 8 4]	[1 2 7 7 1]
Building model and compiling functions...
Nombre de parametres:	(6040,)
Starting training...
Epoch 1 of 5 took 22.621s
  training loss:		2.253329
  validation loss:		2.096823
  validation accuracy:		40.62 %
Epoch 2 of 5 took 22.405s
  training loss:		1.447488
  validation loss:		0.773211
  validation accuracy:		75.91 %
Epoch 3 of 5 took 22.472s
  training loss:		0.545407
  validation loss:		0.327650
  validation accuracy:		90.72 %
Epoch 4 of 5 took 21.765s
  training loss:		0.292939
  validation loss:		0.223850
  validation accuracy:		93.65 %
Epoch 5 of 5 took 22.973s
  training loss:		0.214087
  validation loss:		0.175173
  validation accuracy:		95.00 %
Final results:
  test loss:			0.172626
  test accuracy:		95.21 %
Total time 113.727s
('param : ', '5 2-2-14-14 5-5-8-4 1-2-7-8-1\n')
Loading data...
Parameters : [ 2  2 14 14]	[5 5 8 4]	[1 2 7 8 1]
Building model and compiling functions...
Nombre de parametres:	(6880,)
Starting training...
Epoch 1 of 5 took 23.317s
  training loss:		2.277631
  validation loss:		2.224205
  validation accuracy:		36.06 %
Epoch 2 of 5 took 22.975s
  training loss:		1.825091
  validation loss:		1.173171
  validation accuracy:		61.32 %
Epoch 3 of 5 took 21.826s
  training loss:		0.744959
  validation loss:		0.386166
  validation accuracy:		88.59 %
Epoch 4 of 5 took 22.432s
  training loss:		0.322224
  validation loss:		0.237046
  validation accuracy:		93.39 %
Epoch 5 of 5 took 23.495s
  training loss:		0.230873
  validation loss:		0.192158
  validation accuracy:		94.34 %
Final results:
  test loss:			0.194404
  test accuracy:		94.21 %
Total time 115.473s
('param : ', '5 2-2-14-14 5-5-8-4 1-2-7-9-1\n')
Loading data...
Parameters : [ 2  2 14 14]	[5 5 8 4]	[1 2 7 9 1]
Building model and compiling functions...
Nombre de parametres:	(7720,)
Starting training...
Epoch 1 of 5 took 23.729s
  training loss:		2.290789
  validation loss:		2.271551
  validation accuracy:		20.54 %
Epoch 2 of 5 took 24.196s
  training loss:		2.192149
  validation loss:		1.977124
  validation accuracy:		40.70 %
Epoch 3 of 5 took 22.762s
  training loss:		1.418299
  validation loss:		0.801276
  validation accuracy:		74.52 %
Epoch 4 of 5 took 22.936s
  training loss:		0.518705
  validation loss:		0.317761
  validation accuracy:		90.81 %
Epoch 5 of 5 took 24.137s
  training loss:		0.294321
  validation loss:		0.234269
  validation accuracy:		93.50 %
Final results:
  test loss:			0.240849
  test accuracy:		93.02 %
Total time 119.350s
('param : ', '5 2-2-14-14 5-5-8-4 1-2-7-10-1\n')
Loading data...
Parameters : [ 2  2 14 14]	[5 5 8 4]	[ 1  2  7 10  1]
Building model and compiling functions...
Nombre de parametres:	(8560,)
Starting training...
Epoch 1 of 5 took 21.936s
  training loss:		2.282493
  validation loss:		2.244431
  validation accuracy:		28.06 %
Epoch 2 of 5 took 23.364s
  training loss:		2.001229
  validation loss:		1.465846
  validation accuracy:		50.73 %
Epoch 3 of 5 took 23.222s
  training loss:		1.031044
  validation loss:		0.551309
  validation accuracy:		83.15 %
Epoch 4 of 5 took 21.978s
  training loss:		0.415157
  validation loss:		0.275908
  validation accuracy:		92.07 %
Epoch 5 of 5 took 22.720s
  training loss:		0.262819
  validation loss:		0.208156
  validation accuracy:		93.82 %
Final results:
  test loss:			0.209656
  test accuracy:		93.80 %
Total time 114.745s
('param : ', '5 2-2-14-14 5-5-8-4 1-2-8-1-1\n')
Loading data...
Parameters : [ 2  2 14 14]	[5 5 8 4]	[1 2 8 1 1]
Building model and compiling functions...
Nombre de parametres:	(1132,)
Starting training...
Epoch 1 of 5 took 19.680s
  training loss:		2.301616
  validation loss:		2.301952
  validation accuracy:		10.64 %
Epoch 2 of 5 took 17.519s
  training loss:		2.301025
  validation loss:		2.301602
  validation accuracy:		10.64 %
Epoch 3 of 5 took 18.654s
  training loss:		2.294467
  validation loss:		2.276564
  validation accuracy:		20.65 %
Epoch 4 of 5 took 19.567s
  training loss:		2.033122
  validation loss:		1.357776
  validation accuracy:		60.00 %
Epoch 5 of 5 took 20.204s
  training loss:		0.719349
  validation loss:		0.372904
  validation accuracy:		89.35 %
Final results:
  test loss:			0.404364
  test accuracy:		88.56 %
Total time 96.841s
('param : ', '5 2-2-14-14 5-5-8-4 1-2-8-2-1\n')
Loading data...
Parameters : [ 2  2 14 14]	[5 5 8 4]	[1 2 8 2 1]
Building model and compiling functions...
Nombre de parametres:	(2084,)
Starting training...
Epoch 1 of 5 took 20.386s
  training loss:		2.301573
  validation loss:		2.301886
  validation accuracy:		10.64 %
Epoch 2 of 5 took 19.689s
  training loss:		2.301164
  validation loss:		2.301937
  validation accuracy:		10.64 %
Epoch 3 of 5 took 19.067s
  training loss:		2.301096
  validation loss:		2.301901
  validation accuracy:		10.64 %
Epoch 4 of 5 took 20.015s
  training loss:		2.301041
  validation loss:		2.301682
  validation accuracy:		10.64 %
Epoch 5 of 5 took 20.424s
  training loss:		2.299824
  validation loss:		2.297692
  validation accuracy:		10.64 %
Final results:
  test loss:			2.296696
  test accuracy:		11.35 %
Total time 100.817s
('param : ', '5 2-2-14-14 5-5-8-4 1-2-8-3-1\n')
Loading data...
Parameters : [ 2  2 14 14]	[5 5 8 4]	[1 2 8 3 1]
Building model and compiling functions...
Nombre de parametres:	(3036,)
Starting training...
Epoch 1 of 5 took 21.090s
  training loss:		2.301608
  validation loss:		2.301884
  validation accuracy:		10.64 %
Epoch 2 of 5 took 21.239s
  training loss:		2.301148
  validation loss:		2.301991
  validation accuracy:		10.64 %
Epoch 3 of 5 took 19.704s
  training loss:		2.301109
  validation loss:		2.302027
  validation accuracy:		10.64 %
Epoch 4 of 5 took 20.312s
  training loss:		2.301088
  validation loss:		2.301861
  validation accuracy:		10.64 %
Epoch 5 of 5 took 20.836s
  training loss:		2.300292
  validation loss:		2.298884
  validation accuracy:		10.64 %
Final results:
  test loss:			2.297915
  test accuracy:		11.35 %
Total time 104.503s
('param : ', '5 2-2-14-14 5-5-8-4 1-2-8-4-1\n')
Loading data...
Parameters : [ 2  2 14 14]	[5 5 8 4]	[1 2 8 4 1]
Building model and compiling functions...
Nombre de parametres:	(3988,)
Starting training...
Epoch 1 of 5 took 20.586s
  training loss:		2.282702
  validation loss:		2.243482
  validation accuracy:		29.41 %
Epoch 2 of 5 took 20.960s
  training loss:		1.952909
  validation loss:		1.337792
  validation accuracy:		55.84 %
Epoch 3 of 5 took 20.762s
  training loss:		0.882265
  validation loss:		0.471092
  validation accuracy:		85.99 %
Epoch 4 of 5 took 20.015s
  training loss:		0.373445
  validation loss:		0.259925
  validation accuracy:		92.75 %
Epoch 5 of 5 took 21.042s
  training loss:		0.242404
  validation loss:		0.194267
  validation accuracy:		94.48 %
Final results:
  test loss:			0.191005
  test accuracy:		94.27 %
Total time 104.744s
('param : ', '5 2-2-14-14 5-5-8-4 1-2-8-5-1\n')
Loading data...
Parameters : [ 2  2 14 14]	[5 5 8 4]	[1 2 8 5 1]
Building model and compiling functions...
Nombre de parametres:	(4940,)
Starting training...
Epoch 1 of 5 took 21.515s
  training loss:		2.272551
  validation loss:		2.191543
  validation accuracy:		39.77 %
Epoch 2 of 5 took 20.073s
  training loss:		1.621554
  validation loss:		0.907932
  validation accuracy:		71.58 %
Epoch 3 of 5 took 20.474s
  training loss:		0.638380
  validation loss:		0.391012
  validation accuracy:		88.34 %
Epoch 4 of 5 took 21.028s
  training loss:		0.328969
  validation loss:		0.245681
  validation accuracy:		92.67 %
Epoch 5 of 5 took 21.014s
  training loss:		0.225921
  validation loss:		0.178178
  validation accuracy:		94.93 %
Final results:
  test loss:			0.186990
  test accuracy:		94.61 %
Total time 105.394s
('param : ', '5 2-2-14-14 5-5-8-4 1-2-8-6-1\n')
Loading data...
Parameters : [ 2  2 14 14]	[5 5 8 4]	[1 2 8 6 1]
Building model and compiling functions...
Nombre de parametres:	(5892,)
Starting training...
Epoch 1 of 5 took 23.117s
  training loss:		2.269823
  validation loss:		2.194212
  validation accuracy:		32.83 %
Epoch 2 of 5 took 22.391s
  training loss:		1.688958
  validation loss:		0.981383
  validation accuracy:		68.45 %
Epoch 3 of 5 took 21.945s
  training loss:		0.588695
  validation loss:		0.328537
  validation accuracy:		90.55 %
Epoch 4 of 5 took 22.495s
  training loss:		0.304032
  validation loss:		0.229135
  validation accuracy:		93.51 %
Epoch 5 of 5 took 22.893s
  training loss:		0.227857
  validation loss:		0.183456
  validation accuracy:		94.91 %
Final results:
  test loss:			0.192736
  test accuracy:		94.35 %
Total time 114.301s
('param : ', '5 2-2-14-14 5-5-8-4 1-2-8-7-1\n')
Loading data...
Parameters : [ 2  2 14 14]	[5 5 8 4]	[1 2 8 7 1]
Building model and compiling functions...
Nombre de parametres:	(6844,)
Starting training...
Epoch 1 of 5 took 23.065s
  training loss:		2.258072
  validation loss:		2.123733
  validation accuracy:		43.34 %
Epoch 2 of 5 took 22.967s
  training loss:		1.492392
  validation loss:		0.807127
  validation accuracy:		75.29 %
Epoch 3 of 5 took 22.022s
  training loss:		0.535661
  validation loss:		0.321383
  validation accuracy:		90.83 %
Epoch 4 of 5 took 22.195s
  training loss:		0.295863
  validation loss:		0.227717
  validation accuracy:		93.30 %
Epoch 5 of 5 took 21.310s
  training loss:		0.224749
  validation loss:		0.186769
  validation accuracy:		94.58 %
Final results:
  test loss:			0.187731
  test accuracy:		94.37 %
Total time 112.953s
('param : ', '5 2-2-14-14 5-5-8-4 1-2-8-8-1\n')
Loading data...
Parameters : [ 2  2 14 14]	[5 5 8 4]	[1 2 8 8 1]
Building model and compiling functions...
Nombre de parametres:	(7796,)
Starting training...
Epoch 1 of 5 took 20.471s
  training loss:		2.282031
  validation loss:		2.243442
  validation accuracy:		31.92 %
Epoch 2 of 5 took 19.326s
  training loss:		1.985497
  validation loss:		1.375569
  validation accuracy:		54.63 %
Epoch 3 of 5 took 19.446s
  training loss:		0.925801
  validation loss:		0.496837
  validation accuracy:		84.75 %
Epoch 4 of 5 took 20.866s
  training loss:		0.398816
  validation loss:		0.282598
  validation accuracy:		91.73 %
Epoch 5 of 5 took 20.779s
  training loss:		0.268329
  validation loss:		0.213809
  validation accuracy:		93.89 %
Final results:
  test loss:			0.222128
  test accuracy:		93.62 %
Total time 102.267s
('param : ', '5 2-2-14-14 5-5-8-4 1-2-8-9-1\n')
Loading data...
Parameters : [ 2  2 14 14]	[5 5 8 4]	[1 2 8 9 1]
Building model and compiling functions...
Nombre de parametres:	(8748,)
Starting training...
Epoch 1 of 5 took 24.652s
  training loss:		2.277842
  validation loss:		2.224942
  validation accuracy:		40.63 %
Epoch 2 of 5 took 24.983s
  training loss:		1.851316
  validation loss:		1.205305
  validation accuracy:		60.27 %
Epoch 3 of 5 took 24.540s
  training loss:		0.767030
  validation loss:		0.396562
  validation accuracy:		88.46 %
Epoch 4 of 5 took 24.695s
  training loss:		0.340208
  validation loss:		0.253450
  validation accuracy:		92.95 %
Epoch 5 of 5 took 23.244s
  training loss:		0.245780
  validation loss:		0.196991
  validation accuracy:		94.47 %
Final results:
  test loss:			0.202885
  test accuracy:		93.90 %
Total time 123.655s
('param : ', '5 2-2-14-14 5-5-8-4 1-2-8-10-1\n')
Loading data...
Parameters : [ 2  2 14 14]	[5 5 8 4]	[ 1  2  8 10  1]
Building model and compiling functions...
Nombre de parametres:	(9700,)
Starting training...
Epoch 1 of 5 took 23.818s
  training loss:		2.275821
  validation loss:		2.219963
  validation accuracy:		28.04 %
Epoch 2 of 5 took 24.526s
  training loss:		1.882218
  validation loss:		1.275489
  validation accuracy:		59.15 %
Epoch 3 of 5 took 24.997s
  training loss:		0.800359
  validation loss:		0.413966
  validation accuracy:		87.98 %
Epoch 4 of 5 took 24.103s
  training loss:		0.356195
  validation loss:		0.266904
  validation accuracy:		92.15 %
Epoch 5 of 5 took 23.792s
  training loss:		0.259290
  validation loss:		0.207271
  validation accuracy:		93.99 %
Final results:
  test loss:			0.213268
  test accuracy:		93.57 %
Total time 122.787s
('param : ', '5 2-2-14-14 5-5-8-4 1-2-9-1-1\n')
Loading data...
Parameters : [ 2  2 14 14]	[5 5 8 4]	[1 2 9 1 1]
Building model and compiling functions...
Nombre de parametres:	(1264,)
Starting training...
Epoch 1 of 5 took 20.324s
  training loss:		2.301633
  validation loss:		2.301926
  validation accuracy:		10.64 %
Epoch 2 of 5 took 20.330s
  training loss:		2.301036
  validation loss:		2.301652
  validation accuracy:		10.64 %
Epoch 3 of 5 took 20.777s
  training loss:		2.297479
  validation loss:		2.288277
  validation accuracy:		10.64 %
Epoch 4 of 5 took 20.164s
  training loss:		2.190021
  validation loss:		1.912031
  validation accuracy:		28.19 %
Epoch 5 of 5 took 19.229s
  training loss:		1.205395
  validation loss:		0.527577
  validation accuracy:		84.66 %
Final results:
  test loss:			0.568224
  test accuracy:		83.55 %
Total time 101.953s
('param : ', '5 2-2-14-14 5-5-8-4 1-2-9-2-1\n')
Loading data...
Parameters : [ 2  2 14 14]	[5 5 8 4]	[1 2 9 2 1]
Building model and compiling functions...
Nombre de parametres:	(2328,)
Starting training...
Epoch 1 of 5 took 19.127s
  training loss:		2.301647
  validation loss:		2.301809
  validation accuracy:		10.64 %
Epoch 2 of 5 took 19.259s
  training loss:		2.301145
  validation loss:		2.301922
  validation accuracy:		10.64 %
Epoch 3 of 5 took 20.367s
  training loss:		2.301103
  validation loss:		2.302023
  validation accuracy:		10.64 %
Epoch 4 of 5 took 21.132s
  training loss:		2.301076
  validation loss:		2.301778
  validation accuracy:		10.64 %
Epoch 5 of 5 took 20.657s
  training loss:		2.300506
  validation loss:		2.299936
  validation accuracy:		10.64 %
Final results:
  test loss:			2.298816
  test accuracy:		11.35 %
Total time 101.743s
('param : ', '5 2-2-14-14 5-5-8-4 1-2-9-3-1\n')
Loading data...
Parameters : [ 2  2 14 14]	[5 5 8 4]	[1 2 9 3 1]
Building model and compiling functions...
Nombre de parametres:	(3392,)
Starting training...
Epoch 1 of 5 took 21.389s
  training loss:		2.301712
  validation loss:		2.301887
  validation accuracy:		10.64 %
Epoch 2 of 5 took 21.034s
  training loss:		2.301122
  validation loss:		2.302006
  validation accuracy:		10.64 %
Epoch 3 of 5 took 21.283s
  training loss:		2.301000
  validation loss:		2.301534
  validation accuracy:		10.64 %
Epoch 4 of 5 took 20.847s
  training loss:		2.295521
  validation loss:		2.280813
  validation accuracy:		15.91 %
Epoch 5 of 5 took 21.081s
  training loss:		2.019905
  validation loss:		1.195845
  validation accuracy:		64.05 %
Final results:
  test loss:			1.207742
  test accuracy:		64.27 %
Total time 106.913s
('param : ', '5 2-2-14-14 5-5-8-4 1-2-9-4-1\n')
Loading data...
Parameters : [ 2  2 14 14]	[5 5 8 4]	[1 2 9 4 1]
Building model and compiling functions...
Nombre de parametres:	(4456,)
Starting training...
Epoch 1 of 5 took 18.871s
  training loss:		2.265597
  validation loss:		2.168536
  validation accuracy:		36.21 %
Epoch 2 of 5 took 20.492s
  training loss:		1.524652
  validation loss:		0.718970
  validation accuracy:		78.55 %
Epoch 3 of 5 took 20.643s
  training loss:		0.447676
  validation loss:		0.269367
  validation accuracy:		92.26 %
Epoch 4 of 5 took 20.767s
  training loss:		0.260513
  validation loss:		0.205160
  validation accuracy:		94.01 %
Epoch 5 of 5 took 20.364s
  training loss:		0.202380
  validation loss:		0.162748
  validation accuracy:		95.43 %
Final results:
  test loss:			0.164528
  test accuracy:		94.97 %
Total time 102.364s
('param : ', '5 2-2-14-14 5-5-8-4 1-2-9-5-1\n')
Loading data...
Parameters : [ 2  2 14 14]	[5 5 8 4]	[1 2 9 5 1]
Building model and compiling functions...
Nombre de parametres:	(5520,)
Starting training...
Epoch 1 of 5 took 20.105s
  training loss:		2.255429
  validation loss:		2.109044
  validation accuracy:		38.12 %
Epoch 2 of 5 took 20.981s
  training loss:		1.444365
  validation loss:		0.720482
  validation accuracy:		78.55 %
Epoch 3 of 5 took 20.588s
  training loss:		0.483595
  validation loss:		0.300131
  validation accuracy:		91.46 %
Epoch 4 of 5 took 20.779s
  training loss:		0.278333
  validation loss:		0.215751
  validation accuracy:		94.05 %
Epoch 5 of 5 took 21.995s
  training loss:		0.210383
  validation loss:		0.176378
  validation accuracy:		95.08 %
Final results:
  test loss:			0.175133
  test accuracy:		94.75 %
Total time 105.837s
('param : ', '5 2-2-14-14 5-5-8-4 1-2-9-6-1\n')
Loading data...
Parameters : [ 2  2 14 14]	[5 5 8 4]	[1 2 9 6 1]
Building model and compiling functions...
Nombre de parametres:	(6584,)
Starting training...
Epoch 1 of 5 took 23.136s
  training loss:		2.269125
  validation loss:		2.189419
  validation accuracy:		38.44 %
Epoch 2 of 5 took 22.649s
  training loss:		1.610001
  validation loss:		0.839210
  validation accuracy:		73.21 %
Epoch 3 of 5 took 23.146s
  training loss:		0.492691
  validation loss:		0.285382
  validation accuracy:		91.95 %
Epoch 4 of 5 took 21.924s
  training loss:		0.271659
  validation loss:		0.209407
  validation accuracy:		93.99 %
Epoch 5 of 5 took 22.548s
  training loss:		0.208852
  validation loss:		0.176361
  validation accuracy:		94.79 %
Final results:
  test loss:			0.178209
  test accuracy:		94.71 %
Total time 114.809s
('param : ', '5 2-2-14-14 5-5-8-4 1-2-9-7-1\n')
Loading data...
Parameters : [ 2  2 14 14]	[5 5 8 4]	[1 2 9 7 1]
Building model and compiling functions...
Nombre de parametres:	(7648,)
Starting training...
Epoch 1 of 5 took 23.453s
  training loss:		2.263848
  validation loss:		2.155829
  validation accuracy:		39.64 %
Epoch 2 of 5 took 23.324s
  training loss:		1.525309
  validation loss:		0.823646
  validation accuracy:		74.21 %
Epoch 3 of 5 took 22.130s
  training loss:		0.518540
  validation loss:		0.296595
  validation accuracy:		91.48 %
Epoch 4 of 5 took 22.228s
  training loss:		0.271691
  validation loss:		0.211450
  validation accuracy:		93.91 %
Epoch 5 of 5 took 23.328s
  training loss:		0.206097
  validation loss:		0.176938
  validation accuracy:		95.03 %
Final results:
  test loss:			0.175924
  test accuracy:		94.69 %
Total time 115.918s
('param : ', '5 2-2-14-14 5-5-8-4 1-2-9-8-1\n')
Loading data...
Parameters : [ 2  2 14 14]	[5 5 8 4]	[1 2 9 8 1]
Building model and compiling functions...
Nombre de parametres:	(8712,)
Starting training...
Epoch 1 of 5 took 23.948s
  training loss:		2.285553
  validation loss:		2.253438
  validation accuracy:		21.14 %
Epoch 2 of 5 took 24.131s
  training loss:		2.112484
  validation loss:		1.809565
  validation accuracy:		41.85 %
Epoch 3 of 5 took 23.147s
  training loss:		1.244777
  validation loss:		0.645410
  validation accuracy:		79.40 %
Epoch 4 of 5 took 23.363s
  training loss:		0.474311
  validation loss:		0.307854
  validation accuracy:		91.09 %
Epoch 5 of 5 took 24.416s
  training loss:		0.281663
  validation loss:		0.220969
  validation accuracy:		93.39 %
Final results:
  test loss:			0.220736
  test accuracy:		93.79 %
Total time 120.481s
('param : ', '5 2-2-14-14 5-5-8-4 1-2-9-9-1\n')
Loading data...
Parameters : [ 2  2 14 14]	[5 5 8 4]	[1 2 9 9 1]
Building model and compiling functions...
Nombre de parametres:	(9776,)
Starting training...
Epoch 1 of 5 took 23.496s
  training loss:		2.287340
  validation loss:		2.260667
  validation accuracy:		25.64 %
Epoch 2 of 5 took 23.802s
  training loss:		2.111482
  validation loss:		1.682606
  validation accuracy:		44.87 %
Epoch 3 of 5 took 23.660s
  training loss:		1.128281
  validation loss:		0.589747
  validation accuracy:		82.19 %
Epoch 4 of 5 took 24.382s
  training loss:		0.420851
  validation loss:		0.288460
  validation accuracy:		91.71 %
Epoch 5 of 5 took 24.000s
  training loss:		0.268892
  validation loss:		0.213654
  validation accuracy:		93.88 %
Final results:
  test loss:			0.217718
  test accuracy:		93.60 %
Total time 120.817s
('param : ', '5 2-2-14-14 5-5-8-4 1-2-9-10-1\n')
Loading data...
Parameters : [ 2  2 14 14]	[5 5 8 4]	[ 1  2  9 10  1]
Building model and compiling functions...
Nombre de parametres:	(10840,)
Starting training...
Epoch 1 of 5 took 24.777s
  training loss:		2.277692
  validation loss:		2.225536
  validation accuracy:		33.19 %
Epoch 2 of 5 took 24.522s
  training loss:		1.868139
  validation loss:		1.292403
  validation accuracy:		58.27 %
Epoch 3 of 5 took 23.971s
  training loss:		0.838852
  validation loss:		0.409239
  validation accuracy:		88.16 %
Epoch 4 of 5 took 23.445s
  training loss:		0.349087
  validation loss:		0.251817
  validation accuracy:		92.64 %
Epoch 5 of 5 took 24.055s
  training loss:		0.248712
  validation loss:		0.195440
  validation accuracy:		94.42 %
Final results:
  test loss:			0.203416
  test accuracy:		94.00 %
Total time 122.283s
('param : ', '5 2-2-14-14 5-5-8-4 1-2-10-1-1\n')
Loading data...
Parameters : [ 2  2 14 14]	[5 5 8 4]	[ 1  2 10  1  1]
Building model and compiling functions...
Nombre de parametres:	(1396,)
Starting training...
Epoch 1 of 5 took 19.792s
  training loss:		2.301574
  validation loss:		2.301976
  validation accuracy:		10.64 %
Epoch 2 of 5 took 20.070s
  training loss:		2.301103
  validation loss:		2.301925
  validation accuracy:		10.64 %
Epoch 3 of 5 took 20.166s
  training loss:		2.300659
  validation loss:		2.300423
  validation accuracy:		10.64 %
Epoch 4 of 5 took 19.788s
  training loss:		2.291903
  validation loss:		2.274110
  validation accuracy:		17.64 %
Epoch 5 of 5 took 20.609s
  training loss:		2.116592
  validation loss:		1.681268
  validation accuracy:		44.42 %
Final results:
  test loss:			1.674979
  test accuracy:		43.26 %
Total time 101.727s
('param : ', '5 2-2-14-14 5-5-8-4 1-2-10-2-1\n')
Loading data...
Parameters : [ 2  2 14 14]	[5 5 8 4]	[ 1  2 10  2  1]
Building model and compiling functions...
Nombre de parametres:	(2572,)
Starting training...
Epoch 1 of 5 took 19.493s
  training loss:		2.301604
  validation loss:		2.301891
  validation accuracy:		10.64 %
Epoch 2 of 5 took 19.288s
  training loss:		2.300938
  validation loss:		2.301076
  validation accuracy:		10.64 %
Epoch 3 of 5 took 19.419s
  training loss:		2.289777
  validation loss:		2.258481
  validation accuracy:		28.42 %
Epoch 4 of 5 took 18.424s
  training loss:		1.808274
  validation loss:		0.937561
  validation accuracy:		72.26 %
Epoch 5 of 5 took 19.543s
  training loss:		0.601503
  validation loss:		0.344117
  validation accuracy:		89.89 %
Final results:
  test loss:			0.374710
  test accuracy:		89.29 %
Total time 97.348s
('param : ', '5 2-2-14-14 5-5-8-4 1-2-10-3-1\n')
Loading data...
Parameters : [ 2  2 14 14]	[5 5 8 4]	[ 1  2 10  3  1]
Building model and compiling functions...
Nombre de parametres:	(3748,)
Starting training...
Epoch 1 of 5 took 20.768s
  training loss:		2.301626
  validation loss:		2.301844
  validation accuracy:		10.64 %
Epoch 2 of 5 took 21.250s
  training loss:		2.300958
  validation loss:		2.301138
  validation accuracy:		10.64 %
Epoch 3 of 5 took 21.508s
  training loss:		2.287412
  validation loss:		2.247547
  validation accuracy:		25.41 %
Epoch 4 of 5 took 21.712s
  training loss:		1.632916
  validation loss:		0.672752
  validation accuracy:		80.38 %
Epoch 5 of 5 took 21.209s
  training loss:		0.488302
  validation loss:		0.292703
  validation accuracy:		91.46 %
Final results:
  test loss:			0.313859
  test accuracy:		90.93 %
Total time 107.716s
('param : ', '5 2-2-14-14 5-5-8-4 1-2-10-4-1\n')
Loading data...
Parameters : [ 2  2 14 14]	[5 5 8 4]	[ 1  2 10  4  1]
Building model and compiling functions...
Nombre de parametres:	(4924,)
Starting training...
Epoch 1 of 5 took 20.625s
  training loss:		2.288866
  validation loss:		2.254489
  validation accuracy:		30.03 %
Epoch 2 of 5 took 20.702s
  training loss:		1.841177
  validation loss:		1.065370
  validation accuracy:		66.36 %
Epoch 3 of 5 took 22.419s
  training loss:		0.689035
  validation loss:		0.397134
  validation accuracy:		88.11 %
Epoch 4 of 5 took 22.802s
  training loss:		0.323541
  validation loss:		0.230242
  validation accuracy:		93.41 %
Epoch 5 of 5 took 21.675s
  training loss:		0.222025
  validation loss:		0.182180
  validation accuracy:		94.86 %
Final results:
  test loss:			0.189043
  test accuracy:		94.63 %
Total time 109.574s
('param : ', '5 2-2-14-14 5-5-8-4 1-2-10-5-1\n')
Loading data...
Parameters : [ 2  2 14 14]	[5 5 8 4]	[ 1  2 10  5  1]
Building model and compiling functions...
Nombre de parametres:	(6100,)
Starting training...
Epoch 1 of 5 took 23.000s
  training loss:		2.263124
  validation loss:		2.155046
  validation accuracy:		33.30 %
Epoch 2 of 5 took 21.661s
  training loss:		1.517216
  validation loss:		0.836752
  validation accuracy:		73.76 %
Epoch 3 of 5 took 22.408s
  training loss:		0.529652
  validation loss:		0.303384
  validation accuracy:		91.55 %
Epoch 4 of 5 took 22.344s
  training loss:		0.280421
  validation loss:		0.219270
  validation accuracy:		93.68 %
Epoch 5 of 5 took 22.290s
  training loss:		0.213565
  validation loss:		0.173605
  validation accuracy:		95.08 %
Final results:
  test loss:			0.176280
  test accuracy:		94.85 %
Total time 113.145s
('param : ', '5 2-2-14-14 5-5-8-4 1-2-10-6-1\n')
Loading data...
Parameters : [ 2  2 14 14]	[5 5 8 4]	[ 1  2 10  6  1]
Building model and compiling functions...
Nombre de parametres:	(7276,)
Starting training...
Epoch 1 of 5 took 20.963s
  training loss:		2.280092
  validation loss:		2.232758
  validation accuracy:		37.47 %
Epoch 2 of 5 took 22.101s
  training loss:		1.865193
  validation loss:		1.184693
  validation accuracy:		61.60 %
Epoch 3 of 5 took 22.161s
  training loss:		0.725198
  validation loss:		0.355774
  validation accuracy:		89.77 %
Epoch 4 of 5 took 22.118s
  training loss:		0.311767
  validation loss:		0.234988
  validation accuracy:		93.24 %
Epoch 5 of 5 took 23.005s
  training loss:		0.230227
  validation loss:		0.185477
  validation accuracy:		94.70 %
Final results:
  test loss:			0.187581
  test accuracy:		94.53 %
Total time 111.904s
('param : ', '5 2-2-14-14 5-5-8-4 1-2-10-7-1\n')
Loading data...
Parameters : [ 2  2 14 14]	[5 5 8 4]	[ 1  2 10  7  1]
Building model and compiling functions...
Nombre de parametres:	(8452,)
Starting training...
Epoch 1 of 5 took 24.038s
  training loss:		2.261638
  validation loss:		2.147539
  validation accuracy:		39.90 %
Epoch 2 of 5 took 23.271s
  training loss:		1.500599
  validation loss:		0.787278
  validation accuracy:		75.88 %
Epoch 3 of 5 took 23.556s
  training loss:		0.501591
  validation loss:		0.305530
  validation accuracy:		91.21 %
Epoch 4 of 5 took 23.537s
  training loss:		0.282658
  validation loss:		0.230373
  validation accuracy:		93.25 %
Epoch 5 of 5 took 23.704s
  training loss:		0.218742
  validation loss:		0.185868
  validation accuracy:		94.61 %
Final results:
  test loss:			0.183994
  test accuracy:		94.43 %
Total time 119.624s
('param : ', '5 2-2-14-14 5-5-8-4 1-2-10-8-1\n')
Loading data...
Parameters : [ 2  2 14 14]	[5 5 8 4]	[ 1  2 10  8  1]
Building model and compiling functions...
Nombre de parametres:	(9628,)
Starting training...
Epoch 1 of 5 took 23.301s
  training loss:		2.268917
  validation loss:		2.182202
  validation accuracy:		44.14 %
Epoch 2 of 5 took 22.926s
  training loss:		1.626318
  validation loss:		0.929359
  validation accuracy:		70.79 %
Epoch 3 of 5 took 23.532s
  training loss:		0.597556
  validation loss:		0.331396
  validation accuracy:		90.70 %
Epoch 4 of 5 took 23.695s
  training loss:		0.295678
  validation loss:		0.224518
  validation accuracy:		93.49 %
Epoch 5 of 5 took 23.878s
  training loss:		0.218683
  validation loss:		0.179365
  validation accuracy:		94.75 %
Final results:
  test loss:			0.174325
  test accuracy:		94.99 %
Total time 118.866s
('param : ', '5 2-2-14-14 5-5-8-4 1-2-10-9-1\n')
Loading data...
Parameters : [ 2  2 14 14]	[5 5 8 4]	[ 1  2 10  9  1]
Building model and compiling functions...
Nombre de parametres:	(10804,)
Starting training...
Epoch 1 of 5 took 24.230s
  training loss:		2.278172
  validation loss:		2.224908
  validation accuracy:		36.61 %
Epoch 2 of 5 took 23.109s
  training loss:		1.835850
  validation loss:		1.145415
  validation accuracy:		62.96 %
Epoch 3 of 5 took 22.832s
  training loss:		0.749543
  validation loss:		0.408385
  validation accuracy:		87.95 %
Epoch 4 of 5 took 22.368s
  training loss:		0.336012
  validation loss:		0.244061
  validation accuracy:		93.14 %
Epoch 5 of 5 took 23.819s
  training loss:		0.234788
  validation loss:		0.191768
  validation accuracy:		94.35 %
Final results:
  test loss:			0.192724
  test accuracy:		94.47 %
Total time 117.948s
('param : ', '5 2-2-14-14 5-5-8-4 1-2-10-10-1\n')
Loading data...
Parameters : [ 2  2 14 14]	[5 5 8 4]	[ 1  2 10 10  1]
Building model and compiling functions...
Nombre de parametres:	(11980,)
Starting training...
Epoch 1 of 5 took 24.860s
  training loss:		2.291809
  validation loss:		2.275357
  validation accuracy:		11.11 %
Epoch 2 of 5 took 24.655s
  training loss:		2.212232
  validation loss:		2.054170
  validation accuracy:		37.00 %
Epoch 3 of 5 took 24.123s
  training loss:		1.582236
  validation loss:		1.062504
  validation accuracy:		67.03 %
Epoch 4 of 5 took 24.209s
  training loss:		0.687243
  validation loss:		0.372962
  validation accuracy:		88.91 %
Epoch 5 of 5 took 24.766s
  training loss:		0.329061
  validation loss:		0.248408
  validation accuracy:		92.82 %
Final results:
  test loss:			0.251732
  test accuracy:		92.63 %
Total time 124.179s
