('param : ', '5 2-2-14-14 5-5-8-4 1-10-1-1-1\n')
Loading data...
Parameters : [ 2  2 14 14]	[5 5 8 4]	[ 1 10  1  1  1]
Building model and compiling functions...
Nombre de parametres:	(368,)
Starting training...
Epoch 1 of 5 took 22.018s
  training loss:		2.301631
  validation loss:		2.301912
  validation accuracy:		10.64 %
Epoch 2 of 5 took 23.439s
  training loss:		2.301133
  validation loss:		2.302011
  validation accuracy:		10.64 %
Epoch 3 of 5 took 23.655s
  training loss:		2.301127
  validation loss:		2.302005
  validation accuracy:		10.64 %
Epoch 4 of 5 took 22.424s
  training loss:		2.301147
  validation loss:		2.301955
  validation accuracy:		10.64 %
Epoch 5 of 5 took 22.847s
  training loss:		2.301155
  validation loss:		2.301956
  validation accuracy:		10.64 %
Final results:
  test loss:			2.300998
  test accuracy:		11.35 %
Total time 115.875s
('param : ', '5 2-2-14-14 5-5-8-4 1-10-1-2-1\n')
Loading data...
Parameters : [ 2  2 14 14]	[5 5 8 4]	[ 1 10  1  2  1]
Building model and compiling functions...
Nombre de parametres:	(536,)
Starting training...
Epoch 1 of 5 took 21.878s
  training loss:		2.301607
  validation loss:		2.301910
  validation accuracy:		10.64 %
Epoch 2 of 5 took 22.989s
  training loss:		2.301136
  validation loss:		2.301948
  validation accuracy:		10.64 %
Epoch 3 of 5 took 22.187s
  training loss:		2.301095
  validation loss:		2.301903
  validation accuracy:		10.64 %
Epoch 4 of 5 took 22.880s
  training loss:		2.300871
  validation loss:		2.301328
  validation accuracy:		10.64 %
Epoch 5 of 5 took 22.995s
  training loss:		2.297423
  validation loss:		2.290673
  validation accuracy:		10.64 %
Final results:
  test loss:			2.289470
  test accuracy:		11.35 %
Total time 114.424s
('param : ', '5 2-2-14-14 5-5-8-4 1-10-1-3-1\n')
Loading data...
Parameters : [ 2  2 14 14]	[5 5 8 4]	[ 1 10  1  3  1]
Building model and compiling functions...
Nombre de parametres:	(704,)
Starting training...
Epoch 1 of 5 took 22.622s
  training loss:		2.301541
  validation loss:		2.301905
  validation accuracy:		10.64 %
Epoch 2 of 5 took 21.420s
  training loss:		2.301108
  validation loss:		2.302032
  validation accuracy:		10.64 %
Epoch 3 of 5 took 21.450s
  training loss:		2.301110
  validation loss:		2.302024
  validation accuracy:		10.64 %
Epoch 4 of 5 took 22.180s
  training loss:		2.301074
  validation loss:		2.301994
  validation accuracy:		10.64 %
Epoch 5 of 5 took 22.379s
  training loss:		2.301075
  validation loss:		2.301921
  validation accuracy:		10.64 %
Final results:
  test loss:			2.300857
  test accuracy:		11.35 %
Total time 111.558s
('param : ', '5 2-2-14-14 5-5-8-4 1-10-1-4-1\n')
Loading data...
Parameters : [ 2  2 14 14]	[5 5 8 4]	[ 1 10  1  4  1]
Building model and compiling functions...
Nombre de parametres:	(872,)
Starting training...
Epoch 1 of 5 took 23.015s
  training loss:		2.281981
  validation loss:		2.236766
  validation accuracy:		35.47 %
Epoch 2 of 5 took 23.251s
  training loss:		1.877718
  validation loss:		1.170565
  validation accuracy:		62.33 %
Epoch 3 of 5 took 22.787s
  training loss:		0.713125
  validation loss:		0.378579
  validation accuracy:		88.79 %
Epoch 4 of 5 took 22.017s
  training loss:		0.319197
  validation loss:		0.237705
  validation accuracy:		93.04 %
Epoch 5 of 5 took 23.830s
  training loss:		0.226161
  validation loss:		0.186588
  validation accuracy:		94.75 %
Final results:
  test loss:			0.186722
  test accuracy:		94.56 %
Total time 116.488s
('param : ', '5 2-2-14-14 5-5-8-4 1-10-1-5-1\n')
Loading data...
Parameters : [ 2  2 14 14]	[5 5 8 4]	[ 1 10  1  5  1]
Building model and compiling functions...
Nombre de parametres:	(1040,)
Starting training...
Epoch 1 of 5 took 24.200s
  training loss:		2.262745
  validation loss:		2.156455
  validation accuracy:		37.73 %
Epoch 2 of 5 took 23.969s
  training loss:		1.402003
  validation loss:		0.619713
  validation accuracy:		80.64 %
Epoch 3 of 5 took 23.812s
  training loss:		0.449429
  validation loss:		0.296920
  validation accuracy:		91.49 %
Epoch 4 of 5 took 24.272s
  training loss:		0.283258
  validation loss:		0.223281
  validation accuracy:		93.54 %
Epoch 5 of 5 took 23.735s
  training loss:		0.218390
  validation loss:		0.180062
  validation accuracy:		94.89 %
Final results:
  test loss:			0.182421
  test accuracy:		94.64 %
Total time 121.543s
('param : ', '5 2-2-14-14 5-5-8-4 1-10-1-6-1\n')
Loading data...
Parameters : [ 2  2 14 14]	[5 5 8 4]	[ 1 10  1  6  1]
Building model and compiling functions...
Nombre de parametres:	(1208,)
Starting training...
Epoch 1 of 5 took 24.172s
  training loss:		2.278145
  validation loss:		2.225338
  validation accuracy:		38.45 %
Epoch 2 of 5 took 24.156s
  training loss:		1.694416
  validation loss:		0.796561
  validation accuracy:		75.59 %
Epoch 3 of 5 took 24.839s
  training loss:		0.538460
  validation loss:		0.335126
  validation accuracy:		90.10 %
Epoch 4 of 5 took 23.605s
  training loss:		0.319438
  validation loss:		0.255697
  validation accuracy:		92.39 %
Epoch 5 of 5 took 23.765s
  training loss:		0.245293
  validation loss:		0.203477
  validation accuracy:		93.96 %
Final results:
  test loss:			0.212141
  test accuracy:		93.76 %
Total time 122.233s
('param : ', '5 2-2-14-14 5-5-8-4 1-10-1-7-1\n')
Loading data...
Parameters : [ 2  2 14 14]	[5 5 8 4]	[ 1 10  1  7  1]
Building model and compiling functions...
Nombre de parametres:	(1376,)
Starting training...
Epoch 1 of 5 took 26.451s
  training loss:		2.265148
  validation loss:		2.165816
  validation accuracy:		45.01 %
Epoch 2 of 5 took 26.522s
  training loss:		1.365197
  validation loss:		0.567542
  validation accuracy:		83.61 %
Epoch 3 of 5 took 25.281s
  training loss:		0.424471
  validation loss:		0.294395
  validation accuracy:		91.53 %
Epoch 4 of 5 took 26.135s
  training loss:		0.280199
  validation loss:		0.216614
  validation accuracy:		93.74 %
Epoch 5 of 5 took 26.079s
  training loss:		0.214991
  validation loss:		0.180306
  validation accuracy:		94.80 %
Final results:
  test loss:			0.188609
  test accuracy:		94.75 %
Total time 131.989s
('param : ', '5 2-2-14-14 5-5-8-4 1-10-1-8-1\n')
Loading data...
Parameters : [ 2  2 14 14]	[5 5 8 4]	[ 1 10  1  8  1]
Building model and compiling functions...
Nombre de parametres:	(1544,)
Starting training...
Epoch 1 of 5 took 25.841s
  training loss:		2.261858
  validation loss:		2.158556
  validation accuracy:		44.30 %
Epoch 2 of 5 took 24.022s
  training loss:		1.434864
  validation loss:		0.656058
  validation accuracy:		80.53 %
Epoch 3 of 5 took 24.154s
  training loss:		0.464626
  validation loss:		0.301770
  validation accuracy:		91.23 %
Epoch 4 of 5 took 24.089s
  training loss:		0.287819
  validation loss:		0.223197
  validation accuracy:		93.46 %
Epoch 5 of 5 took 25.504s
  training loss:		0.218873
  validation loss:		0.178773
  validation accuracy:		94.99 %
Final results:
  test loss:			0.190465
  test accuracy:		94.53 %
Total time 125.385s
('param : ', '5 2-2-14-14 5-5-8-4 1-10-1-9-1\n')
Loading data...
Parameters : [ 2  2 14 14]	[5 5 8 4]	[ 1 10  1  9  1]
Building model and compiling functions...
Nombre de parametres:	(1712,)
Starting training...
Epoch 1 of 5 took 27.126s
  training loss:		2.274693
  validation loss:		2.212831
  validation accuracy:		40.18 %
Epoch 2 of 5 took 27.233s
  training loss:		1.641877
  validation loss:		0.774845
  validation accuracy:		76.52 %
Epoch 3 of 5 took 27.077s
  training loss:		0.547183
  validation loss:		0.339092
  validation accuracy:		90.59 %
Epoch 4 of 5 took 26.456s
  training loss:		0.318911
  validation loss:		0.236713
  validation accuracy:		93.13 %
Epoch 5 of 5 took 27.682s
  training loss:		0.236935
  validation loss:		0.187645
  validation accuracy:		94.54 %
Final results:
  test loss:			0.193280
  test accuracy:		94.43 %
Total time 137.308s
('param : ', '5 2-2-14-14 5-5-8-4 1-10-1-10-1\n')
Loading data...
Parameters : [ 2  2 14 14]	[5 5 8 4]	[ 1 10  1 10  1]
Building model and compiling functions...
Nombre de parametres:	(1880,)
Starting training...
Epoch 1 of 5 took 22.916s
  training loss:		2.267505
  validation loss:		2.178426
  validation accuracy:		46.34 %
Epoch 2 of 5 took 21.651s
  training loss:		1.519843
  validation loss:		0.677920
  validation accuracy:		80.40 %
Epoch 3 of 5 took 23.020s
  training loss:		0.491107
  validation loss:		0.321040
  validation accuracy:		90.75 %
Epoch 4 of 5 took 25.714s
  training loss:		0.310035
  validation loss:		0.232973
  validation accuracy:		93.22 %
Epoch 5 of 5 took 25.350s
  training loss:		0.236574
  validation loss:		0.188893
  validation accuracy:		94.60 %
Final results:
  test loss:			0.206134
  test accuracy:		94.09 %
Total time 120.385s
('param : ', '5 2-2-14-14 5-5-8-4 1-10-2-1-1\n')
Loading data...
Parameters : [ 2  2 14 14]	[5 5 8 4]	[ 1 10  2  1  1]
Building model and compiling functions...
Nombre de parametres:	(580,)
Starting training...
Epoch 1 of 5 took 20.906s
  training loss:		2.301584
  validation loss:		2.301934
  validation accuracy:		10.64 %
Epoch 2 of 5 took 20.721s
  training loss:		2.301133
  validation loss:		2.301992
  validation accuracy:		10.64 %
Epoch 3 of 5 took 22.028s
  training loss:		2.301120
  validation loss:		2.301969
  validation accuracy:		10.64 %
Epoch 4 of 5 took 22.393s
  training loss:		2.301135
  validation loss:		2.301987
  validation accuracy:		10.64 %
Epoch 5 of 5 took 22.108s
  training loss:		2.301119
  validation loss:		2.302051
  validation accuracy:		10.64 %
Final results:
  test loss:			2.301036
  test accuracy:		11.35 %
Total time 109.545s
('param : ', '5 2-2-14-14 5-5-8-4 1-10-2-2-1\n')
Loading data...
Parameters : [ 2  2 14 14]	[5 5 8 4]	[ 1 10  2  2  1]
Building model and compiling functions...
Nombre de parametres:	(860,)
Starting training...
Epoch 1 of 5 took 22.311s
  training loss:		2.301618
  validation loss:		2.301915
  validation accuracy:		10.64 %
Epoch 2 of 5 took 22.726s
  training loss:		2.301139
  validation loss:		2.302056
  validation accuracy:		10.64 %
Epoch 3 of 5 took 23.167s
  training loss:		2.301122
  validation loss:		2.301894
  validation accuracy:		10.64 %
Epoch 4 of 5 took 22.556s
  training loss:		2.301122
  validation loss:		2.301941
  validation accuracy:		10.64 %
Epoch 5 of 5 took 23.111s
  training loss:		2.301111
  validation loss:		2.301942
  validation accuracy:		10.64 %
Final results:
  test loss:			2.301026
  test accuracy:		11.35 %
Total time 115.434s
('param : ', '5 2-2-14-14 5-5-8-4 1-10-2-3-1\n')
Loading data...
Parameters : [ 2  2 14 14]	[5 5 8 4]	[ 1 10  2  3  1]
Building model and compiling functions...
Nombre de parametres:	(1140,)
Starting training...
Epoch 1 of 5 took 22.608s
  training loss:		2.301637
  validation loss:		2.301863
  validation accuracy:		10.64 %
Epoch 2 of 5 took 22.463s
  training loss:		2.301123
  validation loss:		2.301940
  validation accuracy:		10.64 %
Epoch 3 of 5 took 22.246s
  training loss:		2.301019
  validation loss:		2.301871
  validation accuracy:		10.64 %
Epoch 4 of 5 took 22.296s
  training loss:		2.299094
  validation loss:		2.294913
  validation accuracy:		10.64 %
Epoch 5 of 5 took 23.968s
  training loss:		2.259724
  validation loss:		2.168720
  validation accuracy:		23.26 %
Final results:
  test loss:			2.163304
  test accuracy:		24.14 %
Total time 115.180s
('param : ', '5 2-2-14-14 5-5-8-4 1-10-2-4-1\n')
Loading data...
Parameters : [ 2  2 14 14]	[5 5 8 4]	[ 1 10  2  4  1]
Building model and compiling functions...
Nombre de parametres:	(1420,)
Starting training...
Epoch 1 of 5 took 23.323s
  training loss:		2.301676
  validation loss:		2.301881
  validation accuracy:		10.64 %
Epoch 2 of 5 took 24.381s
  training loss:		2.301049
  validation loss:		2.301694
  validation accuracy:		10.64 %
Epoch 3 of 5 took 24.452s
  training loss:		2.295886
  validation loss:		2.281609
  validation accuracy:		13.34 %
Epoch 4 of 5 took 25.236s
  training loss:		2.095817
  validation loss:		1.511718
  validation accuracy:		49.37 %
Epoch 5 of 5 took 24.703s
  training loss:		0.785039
  validation loss:		0.373659
  validation accuracy:		88.97 %
Final results:
  test loss:			0.394387
  test accuracy:		88.84 %
Total time 123.666s
('param : ', '5 2-2-14-14 5-5-8-4 1-10-2-5-1\n')
Loading data...
Parameters : [ 2  2 14 14]	[5 5 8 4]	[ 1 10  2  5  1]
Building model and compiling functions...
Nombre de parametres:	(1700,)
Starting training...
Epoch 1 of 5 took 22.806s
  training loss:		2.301623
  validation loss:		2.301909
  validation accuracy:		10.64 %
Epoch 2 of 5 took 22.970s
  training loss:		2.301130
  validation loss:		2.301940
  validation accuracy:		10.64 %
Epoch 3 of 5 took 23.429s
  training loss:		2.300976
  validation loss:		2.301406
  validation accuracy:		10.64 %
Epoch 4 of 5 took 24.890s
  training loss:		2.293434
  validation loss:		2.274354
  validation accuracy:		20.15 %
Epoch 5 of 5 took 24.245s
  training loss:		2.034910
  validation loss:		1.236394
  validation accuracy:		59.81 %
Final results:
  test loss:			1.257674
  test accuracy:		58.91 %
Total time 119.996s
('param : ', '5 2-2-14-14 5-5-8-4 1-10-2-6-1\n')
Loading data...
Parameters : [ 2  2 14 14]	[5 5 8 4]	[ 1 10  2  6  1]
Building model and compiling functions...
Nombre de parametres:	(1980,)
Starting training...
Epoch 1 of 5 took 24.285s
  training loss:		2.211784
  validation loss:		1.880542
  validation accuracy:		41.87 %
Epoch 2 of 5 took 24.200s
  training loss:		1.194537
  validation loss:		0.572150
  validation accuracy:		82.86 %
Epoch 3 of 5 took 25.798s
  training loss:		0.411533
  validation loss:		0.265876
  validation accuracy:		92.32 %
Epoch 4 of 5 took 25.206s
  training loss:		0.257505
  validation loss:		0.209437
  validation accuracy:		94.03 %
Epoch 5 of 5 took 25.962s
  training loss:		0.200196
  validation loss:		0.165811
  validation accuracy:		95.44 %
Final results:
  test loss:			0.166462
  test accuracy:		95.14 %
Total time 127.053s
('param : ', '5 2-2-14-14 5-5-8-4 1-10-2-7-1\n')
Loading data...
Parameters : [ 2  2 14 14]	[5 5 8 4]	[ 1 10  2  7  1]
Building model and compiling functions...
Nombre de parametres:	(2260,)
Starting training...
Epoch 1 of 5 took 22.410s
  training loss:		2.170959
  validation loss:		1.678011
  validation accuracy:		46.08 %
Epoch 2 of 5 took 23.713s
  training loss:		0.989996
  validation loss:		0.466456
  validation accuracy:		85.63 %
Epoch 3 of 5 took 25.240s
  training loss:		0.357788
  validation loss:		0.252558
  validation accuracy:		92.71 %
Epoch 4 of 5 took 25.758s
  training loss:		0.241520
  validation loss:		0.191885
  validation accuracy:		94.50 %
Epoch 5 of 5 took 25.247s
  training loss:		0.192695
  validation loss:		0.167660
  validation accuracy:		95.29 %
Final results:
  test loss:			0.167153
  test accuracy:		95.26 %
Total time 124.110s
('param : ', '5 2-2-14-14 5-5-8-4 1-10-2-8-1\n')
Loading data...
Parameters : [ 2  2 14 14]	[5 5 8 4]	[ 1 10  2  8  1]
Building model and compiling functions...
Nombre de parametres:	(2540,)
Starting training...
Epoch 1 of 5 took 23.884s
  training loss:		2.232060
  validation loss:		1.970086
  validation accuracy:		54.96 %
Epoch 2 of 5 took 24.961s
  training loss:		0.927366
  validation loss:		0.385293
  validation accuracy:		88.68 %
Epoch 3 of 5 took 26.182s
  training loss:		0.347534
  validation loss:		0.256607
  validation accuracy:		92.66 %
Epoch 4 of 5 took 24.809s
  training loss:		0.253717
  validation loss:		0.201361
  validation accuracy:		94.00 %
Epoch 5 of 5 took 24.403s
  training loss:		0.200090
  validation loss:		0.170387
  validation accuracy:		94.99 %
Final results:
  test loss:			0.166816
  test accuracy:		95.15 %
Total time 125.803s
('param : ', '5 2-2-14-14 5-5-8-4 1-10-2-9-1\n')
Loading data...
Parameters : [ 2  2 14 14]	[5 5 8 4]	[ 1 10  2  9  1]
Building model and compiling functions...
Nombre de parametres:	(2820,)
Starting training...
Epoch 1 of 5 took 24.297s
  training loss:		2.232321
  validation loss:		1.997837
  validation accuracy:		52.08 %
Epoch 2 of 5 took 25.142s
  training loss:		1.103118
  validation loss:		0.530418
  validation accuracy:		84.37 %
Epoch 3 of 5 took 24.343s
  training loss:		0.420403
  validation loss:		0.296007
  validation accuracy:		91.27 %
Epoch 4 of 5 took 25.930s
  training loss:		0.288247
  validation loss:		0.235715
  validation accuracy:		93.11 %
Epoch 5 of 5 took 25.286s
  training loss:		0.230005
  validation loss:		0.194759
  validation accuracy:		94.13 %
Final results:
  test loss:			0.198423
  test accuracy:		94.07 %
Total time 126.684s
('param : ', '5 2-2-14-14 5-5-8-4 1-10-2-10-1\n')
Loading data...
Parameters : [ 2  2 14 14]	[5 5 8 4]	[ 1 10  2 10  1]
Building model and compiling functions...
Nombre de parametres:	(3100,)
Starting training...
Epoch 1 of 5 took 25.895s
  training loss:		2.227959
  validation loss:		1.956125
  validation accuracy:		46.99 %
Epoch 2 of 5 took 25.990s
  training loss:		1.011427
  validation loss:		0.476373
  validation accuracy:		85.97 %
Epoch 3 of 5 took 26.545s
  training loss:		0.387776
  validation loss:		0.285739
  validation accuracy:		91.72 %
Epoch 4 of 5 took 25.612s
  training loss:		0.278952
  validation loss:		0.222794
  validation accuracy:		93.48 %
Epoch 5 of 5 took 26.247s
  training loss:		0.223511
  validation loss:		0.185314
  validation accuracy:		94.67 %
Final results:
  test loss:			0.190813
  test accuracy:		94.42 %
Total time 131.932s
('param : ', '5 2-2-14-14 5-5-8-4 1-10-3-1-1\n')
Loading data...
Parameters : [ 2  2 14 14]	[5 5 8 4]	[ 1 10  3  1  1]
Building model and compiling functions...
Nombre de parametres:	(792,)
Starting training...
Epoch 1 of 5 took 21.234s
  training loss:		2.301649
  validation loss:		2.301926
  validation accuracy:		10.64 %
Epoch 2 of 5 took 22.777s
  training loss:		2.301132
  validation loss:		2.302116
  validation accuracy:		10.64 %
Epoch 3 of 5 took 22.550s
  training loss:		2.301140
  validation loss:		2.301919
  validation accuracy:		10.64 %
Epoch 4 of 5 took 23.254s
  training loss:		2.301097
  validation loss:		2.302010
  validation accuracy:		10.64 %
Epoch 5 of 5 took 22.873s
  training loss:		2.301115
  validation loss:		2.301913
  validation accuracy:		10.64 %
Final results:
  test loss:			2.301024
  test accuracy:		11.35 %
Total time 114.233s
('param : ', '5 2-2-14-14 5-5-8-4 1-10-3-2-1\n')
Loading data...
Parameters : [ 2  2 14 14]	[5 5 8 4]	[ 1 10  3  2  1]
Building model and compiling functions...
Nombre de parametres:	(1184,)
Starting training...
Epoch 1 of 5 took 21.468s
  training loss:		2.301651
  validation loss:		2.301891
  validation accuracy:		10.64 %
Epoch 2 of 5 took 22.992s
  training loss:		2.301165
  validation loss:		2.301926
  validation accuracy:		10.64 %
Epoch 3 of 5 took 22.277s
  training loss:		2.301102
  validation loss:		2.301923
  validation accuracy:		10.64 %
Epoch 4 of 5 took 23.661s
  training loss:		2.301140
  validation loss:		2.302017
  validation accuracy:		10.64 %
Epoch 5 of 5 took 23.602s
  training loss:		2.301063
  validation loss:		2.301830
  validation accuracy:		10.64 %
Final results:
  test loss:			2.300861
  test accuracy:		11.35 %
Total time 115.564s
('param : ', '5 2-2-14-14 5-5-8-4 1-10-3-3-1\n')
Loading data...
Parameters : [ 2  2 14 14]	[5 5 8 4]	[ 1 10  3  3  1]
Building model and compiling functions...
Nombre de parametres:	(1576,)
Starting training...
Epoch 1 of 5 took 22.895s
  training loss:		2.301591
  validation loss:		2.302034
  validation accuracy:		10.64 %
Epoch 2 of 5 took 22.074s
  training loss:		2.301134
  validation loss:		2.301944
  validation accuracy:		10.64 %
Epoch 3 of 5 took 23.498s
  training loss:		2.301074
  validation loss:		2.301851
  validation accuracy:		10.64 %
Epoch 4 of 5 took 23.938s
  training loss:		2.299418
  validation loss:		2.294659
  validation accuracy:		10.64 %
Epoch 5 of 5 took 24.121s
  training loss:		2.246532
  validation loss:		2.112459
  validation accuracy:		21.30 %
Final results:
  test loss:			2.104631
  test accuracy:		22.02 %
Total time 118.144s
('param : ', '5 2-2-14-14 5-5-8-4 1-10-3-4-1\n')
Loading data...
Parameters : [ 2  2 14 14]	[5 5 8 4]	[ 1 10  3  4  1]
Building model and compiling functions...
Nombre de parametres:	(1968,)
Starting training...
Epoch 1 of 5 took 23.831s
  training loss:		2.301586
  validation loss:		2.301975
  validation accuracy:		10.64 %
Epoch 2 of 5 took 23.599s
  training loss:		2.301080
  validation loss:		2.301828
  validation accuracy:		10.64 %
Epoch 3 of 5 took 24.261s
  training loss:		2.299773
  validation loss:		2.295930
  validation accuracy:		10.64 %
Epoch 4 of 5 took 23.178s
  training loss:		2.249390
  validation loss:		2.111650
  validation accuracy:		26.94 %
Epoch 5 of 5 took 23.782s
  training loss:		1.426901
  validation loss:		0.584345
  validation accuracy:		83.01 %
Final results:
  test loss:			0.611270
  test accuracy:		82.04 %
Total time 120.325s
('param : ', '5 2-2-14-14 5-5-8-4 1-10-3-5-1\n')
Loading data...
Parameters : [ 2  2 14 14]	[5 5 8 4]	[ 1 10  3  5  1]
Building model and compiling functions...
Nombre de parametres:	(2360,)
Starting training...
Epoch 1 of 5 took 24.785s
  training loss:		2.301585
  validation loss:		2.301959
  validation accuracy:		10.64 %
Epoch 2 of 5 took 24.361s
  training loss:		2.301099
  validation loss:		2.302074
  validation accuracy:		10.64 %
Epoch 3 of 5 took 24.107s
  training loss:		2.300982
  validation loss:		2.301363
  validation accuracy:		10.64 %
Epoch 4 of 5 took 23.231s
  training loss:		2.290137
  validation loss:		2.263660
  validation accuracy:		19.68 %
Epoch 5 of 5 took 22.403s
  training loss:		2.020490
  validation loss:		1.396970
  validation accuracy:		61.55 %
Final results:
  test loss:			1.392977
  test accuracy:		60.46 %
Total time 120.423s
('param : ', '5 2-2-14-14 5-5-8-4 1-10-3-6-1\n')
Loading data...
Parameters : [ 2  2 14 14]	[5 5 8 4]	[ 1 10  3  6  1]
Building model and compiling functions...
Nombre de parametres:	(2752,)
Starting training...
Epoch 1 of 5 took 23.027s
  training loss:		2.301648
  validation loss:		2.301931
  validation accuracy:		10.64 %
Epoch 2 of 5 took 22.772s
  training loss:		2.301093
  validation loss:		2.301901
  validation accuracy:		10.64 %
Epoch 3 of 5 took 22.835s
  training loss:		2.300948
  validation loss:		2.301335
  validation accuracy:		10.64 %
Epoch 4 of 5 took 24.477s
  training loss:		2.293400
  validation loss:		2.274551
  validation accuracy:		17.84 %
Epoch 5 of 5 took 25.581s
  training loss:		2.065024
  validation loss:		1.372627
  validation accuracy:		60.25 %
Final results:
  test loss:			1.359012
  test accuracy:		59.57 %
Total time 120.450s
('param : ', '5 2-2-14-14 5-5-8-4 1-10-3-7-1\n')
Loading data...
Parameters : [ 2  2 14 14]	[5 5 8 4]	[ 1 10  3  7  1]
Building model and compiling functions...
Nombre de parametres:	(3144,)
Starting training...
Epoch 1 of 5 took 25.976s
  training loss:		2.301585
  validation loss:		2.302047
  validation accuracy:		10.64 %
Epoch 2 of 5 took 25.991s
  training loss:		2.301118
  validation loss:		2.301939
  validation accuracy:		10.64 %
Epoch 3 of 5 took 21.932s
  training loss:		2.301080
  validation loss:		2.301859
  validation accuracy:		10.64 %
Epoch 4 of 5 took 24.571s
  training loss:		2.299978
  validation loss:		2.296321
  validation accuracy:		10.64 %
Epoch 5 of 5 took 25.710s
  training loss:		2.232230
  validation loss:		2.018658
  validation accuracy:		31.51 %
Final results:
  test loss:			2.012404
  test accuracy:		30.80 %
Total time 125.919s
('param : ', '5 2-2-14-14 5-5-8-4 1-10-3-8-1\n')
Loading data...
Parameters : [ 2  2 14 14]	[5 5 8 4]	[ 1 10  3  8  1]
Building model and compiling functions...
Nombre de parametres:	(3536,)
Starting training...
Epoch 1 of 5 took 26.552s
  training loss:		2.250572
  validation loss:		2.082100
  validation accuracy:		43.87 %
Epoch 2 of 5 took 25.131s
  training loss:		1.341443
  validation loss:		0.666875
  validation accuracy:		79.31 %
Epoch 3 of 5 took 25.553s
  training loss:		0.461078
  validation loss:		0.285290
  validation accuracy:		91.61 %
Epoch 4 of 5 took 26.561s
  training loss:		0.262608
  validation loss:		0.205699
  validation accuracy:		94.15 %
Epoch 5 of 5 took 27.268s
  training loss:		0.199286
  validation loss:		0.169047
  validation accuracy:		95.06 %
Final results:
  test loss:			0.168535
  test accuracy:		95.00 %
Total time 132.822s
('param : ', '5 2-2-14-14 5-5-8-4 1-10-3-9-1\n')
Loading data...
Parameters : [ 2  2 14 14]	[5 5 8 4]	[ 1 10  3  9  1]
Building model and compiling functions...
Nombre de parametres:	(3928,)
Starting training...
Epoch 1 of 5 took 24.897s
  training loss:		2.234699
  validation loss:		2.015696
  validation accuracy:		42.11 %
Epoch 2 of 5 took 25.395s
  training loss:		1.251980
  validation loss:		0.584701
  validation accuracy:		81.91 %
Epoch 3 of 5 took 25.759s
  training loss:		0.434846
  validation loss:		0.283083
  validation accuracy:		92.00 %
Epoch 4 of 5 took 24.722s
  training loss:		0.269106
  validation loss:		0.213154
  validation accuracy:		93.76 %
Epoch 5 of 5 took 26.055s
  training loss:		0.210308
  validation loss:		0.177108
  validation accuracy:		94.84 %
Final results:
  test loss:			0.180153
  test accuracy:		94.84 %
Total time 128.505s
('param : ', '5 2-2-14-14 5-5-8-4 1-10-3-10-1\n')
Loading data...
Parameters : [ 2  2 14 14]	[5 5 8 4]	[ 1 10  3 10  1]
Building model and compiling functions...
Nombre de parametres:	(4320,)
Starting training...
Epoch 1 of 5 took 26.912s
  training loss:		2.267891
  validation loss:		2.173397
  validation accuracy:		41.96 %
Epoch 2 of 5 took 26.873s
  training loss:		1.536429
  validation loss:		0.786334
  validation accuracy:		75.44 %
Epoch 3 of 5 took 25.864s
  training loss:		0.516072
  validation loss:		0.325726
  validation accuracy:		90.77 %
Epoch 4 of 5 took 27.310s
  training loss:		0.304804
  validation loss:		0.245005
  validation accuracy:		93.22 %
Epoch 5 of 5 took 27.391s
  training loss:		0.237918
  validation loss:		0.194558
  validation accuracy:		94.57 %
Final results:
  test loss:			0.200579
  test accuracy:		94.16 %
Total time 136.219s
('param : ', '5 2-2-14-14 5-5-8-4 1-10-4-1-1\n')
Loading data...
Parameters : [ 2  2 14 14]	[5 5 8 4]	[ 1 10  4  1  1]
Building model and compiling functions...
Nombre de parametres:	(1004,)
Starting training...
Epoch 1 of 5 took 23.131s
  training loss:		2.301583
  validation loss:		2.301888
  validation accuracy:		10.64 %
Epoch 2 of 5 took 21.689s
  training loss:		2.301146
  validation loss:		2.301952
  validation accuracy:		10.64 %
Epoch 3 of 5 took 21.521s
  training loss:		2.301129
  validation loss:		2.301924
  validation accuracy:		10.64 %
Epoch 4 of 5 took 23.050s
  training loss:		2.301133
  validation loss:		2.301877
  validation accuracy:		10.64 %
Epoch 5 of 5 took 22.837s
  training loss:		2.301114
  validation loss:		2.301959
  validation accuracy:		10.64 %
Final results:
  test loss:			2.300994
  test accuracy:		11.35 %
Total time 113.758s
('param : ', '5 2-2-14-14 5-5-8-4 1-10-4-2-1\n')
Loading data...
Parameters : [ 2  2 14 14]	[5 5 8 4]	[ 1 10  4  2  1]
Building model and compiling functions...
Nombre de parametres:	(1508,)
Starting training...
Epoch 1 of 5 took 23.201s
  training loss:		2.301604
  validation loss:		2.301870
  validation accuracy:		10.64 %
Epoch 2 of 5 took 22.149s
  training loss:		2.301127
  validation loss:		2.301917
  validation accuracy:		10.64 %
Epoch 3 of 5 took 21.876s
  training loss:		2.301136
  validation loss:		2.301989
  validation accuracy:		10.64 %
Epoch 4 of 5 took 23.990s
  training loss:		2.301132
  validation loss:		2.301930
  validation accuracy:		10.64 %
Epoch 5 of 5 took 23.901s
  training loss:		2.301083
  validation loss:		2.301927
  validation accuracy:		10.64 %
Final results:
  test loss:			2.300898
  test accuracy:		11.35 %
Total time 116.691s
('param : ', '5 2-2-14-14 5-5-8-4 1-10-4-3-1\n')
Loading data...
Parameters : [ 2  2 14 14]	[5 5 8 4]	[ 1 10  4  3  1]
Building model and compiling functions...
Nombre de parametres:	(2012,)
Starting training...
Epoch 1 of 5 took 23.694s
  training loss:		2.301596
  validation loss:		2.301890
  validation accuracy:		10.64 %
Epoch 2 of 5 took 22.776s
  training loss:		2.301134
  validation loss:		2.301997
  validation accuracy:		10.64 %
Epoch 3 of 5 took 22.345s
  training loss:		2.301115
  validation loss:		2.301915
  validation accuracy:		10.64 %
Epoch 4 of 5 took 23.066s
  training loss:		2.300941
  validation loss:		2.301415
  validation accuracy:		10.64 %
Epoch 5 of 5 took 24.510s
  training loss:		2.294482
  validation loss:		2.278250
  validation accuracy:		17.66 %
Final results:
  test loss:			2.277064
  test accuracy:		18.63 %
Total time 118.066s
('param : ', '5 2-2-14-14 5-5-8-4 1-10-4-4-1\n')
Loading data...
Parameters : [ 2  2 14 14]	[5 5 8 4]	[ 1 10  4  4  1]
Building model and compiling functions...
Nombre de parametres:	(2516,)
Starting training...
Epoch 1 of 5 took 23.785s
  training loss:		2.301600
  validation loss:		2.301851
  validation accuracy:		10.64 %
Epoch 2 of 5 took 23.772s
  training loss:		2.301106
  validation loss:		2.301965
  validation accuracy:		10.64 %
Epoch 3 of 5 took 24.841s
  training loss:		2.300973
  validation loss:		2.301417
  validation accuracy:		10.64 %
Epoch 4 of 5 took 24.926s
  training loss:		2.291514
  validation loss:		2.265181
  validation accuracy:		21.16 %
Epoch 5 of 5 took 25.308s
  training loss:		2.012988
  validation loss:		1.456193
  validation accuracy:		59.35 %
Final results:
  test loss:			1.445301
  test accuracy:		57.10 %
Total time 124.222s
('param : ', '5 2-2-14-14 5-5-8-4 1-10-4-5-1\n')
Loading data...
Parameters : [ 2  2 14 14]	[5 5 8 4]	[ 1 10  4  5  1]
Building model and compiling functions...
Nombre de parametres:	(3020,)
Starting training...
Epoch 1 of 5 took 23.825s
  training loss:		2.301568
  validation loss:		2.301851
  validation accuracy:		10.64 %
Epoch 2 of 5 took 23.366s
  training loss:		2.301090
  validation loss:		2.301929
  validation accuracy:		10.64 %
Epoch 3 of 5 took 25.156s
  training loss:		2.299431
  validation loss:		2.294170
  validation accuracy:		10.64 %
Epoch 4 of 5 took 24.506s
  training loss:		2.221693
  validation loss:		1.985005
  validation accuracy:		25.40 %
Epoch 5 of 5 took 25.397s
  training loss:		1.174305
  validation loss:		0.468062
  validation accuracy:		86.70 %
Final results:
  test loss:			0.505340
  test accuracy:		85.26 %
Total time 123.912s
('param : ', '5 2-2-14-14 5-5-8-4 1-10-4-6-1\n')
Loading data...
Parameters : [ 2  2 14 14]	[5 5 8 4]	[ 1 10  4  6  1]
Building model and compiling functions...
Nombre de parametres:	(3524,)
Starting training...
Epoch 1 of 5 took 24.768s
  training loss:		2.301601
  validation loss:		2.301914
  validation accuracy:		10.64 %
Epoch 2 of 5 took 25.222s
  training loss:		2.301107
  validation loss:		2.301948
  validation accuracy:		10.64 %
Epoch 3 of 5 took 25.987s
  training loss:		2.301007
  validation loss:		2.301602
  validation accuracy:		10.64 %
Epoch 4 of 5 took 24.591s
  training loss:		2.294987
  validation loss:		2.276884
  validation accuracy:		20.19 %
Epoch 5 of 5 took 24.189s
  training loss:		2.084685
  validation loss:		1.515833
  validation accuracy:		56.87 %
Final results:
  test loss:			1.512108
  test accuracy:		53.84 %
Total time 126.523s
('param : ', '5 2-2-14-14 5-5-8-4 1-10-4-7-1\n')
Loading data...
Parameters : [ 2  2 14 14]	[5 5 8 4]	[ 1 10  4  7  1]
Building model and compiling functions...
Nombre de parametres:	(4028,)
Starting training...
Epoch 1 of 5 took 24.832s
  training loss:		2.301601
  validation loss:		2.301919
  validation accuracy:		10.64 %
Epoch 2 of 5 took 26.033s
  training loss:		2.301086
  validation loss:		2.301781
  validation accuracy:		10.64 %
Epoch 3 of 5 took 26.265s
  training loss:		2.298303
  validation loss:		2.289686
  validation accuracy:		10.64 %
Epoch 4 of 5 took 24.632s
  training loss:		2.195884
  validation loss:		1.889868
  validation accuracy:		31.84 %
Epoch 5 of 5 took 25.828s
  training loss:		1.067064
  validation loss:		0.382793
  validation accuracy:		89.19 %
Final results:
  test loss:			0.413550
  test accuracy:		88.10 %
Total time 129.363s
('param : ', '5 2-2-14-14 5-5-8-4 1-10-4-8-1\n')
Loading data...
Parameters : [ 2  2 14 14]	[5 5 8 4]	[ 1 10  4  8  1]
Building model and compiling functions...
Nombre de parametres:	(4532,)
Starting training...
Epoch 1 of 5 took 26.135s
  training loss:		2.301563
  validation loss:		2.301910
  validation accuracy:		10.64 %
Epoch 2 of 5 took 25.986s
  training loss:		2.301078
  validation loss:		2.301779
  validation accuracy:		10.64 %
Epoch 3 of 5 took 25.631s
  training loss:		2.296155
  validation loss:		2.281292
  validation accuracy:		10.64 %
Epoch 4 of 5 took 25.889s
  training loss:		2.053650
  validation loss:		1.170104
  validation accuracy:		67.64 %
Epoch 5 of 5 took 27.531s
  training loss:		0.505189
  validation loss:		0.276576
  validation accuracy:		91.92 %
Final results:
  test loss:			0.287389
  test accuracy:		91.44 %
Total time 132.931s
('param : ', '5 2-2-14-14 5-5-8-4 1-10-4-9-1\n')
Loading data...
Parameters : [ 2  2 14 14]	[5 5 8 4]	[ 1 10  4  9  1]
Building model and compiling functions...
Nombre de parametres:	(5036,)
Starting training...
Epoch 1 of 5 took 27.410s
  training loss:		2.286040
  validation loss:		2.250152
  validation accuracy:		26.43 %
Epoch 2 of 5 took 26.960s
  training loss:		1.928227
  validation loss:		1.163863
  validation accuracy:		63.60 %
Epoch 3 of 5 took 24.724s
  training loss:		0.591244
  validation loss:		0.298660
  validation accuracy:		91.49 %
Epoch 4 of 5 took 26.807s
  training loss:		0.285958
  validation loss:		0.216577
  validation accuracy:		93.73 %
Epoch 5 of 5 took 28.092s
  training loss:		0.218231
  validation loss:		0.178283
  validation accuracy:		94.98 %
Final results:
  test loss:			0.184406
  test accuracy:		94.74 %
Total time 135.720s
('param : ', '5 2-2-14-14 5-5-8-4 1-10-4-10-1\n')
Loading data...
Parameters : [ 2  2 14 14]	[5 5 8 4]	[ 1 10  4 10  1]
Building model and compiling functions...
Nombre de parametres:	(5540,)
Starting training...
Epoch 1 of 5 took 25.790s
  training loss:		2.015823
  validation loss:		1.292384
  validation accuracy:		56.52 %
Epoch 2 of 5 took 27.166s
  training loss:		0.820368
  validation loss:		0.429365
  validation accuracy:		87.38 %
Epoch 3 of 5 took 27.713s
  training loss:		0.347566
  validation loss:		0.241871
  validation accuracy:		93.03 %
Epoch 4 of 5 took 28.365s
  training loss:		0.234684
  validation loss:		0.191868
  validation accuracy:		94.46 %
Epoch 5 of 5 took 29.352s
  training loss:		0.187453
  validation loss:		0.159953
  validation accuracy:		95.44 %
Final results:
  test loss:			0.155792
  test accuracy:		95.27 %
Total time 140.195s
('param : ', '5 2-2-14-14 5-5-8-4 1-10-5-1-1\n')
Loading data...
Parameters : [ 2  2 14 14]	[5 5 8 4]	[ 1 10  5  1  1]
Building model and compiling functions...
Nombre de parametres:	(1216,)
Starting training...
Epoch 1 of 5 took 22.500s
  training loss:		2.301604
  validation loss:		2.301882
  validation accuracy:		10.64 %
Epoch 2 of 5 took 22.668s
  training loss:		2.301112
  validation loss:		2.301942
  validation accuracy:		10.64 %
Epoch 3 of 5 took 23.462s
  training loss:		2.301149
  validation loss:		2.301947
  validation accuracy:		10.64 %
Epoch 4 of 5 took 23.533s
  training loss:		2.301098
  validation loss:		2.301909
  validation accuracy:		10.64 %
Epoch 5 of 5 took 23.353s
  training loss:		2.301115
  validation loss:		2.301962
  validation accuracy:		10.64 %
Final results:
  test loss:			2.301035
  test accuracy:		11.35 %
Total time 117.000s
('param : ', '5 2-2-14-14 5-5-8-4 1-10-5-2-1\n')
Loading data...
Parameters : [ 2  2 14 14]	[5 5 8 4]	[ 1 10  5  2  1]
Building model and compiling functions...
Nombre de parametres:	(1832,)
Starting training...
Epoch 1 of 5 took 22.815s
  training loss:		2.301573
  validation loss:		2.301933
  validation accuracy:		10.64 %
Epoch 2 of 5 took 22.815s
  training loss:		2.301106
  validation loss:		2.302007
  validation accuracy:		10.64 %
Epoch 3 of 5 took 23.721s
  training loss:		2.301103
  validation loss:		2.301940
  validation accuracy:		10.64 %
Epoch 4 of 5 took 23.489s
  training loss:		2.301052
  validation loss:		2.301761
  validation accuracy:		10.64 %
Epoch 5 of 5 took 23.749s
  training loss:		2.299737
  validation loss:		2.297544
  validation accuracy:		10.64 %
Final results:
  test loss:			2.296458
  test accuracy:		11.35 %
Total time 118.198s
('param : ', '5 2-2-14-14 5-5-8-4 1-10-5-3-1\n')
Loading data...
Parameters : [ 2  2 14 14]	[5 5 8 4]	[ 1 10  5  3  1]
Building model and compiling functions...
Nombre de parametres:	(2448,)
Starting training...
Epoch 1 of 5 took 24.284s
  training loss:		2.301535
  validation loss:		2.301957
  validation accuracy:		10.64 %
Epoch 2 of 5 took 23.754s
  training loss:		2.300984
  validation loss:		2.301374
  validation accuracy:		10.64 %
Epoch 3 of 5 took 24.576s
  training loss:		2.291601
  validation loss:		2.266595
  validation accuracy:		16.46 %
Epoch 4 of 5 took 23.972s
  training loss:		1.935707
  validation loss:		1.182380
  validation accuracy:		62.58 %
Epoch 5 of 5 took 24.097s
  training loss:		0.660901
  validation loss:		0.322227
  validation accuracy:		90.98 %
Final results:
  test loss:			0.348639
  test accuracy:		90.25 %
Total time 122.358s
('param : ', '5 2-2-14-14 5-5-8-4 1-10-5-4-1\n')
Loading data...
Parameters : [ 2  2 14 14]	[5 5 8 4]	[ 1 10  5  4  1]
Building model and compiling functions...
Nombre de parametres:	(3064,)
Starting training...
Epoch 1 of 5 took 24.417s
  training loss:		2.301577
  validation loss:		2.301931
  validation accuracy:		10.64 %
Epoch 2 of 5 took 24.305s
  training loss:		2.301082
  validation loss:		2.302007
  validation accuracy:		10.64 %
Epoch 3 of 5 took 25.249s
  training loss:		2.300596
  validation loss:		2.299440
  validation accuracy:		10.64 %
Epoch 4 of 5 took 24.438s
  training loss:		2.269240
  validation loss:		2.182196
  validation accuracy:		23.77 %
Epoch 5 of 5 took 23.117s
  training loss:		1.545165
  validation loss:		0.698826
  validation accuracy:		79.78 %
Final results:
  test loss:			0.748146
  test accuracy:		77.64 %
Total time 123.048s
('param : ', '5 2-2-14-14 5-5-8-4 1-10-5-5-1\n')
Loading data...
Parameters : [ 2  2 14 14]	[5 5 8 4]	[ 1 10  5  5  1]
Building model and compiling functions...
Nombre de parametres:	(3680,)
Starting training...
Epoch 1 of 5 took 25.108s
  training loss:		2.301624
  validation loss:		2.301858
  validation accuracy:		10.64 %
Epoch 2 of 5 took 25.318s
  training loss:		2.300909
  validation loss:		2.300871
  validation accuracy:		10.64 %
Epoch 3 of 5 took 24.468s
  training loss:		2.267921
  validation loss:		2.162124
  validation accuracy:		21.97 %
Epoch 4 of 5 took 23.734s
  training loss:		1.464893
  validation loss:		0.648300
  validation accuracy:		80.83 %
Epoch 5 of 5 took 24.896s
  training loss:		0.436734
  validation loss:		0.269335
  validation accuracy:		92.60 %
Final results:
  test loss:			0.287885
  test accuracy:		92.10 %
Total time 125.252s
('param : ', '5 2-2-14-14 5-5-8-4 1-10-5-6-1\n')
Loading data...
Parameters : [ 2  2 14 14]	[5 5 8 4]	[ 1 10  5  6  1]
Building model and compiling functions...
Nombre de parametres:	(4296,)
Starting training...
Epoch 1 of 5 took 24.752s
  training loss:		2.301623
  validation loss:		2.301864
  validation accuracy:		10.64 %
Epoch 2 of 5 took 24.051s
  training loss:		2.301131
  validation loss:		2.301892
  validation accuracy:		10.64 %
Epoch 3 of 5 took 25.496s
  training loss:		2.300605
  validation loss:		2.299420
  validation accuracy:		10.64 %
Epoch 4 of 5 took 24.481s
  training loss:		2.267627
  validation loss:		2.168972
  validation accuracy:		25.75 %
Epoch 5 of 5 took 25.723s
  training loss:		1.491736
  validation loss:		0.683747
  validation accuracy:		80.32 %
Final results:
  test loss:			0.710350
  test accuracy:		78.30 %
Total time 126.207s
('param : ', '5 2-2-14-14 5-5-8-4 1-10-5-7-1\n')
Loading data...
Parameters : [ 2  2 14 14]	[5 5 8 4]	[ 1 10  5  7  1]
Building model and compiling functions...
Nombre de parametres:	(4912,)
Starting training...
Epoch 1 of 5 took 25.769s
  training loss:		2.301647
  validation loss:		2.301895
  validation accuracy:		10.64 %
Epoch 2 of 5 took 24.835s
  training loss:		2.301091
  validation loss:		2.302062
  validation accuracy:		10.64 %
Epoch 3 of 5 took 24.386s
  training loss:		2.301081
  validation loss:		2.301880
  validation accuracy:		10.64 %
Epoch 4 of 5 took 24.529s
  training loss:		2.300369
  validation loss:		2.298839
  validation accuracy:		10.64 %
Epoch 5 of 5 took 24.876s
  training loss:		2.271919
  validation loss:		2.197937
  validation accuracy:		28.39 %
Final results:
  test loss:			2.195470
  test accuracy:		28.47 %
Total time 126.099s
('param : ', '5 2-2-14-14 5-5-8-4 1-10-5-8-1\n')
Loading data...
Parameters : [ 2  2 14 14]	[5 5 8 4]	[ 1 10  5  8  1]
Building model and compiling functions...
Nombre de parametres:	(5528,)
Starting training...
Epoch 1 of 5 took 26.923s
  training loss:		2.301651
  validation loss:		2.301806
  validation accuracy:		10.64 %
Epoch 2 of 5 took 27.938s
  training loss:		2.301117
  validation loss:		2.301938
  validation accuracy:		10.64 %
Epoch 3 of 5 took 28.677s
  training loss:		2.301097
  validation loss:		2.301962
  validation accuracy:		10.64 %
Epoch 4 of 5 took 28.446s
  training loss:		2.300970
  validation loss:		2.301607
  validation accuracy:		10.64 %
Epoch 5 of 5 took 28.104s
  training loss:		2.293952
  validation loss:		2.275166
  validation accuracy:		18.55 %
Final results:
  test loss:			2.273249
  test accuracy:		19.36 %
Total time 141.785s
('param : ', '5 2-2-14-14 5-5-8-4 1-10-5-9-1\n')
Loading data...
Parameters : [ 2  2 14 14]	[5 5 8 4]	[ 1 10  5  9  1]
Building model and compiling functions...
Nombre de parametres:	(6144,)
Starting training...
Epoch 1 of 5 took 27.685s
  training loss:		2.301585
  validation loss:		2.301857
  validation accuracy:		10.64 %
Epoch 2 of 5 took 27.912s
  training loss:		2.300762
  validation loss:		2.299935
  validation accuracy:		10.64 %
Epoch 3 of 5 took 27.173s
  training loss:		2.270661
  validation loss:		2.184713
  validation accuracy:		31.07 %
Epoch 4 of 5 took 27.366s
  training loss:		1.375099
  validation loss:		0.434868
  validation accuracy:		87.30 %
Epoch 5 of 5 took 27.256s
  training loss:		0.348037
  validation loss:		0.242362
  validation accuracy:		92.76 %
Final results:
  test loss:			0.259632
  test accuracy:		92.64 %
Total time 139.164s
('param : ', '5 2-2-14-14 5-5-8-4 1-10-5-10-1\n')
Loading data...
Parameters : [ 2  2 14 14]	[5 5 8 4]	[ 1 10  5 10  1]
Building model and compiling functions...
Nombre de parametres:	(6760,)
Starting training...
Epoch 1 of 5 took 25.926s
  training loss:		2.301585
  validation loss:		2.301854
  validation accuracy:		10.64 %
Epoch 2 of 5 took 25.571s
  training loss:		2.301069
  validation loss:		2.301876
  validation accuracy:		10.64 %
Epoch 3 of 5 took 26.722s
  training loss:		2.297969
  validation loss:		2.286863
  validation accuracy:		10.64 %
Epoch 4 of 5 took 27.392s
  training loss:		2.135257
  validation loss:		1.616588
  validation accuracy:		43.39 %
Epoch 5 of 5 took 27.942s
  training loss:		0.757243
  validation loss:		0.307962
  validation accuracy:		91.02 %
Final results:
  test loss:			0.323183
  test accuracy:		90.86 %
Total time 135.493s
('param : ', '5 2-2-14-14 5-5-8-4 1-10-6-1-1\n')
Loading data...
Parameters : [ 2  2 14 14]	[5 5 8 4]	[ 1 10  6  1  1]
Building model and compiling functions...
Nombre de parametres:	(1428,)
Starting training...
Epoch 1 of 5 took 22.737s
  training loss:		2.301633
  validation loss:		2.301849
  validation accuracy:		10.64 %
Epoch 2 of 5 took 23.387s
  training loss:		2.301103
  validation loss:		2.302007
  validation accuracy:		10.64 %
Epoch 3 of 5 took 23.973s
  training loss:		2.301157
  validation loss:		2.302026
  validation accuracy:		10.64 %
Epoch 4 of 5 took 23.476s
  training loss:		2.301125
  validation loss:		2.302008
  validation accuracy:		10.64 %
Epoch 5 of 5 took 24.596s
  training loss:		2.301143
  validation loss:		2.301993
  validation accuracy:		10.64 %
Final results:
  test loss:			2.301003
  test accuracy:		11.35 %
Total time 119.773s
('param : ', '5 2-2-14-14 5-5-8-4 1-10-6-2-1\n')
Loading data...
Parameters : [ 2  2 14 14]	[5 5 8 4]	[ 1 10  6  2  1]
Building model and compiling functions...
Nombre de parametres:	(2156,)
Starting training...
Epoch 1 of 5 took 23.417s
  training loss:		2.301566
  validation loss:		2.302040
  validation accuracy:		10.64 %
Epoch 2 of 5 took 22.537s
  training loss:		2.301155
  validation loss:		2.301945
  validation accuracy:		10.64 %
Epoch 3 of 5 took 22.909s
  training loss:		2.301129
  validation loss:		2.302084
  validation accuracy:		10.64 %
Epoch 4 of 5 took 22.932s
  training loss:		2.301115
  validation loss:		2.301990
  validation accuracy:		10.64 %
Epoch 5 of 5 took 24.043s
  training loss:		2.301088
  validation loss:		2.301967
  validation accuracy:		10.64 %
Final results:
  test loss:			2.300880
  test accuracy:		11.35 %
Total time 117.463s
('param : ', '5 2-2-14-14 5-5-8-4 1-10-6-3-1\n')
Loading data...
Parameters : [ 2  2 14 14]	[5 5 8 4]	[ 1 10  6  3  1]
Building model and compiling functions...
Nombre de parametres:	(2884,)
Starting training...
Epoch 1 of 5 took 23.898s
  training loss:		2.301575
  validation loss:		2.301872
  validation accuracy:		10.64 %
Epoch 2 of 5 took 20.957s
  training loss:		2.301021
  validation loss:		2.301509
  validation accuracy:		10.64 %
Epoch 3 of 5 took 22.226s
  training loss:		2.294745
  validation loss:		2.278484
  validation accuracy:		17.31 %
Epoch 4 of 5 took 21.342s
  training loss:		2.031647
  validation loss:		1.370024
  validation accuracy:		57.16 %
Epoch 5 of 5 took 22.827s
  training loss:		0.782628
  validation loss:		0.374945
  validation accuracy:		89.48 %
Final results:
  test loss:			0.403724
  test accuracy:		88.62 %
Total time 112.854s
('param : ', '5 2-2-14-14 5-5-8-4 1-10-6-4-1\n')
Loading data...
Parameters : [ 2  2 14 14]	[5 5 8 4]	[ 1 10  6  4  1]
Building model and compiling functions...
Nombre de parametres:	(3612,)
Starting training...
Epoch 1 of 5 took 23.303s
  training loss:		2.301576
  validation loss:		2.301943
  validation accuracy:		10.64 %
Epoch 2 of 5 took 24.797s
  training loss:		2.301092
  validation loss:		2.301959
  validation accuracy:		10.64 %
Epoch 3 of 5 took 25.822s
  training loss:		2.298246
  validation loss:		2.288740
  validation accuracy:		10.64 %
Epoch 4 of 5 took 25.331s
  training loss:		2.152667
  validation loss:		1.685012
  validation accuracy:		42.05 %
Epoch 5 of 5 took 24.051s
  training loss:		0.895883
  validation loss:		0.412827
  validation accuracy:		88.14 %
Final results:
  test loss:			0.455070
  test accuracy:		86.81 %
Total time 124.915s
('param : ', '5 2-2-14-14 5-5-8-4 1-10-6-5-1\n')
Loading data...
Parameters : [ 2  2 14 14]	[5 5 8 4]	[ 1 10  6  5  1]
Building model and compiling functions...
Nombre de parametres:	(4340,)
Starting training...
Epoch 1 of 5 took 23.085s
  training loss:		2.301632
  validation loss:		2.301912
  validation accuracy:		10.64 %
Epoch 2 of 5 took 25.070s
  training loss:		2.301089
  validation loss:		2.302051
  validation accuracy:		10.64 %
Epoch 3 of 5 took 25.660s
  training loss:		2.300679
  validation loss:		2.299898
  validation accuracy:		10.64 %
Epoch 4 of 5 took 25.710s
  training loss:		2.273403
  validation loss:		2.195102
  validation accuracy:		24.22 %
Epoch 5 of 5 took 23.202s
  training loss:		1.612949
  validation loss:		0.750952
  validation accuracy:		77.61 %
Final results:
  test loss:			0.785052
  test accuracy:		75.90 %
Total time 124.256s
('param : ', '5 2-2-14-14 5-5-8-4 1-10-6-6-1\n')
Loading data...
Parameters : [ 2  2 14 14]	[5 5 8 4]	[ 1 10  6  6  1]
Building model and compiling functions...
Nombre de parametres:	(5068,)
Starting training...
Epoch 1 of 5 took 23.341s
  training loss:		2.301628
  validation loss:		2.301907
  validation accuracy:		10.64 %
Epoch 2 of 5 took 23.746s
  training loss:		2.301124
  validation loss:		2.302023
  validation accuracy:		10.64 %
Epoch 3 of 5 took 23.693s
  training loss:		2.301030
  validation loss:		2.301719
  validation accuracy:		10.64 %
Epoch 4 of 5 took 24.401s
  training loss:		2.299091
  validation loss:		2.293698
  validation accuracy:		10.64 %
Epoch 5 of 5 took 26.172s
  training loss:		2.237045
  validation loss:		2.078789
  validation accuracy:		25.23 %
Final results:
  test loss:			2.071852
  test accuracy:		25.40 %
Total time 123.073s
('param : ', '5 2-2-14-14 5-5-8-4 1-10-6-7-1\n')
Loading data...
Parameters : [ 2  2 14 14]	[5 5 8 4]	[ 1 10  6  7  1]
Building model and compiling functions...
Nombre de parametres:	(5796,)
Starting training...
Epoch 1 of 5 took 25.622s
  training loss:		2.301720
  validation loss:		2.301838
  validation accuracy:		10.64 %
Epoch 2 of 5 took 27.205s
  training loss:		2.301126
  validation loss:		2.301988
  validation accuracy:		10.64 %
Epoch 3 of 5 took 26.055s
  training loss:		2.301067
  validation loss:		2.301909
  validation accuracy:		10.64 %
Epoch 4 of 5 took 26.472s
  training loss:		2.300645
  validation loss:		2.300229
  validation accuracy:		10.64 %
Epoch 5 of 5 took 26.215s
  training loss:		2.283224
  validation loss:		2.241403
  validation accuracy:		24.58 %
Final results:
  test loss:			2.239319
  test accuracy:		24.98 %
Total time 133.333s
('param : ', '5 2-2-14-14 5-5-8-4 1-10-6-8-1\n')
Loading data...
Parameters : [ 2  2 14 14]	[5 5 8 4]	[ 1 10  6  8  1]
Building model and compiling functions...
Nombre de parametres:	(6524,)
Starting training...
Epoch 1 of 5 took 29.127s
  training loss:		2.301596
  validation loss:		2.301952
  validation accuracy:		10.64 %
Epoch 2 of 5 took 28.512s
  training loss:		2.301099
  validation loss:		2.301906
  validation accuracy:		10.64 %
Epoch 3 of 5 took 28.656s
  training loss:		2.300392
  validation loss:		2.298681
  validation accuracy:		10.64 %
Epoch 4 of 5 took 27.109s
  training loss:		2.263196
  validation loss:		2.152624
  validation accuracy:		25.39 %
Epoch 5 of 5 took 28.329s
  training loss:		1.253555
  validation loss:		0.445519
  validation accuracy:		87.44 %
Final results:
  test loss:			0.481529
  test accuracy:		85.79 %
Total time 143.596s
('param : ', '5 2-2-14-14 5-5-8-4 1-10-6-9-1\n')
Loading data...
Parameters : [ 2  2 14 14]	[5 5 8 4]	[ 1 10  6  9  1]
Building model and compiling functions...
Nombre de parametres:	(7252,)
Starting training...
Epoch 1 of 5 took 27.603s
  training loss:		2.301621
  validation loss:		2.301905
  validation accuracy:		10.64 %
Epoch 2 of 5 took 28.922s
  training loss:		2.301149
  validation loss:		2.301955
  validation accuracy:		10.64 %
Epoch 3 of 5 took 28.275s
  training loss:		2.301103
  validation loss:		2.301945
  validation accuracy:		10.64 %
Epoch 4 of 5 took 27.048s
  training loss:		2.300530
  validation loss:		2.299131
  validation accuracy:		10.64 %
Epoch 5 of 5 took 29.206s
  training loss:		2.263915
  validation loss:		2.166548
  validation accuracy:		29.28 %
Final results:
  test loss:			2.161203
  test accuracy:		29.53 %
Total time 142.823s
('param : ', '5 2-2-14-14 5-5-8-4 1-10-6-10-1\n')
Loading data...
Parameters : [ 2  2 14 14]	[5 5 8 4]	[ 1 10  6 10  1]
Building model and compiling functions...
Nombre de parametres:	(7980,)
Starting training...
Epoch 1 of 5 took 28.720s
  training loss:		2.301597
  validation loss:		2.301888
  validation accuracy:		10.64 %
Epoch 2 of 5 took 28.088s
  training loss:		2.301078
  validation loss:		2.301936
  validation accuracy:		10.64 %
Epoch 3 of 5 took 27.451s
  training loss:		2.295672
  validation loss:		2.274975
  validation accuracy:		18.71 %
Epoch 4 of 5 took 27.800s
  training loss:		1.799613
  validation loss:		0.730157
  validation accuracy:		77.22 %
Epoch 5 of 5 took 28.843s
  training loss:		0.461593
  validation loss:		0.272182
  validation accuracy:		92.08 %
Final results:
  test loss:			0.292731
  test accuracy:		91.64 %
Total time 142.751s
('param : ', '5 2-2-14-14 5-5-8-4 1-10-7-1-1\n')
Loading data...
Parameters : [ 2  2 14 14]	[5 5 8 4]	[ 1 10  7  1  1]
Building model and compiling functions...
Nombre de parametres:	(1640,)
Starting training...
Epoch 1 of 5 took 22.099s
  training loss:		2.301617
  validation loss:		2.301844
  validation accuracy:		10.64 %
Epoch 2 of 5 took 23.445s
  training loss:		2.301115
  validation loss:		2.301989
  validation accuracy:		10.64 %
Epoch 3 of 5 took 23.306s
  training loss:		2.301111
  validation loss:		2.301888
  validation accuracy:		10.64 %
Epoch 4 of 5 took 23.680s
  training loss:		2.301137
  validation loss:		2.301988
  validation accuracy:		10.64 %
Epoch 5 of 5 took 23.663s
  training loss:		2.301117
  validation loss:		2.301995
  validation accuracy:		10.64 %
Final results:
  test loss:			2.301044
  test accuracy:		11.35 %
Total time 117.649s
('param : ', '5 2-2-14-14 5-5-8-4 1-10-7-2-1\n')
Loading data...
Parameters : [ 2  2 14 14]	[5 5 8 4]	[ 1 10  7  2  1]
Building model and compiling functions...
Nombre de parametres:	(2480,)
Starting training...
Epoch 1 of 5 took 24.861s
  training loss:		2.301601
  validation loss:		2.301967
  validation accuracy:		10.64 %
Epoch 2 of 5 took 23.255s
  training loss:		2.301078
  validation loss:		2.301866
  validation accuracy:		10.64 %
Epoch 3 of 5 took 25.024s
  training loss:		2.296646
  validation loss:		2.283389
  validation accuracy:		16.77 %
Epoch 4 of 5 took 23.476s
  training loss:		2.106705
  validation loss:		1.634434
  validation accuracy:		49.12 %
Epoch 5 of 5 took 23.316s
  training loss:		0.799258
  validation loss:		0.345512
  validation accuracy:		90.25 %
Final results:
  test loss:			0.375884
  test accuracy:		89.38 %
Total time 121.538s
('param : ', '5 2-2-14-14 5-5-8-4 1-10-7-3-1\n')
Loading data...
Parameters : [ 2  2 14 14]	[5 5 8 4]	[ 1 10  7  3  1]
Building model and compiling functions...
Nombre de parametres:	(3320,)
Starting training...
Epoch 1 of 5 took 24.481s
  training loss:		2.301671
  validation loss:		2.301916
  validation accuracy:		10.64 %
Epoch 2 of 5 took 24.201s
  training loss:		2.301153
  validation loss:		2.301908
  validation accuracy:		10.64 %
Epoch 3 of 5 took 24.896s
  training loss:		2.300056
  validation loss:		2.297166
  validation accuracy:		10.64 %
Epoch 4 of 5 took 23.804s
  training loss:		2.256742
  validation loss:		2.130140
  validation accuracy:		29.44 %
Epoch 5 of 5 took 24.697s
  training loss:		1.277800
  validation loss:		0.556956
  validation accuracy:		83.60 %
Final results:
  test loss:			0.586143
  test accuracy:		83.06 %
Total time 123.763s
('param : ', '5 2-2-14-14 5-5-8-4 1-10-7-4-1\n')
Loading data...
Parameters : [ 2  2 14 14]	[5 5 8 4]	[ 1 10  7  4  1]
Building model and compiling functions...
Nombre de parametres:	(4160,)
Starting training...
Epoch 1 of 5 took 23.821s
  training loss:		2.301604
  validation loss:		2.301875
  validation accuracy:		10.64 %
Epoch 2 of 5 took 24.891s
  training loss:		2.301065
  validation loss:		2.301728
  validation accuracy:		10.64 %
Epoch 3 of 5 took 23.262s
  training loss:		2.294490
  validation loss:		2.274760
  validation accuracy:		23.17 %
Epoch 4 of 5 took 23.788s
  training loss:		2.029381
  validation loss:		1.334857
  validation accuracy:		59.91 %
Epoch 5 of 5 took 24.939s
  training loss:		0.737420
  validation loss:		0.375475
  validation accuracy:		89.54 %
Final results:
  test loss:			0.406646
  test accuracy:		88.77 %
Total time 122.350s
('param : ', '5 2-2-14-14 5-5-8-4 1-10-7-5-1\n')
Loading data...
Parameters : [ 2  2 14 14]	[5 5 8 4]	[ 1 10  7  5  1]
Building model and compiling functions...
Nombre de parametres:	(5000,)
Starting training...
Epoch 1 of 5 took 25.781s
  training loss:		2.301642
  validation loss:		2.301842
  validation accuracy:		10.64 %
Epoch 2 of 5 took 23.397s
  training loss:		2.301113
  validation loss:		2.301954
  validation accuracy:		10.64 %
Epoch 3 of 5 took 25.023s
  training loss:		2.300887
  validation loss:		2.300854
  validation accuracy:		10.64 %
Epoch 4 of 5 took 25.592s
  training loss:		2.277054
  validation loss:		2.202108
  validation accuracy:		28.75 %
Epoch 5 of 5 took 25.882s
  training loss:		1.441161
  validation loss:		0.578919
  validation accuracy:		83.41 %
Final results:
  test loss:			0.615790
  test accuracy:		81.72 %
Total time 127.467s
('param : ', '5 2-2-14-14 5-5-8-4 1-10-7-6-1\n')
Loading data...
Parameters : [ 2  2 14 14]	[5 5 8 4]	[ 1 10  7  6  1]
Building model and compiling functions...
Nombre de parametres:	(5840,)
Starting training...
Epoch 1 of 5 took 26.325s
  training loss:		2.301600
  validation loss:		2.301984
  validation accuracy:		10.64 %
Epoch 2 of 5 took 25.108s
  training loss:		2.301121
  validation loss:		2.302022
  validation accuracy:		10.64 %
Epoch 3 of 5 took 25.206s
  training loss:		2.300855
  validation loss:		2.300677
  validation accuracy:		10.64 %
Epoch 4 of 5 took 24.963s
  training loss:		2.282418
  validation loss:		2.232995
  validation accuracy:		23.09 %
Epoch 5 of 5 took 23.315s
  training loss:		1.786136
  validation loss:		0.927300
  validation accuracy:		73.05 %
Final results:
  test loss:			0.949579
  test accuracy:		70.74 %
Total time 126.542s
('param : ', '5 2-2-14-14 5-5-8-4 1-10-7-7-1\n')
Loading data...
Parameters : [ 2  2 14 14]	[5 5 8 4]	[ 1 10  7  7  1]
Building model and compiling functions...
Nombre de parametres:	(6680,)
Starting training...
Epoch 1 of 5 took 24.488s
  training loss:		2.301548
  validation loss:		2.301981
  validation accuracy:		10.64 %
Epoch 2 of 5 took 26.204s
  training loss:		2.301071
  validation loss:		2.301805
  validation accuracy:		10.64 %
Epoch 3 of 5 took 26.746s
  training loss:		2.296439
  validation loss:		2.280828
  validation accuracy:		10.64 %
Epoch 4 of 5 took 27.657s
  training loss:		2.046296
  validation loss:		1.280163
  validation accuracy:		64.21 %
Epoch 5 of 5 took 27.287s
  training loss:		0.703502
  validation loss:		0.384719
  validation accuracy:		89.14 %
Final results:
  test loss:			0.417790
  test accuracy:		87.83 %
Total time 134.236s
('param : ', '5 2-2-14-14 5-5-8-4 1-10-7-8-1\n')
Loading data...
Parameters : [ 2  2 14 14]	[5 5 8 4]	[ 1 10  7  8  1]
Building model and compiling functions...
Nombre de parametres:	(7520,)
Starting training...
Epoch 1 of 5 took 27.604s
  training loss:		2.301552
  validation loss:		2.301929
  validation accuracy:		10.64 %
Epoch 2 of 5 took 27.023s
  training loss:		2.301095
  validation loss:		2.302012
  validation accuracy:		10.64 %
Epoch 3 of 5 took 28.457s
  training loss:		2.301065
  validation loss:		2.301911
  validation accuracy:		10.64 %
Epoch 4 of 5 took 29.362s
  training loss:		2.300332
  validation loss:		2.298482
  validation accuracy:		10.64 %
Epoch 5 of 5 took 29.225s
  training loss:		2.265306
  validation loss:		2.167269
  validation accuracy:		32.82 %
Final results:
  test loss:			2.165763
  test accuracy:		32.49 %
Total time 143.585s
('param : ', '5 2-2-14-14 5-5-8-4 1-10-7-9-1\n')
Loading data...
Parameters : [ 2  2 14 14]	[5 5 8 4]	[ 1 10  7  9  1]
Building model and compiling functions...
Nombre de parametres:	(8360,)
Starting training...
Epoch 1 of 5 took 26.049s
  training loss:		2.301541
  validation loss:		2.301920
  validation accuracy:		10.64 %
Epoch 2 of 5 took 25.619s
  training loss:		2.301118
  validation loss:		2.301952
  validation accuracy:		10.64 %
Epoch 3 of 5 took 27.242s
  training loss:		2.301032
  validation loss:		2.301708
  validation accuracy:		10.64 %
Epoch 4 of 5 took 28.314s
  training loss:		2.298143
  validation loss:		2.289930
  validation accuracy:		10.64 %
Epoch 5 of 5 took 28.559s
  training loss:		2.188962
  validation loss:		1.893718
  validation accuracy:		32.17 %
Final results:
  test loss:			1.881397
  test accuracy:		31.70 %
Total time 137.551s
('param : ', '5 2-2-14-14 5-5-8-4 1-10-7-10-1\n')
Loading data...
Parameters : [ 2  2 14 14]	[5 5 8 4]	[ 1 10  7 10  1]
Building model and compiling functions...
Nombre de parametres:	(9200,)
Starting training...
Epoch 1 of 5 took 27.151s
  training loss:		2.301581
  validation loss:		2.301877
  validation accuracy:		10.64 %
Epoch 2 of 5 took 27.805s
  training loss:		2.301082
  validation loss:		2.301968
  validation accuracy:		10.64 %
Epoch 3 of 5 took 28.748s
  training loss:		2.299909
  validation loss:		2.296504
  validation accuracy:		10.64 %
Epoch 4 of 5 took 31.131s
  training loss:		2.234232
  validation loss:		1.968095
  validation accuracy:		51.87 %
Epoch 5 of 5 took 29.340s
  training loss:		0.800964
  validation loss:		0.349784
  validation accuracy:		90.30 %
Final results:
  test loss:			0.372242
  test accuracy:		89.97 %
Total time 146.059s
('param : ', '5 2-2-14-14 5-5-8-4 1-10-8-1-1\n')
Loading data...
Parameters : [ 2  2 14 14]	[5 5 8 4]	[ 1 10  8  1  1]
Building model and compiling functions...
Nombre de parametres:	(1852,)
Starting training...
Epoch 1 of 5 took 24.159s
  training loss:		2.301600
  validation loss:		2.301878
  validation accuracy:		10.64 %
Epoch 2 of 5 took 24.223s
  training loss:		2.301145
  validation loss:		2.301937
  validation accuracy:		10.64 %
Epoch 3 of 5 took 23.257s
  training loss:		2.301116
  validation loss:		2.301982
  validation accuracy:		10.64 %
Epoch 4 of 5 took 23.305s
  training loss:		2.301123
  validation loss:		2.302112
  validation accuracy:		10.64 %
Epoch 5 of 5 took 21.980s
  training loss:		2.301117
  validation loss:		2.302000
  validation accuracy:		10.64 %
Final results:
  test loss:			2.300993
  test accuracy:		11.35 %
Total time 118.335s
('param : ', '5 2-2-14-14 5-5-8-4 1-10-8-2-1\n')
Loading data...
Parameters : [ 2  2 14 14]	[5 5 8 4]	[ 1 10  8  2  1]
Building model and compiling functions...
Nombre de parametres:	(2804,)
Starting training...
Epoch 1 of 5 took 21.861s
  training loss:		2.301568
  validation loss:		2.301916
  validation accuracy:		10.64 %
Epoch 2 of 5 took 21.613s
  training loss:		2.301127
  validation loss:		2.302092
  validation accuracy:		10.64 %
Epoch 3 of 5 took 23.877s
  training loss:		2.301040
  validation loss:		2.301812
  validation accuracy:		10.64 %
Epoch 4 of 5 took 23.600s
  training loss:		2.299041
  validation loss:		2.294081
  validation accuracy:		10.64 %
Epoch 5 of 5 took 23.880s
  training loss:		2.244803
  validation loss:		2.096376
  validation accuracy:		27.11 %
Final results:
  test loss:			2.091262
  test accuracy:		27.00 %
Total time 116.422s
('param : ', '5 2-2-14-14 5-5-8-4 1-10-8-3-1\n')
Loading data...
Parameters : [ 2  2 14 14]	[5 5 8 4]	[ 1 10  8  3  1]
Building model and compiling functions...
Nombre de parametres:	(3756,)
Starting training...
Epoch 1 of 5 took 23.334s
  training loss:		2.301572
  validation loss:		2.301785
  validation accuracy:		10.64 %
Epoch 2 of 5 took 23.983s
  training loss:		2.292213
  validation loss:		2.261122
  validation accuracy:		23.95 %
Epoch 3 of 5 took 22.652s
  training loss:		1.868542
  validation loss:		1.094043
  validation accuracy:		65.94 %
Epoch 4 of 5 took 21.830s
  training loss:		0.630430
  validation loss:		0.332221
  validation accuracy:		90.87 %
Epoch 5 of 5 took 23.577s
  training loss:		0.280799
  validation loss:		0.206748
  validation accuracy:		94.20 %
Final results:
  test loss:			0.220101
  test accuracy:		93.64 %
Total time 116.996s
('param : ', '5 2-2-14-14 5-5-8-4 1-10-8-4-1\n')
Loading data...
Parameters : [ 2  2 14 14]	[5 5 8 4]	[ 1 10  8  4  1]
Building model and compiling functions...
Nombre de parametres:	(4708,)
Starting training...
Epoch 1 of 5 took 24.486s
  training loss:		2.301626
  validation loss:		2.301740
  validation accuracy:		10.64 %
Epoch 2 of 5 took 25.683s
  training loss:		2.295870
  validation loss:		2.274450
  validation accuracy:		20.50 %
Epoch 3 of 5 took 25.209s
  training loss:		1.858263
  validation loss:		0.941303
  validation accuracy:		71.86 %
Epoch 4 of 5 took 25.475s
  training loss:		0.556590
  validation loss:		0.304270
  validation accuracy:		91.56 %
Epoch 5 of 5 took 25.700s
  training loss:		0.264492
  validation loss:		0.202977
  validation accuracy:		94.37 %
Final results:
  test loss:			0.210048
  test accuracy:		93.78 %
Total time 128.252s
('param : ', '5 2-2-14-14 5-5-8-4 1-10-8-5-1\n')
Loading data...
Parameters : [ 2  2 14 14]	[5 5 8 4]	[ 1 10  8  5  1]
Building model and compiling functions...
Nombre de parametres:	(5660,)
Starting training...
Epoch 1 of 5 took 25.852s
  training loss:		2.301544
  validation loss:		2.301893
  validation accuracy:		10.64 %
Epoch 2 of 5 took 26.563s
  training loss:		2.301086
  validation loss:		2.301935
  validation accuracy:		10.64 %
Epoch 3 of 5 took 25.453s
  training loss:		2.298133
  validation loss:		2.287026
  validation accuracy:		10.64 %
Epoch 4 of 5 took 25.142s
  training loss:		2.111556
  validation loss:		1.539687
  validation accuracy:		50.78 %
Epoch 5 of 5 took 26.112s
  training loss:		0.798560
  validation loss:		0.379607
  validation accuracy:		89.15 %
Final results:
  test loss:			0.412727
  test accuracy:		88.16 %
Total time 130.937s
('param : ', '5 2-2-14-14 5-5-8-4 1-10-8-6-1\n')
Loading data...
Parameters : [ 2  2 14 14]	[5 5 8 4]	[ 1 10  8  6  1]
Building model and compiling functions...
Nombre de parametres:	(6612,)
Starting training...
Epoch 1 of 5 took 25.488s
  training loss:		2.301563
  validation loss:		2.301893
  validation accuracy:		10.64 %
Epoch 2 of 5 took 26.867s
  training loss:		2.301114
  validation loss:		2.301851
  validation accuracy:		10.64 %
Epoch 3 of 5 took 26.267s
  training loss:		2.300601
  validation loss:		2.299807
  validation accuracy:		10.64 %
Epoch 4 of 5 took 26.057s
  training loss:		2.276705
  validation loss:		2.211850
  validation accuracy:		25.81 %
Epoch 5 of 5 took 27.019s
  training loss:		1.564169
  validation loss:		0.616684
  validation accuracy:		82.39 %
Final results:
  test loss:			0.652617
  test accuracy:		80.73 %
Total time 133.543s
('param : ', '5 2-2-14-14 5-5-8-4 1-10-8-7-1\n')
Loading data...
Parameters : [ 2  2 14 14]	[5 5 8 4]	[ 1 10  8  7  1]
Building model and compiling functions...
Nombre de parametres:	(7564,)
Starting training...
Epoch 1 of 5 took 25.868s
  training loss:		2.301612
  validation loss:		2.301893
  validation accuracy:		10.64 %
Epoch 2 of 5 took 26.296s
  training loss:		2.299728
  validation loss:		2.294096
  validation accuracy:		10.64 %
Epoch 3 of 5 took 26.933s
  training loss:		2.161567
  validation loss:		1.535321
  validation accuracy:		52.53 %
Epoch 4 of 5 took 25.396s
  training loss:		0.743392
  validation loss:		0.376296
  validation accuracy:		88.79 %
Epoch 5 of 5 took 26.179s
  training loss:		0.321286
  validation loss:		0.232834
  validation accuracy:		93.40 %
Final results:
  test loss:			0.240740
  test accuracy:		93.19 %
Total time 132.511s
('param : ', '5 2-2-14-14 5-5-8-4 1-10-8-8-1\n')
Loading data...
Parameters : [ 2  2 14 14]	[5 5 8 4]	[ 1 10  8  8  1]
Building model and compiling functions...
Nombre de parametres:	(8516,)
Starting training...
Epoch 1 of 5 took 28.328s
  training loss:		2.301590
  validation loss:		2.301922
  validation accuracy:		10.64 %
Epoch 2 of 5 took 27.762s
  training loss:		2.301138
  validation loss:		2.301974
  validation accuracy:		10.64 %
Epoch 3 of 5 took 27.567s
  training loss:		2.301125
  validation loss:		2.302055
  validation accuracy:		10.64 %
Epoch 4 of 5 took 26.261s
  training loss:		2.300964
  validation loss:		2.301470
  validation accuracy:		10.64 %
Epoch 5 of 5 took 27.391s
  training loss:		2.296512
  validation loss:		2.284934
  validation accuracy:		10.66 %
Final results:
  test loss:			2.284159
  test accuracy:		11.36 %
Total time 139.184s
('param : ', '5 2-2-14-14 5-5-8-4 1-10-8-9-1\n')
Loading data...
Parameters : [ 2  2 14 14]	[5 5 8 4]	[ 1 10  8  9  1]
Building model and compiling functions...
Nombre de parametres:	(9468,)
Starting training...
Epoch 1 of 5 took 28.552s
  training loss:		2.301590
  validation loss:		2.301934
  validation accuracy:		10.64 %
Epoch 2 of 5 took 28.044s
  training loss:		2.301083
  validation loss:		2.301872
  validation accuracy:		10.64 %
Epoch 3 of 5 took 28.237s
  training loss:		2.295226
  validation loss:		2.274444
  validation accuracy:		17.84 %
Epoch 4 of 5 took 26.695s
  training loss:		1.950564
  validation loss:		1.129897
  validation accuracy:		66.24 %
Epoch 5 of 5 took 27.216s
  training loss:		0.635411
  validation loss:		0.331062
  validation accuracy:		90.31 %
Final results:
  test loss:			0.359782
  test accuracy:		89.72 %
Total time 140.537s
('param : ', '5 2-2-14-14 5-5-8-4 1-10-8-10-1\n')
Loading data...
Parameters : [ 2  2 14 14]	[5 5 8 4]	[ 1 10  8 10  1]
Building model and compiling functions...
Nombre de parametres:	(10420,)
Starting training...
Epoch 1 of 5 took 28.921s
  training loss:		2.301621
  validation loss:		2.301770
  validation accuracy:		10.64 %
Epoch 2 of 5 took 30.030s
  training loss:		2.300701
  validation loss:		2.299682
  validation accuracy:		10.64 %
Epoch 3 of 5 took 30.947s
  training loss:		2.254291
  validation loss:		2.085939
  validation accuracy:		32.16 %
Epoch 4 of 5 took 31.146s
  training loss:		0.956486
  validation loss:		0.373873
  validation accuracy:		89.44 %
Epoch 5 of 5 took 29.410s
  training loss:		0.333542
  validation loss:		0.247548
  validation accuracy:		92.99 %
Final results:
  test loss:			0.253239
  test accuracy:		92.87 %
Total time 152.287s
('param : ', '5 2-2-14-14 5-5-8-4 1-10-9-1-1\n')
Loading data...
Parameters : [ 2  2 14 14]	[5 5 8 4]	[ 1 10  9  1  1]
Building model and compiling functions...
Nombre de parametres:	(2064,)
Starting training...
Epoch 1 of 5 took 24.586s
  training loss:		2.301601
  validation loss:		2.301883
  validation accuracy:		10.64 %
Epoch 2 of 5 took 24.471s
  training loss:		2.301138
  validation loss:		2.302015
  validation accuracy:		10.64 %
Epoch 3 of 5 took 23.330s
  training loss:		2.301101
  validation loss:		2.302027
  validation accuracy:		10.64 %
Epoch 4 of 5 took 23.884s
  training loss:		2.301113
  validation loss:		2.302077
  validation accuracy:		10.64 %
Epoch 5 of 5 took 24.352s
  training loss:		2.301117
  validation loss:		2.301984
  validation accuracy:		10.64 %
Final results:
  test loss:			2.301002
  test accuracy:		11.35 %
Total time 122.152s
('param : ', '5 2-2-14-14 5-5-8-4 1-10-9-2-1\n')
Loading data...
Parameters : [ 2  2 14 14]	[5 5 8 4]	[ 1 10  9  2  1]
Building model and compiling functions...
Nombre de parametres:	(3128,)
Starting training...
Epoch 1 of 5 took 24.428s
  training loss:		2.301629
  validation loss:		2.301953
  validation accuracy:		10.64 %
Epoch 2 of 5 took 24.166s
  training loss:		2.301135
  validation loss:		2.301906
  validation accuracy:		10.64 %
Epoch 3 of 5 took 23.827s
  training loss:		2.301051
  validation loss:		2.301704
  validation accuracy:		10.64 %
Epoch 4 of 5 took 22.888s
  training loss:		2.297549
  validation loss:		2.288027
  validation accuracy:		10.64 %
Epoch 5 of 5 took 21.664s
  training loss:		2.186786
  validation loss:		1.947768
  validation accuracy:		23.79 %
Final results:
  test loss:			1.931663
  test accuracy:		24.78 %
Total time 118.437s
('param : ', '5 2-2-14-14 5-5-8-4 1-10-9-3-1\n')
Loading data...
Parameters : [ 2  2 14 14]	[5 5 8 4]	[ 1 10  9  3  1]
Building model and compiling functions...
Nombre de parametres:	(4192,)
Starting training...
Epoch 1 of 5 took 24.404s
  training loss:		2.301572
  validation loss:		2.301953
  validation accuracy:		10.64 %
Epoch 2 of 5 took 24.649s
  training loss:		2.301115
  validation loss:		2.301959
  validation accuracy:		10.64 %
Epoch 3 of 5 took 24.455s
  training loss:		2.300184
  validation loss:		2.297446
  validation accuracy:		10.64 %
Epoch 4 of 5 took 25.496s
  training loss:		2.252640
  validation loss:		2.102999
  validation accuracy:		25.08 %
Epoch 5 of 5 took 24.107s
  training loss:		1.330537
  validation loss:		0.560111
  validation accuracy:		83.51 %
Final results:
  test loss:			0.607116
  test accuracy:		81.51 %
Total time 124.673s
('param : ', '5 2-2-14-14 5-5-8-4 1-10-9-4-1\n')
Loading data...
Parameters : [ 2  2 14 14]	[5 5 8 4]	[ 1 10  9  4  1]
Building model and compiling functions...
Nombre de parametres:	(5256,)
Starting training...
Epoch 1 of 5 took 25.230s
  training loss:		2.301615
  validation loss:		2.301990
  validation accuracy:		10.64 %
Epoch 2 of 5 took 25.027s
  training loss:		2.301115
  validation loss:		2.301877
  validation accuracy:		10.64 %
Epoch 3 of 5 took 24.945s
  training loss:		2.299884
  validation loss:		2.296153
  validation accuracy:		10.64 %
Epoch 4 of 5 took 25.442s
  training loss:		2.231554
  validation loss:		1.992174
  validation accuracy:		27.88 %
Epoch 5 of 5 took 24.975s
  training loss:		1.047072
  validation loss:		0.434768
  validation accuracy:		87.28 %
Final results:
  test loss:			0.468417
  test accuracy:		86.57 %
Total time 127.363s
('param : ', '5 2-2-14-14 5-5-8-4 1-10-9-5-1\n')
Loading data...
Parameters : [ 2  2 14 14]	[5 5 8 4]	[ 1 10  9  5  1]
Building model and compiling functions...
Nombre de parametres:	(6320,)
Starting training...
Epoch 1 of 5 took 25.880s
  training loss:		2.301583
  validation loss:		2.301870
  validation accuracy:		10.64 %
Epoch 2 of 5 took 26.283s
  training loss:		2.299814
  validation loss:		2.293588
  validation accuracy:		10.64 %
Epoch 3 of 5 took 24.673s
  training loss:		2.129993
  validation loss:		1.573940
  validation accuracy:		53.75 %
Epoch 4 of 5 took 24.852s
  training loss:		0.794701
  validation loss:		0.389467
  validation accuracy:		88.92 %
Epoch 5 of 5 took 24.026s
  training loss:		0.328090
  validation loss:		0.231863
  validation accuracy:		93.47 %
Final results:
  test loss:			0.251734
  test accuracy:		92.90 %
Total time 127.289s
('param : ', '5 2-2-14-14 5-5-8-4 1-10-9-6-1\n')
Loading data...
Parameters : [ 2  2 14 14]	[5 5 8 4]	[ 1 10  9  6  1]
Building model and compiling functions...
Nombre de parametres:	(7384,)
Starting training...
Epoch 1 of 5 took 25.150s
  training loss:		2.301614
  validation loss:		2.301904
  validation accuracy:		10.64 %
Epoch 2 of 5 took 25.246s
  training loss:		2.301072
  validation loss:		2.301805
  validation accuracy:		10.64 %
Epoch 3 of 5 took 26.079s
  training loss:		2.298427
  validation loss:		2.289891
  validation accuracy:		10.64 %
Epoch 4 of 5 took 25.521s
  training loss:		2.163119
  validation loss:		1.682297
  validation accuracy:		39.63 %
Epoch 5 of 5 took 24.996s
  training loss:		0.852195
  validation loss:		0.416339
  validation accuracy:		88.21 %
Final results:
  test loss:			0.451067
  test accuracy:		87.19 %
Total time 128.754s
('param : ', '5 2-2-14-14 5-5-8-4 1-10-9-7-1\n')
Loading data...
Parameters : [ 2  2 14 14]	[5 5 8 4]	[ 1 10  9  7  1]
Building model and compiling functions...
Nombre de parametres:	(8448,)
Starting training...
Epoch 1 of 5 took 25.932s
  training loss:		2.301562
  validation loss:		2.301826
  validation accuracy:		10.64 %
Epoch 2 of 5 took 24.644s
  training loss:		2.301039
  validation loss:		2.301654
  validation accuracy:		10.64 %
Epoch 3 of 5 took 24.853s
  training loss:		2.290628
  validation loss:		2.253666
  validation accuracy:		27.94 %
Epoch 4 of 5 took 24.097s
  training loss:		1.701166
  validation loss:		0.735607
  validation accuracy:		78.56 %
Epoch 5 of 5 took 24.411s
  training loss:		0.498255
  validation loss:		0.307833
  validation accuracy:		91.28 %
Final results:
  test loss:			0.332583
  test accuracy:		90.56 %
Total time 125.590s
('param : ', '5 2-2-14-14 5-5-8-4 1-10-9-8-1\n')
Loading data...
Parameters : [ 2  2 14 14]	[5 5 8 4]	[ 1 10  9  8  1]
Building model and compiling functions...
Nombre de parametres:	(9512,)
Starting training...
Epoch 1 of 5 took 27.075s
  training loss:		2.301569
  validation loss:		2.301873
  validation accuracy:		10.64 %
Epoch 2 of 5 took 25.568s
  training loss:		2.301144
  validation loss:		2.301934
  validation accuracy:		10.64 %
Epoch 3 of 5 took 26.647s
  training loss:		2.301030
  validation loss:		2.301661
  validation accuracy:		10.64 %
Epoch 4 of 5 took 26.335s
  training loss:		2.297788
  validation loss:		2.287583
  validation accuracy:		10.64 %
Epoch 5 of 5 took 26.960s
  training loss:		2.165340
  validation loss:		1.748018
  validation accuracy:		37.77 %
Final results:
  test loss:			1.754651
  test accuracy:		36.54 %
Total time 134.277s
('param : ', '5 2-2-14-14 5-5-8-4 1-10-9-9-1\n')
Loading data...
Parameters : [ 2  2 14 14]	[5 5 8 4]	[ 1 10  9  9  1]
Building model and compiling functions...
Nombre de parametres:	(10576,)
Starting training...
Epoch 1 of 5 took 26.685s
  training loss:		2.301611
  validation loss:		2.301947
  validation accuracy:		10.64 %
Epoch 2 of 5 took 26.344s
  training loss:		2.301092
  validation loss:		2.301923
  validation accuracy:		10.64 %
Epoch 3 of 5 took 25.939s
  training loss:		2.299449
  validation loss:		2.293702
  validation accuracy:		10.64 %
Epoch 4 of 5 took 26.159s
  training loss:		2.179255
  validation loss:		1.734287
  validation accuracy:		44.91 %
Epoch 5 of 5 took 25.986s
  training loss:		0.882112
  validation loss:		0.443836
  validation accuracy:		87.37 %
Final results:
  test loss:			0.474636
  test accuracy:		86.21 %
Total time 132.738s
('param : ', '5 2-2-14-14 5-5-8-4 1-10-9-10-1\n')
Loading data...
Parameters : [ 2  2 14 14]	[5 5 8 4]	[ 1 10  9 10  1]
Building model and compiling functions...
Nombre de parametres:	(11640,)
Starting training...
Epoch 1 of 5 took 26.178s
  training loss:		2.301663
  validation loss:		2.302040
  validation accuracy:		10.64 %
Epoch 2 of 5 took 26.048s
  training loss:		2.301143
  validation loss:		2.301950
  validation accuracy:		10.64 %
Epoch 3 of 5 took 26.552s
  training loss:		2.300193
  validation loss:		2.297252
  validation accuracy:		10.64 %
Epoch 4 of 5 took 26.584s
  training loss:		2.233719
  validation loss:		2.014720
  validation accuracy:		27.26 %
Epoch 5 of 5 took 26.403s
  training loss:		1.167997
  validation loss:		0.479543
  validation accuracy:		86.24 %
Final results:
  test loss:			0.517183
  test accuracy:		84.60 %
Total time 133.342s
('param : ', '5 2-2-14-14 5-5-8-4 1-10-10-1-1\n')
Loading data...
Parameters : [ 2  2 14 14]	[5 5 8 4]	[ 1 10 10  1  1]
Building model and compiling functions...
Nombre de parametres:	(2276,)
Starting training...
Epoch 1 of 5 took 19.535s
  training loss:		2.301573
  validation loss:		2.301921
  validation accuracy:		10.64 %
Epoch 2 of 5 took 20.396s
  training loss:		2.301127
  validation loss:		2.302003
  validation accuracy:		10.64 %
Epoch 3 of 5 took 20.493s
  training loss:		2.301144
  validation loss:		2.301969
  validation accuracy:		10.64 %
Epoch 4 of 5 took 20.501s
  training loss:		2.301119
  validation loss:		2.302052
  validation accuracy:		10.64 %
Epoch 5 of 5 took 20.528s
  training loss:		2.301112
  validation loss:		2.301998
  validation accuracy:		10.64 %
Final results:
  test loss:			2.301024
  test accuracy:		11.35 %
Total time 102.802s
('param : ', '5 2-2-14-14 5-5-8-4 1-10-10-2-1\n')
Loading data...
Parameters : [ 2  2 14 14]	[5 5 8 4]	[ 1 10 10  2  1]
Building model and compiling functions...
Nombre de parametres:	(3452,)
Starting training...
Epoch 1 of 5 took 19.460s
  training loss:		2.301629
  validation loss:		2.301839
  validation accuracy:		10.64 %
Epoch 2 of 5 took 19.177s
  training loss:		2.301100
  validation loss:		2.301739
  validation accuracy:		10.64 %
Epoch 3 of 5 took 19.461s
  training loss:		2.299256
  validation loss:		2.294054
  validation accuracy:		10.64 %
Epoch 4 of 5 took 19.470s
  training loss:		2.239766
  validation loss:		2.066556
  validation accuracy:		24.98 %
Epoch 5 of 5 took 19.464s
  training loss:		1.197307
  validation loss:		0.441534
  validation accuracy:		87.45 %
Final results:
  test loss:			0.482449
  test accuracy:		86.12 %
Total time 98.266s
('param : ', '5 2-2-14-14 5-5-8-4 1-10-10-3-1\n')
Loading data...
Parameters : [ 2  2 14 14]	[5 5 8 4]	[ 1 10 10  3  1]
Building model and compiling functions...
Nombre de parametres:	(4628,)
Starting training...
Epoch 1 of 5 took 19.503s
  training loss:		2.301565
  validation loss:		2.301932
  validation accuracy:		10.64 %
Epoch 2 of 5 took 19.748s
  training loss:		2.299415
  validation loss:		2.291304
  validation accuracy:		10.70 %
Epoch 3 of 5 took 19.919s
  training loss:		2.152546
  validation loss:		1.729579
  validation accuracy:		45.98 %
Epoch 4 of 5 took 19.618s
  training loss:		0.898045
  validation loss:		0.387926
  validation accuracy:		89.17 %
Epoch 5 of 5 took 19.855s
  training loss:		0.315993
  validation loss:		0.239062
  validation accuracy:		93.12 %
Final results:
  test loss:			0.254426
  test accuracy:		92.65 %
Total time 99.932s
('param : ', '5 2-2-14-14 5-5-8-4 1-10-10-4-1\n')
Loading data...
Parameters : [ 2  2 14 14]	[5 5 8 4]	[ 1 10 10  4  1]
Building model and compiling functions...
Nombre de parametres:	(5804,)
Starting training...
Epoch 1 of 5 took 20.091s
  training loss:		2.301590
  validation loss:		2.301891
  validation accuracy:		10.64 %
Epoch 2 of 5 took 20.220s
  training loss:		2.300944
  validation loss:		2.300942
  validation accuracy:		10.64 %
Epoch 3 of 5 took 20.476s
  training loss:		2.278971
  validation loss:		2.212894
  validation accuracy:		21.66 %
Epoch 4 of 5 took 20.371s
  training loss:		1.664862
  validation loss:		0.785610
  validation accuracy:		76.87 %
Epoch 5 of 5 took 20.289s
  training loss:		0.533912
  validation loss:		0.312798
  validation accuracy:		91.22 %
Final results:
  test loss:			0.341729
  test accuracy:		90.46 %
Total time 102.754s
('param : ', '5 2-2-14-14 5-5-8-4 1-10-10-5-1\n')
Loading data...
Parameters : [ 2  2 14 14]	[5 5 8 4]	[ 1 10 10  5  1]
Building model and compiling functions...
Nombre de parametres:	(6980,)
Starting training...
Epoch 1 of 5 took 22.171s
  training loss:		2.301578
  validation loss:		2.301840
  validation accuracy:		10.64 %
Epoch 2 of 5 took 21.314s
  training loss:		2.301006
  validation loss:		2.301651
  validation accuracy:		10.64 %
Epoch 3 of 5 took 20.972s
  training loss:		2.290343
  validation loss:		2.258600
  validation accuracy:		25.51 %
Epoch 4 of 5 took 21.071s
  training loss:		1.778241
  validation loss:		0.799395
  validation accuracy:		76.17 %
Epoch 5 of 5 took 21.016s
  training loss:		0.536124
  validation loss:		0.324895
  validation accuracy:		91.03 %
Final results:
  test loss:			0.344390
  test accuracy:		90.22 %
Total time 107.779s
('param : ', '5 2-2-14-14 5-5-8-4 1-10-10-6-1\n')
Loading data...
Parameters : [ 2  2 14 14]	[5 5 8 4]	[ 1 10 10  6  1]
Building model and compiling functions...
Nombre de parametres:	(8156,)
Starting training...
Epoch 1 of 5 took 19.683s
  training loss:		2.301544
  validation loss:		2.301947
  validation accuracy:		10.64 %
Epoch 2 of 5 took 19.849s
  training loss:		2.300744
  validation loss:		2.299977
  validation accuracy:		10.64 %
Epoch 3 of 5 took 19.955s
  training loss:		2.258287
  validation loss:		2.096925
  validation accuracy:		29.15 %
Epoch 4 of 5 took 19.893s
  training loss:		1.237996
  validation loss:		0.513308
  validation accuracy:		84.84 %
Epoch 5 of 5 took 19.949s
  training loss:		0.416592
  validation loss:		0.280841
  validation accuracy:		92.14 %
Final results:
  test loss:			0.303557
  test accuracy:		91.37 %
Total time 100.593s
('param : ', '5 2-2-14-14 5-5-8-4 1-10-10-7-1\n')
Loading data...
Parameters : [ 2  2 14 14]	[5 5 8 4]	[ 1 10 10  7  1]
Building model and compiling functions...
Nombre de parametres:	(9332,)
Starting training...
Epoch 1 of 5 took 21.902s
  training loss:		2.301596
  validation loss:		2.301886
  validation accuracy:		10.64 %
Epoch 2 of 5 took 21.966s
  training loss:		2.301053
  validation loss:		2.301583
  validation accuracy:		10.64 %
Epoch 3 of 5 took 22.143s
  training loss:		2.285947
  validation loss:		2.235761
  validation accuracy:		25.08 %
Epoch 4 of 5 took 22.013s
  training loss:		1.625453
  validation loss:		0.708251
  validation accuracy:		79.04 %
Epoch 5 of 5 took 22.102s
  training loss:		0.514815
  validation loss:		0.328246
  validation accuracy:		90.78 %
Final results:
  test loss:			0.348822
  test accuracy:		90.06 %
Total time 111.511s
('param : ', '5 2-2-14-14 5-5-8-4 1-10-10-8-1\n')
Loading data...
Parameters : [ 2  2 14 14]	[5 5 8 4]	[ 1 10 10  8  1]
Building model and compiling functions...
Nombre de parametres:	(10508,)
Starting training...
Epoch 1 of 5 took 22.326s
  training loss:		2.301597
  validation loss:		2.301843
  validation accuracy:		10.64 %
Epoch 2 of 5 took 22.227s
  training loss:		2.300941
  validation loss:		2.300889
  validation accuracy:		10.64 %
Epoch 3 of 5 took 22.495s
  training loss:		2.272709
  validation loss:		2.178468
  validation accuracy:		27.88 %
Epoch 4 of 5 took 22.485s
  training loss:		1.381834
  validation loss:		0.581940
  validation accuracy:		82.96 %
Epoch 5 of 5 took 22.366s
  training loss:		0.456249
  validation loss:		0.298361
  validation accuracy:		91.51 %
Final results:
  test loss:			0.323603
  test accuracy:		90.76 %
Total time 113.239s
('param : ', '5 2-2-14-14 5-5-8-4 1-10-10-9-1\n')
Loading data...
Parameters : [ 2  2 14 14]	[5 5 8 4]	[ 1 10 10  9  1]
Building model and compiling functions...
Nombre de parametres:	(11684,)
Starting training...
Epoch 1 of 5 took 22.662s
  training loss:		2.301577
  validation loss:		2.301917
  validation accuracy:		10.64 %
Epoch 2 of 5 took 22.281s
  training loss:		2.301017
  validation loss:		2.301447
  validation accuracy:		10.64 %
Epoch 3 of 5 took 22.717s
  training loss:		2.283353
  validation loss:		2.225609
  validation accuracy:		21.76 %
Epoch 4 of 5 took 22.763s
  training loss:		1.570937
  validation loss:		0.672016
  validation accuracy:		80.44 %
Epoch 5 of 5 took 22.572s
  training loss:		0.473588
  validation loss:		0.302406
  validation accuracy:		91.33 %
Final results:
  test loss:			0.325661
  test accuracy:		90.97 %
Total time 114.382s
('param : ', '5 2-2-14-14 5-5-8-4 1-10-10-10-1\n')
Loading data...
Parameters : [ 2  2 14 14]	[5 5 8 4]	[ 1 10 10 10  1]
Building model and compiling functions...
Nombre de parametres:	(12860,)
Starting training...
Epoch 1 of 5 took 23.166s
  training loss:		2.301659
  validation loss:		2.301912
  validation accuracy:		10.64 %
Epoch 2 of 5 took 23.047s
  training loss:		2.301118
  validation loss:		2.301949
  validation accuracy:		10.64 %
Epoch 3 of 5 took 23.264s
  training loss:		2.300105
  validation loss:		2.296746
  validation accuracy:		10.64 %
Epoch 4 of 5 took 23.351s
  training loss:		2.227696
  validation loss:		1.982517
  validation accuracy:		32.73 %
Epoch 5 of 5 took 23.145s
  training loss:		1.103964
  validation loss:		0.532892
  validation accuracy:		84.29 %
Final results:
  test loss:			0.576385
  test accuracy:		82.86 %
Total time 117.386s
