INFO (theano.gof.compilelock): Waiting for existing lock by process '44246' (I am process '3115')
INFO (theano.gof.compilelock): To manually release the lock, delete /tmp/pierre-antoine.martrice/theano.NOBACKUP/compiledir_Linux-3.10-el7.x86_64-x86_64-with-centos-7.3.1611-Core-x86_64-2.7.13-64/lock_dir
INFO (theano.gof.compilelock): Waiting for existing lock by process '2941' (I am process '3115')
INFO (theano.gof.compilelock): To manually release the lock, delete /tmp/pierre-antoine.martrice/theano.NOBACKUP/compiledir_Linux-3.10-el7.x86_64-x86_64-with-centos-7.3.1611-Core-x86_64-2.7.13-64/lock_dir
INFO (theano.gof.compilelock): Waiting for existing lock by process '3116' (I am process '3115')
INFO (theano.gof.compilelock): To manually release the lock, delete /tmp/pierre-antoine.martrice/theano.NOBACKUP/compiledir_Linux-3.10-el7.x86_64-x86_64-with-centos-7.3.1611-Core-x86_64-2.7.13-64/lock_dir
INFO (theano.gof.compilelock): Waiting for existing lock by process '3116' (I am process '3115')
INFO (theano.gof.compilelock): To manually release the lock, delete /tmp/pierre-antoine.martrice/theano.NOBACKUP/compiledir_Linux-3.10-el7.x86_64-x86_64-with-centos-7.3.1611-Core-x86_64-2.7.13-64/lock_dir
INFO (theano.gof.compilelock): Waiting for existing lock by process '2988' (I am process '3115')
INFO (theano.gof.compilelock): To manually release the lock, delete /tmp/pierre-antoine.martrice/theano.NOBACKUP/compiledir_Linux-3.10-el7.x86_64-x86_64-with-centos-7.3.1611-Core-x86_64-2.7.13-64/lock_dir
INFO (theano.gof.compilelock): Waiting for existing lock by process '43947' (I am process '3115')
INFO (theano.gof.compilelock): To manually release the lock, delete /tmp/pierre-antoine.martrice/theano.NOBACKUP/compiledir_Linux-3.10-el7.x86_64-x86_64-with-centos-7.3.1611-Core-x86_64-2.7.13-64/lock_dir
INFO (theano.gof.compilelock): Waiting for existing lock by process '43947' (I am process '3115')
INFO (theano.gof.compilelock): To manually release the lock, delete /tmp/pierre-antoine.martrice/theano.NOBACKUP/compiledir_Linux-3.10-el7.x86_64-x86_64-with-centos-7.3.1611-Core-x86_64-2.7.13-64/lock_dir
INFO (theano.gof.compilelock): Waiting for existing lock by process '3134' (I am process '3115')
INFO (theano.gof.compilelock): To manually release the lock, delete /tmp/pierre-antoine.martrice/theano.NOBACKUP/compiledir_Linux-3.10-el7.x86_64-x86_64-with-centos-7.3.1611-Core-x86_64-2.7.13-64/lock_dir
INFO (theano.gof.compilelock): Waiting for existing lock by process '43946' (I am process '3115')
INFO (theano.gof.compilelock): To manually release the lock, delete /tmp/pierre-antoine.martrice/theano.NOBACKUP/compiledir_Linux-3.10-el7.x86_64-x86_64-with-centos-7.3.1611-Core-x86_64-2.7.13-64/lock_dir
INFO (theano.gof.compilelock): Waiting for existing lock by process '43948' (I am process '3115')
INFO (theano.gof.compilelock): To manually release the lock, delete /tmp/pierre-antoine.martrice/theano.NOBACKUP/compiledir_Linux-3.10-el7.x86_64-x86_64-with-centos-7.3.1611-Core-x86_64-2.7.13-64/lock_dir
INFO (theano.gof.compilelock): Waiting for existing lock by process '43996' (I am process '3115')
INFO (theano.gof.compilelock): To manually release the lock, delete /tmp/pierre-antoine.martrice/theano.NOBACKUP/compiledir_Linux-3.10-el7.x86_64-x86_64-with-centos-7.3.1611-Core-x86_64-2.7.13-64/lock_dir
INFO (theano.gof.compilelock): Waiting for existing lock by process '2941' (I am process '3115')
INFO (theano.gof.compilelock): To manually release the lock, delete /tmp/pierre-antoine.martrice/theano.NOBACKUP/compiledir_Linux-3.10-el7.x86_64-x86_64-with-centos-7.3.1611-Core-x86_64-2.7.13-64/lock_dir
INFO (theano.gof.compilelock): Waiting for existing lock by process '2941' (I am process '3115')
INFO (theano.gof.compilelock): To manually release the lock, delete /tmp/pierre-antoine.martrice/theano.NOBACKUP/compiledir_Linux-3.10-el7.x86_64-x86_64-with-centos-7.3.1611-Core-x86_64-2.7.13-64/lock_dir
INFO (theano.gof.compilelock): Waiting for existing lock by process '2988' (I am process '3115')
INFO (theano.gof.compilelock): To manually release the lock, delete /tmp/pierre-antoine.martrice/theano.NOBACKUP/compiledir_Linux-3.10-el7.x86_64-x86_64-with-centos-7.3.1611-Core-x86_64-2.7.13-64/lock_dir
INFO (theano.gof.compilelock): Waiting for existing lock by process '44071' (I am process '3115')
INFO (theano.gof.compilelock): To manually release the lock, delete /tmp/pierre-antoine.martrice/theano.NOBACKUP/compiledir_Linux-3.10-el7.x86_64-x86_64-with-centos-7.3.1611-Core-x86_64-2.7.13-64/lock_dir
INFO (theano.gof.compilelock): Waiting for existing lock by process '3116' (I am process '3115')
INFO (theano.gof.compilelock): To manually release the lock, delete /tmp/pierre-antoine.martrice/theano.NOBACKUP/compiledir_Linux-3.10-el7.x86_64-x86_64-with-centos-7.3.1611-Core-x86_64-2.7.13-64/lock_dir
INFO (theano.gof.compilelock): Waiting for existing lock by process '43996' (I am process '3115')
INFO (theano.gof.compilelock): To manually release the lock, delete /tmp/pierre-antoine.martrice/theano.NOBACKUP/compiledir_Linux-3.10-el7.x86_64-x86_64-with-centos-7.3.1611-Core-x86_64-2.7.13-64/lock_dir
INFO (theano.gof.compilelock): Waiting for existing lock by process '3084' (I am process '3115')
INFO (theano.gof.compilelock): To manually release the lock, delete /tmp/pierre-antoine.martrice/theano.NOBACKUP/compiledir_Linux-3.10-el7.x86_64-x86_64-with-centos-7.3.1611-Core-x86_64-2.7.13-64/lock_dir
INFO (theano.gof.compilelock): Waiting for existing lock by process '3555' (I am process '3115')
INFO (theano.gof.compilelock): To manually release the lock, delete /tmp/pierre-antoine.martrice/theano.NOBACKUP/compiledir_Linux-3.10-el7.x86_64-x86_64-with-centos-7.3.1611-Core-x86_64-2.7.13-64/lock_dir
INFO (theano.gof.compilelock): Waiting for existing lock by process '3134' (I am process '3115')
INFO (theano.gof.compilelock): To manually release the lock, delete /tmp/pierre-antoine.martrice/theano.NOBACKUP/compiledir_Linux-3.10-el7.x86_64-x86_64-with-centos-7.3.1611-Core-x86_64-2.7.13-64/lock_dir
INFO (theano.gof.compilelock): Waiting for existing lock by process '3134' (I am process '3115')
INFO (theano.gof.compilelock): To manually release the lock, delete /tmp/pierre-antoine.martrice/theano.NOBACKUP/compiledir_Linux-3.10-el7.x86_64-x86_64-with-centos-7.3.1611-Core-x86_64-2.7.13-64/lock_dir
INFO (theano.gof.compilelock): Waiting for existing lock by process '2941' (I am process '3115')
INFO (theano.gof.compilelock): To manually release the lock, delete /tmp/pierre-antoine.martrice/theano.NOBACKUP/compiledir_Linux-3.10-el7.x86_64-x86_64-with-centos-7.3.1611-Core-x86_64-2.7.13-64/lock_dir
INFO (theano.gof.compilelock): Waiting for existing lock by process '44070' (I am process '3115')
INFO (theano.gof.compilelock): To manually release the lock, delete /tmp/pierre-antoine.martrice/theano.NOBACKUP/compiledir_Linux-3.10-el7.x86_64-x86_64-with-centos-7.3.1611-Core-x86_64-2.7.13-64/lock_dir
INFO (theano.gof.compilelock): Waiting for existing lock by process '2988' (I am process '3115')
INFO (theano.gof.compilelock): To manually release the lock, delete /tmp/pierre-antoine.martrice/theano.NOBACKUP/compiledir_Linux-3.10-el7.x86_64-x86_64-with-centos-7.3.1611-Core-x86_64-2.7.13-64/lock_dir
INFO (theano.gof.compilelock): Waiting for existing lock by process '2988' (I am process '3115')
INFO (theano.gof.compilelock): To manually release the lock, delete /tmp/pierre-antoine.martrice/theano.NOBACKUP/compiledir_Linux-3.10-el7.x86_64-x86_64-with-centos-7.3.1611-Core-x86_64-2.7.13-64/lock_dir
INFO (theano.gof.compilelock): Waiting for existing lock by process '3084' (I am process '3115')
INFO (theano.gof.compilelock): To manually release the lock, delete /tmp/pierre-antoine.martrice/theano.NOBACKUP/compiledir_Linux-3.10-el7.x86_64-x86_64-with-centos-7.3.1611-Core-x86_64-2.7.13-64/lock_dir
INFO (theano.gof.compilelock): Waiting for existing lock by process '2941' (I am process '3115')
INFO (theano.gof.compilelock): To manually release the lock, delete /tmp/pierre-antoine.martrice/theano.NOBACKUP/compiledir_Linux-3.10-el7.x86_64-x86_64-with-centos-7.3.1611-Core-x86_64-2.7.13-64/lock_dir
INFO (theano.gof.compilelock): Waiting for existing lock by process '3134' (I am process '3115')
INFO (theano.gof.compilelock): To manually release the lock, delete /tmp/pierre-antoine.martrice/theano.NOBACKUP/compiledir_Linux-3.10-el7.x86_64-x86_64-with-centos-7.3.1611-Core-x86_64-2.7.13-64/lock_dir
INFO (theano.gof.compilelock): Waiting for existing lock by process '43947' (I am process '3115')
INFO (theano.gof.compilelock): To manually release the lock, delete /tmp/pierre-antoine.martrice/theano.NOBACKUP/compiledir_Linux-3.10-el7.x86_64-x86_64-with-centos-7.3.1611-Core-x86_64-2.7.13-64/lock_dir
INFO (theano.gof.compilelock): Waiting for existing lock by process '3555' (I am process '3115')
INFO (theano.gof.compilelock): To manually release the lock, delete /tmp/pierre-antoine.martrice/theano.NOBACKUP/compiledir_Linux-3.10-el7.x86_64-x86_64-with-centos-7.3.1611-Core-x86_64-2.7.13-64/lock_dir
INFO (theano.gof.compilelock): Waiting for existing lock by process '43996' (I am process '3115')
INFO (theano.gof.compilelock): To manually release the lock, delete /tmp/pierre-antoine.martrice/theano.NOBACKUP/compiledir_Linux-3.10-el7.x86_64-x86_64-with-centos-7.3.1611-Core-x86_64-2.7.13-64/lock_dir
INFO (theano.gof.compilelock): Waiting for existing lock by process '43996' (I am process '3115')
INFO (theano.gof.compilelock): To manually release the lock, delete /tmp/pierre-antoine.martrice/theano.NOBACKUP/compiledir_Linux-3.10-el7.x86_64-x86_64-with-centos-7.3.1611-Core-x86_64-2.7.13-64/lock_dir
INFO (theano.gof.compilelock): Waiting for existing lock by process '3084' (I am process '3115')
INFO (theano.gof.compilelock): To manually release the lock, delete /tmp/pierre-antoine.martrice/theano.NOBACKUP/compiledir_Linux-3.10-el7.x86_64-x86_64-with-centos-7.3.1611-Core-x86_64-2.7.13-64/lock_dir
INFO (theano.gof.compilelock): Waiting for existing lock by process '2941' (I am process '3115')
INFO (theano.gof.compilelock): To manually release the lock, delete /tmp/pierre-antoine.martrice/theano.NOBACKUP/compiledir_Linux-3.10-el7.x86_64-x86_64-with-centos-7.3.1611-Core-x86_64-2.7.13-64/lock_dir
INFO (theano.gof.compilelock): Waiting for existing lock by process '44246' (I am process '3115')
INFO (theano.gof.compilelock): To manually release the lock, delete /tmp/pierre-antoine.martrice/theano.NOBACKUP/compiledir_Linux-3.10-el7.x86_64-x86_64-with-centos-7.3.1611-Core-x86_64-2.7.13-64/lock_dir
INFO (theano.gof.compilelock): Waiting for existing lock by process '3555' (I am process '3115')
INFO (theano.gof.compilelock): To manually release the lock, delete /tmp/pierre-antoine.martrice/theano.NOBACKUP/compiledir_Linux-3.10-el7.x86_64-x86_64-with-centos-7.3.1611-Core-x86_64-2.7.13-64/lock_dir
INFO (theano.gof.compilelock): Waiting for existing lock by process '44069' (I am process '3115')
INFO (theano.gof.compilelock): To manually release the lock, delete /tmp/pierre-antoine.martrice/theano.NOBACKUP/compiledir_Linux-3.10-el7.x86_64-x86_64-with-centos-7.3.1611-Core-x86_64-2.7.13-64/lock_dir
INFO (theano.gof.compilelock): Waiting for existing lock by process '2988' (I am process '3115')
INFO (theano.gof.compilelock): To manually release the lock, delete /tmp/pierre-antoine.martrice/theano.NOBACKUP/compiledir_Linux-3.10-el7.x86_64-x86_64-with-centos-7.3.1611-Core-x86_64-2.7.13-64/lock_dir
INFO (theano.gof.compilelock): Waiting for existing lock by process '2941' (I am process '3115')
INFO (theano.gof.compilelock): To manually release the lock, delete /tmp/pierre-antoine.martrice/theano.NOBACKUP/compiledir_Linux-3.10-el7.x86_64-x86_64-with-centos-7.3.1611-Core-x86_64-2.7.13-64/lock_dir
INFO (theano.gof.compilelock): Waiting for existing lock by process '3134' (I am process '3115')
INFO (theano.gof.compilelock): To manually release the lock, delete /tmp/pierre-antoine.martrice/theano.NOBACKUP/compiledir_Linux-3.10-el7.x86_64-x86_64-with-centos-7.3.1611-Core-x86_64-2.7.13-64/lock_dir
INFO (theano.gof.compilelock): Waiting for existing lock by process '44246' (I am process '3115')
INFO (theano.gof.compilelock): To manually release the lock, delete /tmp/pierre-antoine.martrice/theano.NOBACKUP/compiledir_Linux-3.10-el7.x86_64-x86_64-with-centos-7.3.1611-Core-x86_64-2.7.13-64/lock_dir
INFO (theano.gof.compilelock): Waiting for existing lock by process '3084' (I am process '3115')
INFO (theano.gof.compilelock): To manually release the lock, delete /tmp/pierre-antoine.martrice/theano.NOBACKUP/compiledir_Linux-3.10-el7.x86_64-x86_64-with-centos-7.3.1611-Core-x86_64-2.7.13-64/lock_dir
INFO (theano.gof.compilelock): Waiting for existing lock by process '3555' (I am process '3115')
INFO (theano.gof.compilelock): To manually release the lock, delete /tmp/pierre-antoine.martrice/theano.NOBACKUP/compiledir_Linux-3.10-el7.x86_64-x86_64-with-centos-7.3.1611-Core-x86_64-2.7.13-64/lock_dir
INFO (theano.gof.compilelock): Waiting for existing lock by process '3555' (I am process '3115')
INFO (theano.gof.compilelock): To manually release the lock, delete /tmp/pierre-antoine.martrice/theano.NOBACKUP/compiledir_Linux-3.10-el7.x86_64-x86_64-with-centos-7.3.1611-Core-x86_64-2.7.13-64/lock_dir
INFO (theano.gof.compilelock): Waiting for existing lock by process '2941' (I am process '3115')
INFO (theano.gof.compilelock): To manually release the lock, delete /tmp/pierre-antoine.martrice/theano.NOBACKUP/compiledir_Linux-3.10-el7.x86_64-x86_64-with-centos-7.3.1611-Core-x86_64-2.7.13-64/lock_dir
INFO (theano.gof.compilelock): Waiting for existing lock by process '43947' (I am process '3115')
INFO (theano.gof.compilelock): To manually release the lock, delete /tmp/pierre-antoine.martrice/theano.NOBACKUP/compiledir_Linux-3.10-el7.x86_64-x86_64-with-centos-7.3.1611-Core-x86_64-2.7.13-64/lock_dir
INFO (theano.gof.compilelock): Waiting for existing lock by process '3555' (I am process '3115')
INFO (theano.gof.compilelock): To manually release the lock, delete /tmp/pierre-antoine.martrice/theano.NOBACKUP/compiledir_Linux-3.10-el7.x86_64-x86_64-with-centos-7.3.1611-Core-x86_64-2.7.13-64/lock_dir
INFO (theano.gof.compilelock): Waiting for existing lock by process '43996' (I am process '3115')
INFO (theano.gof.compilelock): To manually release the lock, delete /tmp/pierre-antoine.martrice/theano.NOBACKUP/compiledir_Linux-3.10-el7.x86_64-x86_64-with-centos-7.3.1611-Core-x86_64-2.7.13-64/lock_dir
INFO (theano.gof.compilelock): Waiting for existing lock by process '3084' (I am process '3115')
INFO (theano.gof.compilelock): To manually release the lock, delete /tmp/pierre-antoine.martrice/theano.NOBACKUP/compiledir_Linux-3.10-el7.x86_64-x86_64-with-centos-7.3.1611-Core-x86_64-2.7.13-64/lock_dir
INFO (theano.gof.compilelock): Waiting for existing lock by process '3116' (I am process '3115')
INFO (theano.gof.compilelock): To manually release the lock, delete /tmp/pierre-antoine.martrice/theano.NOBACKUP/compiledir_Linux-3.10-el7.x86_64-x86_64-with-centos-7.3.1611-Core-x86_64-2.7.13-64/lock_dir
INFO (theano.gof.compilelock): Waiting for existing lock by process '3116' (I am process '3115')
INFO (theano.gof.compilelock): To manually release the lock, delete /tmp/pierre-antoine.martrice/theano.NOBACKUP/compiledir_Linux-3.10-el7.x86_64-x86_64-with-centos-7.3.1611-Core-x86_64-2.7.13-64/lock_dir
INFO (theano.gof.compilelock): Waiting for existing lock by process '3084' (I am process '3115')
INFO (theano.gof.compilelock): To manually release the lock, delete /tmp/pierre-antoine.martrice/theano.NOBACKUP/compiledir_Linux-3.10-el7.x86_64-x86_64-with-centos-7.3.1611-Core-x86_64-2.7.13-64/lock_dir
INFO (theano.gof.compilelock): Waiting for existing lock by process '3084' (I am process '3115')
INFO (theano.gof.compilelock): To manually release the lock, delete /tmp/pierre-antoine.martrice/theano.NOBACKUP/compiledir_Linux-3.10-el7.x86_64-x86_64-with-centos-7.3.1611-Core-x86_64-2.7.13-64/lock_dir
INFO (theano.gof.compilelock): Waiting for existing lock by process '3134' (I am process '3115')
INFO (theano.gof.compilelock): To manually release the lock, delete /tmp/pierre-antoine.martrice/theano.NOBACKUP/compiledir_Linux-3.10-el7.x86_64-x86_64-with-centos-7.3.1611-Core-x86_64-2.7.13-64/lock_dir
INFO (theano.gof.compilelock): Waiting for existing lock by process '3134' (I am process '3115')
INFO (theano.gof.compilelock): To manually release the lock, delete /tmp/pierre-antoine.martrice/theano.NOBACKUP/compiledir_Linux-3.10-el7.x86_64-x86_64-with-centos-7.3.1611-Core-x86_64-2.7.13-64/lock_dir
INFO (theano.gof.compilelock): Waiting for existing lock by process '2988' (I am process '3115')
INFO (theano.gof.compilelock): To manually release the lock, delete /tmp/pierre-antoine.martrice/theano.NOBACKUP/compiledir_Linux-3.10-el7.x86_64-x86_64-with-centos-7.3.1611-Core-x86_64-2.7.13-64/lock_dir
INFO (theano.gof.compilelock): Waiting for existing lock by process '44070' (I am process '3115')
INFO (theano.gof.compilelock): To manually release the lock, delete /tmp/pierre-antoine.martrice/theano.NOBACKUP/compiledir_Linux-3.10-el7.x86_64-x86_64-with-centos-7.3.1611-Core-x86_64-2.7.13-64/lock_dir
INFO (theano.gof.compilelock): Waiting for existing lock by process '44070' (I am process '3115')
INFO (theano.gof.compilelock): To manually release the lock, delete /tmp/pierre-antoine.martrice/theano.NOBACKUP/compiledir_Linux-3.10-el7.x86_64-x86_64-with-centos-7.3.1611-Core-x86_64-2.7.13-64/lock_dir
INFO (theano.gof.compilelock): Waiting for existing lock by process '2941' (I am process '3115')
INFO (theano.gof.compilelock): To manually release the lock, delete /tmp/pierre-antoine.martrice/theano.NOBACKUP/compiledir_Linux-3.10-el7.x86_64-x86_64-with-centos-7.3.1611-Core-x86_64-2.7.13-64/lock_dir
INFO (theano.gof.compilelock): Waiting for existing lock by process '3555' (I am process '3115')
INFO (theano.gof.compilelock): To manually release the lock, delete /tmp/pierre-antoine.martrice/theano.NOBACKUP/compiledir_Linux-3.10-el7.x86_64-x86_64-with-centos-7.3.1611-Core-x86_64-2.7.13-64/lock_dir
INFO (theano.gof.compilelock): Waiting for existing lock by process '2988' (I am process '3115')
INFO (theano.gof.compilelock): To manually release the lock, delete /tmp/pierre-antoine.martrice/theano.NOBACKUP/compiledir_Linux-3.10-el7.x86_64-x86_64-with-centos-7.3.1611-Core-x86_64-2.7.13-64/lock_dir
INFO (theano.gof.compilelock): Waiting for existing lock by process '2988' (I am process '3115')
INFO (theano.gof.compilelock): To manually release the lock, delete /tmp/pierre-antoine.martrice/theano.NOBACKUP/compiledir_Linux-3.10-el7.x86_64-x86_64-with-centos-7.3.1611-Core-x86_64-2.7.13-64/lock_dir
INFO (theano.gof.compilelock): Waiting for existing lock by process '3084' (I am process '3115')
INFO (theano.gof.compilelock): To manually release the lock, delete /tmp/pierre-antoine.martrice/theano.NOBACKUP/compiledir_Linux-3.10-el7.x86_64-x86_64-with-centos-7.3.1611-Core-x86_64-2.7.13-64/lock_dir
INFO (theano.gof.compilelock): Waiting for existing lock by process '3084' (I am process '3115')
INFO (theano.gof.compilelock): To manually release the lock, delete /tmp/pierre-antoine.martrice/theano.NOBACKUP/compiledir_Linux-3.10-el7.x86_64-x86_64-with-centos-7.3.1611-Core-x86_64-2.7.13-64/lock_dir
INFO (theano.gof.compilelock): Waiting for existing lock by process '43947' (I am process '3115')
INFO (theano.gof.compilelock): To manually release the lock, delete /tmp/pierre-antoine.martrice/theano.NOBACKUP/compiledir_Linux-3.10-el7.x86_64-x86_64-with-centos-7.3.1611-Core-x86_64-2.7.13-64/lock_dir
INFO (theano.gof.compilelock): Waiting for existing lock by process '43947' (I am process '3115')
INFO (theano.gof.compilelock): To manually release the lock, delete /tmp/pierre-antoine.martrice/theano.NOBACKUP/compiledir_Linux-3.10-el7.x86_64-x86_64-with-centos-7.3.1611-Core-x86_64-2.7.13-64/lock_dir
INFO (theano.gof.compilelock): Waiting for existing lock by process '43947' (I am process '3115')
INFO (theano.gof.compilelock): To manually release the lock, delete /tmp/pierre-antoine.martrice/theano.NOBACKUP/compiledir_Linux-3.10-el7.x86_64-x86_64-with-centos-7.3.1611-Core-x86_64-2.7.13-64/lock_dir
INFO (theano.gof.compilelock): Waiting for existing lock by process '2941' (I am process '3115')
INFO (theano.gof.compilelock): To manually release the lock, delete /tmp/pierre-antoine.martrice/theano.NOBACKUP/compiledir_Linux-3.10-el7.x86_64-x86_64-with-centos-7.3.1611-Core-x86_64-2.7.13-64/lock_dir
INFO (theano.gof.compilelock): Waiting for existing lock by process '2941' (I am process '3115')
INFO (theano.gof.compilelock): To manually release the lock, delete /tmp/pierre-antoine.martrice/theano.NOBACKUP/compiledir_Linux-3.10-el7.x86_64-x86_64-with-centos-7.3.1611-Core-x86_64-2.7.13-64/lock_dir
INFO (theano.gof.compilelock): Waiting for existing lock by process '3134' (I am process '3115')
INFO (theano.gof.compilelock): To manually release the lock, delete /tmp/pierre-antoine.martrice/theano.NOBACKUP/compiledir_Linux-3.10-el7.x86_64-x86_64-with-centos-7.3.1611-Core-x86_64-2.7.13-64/lock_dir
INFO (theano.gof.compilelock): Waiting for existing lock by process '3134' (I am process '3115')
INFO (theano.gof.compilelock): To manually release the lock, delete /tmp/pierre-antoine.martrice/theano.NOBACKUP/compiledir_Linux-3.10-el7.x86_64-x86_64-with-centos-7.3.1611-Core-x86_64-2.7.13-64/lock_dir
INFO (theano.gof.compilelock): Waiting for existing lock by process '2988' (I am process '3115')
INFO (theano.gof.compilelock): To manually release the lock, delete /tmp/pierre-antoine.martrice/theano.NOBACKUP/compiledir_Linux-3.10-el7.x86_64-x86_64-with-centos-7.3.1611-Core-x86_64-2.7.13-64/lock_dir
INFO (theano.gof.compilelock): Waiting for existing lock by process '3084' (I am process '3115')
INFO (theano.gof.compilelock): To manually release the lock, delete /tmp/pierre-antoine.martrice/theano.NOBACKUP/compiledir_Linux-3.10-el7.x86_64-x86_64-with-centos-7.3.1611-Core-x86_64-2.7.13-64/lock_dir
INFO (theano.gof.compilelock): Waiting for existing lock by process '3084' (I am process '3115')
INFO (theano.gof.compilelock): To manually release the lock, delete /tmp/pierre-antoine.martrice/theano.NOBACKUP/compiledir_Linux-3.10-el7.x86_64-x86_64-with-centos-7.3.1611-Core-x86_64-2.7.13-64/lock_dir
INFO (theano.gof.compilelock): Waiting for existing lock by process '3084' (I am process '3115')
INFO (theano.gof.compilelock): To manually release the lock, delete /tmp/pierre-antoine.martrice/theano.NOBACKUP/compiledir_Linux-3.10-el7.x86_64-x86_64-with-centos-7.3.1611-Core-x86_64-2.7.13-64/lock_dir
INFO (theano.gof.compilelock): Waiting for existing lock by process '43945' (I am process '3115')
INFO (theano.gof.compilelock): To manually release the lock, delete /tmp/pierre-antoine.martrice/theano.NOBACKUP/compiledir_Linux-3.10-el7.x86_64-x86_64-with-centos-7.3.1611-Core-x86_64-2.7.13-64/lock_dir
INFO (theano.gof.compilelock): Waiting for existing lock by process '2988' (I am process '3115')
INFO (theano.gof.compilelock): To manually release the lock, delete /tmp/pierre-antoine.martrice/theano.NOBACKUP/compiledir_Linux-3.10-el7.x86_64-x86_64-with-centos-7.3.1611-Core-x86_64-2.7.13-64/lock_dir
INFO (theano.gof.compilelock): Waiting for existing lock by process '44069' (I am process '3115')
INFO (theano.gof.compilelock): To manually release the lock, delete /tmp/pierre-antoine.martrice/theano.NOBACKUP/compiledir_Linux-3.10-el7.x86_64-x86_64-with-centos-7.3.1611-Core-x86_64-2.7.13-64/lock_dir
INFO (theano.gof.compilelock): Waiting for existing lock by process '44069' (I am process '3115')
INFO (theano.gof.compilelock): To manually release the lock, delete /tmp/pierre-antoine.martrice/theano.NOBACKUP/compiledir_Linux-3.10-el7.x86_64-x86_64-with-centos-7.3.1611-Core-x86_64-2.7.13-64/lock_dir
INFO (theano.gof.compilelock): Waiting for existing lock by process '2941' (I am process '3115')
INFO (theano.gof.compilelock): To manually release the lock, delete /tmp/pierre-antoine.martrice/theano.NOBACKUP/compiledir_Linux-3.10-el7.x86_64-x86_64-with-centos-7.3.1611-Core-x86_64-2.7.13-64/lock_dir
INFO (theano.gof.compilelock): Waiting for existing lock by process '43946' (I am process '3115')
INFO (theano.gof.compilelock): To manually release the lock, delete /tmp/pierre-antoine.martrice/theano.NOBACKUP/compiledir_Linux-3.10-el7.x86_64-x86_64-with-centos-7.3.1611-Core-x86_64-2.7.13-64/lock_dir
INFO (theano.gof.compilelock): Waiting for existing lock by process '43946' (I am process '3115')
INFO (theano.gof.compilelock): To manually release the lock, delete /tmp/pierre-antoine.martrice/theano.NOBACKUP/compiledir_Linux-3.10-el7.x86_64-x86_64-with-centos-7.3.1611-Core-x86_64-2.7.13-64/lock_dir
INFO (theano.gof.compilelock): Waiting for existing lock by process '3084' (I am process '3115')
INFO (theano.gof.compilelock): To manually release the lock, delete /tmp/pierre-antoine.martrice/theano.NOBACKUP/compiledir_Linux-3.10-el7.x86_64-x86_64-with-centos-7.3.1611-Core-x86_64-2.7.13-64/lock_dir
INFO (theano.gof.compilelock): Waiting for existing lock by process '3084' (I am process '3115')
INFO (theano.gof.compilelock): To manually release the lock, delete /tmp/pierre-antoine.martrice/theano.NOBACKUP/compiledir_Linux-3.10-el7.x86_64-x86_64-with-centos-7.3.1611-Core-x86_64-2.7.13-64/lock_dir
INFO (theano.gof.compilelock): Waiting for existing lock by process '3116' (I am process '3115')
INFO (theano.gof.compilelock): To manually release the lock, delete /tmp/pierre-antoine.martrice/theano.NOBACKUP/compiledir_Linux-3.10-el7.x86_64-x86_64-with-centos-7.3.1611-Core-x86_64-2.7.13-64/lock_dir
INFO (theano.gof.compilelock): Waiting for existing lock by process '3116' (I am process '3115')
INFO (theano.gof.compilelock): To manually release the lock, delete /tmp/pierre-antoine.martrice/theano.NOBACKUP/compiledir_Linux-3.10-el7.x86_64-x86_64-with-centos-7.3.1611-Core-x86_64-2.7.13-64/lock_dir
INFO (theano.gof.compilelock): Waiting for existing lock by process '44070' (I am process '3115')
INFO (theano.gof.compilelock): To manually release the lock, delete /tmp/pierre-antoine.martrice/theano.NOBACKUP/compiledir_Linux-3.10-el7.x86_64-x86_64-with-centos-7.3.1611-Core-x86_64-2.7.13-64/lock_dir
INFO (theano.gof.compilelock): Waiting for existing lock by process '44070' (I am process '3115')
INFO (theano.gof.compilelock): To manually release the lock, delete /tmp/pierre-antoine.martrice/theano.NOBACKUP/compiledir_Linux-3.10-el7.x86_64-x86_64-with-centos-7.3.1611-Core-x86_64-2.7.13-64/lock_dir
INFO (theano.gof.compilelock): Waiting for existing lock by process '3134' (I am process '3115')
INFO (theano.gof.compilelock): To manually release the lock, delete /tmp/pierre-antoine.martrice/theano.NOBACKUP/compiledir_Linux-3.10-el7.x86_64-x86_64-with-centos-7.3.1611-Core-x86_64-2.7.13-64/lock_dir
INFO (theano.gof.compilelock): Waiting for existing lock by process '43948' (I am process '3115')
INFO (theano.gof.compilelock): To manually release the lock, delete /tmp/pierre-antoine.martrice/theano.NOBACKUP/compiledir_Linux-3.10-el7.x86_64-x86_64-with-centos-7.3.1611-Core-x86_64-2.7.13-64/lock_dir
INFO (theano.gof.compilelock): Waiting for existing lock by process '3134' (I am process '3115')
INFO (theano.gof.compilelock): To manually release the lock, delete /tmp/pierre-antoine.martrice/theano.NOBACKUP/compiledir_Linux-3.10-el7.x86_64-x86_64-with-centos-7.3.1611-Core-x86_64-2.7.13-64/lock_dir
INFO (theano.gof.compilelock): Waiting for existing lock by process '3134' (I am process '3115')
INFO (theano.gof.compilelock): To manually release the lock, delete /tmp/pierre-antoine.martrice/theano.NOBACKUP/compiledir_Linux-3.10-el7.x86_64-x86_64-with-centos-7.3.1611-Core-x86_64-2.7.13-64/lock_dir
INFO (theano.gof.compilelock): Waiting for existing lock by process '44246' (I am process '3115')
INFO (theano.gof.compilelock): To manually release the lock, delete /tmp/pierre-antoine.martrice/theano.NOBACKUP/compiledir_Linux-3.10-el7.x86_64-x86_64-with-centos-7.3.1611-Core-x86_64-2.7.13-64/lock_dir
INFO (theano.gof.compilelock): Waiting for existing lock by process '2941' (I am process '3115')
INFO (theano.gof.compilelock): To manually release the lock, delete /tmp/pierre-antoine.martrice/theano.NOBACKUP/compiledir_Linux-3.10-el7.x86_64-x86_64-with-centos-7.3.1611-Core-x86_64-2.7.13-64/lock_dir
INFO (theano.gof.compilelock): Waiting for existing lock by process '43945' (I am process '3115')
INFO (theano.gof.compilelock): To manually release the lock, delete /tmp/pierre-antoine.martrice/theano.NOBACKUP/compiledir_Linux-3.10-el7.x86_64-x86_64-with-centos-7.3.1611-Core-x86_64-2.7.13-64/lock_dir
INFO (theano.gof.compilelock): Waiting for existing lock by process '3084' (I am process '3115')
INFO (theano.gof.compilelock): To manually release the lock, delete /tmp/pierre-antoine.martrice/theano.NOBACKUP/compiledir_Linux-3.10-el7.x86_64-x86_64-with-centos-7.3.1611-Core-x86_64-2.7.13-64/lock_dir
INFO (theano.gof.compilelock): Waiting for existing lock by process '3084' (I am process '3115')
INFO (theano.gof.compilelock): To manually release the lock, delete /tmp/pierre-antoine.martrice/theano.NOBACKUP/compiledir_Linux-3.10-el7.x86_64-x86_64-with-centos-7.3.1611-Core-x86_64-2.7.13-64/lock_dir
INFO (theano.gof.compilelock): Waiting for existing lock by process '44070' (I am process '3115')
INFO (theano.gof.compilelock): To manually release the lock, delete /tmp/pierre-antoine.martrice/theano.NOBACKUP/compiledir_Linux-3.10-el7.x86_64-x86_64-with-centos-7.3.1611-Core-x86_64-2.7.13-64/lock_dir
INFO (theano.gof.compilelock): Waiting for existing lock by process '44070' (I am process '3115')
INFO (theano.gof.compilelock): To manually release the lock, delete /tmp/pierre-antoine.martrice/theano.NOBACKUP/compiledir_Linux-3.10-el7.x86_64-x86_64-with-centos-7.3.1611-Core-x86_64-2.7.13-64/lock_dir
INFO (theano.gof.compilelock): Waiting for existing lock by process '2941' (I am process '3115')
INFO (theano.gof.compilelock): To manually release the lock, delete /tmp/pierre-antoine.martrice/theano.NOBACKUP/compiledir_Linux-3.10-el7.x86_64-x86_64-with-centos-7.3.1611-Core-x86_64-2.7.13-64/lock_dir
INFO (theano.gof.compilelock): Waiting for existing lock by process '3134' (I am process '3115')
INFO (theano.gof.compilelock): To manually release the lock, delete /tmp/pierre-antoine.martrice/theano.NOBACKUP/compiledir_Linux-3.10-el7.x86_64-x86_64-with-centos-7.3.1611-Core-x86_64-2.7.13-64/lock_dir
INFO (theano.gof.compilelock): Waiting for existing lock by process '3555' (I am process '3115')
INFO (theano.gof.compilelock): To manually release the lock, delete /tmp/pierre-antoine.martrice/theano.NOBACKUP/compiledir_Linux-3.10-el7.x86_64-x86_64-with-centos-7.3.1611-Core-x86_64-2.7.13-64/lock_dir
INFO (theano.gof.compilelock): Waiting for existing lock by process '3555' (I am process '3115')
INFO (theano.gof.compilelock): To manually release the lock, delete /tmp/pierre-antoine.martrice/theano.NOBACKUP/compiledir_Linux-3.10-el7.x86_64-x86_64-with-centos-7.3.1611-Core-x86_64-2.7.13-64/lock_dir
INFO (theano.gof.compilelock): Waiting for existing lock by process '44246' (I am process '3115')
INFO (theano.gof.compilelock): To manually release the lock, delete /tmp/pierre-antoine.martrice/theano.NOBACKUP/compiledir_Linux-3.10-el7.x86_64-x86_64-with-centos-7.3.1611-Core-x86_64-2.7.13-64/lock_dir
INFO (theano.gof.compilelock): Waiting for existing lock by process '3116' (I am process '3115')
INFO (theano.gof.compilelock): To manually release the lock, delete /tmp/pierre-antoine.martrice/theano.NOBACKUP/compiledir_Linux-3.10-el7.x86_64-x86_64-with-centos-7.3.1611-Core-x86_64-2.7.13-64/lock_dir
INFO (theano.gof.compilelock): Waiting for existing lock by process '2988' (I am process '3115')
INFO (theano.gof.compilelock): To manually release the lock, delete /tmp/pierre-antoine.martrice/theano.NOBACKUP/compiledir_Linux-3.10-el7.x86_64-x86_64-with-centos-7.3.1611-Core-x86_64-2.7.13-64/lock_dir
INFO (theano.gof.compilelock): Waiting for existing lock by process '2988' (I am process '3115')
INFO (theano.gof.compilelock): To manually release the lock, delete /tmp/pierre-antoine.martrice/theano.NOBACKUP/compiledir_Linux-3.10-el7.x86_64-x86_64-with-centos-7.3.1611-Core-x86_64-2.7.13-64/lock_dir
INFO (theano.gof.compilelock): Waiting for existing lock by process '2988' (I am process '3115')
INFO (theano.gof.compilelock): To manually release the lock, delete /tmp/pierre-antoine.martrice/theano.NOBACKUP/compiledir_Linux-3.10-el7.x86_64-x86_64-with-centos-7.3.1611-Core-x86_64-2.7.13-64/lock_dir
