1 7-8-5-9 5-5-5-4 10 0.2 RMSprop 500
1 5-7-8-9 5-5-5-4 1 0.4 Adam 500
1 5-7-8-9 5-5-5-4 2 0.4 Adam 500
1 5-7-8-9 5-5-5-4 3 0.4 Adam 500
1 5-7-8-9 5-5-5-4 4 0.4 Adam 500
1 5-7-8-9 5-5-5-4 5 0.4 Adam 500
1 5-7-8-9 5-5-5-4 6 0.4 Adam 500
1 5-7-8-9 5-5-5-4 7 0.4 Adam 500
1 5-7-8-9 5-5-5-4 8 0.4 Adam 500
1 5-7-8-9 5-5-5-4 9 0.4 Adam 500
1 5-7-8-9 5-5-5-4 10 0.4 Adam 500
1 7-8-5-9 5-5-5-4 1 0.4 Adam 500
1 7-8-5-9 5-5-5-4 2 0.4 Adam 500
1 7-8-5-9 5-5-5-4 3 0.4 Adam 500
1 7-8-5-9 5-5-5-4 4 0.4 Adam 500
1 7-8-5-9 5-5-5-4 5 0.4 Adam 500
1 7-8-5-9 5-5-5-4 6 0.4 Adam 500
1 7-8-5-9 5-5-5-4 7 0.4 Adam 500
1 7-8-5-9 5-5-5-4 8 0.4 Adam 500
1 7-8-5-9 5-5-5-4 9 0.4 Adam 500
1 7-8-5-9 5-5-5-4 10 0.4 Adam 500
1 5-7-8-9 5-5-5-4 1 0.4 Adagrad 500
1 5-7-8-9 5-5-5-4 2 0.4 Adagrad 500
1 5-7-8-9 5-5-5-4 3 0.4 Adagrad 500
1 5-7-8-9 5-5-5-4 4 0.4 Adagrad 500
1 5-7-8-9 5-5-5-4 5 0.4 Adagrad 500
1 5-7-8-9 5-5-5-4 6 0.4 Adagrad 500
1 5-7-8-9 5-5-5-4 7 0.4 Adagrad 500
1 5-7-8-9 5-5-5-4 8 0.4 Adagrad 500
1 5-7-8-9 5-5-5-4 9 0.4 Adagrad 500
1 5-7-8-9 5-5-5-4 10 0.4 Adagrad 500
1 7-8-5-9 5-5-5-4 1 0.4 Adagrad 500
1 7-8-5-9 5-5-5-4 2 0.4 Adagrad 500
1 7-8-5-9 5-5-5-4 3 0.4 Adagrad 500
1 7-8-5-9 5-5-5-4 4 0.4 Adagrad 500
1 7-8-5-9 5-5-5-4 5 0.4 Adagrad 500
1 7-8-5-9 5-5-5-4 6 0.4 Adagrad 500
1 7-8-5-9 5-5-5-4 7 0.4 Adagrad 500
1 7-8-5-9 5-5-5-4 8 0.4 Adagrad 500
1 7-8-5-9 5-5-5-4 9 0.4 Adagrad 500
1 7-8-5-9 5-5-5-4 10 0.4 Adagrad 500
1 5-7-8-9 5-5-5-4 1 0.4 RMSprop 500
1 5-7-8-9 5-5-5-4 2 0.4 RMSprop 500
1 5-7-8-9 5-5-5-4 3 0.4 RMSprop 500
1 5-7-8-9 5-5-5-4 4 0.4 RMSprop 500
1 5-7-8-9 5-5-5-4 5 0.4 RMSprop 500
1 5-7-8-9 5-5-5-4 6 0.4 RMSprop 500
1 5-7-8-9 5-5-5-4 7 0.4 RMSprop 500
1 5-7-8-9 5-5-5-4 8 0.4 RMSprop 500
1 5-7-8-9 5-5-5-4 9 0.4 RMSprop 500
1 5-7-8-9 5-5-5-4 10 0.4 RMSprop 500
1 7-8-5-9 5-5-5-4 1 0.4 RMSprop 500
1 7-8-5-9 5-5-5-4 2 0.4 RMSprop 500
1 7-8-5-9 5-5-5-4 3 0.4 RMSprop 500
1 7-8-5-9 5-5-5-4 4 0.4 RMSprop 500
1 7-8-5-9 5-5-5-4 5 0.4 RMSprop 500
1 7-8-5-9 5-5-5-4 6 0.4 RMSprop 500
1 7-8-5-9 5-5-5-4 7 0.4 RMSprop 500
1 7-8-5-9 5-5-5-4 8 0.4 RMSprop 500
1 7-8-5-9 5-5-5-4 9 0.4 RMSprop 500
1 7-8-5-9 5-5-5-4 10 0.4 RMSprop 500
2 5-7-8-9 5-5-5-4 1 0 Adam 500
2 5-7-8-9 5-5-5-4 2 0 Adam 500
2 5-7-8-9 5-5-5-4 3 0 Adam 500
