3 7-8-5-9 5-5-5-8 10 0.2 Adam 1000
3 5-7-8-9 5-5-5-8 1 0.2 Adagrad 1000
3 5-7-8-9 5-5-5-8 2 0.2 Adagrad 1000
3 5-7-8-9 5-5-5-8 3 0.2 Adagrad 1000
3 5-7-8-9 5-5-5-8 4 0.2 Adagrad 1000
3 5-7-8-9 5-5-5-8 5 0.2 Adagrad 1000
3 5-7-8-9 5-5-5-8 6 0.2 Adagrad 1000
3 5-7-8-9 5-5-5-8 7 0.2 Adagrad 1000
3 5-7-8-9 5-5-5-8 8 0.2 Adagrad 1000
3 5-7-8-9 5-5-5-8 9 0.2 Adagrad 1000
3 5-7-8-9 5-5-5-8 10 0.2 Adagrad 1000
3 7-8-5-9 5-5-5-8 1 0.2 Adagrad 1000
3 7-8-5-9 5-5-5-8 2 0.2 Adagrad 1000
3 7-8-5-9 5-5-5-8 3 0.2 Adagrad 1000
3 7-8-5-9 5-5-5-8 4 0.2 Adagrad 1000
3 7-8-5-9 5-5-5-8 5 0.2 Adagrad 1000
3 7-8-5-9 5-5-5-8 6 0.2 Adagrad 1000
3 7-8-5-9 5-5-5-8 7 0.2 Adagrad 1000
3 7-8-5-9 5-5-5-8 8 0.2 Adagrad 1000
3 7-8-5-9 5-5-5-8 9 0.2 Adagrad 1000
3 7-8-5-9 5-5-5-8 10 0.2 Adagrad 1000
3 5-7-8-9 5-5-5-8 1 0.2 RMSprop 1000
3 5-7-8-9 5-5-5-8 2 0.2 RMSprop 1000
3 5-7-8-9 5-5-5-8 3 0.2 RMSprop 1000
3 5-7-8-9 5-5-5-8 4 0.2 RMSprop 1000
3 5-7-8-9 5-5-5-8 5 0.2 RMSprop 1000
3 5-7-8-9 5-5-5-8 6 0.2 RMSprop 1000
3 5-7-8-9 5-5-5-8 7 0.2 RMSprop 1000
3 5-7-8-9 5-5-5-8 8 0.2 RMSprop 1000
3 5-7-8-9 5-5-5-8 9 0.2 RMSprop 1000
3 5-7-8-9 5-5-5-8 10 0.2 RMSprop 1000
3 7-8-5-9 5-5-5-8 1 0.2 RMSprop 1000
3 7-8-5-9 5-5-5-8 2 0.2 RMSprop 1000
3 7-8-5-9 5-5-5-8 3 0.2 RMSprop 1000
3 7-8-5-9 5-5-5-8 4 0.2 RMSprop 1000
3 7-8-5-9 5-5-5-8 5 0.2 RMSprop 1000
3 7-8-5-9 5-5-5-8 6 0.2 RMSprop 1000
3 7-8-5-9 5-5-5-8 7 0.2 RMSprop 1000
3 7-8-5-9 5-5-5-8 8 0.2 RMSprop 1000
3 7-8-5-9 5-5-5-8 9 0.2 RMSprop 1000
3 7-8-5-9 5-5-5-8 10 0.2 RMSprop 1000
3 5-7-8-9 5-5-5-8 1 0.4 Adam 1000
3 5-7-8-9 5-5-5-8 2 0.4 Adam 1000
3 5-7-8-9 5-5-5-8 3 0.4 Adam 1000
3 5-7-8-9 5-5-5-8 4 0.4 Adam 1000
3 5-7-8-9 5-5-5-8 5 0.4 Adam 1000
3 5-7-8-9 5-5-5-8 6 0.4 Adam 1000
3 5-7-8-9 5-5-5-8 7 0.4 Adam 1000
3 5-7-8-9 5-5-5-8 8 0.4 Adam 1000
3 5-7-8-9 5-5-5-8 9 0.4 Adam 1000
3 5-7-8-9 5-5-5-8 10 0.4 Adam 1000
3 7-8-5-9 5-5-5-8 1 0.4 Adam 1000
3 7-8-5-9 5-5-5-8 2 0.4 Adam 1000
3 7-8-5-9 5-5-5-8 3 0.4 Adam 1000
3 7-8-5-9 5-5-5-8 4 0.4 Adam 1000
3 7-8-5-9 5-5-5-8 5 0.4 Adam 1000
3 7-8-5-9 5-5-5-8 6 0.4 Adam 1000
3 7-8-5-9 5-5-5-8 7 0.4 Adam 1000
3 7-8-5-9 5-5-5-8 8 0.4 Adam 1000
3 7-8-5-9 5-5-5-8 9 0.4 Adam 1000
3 7-8-5-9 5-5-5-8 10 0.4 Adam 1000
3 5-7-8-9 5-5-5-8 1 0.4 Adagrad 1000
3 5-7-8-9 5-5-5-8 2 0.4 Adagrad 1000
3 5-7-8-9 5-5-5-8 3 0.4 Adagrad 1000
