| 1 | 17-5-5-15 | 5-5-5-4 | 1 | 0.4 | Adagrad | 0.7868639 | 17.93 | 1572075 | 500 |
| 1 | 5-15-17-5 | 5-5-5-4 | 8 | 0.4 | RMSprop | 0.7885984 | 19.41 | 1576225 | 500 |
| 1 | 17-5-5-15 | 5-5-5-8 | 5 | 0.2 | Adagrad | 0.7893408 | 20.53 | 4131400 | 1000 |
| 1 | 5-15-17-5 | 5-5-5-4 | 6 | 0.4 | Adagrad | 0.7902279 | 16.54 | 1571655 | 500 |
| 1 | 5-15-17-5 | 5-5-5-4 | 9 | 0.4 | RMSprop | 0.7903791 | 19.01 | 1578990 | 500 |
| 1 | 5-15-17-5 | 5-5-5-4 | 9 | 0.4 | Adagrad | 0.7907137 | 18.57 | 1578990 | 500 |
| 1 | 17-5-5-15 | 5-5-5-8 | 9 | 0.4 | Adagrad | 0.7913888 | 19.63 | 4135020 | 1000 |
| 1 | 5-15-17-5 | 5-5-5-8 | 4 | 0.4 | Adagrad | 0.791411 | 23.1 | 4131945 | 1000 |
| 1 | 5-15-17-5 | 5-5-5-4 | 1 | 0.4 | Adagrad | 0.7922355 | 17.97 | 1582075 | 500 |
| 1 | 5-15-17-5 | 5-5-5-4 | 5 | 0.2 | Adagrad | 0.7925266 | 15.61 | 1569850 | 500 |
| 1 | 17-5-5-15 | 5-5-5-8 | 1 | 0.2 | Adagrad | 0.7926435 | 18.39 | 4136175 | 1000 |
| 1 | 5-15-17-5 | 5-5-5-4 | 7 | 0.4 | Adagrad | 0.7928968 | 17.59 | 1573780 | 500 |
| 1 | 5-15-17-5 | 5-5-5-8 | 1 | 0.4 | Adagrad | 0.7931882 | 21.17 | 4145775 | 1000 |
| 1 | 5-15-17-5 | 5-5-5-8 | 9 | 0.4 | Adagrad | 0.79326 | 22.8 | 4142670 | 1000 |
| 1 | 5-15-17-5 | 5-5-5-4 | 4 | 0.4 | RMSprop | 0.7936096 | 18.0 | 1568365 | 500 |
| 1 | 5-15-17-5 | 5-5-5-4 | 7 | 0.2 | Adagrad | 0.7936406 | 13.95 | 1573780 | 500 |
| 1 | 5-15-17-5 | 5-5-5-4 | 7 | 0.4 | Adam | 0.7937614 | 19.18 | 1573780 | 500 |
| 1 | 5-15-17-5 | 5-5-5-8 | 8 | 0.4 | Adagrad | 0.7938036 | 23.52 | 4139885 | 1000 |
| 1 | 5-15-17-5 | 5-5-5-8 | 8 | 0.4 | RMSprop | 0.7938798 | 26.28 | 4139885 | 1000 |
| 1 | 17-5-5-15 | 5-5-5-8 | 1 | 0.4 | Adagrad | 0.7939374 | 19.43 | 4136175 | 1000 |
| 1 | 17-5-5-15 | 5-5-5-4 | 9 | 0.2 | RMSprop | 0.793968 | 14.29 | 1570980 | 500 |
| 1 | 5-15-17-5 | 5-5-5-8 | 8 | 0.2 | Adagrad | 0.7940325 | 20.43 | 4139885 | 1000 |
| 1 | 17-5-5-15 | 5-5-5-4 | 8 | 0.4 | RMSprop | 0.7941077 | 18.16 | 1569985 | 500 |
| 1 | 17-5-5-15 | 5-5-5-8 | 9 | 0.2 | Adagrad | 0.7941943 | 22.38 | 4135020 | 1000 |
| 1 | 5-15-17-5 | 5-5-5-4 | 3 | 0.4 | Adagrad | 0.794245 | 11.56 | 1567200 | 500 |
| 1 | 5-15-17-5 | 5-5-5-8 | 6 | 0.4 | Adagrad | 0.7947585 | 18.53 | 4135275 | 1000 |
| 1 | 5-15-17-5 | 5-5-5-8 | 3 | 0.2 | Adagrad | 0.7950523 | 14.52 | 4130760 | 1000 |
| 1 | 5-15-17-5 | 5-5-5-4 | 6 | 0.4 | RMSprop | 0.7951751 | 17.78 | 1571655 | 500 |
| 1 | 5-15-17-5 | 5-5-5-8 | 6 | 0.2 | Adagrad | 0.7952239 | 18.94 | 4135275 | 1000 |
| 1 | 5-15-17-5 | 5-5-5-4 | 8 | 0.4 | Adagrad | 0.7953092 | 17.27 | 1576225 | 500 |
| 1 | 17-5-5-15 | 5-5-5-8 | 7 | 0.2 | Adagrad | 0.7953503 | 17.78 | 4133010 | 1000 |
| 1 | 5-15-17-5 | 5-5-5-8 | 3 | 0.4 | Adagrad | 0.7953812 | 17.95 | 4130760 | 1000 |
| 1 | 5-15-17-5 | 5-5-5-4 | 5 | 0.4 | Adam | 0.7954946 | 17.3 | 1569850 | 500 |
| 1 | 17-5-5-15 | 5-5-5-4 | 7 | 0.4 | RMSprop | 0.7957667 | 16.16 | 1569090 | 500 |
| 1 | 5-15-17-5 | 5-5-5-4 | 9 | 0.4 | Adam | 0.7958063 | 18.23 | 1578990 | 500 |
| 1 | 5-15-17-5 | 5-5-5-8 | 9 | 0.4 | RMSprop | 0.7958147 | 20.17 | 4142670 | 1000 |
| 1 | 17-5-5-15 | 5-5-5-8 | 6 | 0.4 | Adagrad | 0.7958294 | 19.45 | 4132155 | 1000 |
| 1 | 5-15-17-5 | 5-5-5-4 | 6 | 0.2 | Adagrad | 0.7959614 | 15.33 | 1571655 | 500 |
| 1 | 5-15-17-5 | 5-5-5-8 | 5 | 0.4 | Adagrad | 0.7960215 | 21.46 | 4133450 | 1000 |
| 1 | 17-5-5-15 | 5-5-5-4 | 6 | 0.4 | RMSprop | 0.7960318 | 17.5 | 1568295 | 500 |
| 1 | 5-15-17-5 | 5-5-5-4 | 4 | 0.4 | Adagrad | 0.7960745 | 16.31 | 1568365 | 500 |
| 1 | 17-5-5-15 | 5-5-5-8 | 7 | 0.4 | Adagrad | 0.796092 | 20.03 | 4133010 | 1000 |
| 1 | 5-15-17-5 | 5-5-5-4 | 6 | 0.4 | Adam | 0.796223 | 16.71 | 1571655 | 500 |
| 1 | 5-15-17-5 | 5-5-5-4 | 4 | 0.0 | Adagrad | 0.7962414 | 12.37 | 1568365 | 500 |
| 1 | 17-5-5-15 | 5-5-5-4 | 1 | 0.4 | RMSprop | 0.7962762 | 18.89 | 1572075 | 500 |
| 1 | 17-5-5-15 | 5-5-5-8 | 5 | 0.0 | Adagrad | 0.7963668 | 17.78 | 4131400 | 1000 |
| 1 | 17-5-5-15 | 5-5-5-4 | 8 | 0.2 | Adagrad | 0.796425 | 13.5 | 1569985 | 500 |
| 1 | 17-5-5-15 | 5-5-5-4 | 4 | 0.4 | RMSprop | 0.7964782 | 17.09 | 1567005 | 500 |
| 1 | 17-5-5-15 | 5-5-5-8 | 6 | 0.4 | RMSprop | 0.796557 | 21.12 | 4132155 | 1000 |
| 1 | 17-5-5-15 | 5-5-5-8 | 4 | 0.2 | Adagrad | 0.796611 | 17.13 | 4130745 | 1000 |
| 1 | 5-15-17-5 | 5-5-5-8 | 7 | 0.4 | Adam | 0.7966625 | 19.1 | 4137420 | 1000 |
| 1 | 5-15-17-5 | 5-5-5-8 | 2 | 0.2 | Adagrad | 0.7966961 | 16.18 | 4129895 | 1000 |
| 1 | 17-5-5-15 | 5-5-5-4 | 9 | 0.2 | Adagrad | 0.7967054 | 15.04 | 1570980 | 500 |
| 1 | 17-5-5-15 | 5-5-5-4 | 5 | 0.2 | Adagrad | 0.7967139 | 14.29 | 1567600 | 500 |
| 1 | 5-15-17-5 | 5-5-5-8 | 6 | 0.0 | Adagrad | 0.7967652 | 16.69 | 4135275 | 1000 |
| 1 | 5-15-17-5 | 5-5-5-8 | 7 | 0.4 | Adagrad | 0.7968116 | 16.51 | 4137420 | 1000 |
| 1 | 5-15-17-5 | 5-5-5-4 | 7 | 0.2 | RMSprop | 0.7969508 | 14.69 | 1573780 | 500 |
| 1 | 5-15-17-5 | 5-5-5-4 | 4 | 0.2 | Adagrad | 0.7971556 | 15.33 | 1568365 | 500 |
| 1 | 5-15-17-5 | 5-5-5-8 | 5 | 0.0 | Adagrad | 0.7974364 | 19.2 | 4133450 | 1000 |
| 1 | 17-5-5-15 | 5-5-5-8 | 1 | 0.4 | RMSprop | 0.7974746 | 20.95 | 4136175 | 1000 |
| 1 | 17-5-5-15 | 5-5-5-8 | 6 | 0.2 | Adagrad | 0.797511 | 17.26 | 4132155 | 1000 |
| 1 | 17-5-5-15 | 5-5-5-4 | 3 | 0.2 | Adagrad | 0.7975773 | 10.21 | 1566510 | 500 |
| 1 | 5-15-17-5 | 5-5-5-4 | 1 | 0.2 | Adagrad | 0.7976001 | 14.44 | 1582075 | 500 |
| 1 | 5-15-17-5 | 5-5-5-4 | 4 | 0.4 | Adam | 0.7976292 | 16.72 | 1568365 | 500 |
| 1 | 17-5-5-15 | 5-5-5-4 | 1 | 0.2 | Adagrad | 0.7977362 | 14.26 | 1572075 | 500 |
| 1 | 5-15-17-5 | 5-5-5-4 | 6 | 0.2 | Adam | 0.7978059 | 14.28 | 1571655 | 500 |
| 1 | 5-15-17-5 | 5-5-5-4 | 5 | 0.2 | Adam | 0.7979286 | 14.96 | 1569850 | 500 |
| 1 | 5-15-17-5 | 5-5-5-4 | 5 | 0.2 | RMSprop | 0.7979778 | 15.24 | 1569850 | 500 |
| 1 | 17-5-5-15 | 5-5-5-8 | 8 | 0.4 | RMSprop | 0.7979896 | 20.7 | 4133965 | 1000 |
| 1 | 5-15-17-5 | 5-5-5-4 | 7 | 0.0 | Adagrad | 0.7979988 | 11.82 | 1573780 | 500 |
| 1 | 17-5-5-15 | 5-5-5-8 | 3 | 0.0 | Adagrad | 0.7980406 | 13.71 | 4130190 | 1000 |
| 1 | 5-15-17-5 | 5-5-5-8 | 9 | 0.4 | Adam | 0.7980998 | 21.19 | 4142670 | 1000 |
| 1 | 5-15-17-5 | 5-5-5-8 | 1 | 0.0 | Adagrad | 0.7981011 | 20.05 | 4145775 | 1000 |
| 1 | 17-5-5-15 | 5-5-5-8 | 8 | 0.4 | Adagrad | 0.7981397 | 20.84 | 4133965 | 1000 |
| 1 | 17-5-5-15 | 5-5-5-8 | 7 | 0.0 | Adagrad | 0.7983124 | 17.65 | 4133010 | 1000 |
| 1 | 5-15-17-5 | 5-5-5-4 | 1 | 0.4 | Adam | 0.7983199 | 17.84 | 1582075 | 500 |
| 1 | 17-5-5-15 | 5-5-5-4 | 1 | 0.4 | Adam | 0.7983366 | 18.8 | 1572075 | 500 |
| 1 | 17-5-5-15 | 5-5-5-8 | 5 | 0.4 | RMSprop | 0.798337 | 19.59 | 4131400 | 1000 |
| 1 | 5-15-17-5 | 5-5-5-8 | 5 | 0.2 | Adagrad | 0.798427 | 19.55 | 4133450 | 1000 |
| 1 | 5-15-17-5 | 5-5-5-4 | 5 | 0.4 | RMSprop | 0.7984764 | 17.63 | 1569850 | 500 |
| 1 | 5-15-17-5 | 5-5-5-8 | 3 | 0.2 | RMSprop | 0.7986524 | 14.3 | 4130760 | 1000 |
| 1 | 17-5-5-15 | 5-5-5-4 | 5 | 0.4 | RMSprop | 0.7987256 | 17.44 | 1567600 | 500 |
| 1 | 17-5-5-15 | 5-5-5-8 | 5 | 0.4 | Adagrad | 0.7989736 | 20.4 | 4131400 | 1000 |
| 1 | 5-15-17-5 | 5-5-5-4 | 8 | 0.0 | Adagrad | 0.7989765 | 11.87 | 1576225 | 500 |
| 1 | 5-15-17-5 | 5-5-5-8 | 2 | 0.4 | Adagrad | 0.7989846 | 17.72 | 4129895 | 1000 |
| 1 | 5-15-17-5 | 5-5-5-8 | 7 | 0.0 | Adagrad | 0.7989879 | 16.16 | 4137420 | 1000 |
| 1 | 17-5-5-15 | 5-5-5-4 | 8 | 0.4 | Adagrad | 0.7990402 | 15.62 | 1569985 | 500 |
| 1 | 5-15-17-5 | 5-5-5-4 | 3 | 0.4 | Adam | 0.7990784 | 11.92 | 1567200 | 500 |
| 1 | 5-15-17-5 | 5-5-5-4 | 1 | 0.4 | RMSprop | 0.7991062 | 17.46 | 1582075 | 500 |
| 1 | 5-15-17-5 | 5-5-5-4 | 1 | 0.2 | Adam | 0.7991383 | 16.02 | 1582075 | 500 |
| 1 | 5-15-17-5 | 5-5-5-4 | 8 | 0.2 | RMSprop | 0.7992335 | 15.09 | 1576225 | 500 |
| 1 | 17-5-5-15 | 5-5-5-8 | 1 | 0.0 | Adagrad | 0.7992534 | 18.08 | 4136175 | 1000 |
| 1 | 17-5-5-15 | 5-5-5-8 | 3 | 0.2 | Adagrad | 0.7992823 | 13.29 | 4130190 | 1000 |
| 1 | 5-15-17-5 | 5-5-5-8 | 4 | 0.2 | Adagrad | 0.7993223 | 17.1 | 4131945 | 1000 |
| 1 | 5-15-17-5 | 5-5-5-4 | 8 | 0.2 | Adagrad | 0.799369 | 14.75 | 1576225 | 500 |
| 1 | 5-15-17-5 | 5-5-5-8 | 4 | 0.4 | Adam | 0.7994999 | 22.52 | 4131945 | 1000 |
| 1 | 5-15-17-5 | 5-5-5-8 | 6 | 0.0 | Adam | 0.7995195 | 15.82 | 4135275 | 1000 |
| 1 | 5-15-17-5 | 5-5-5-8 | 6 | 0.4 | RMSprop | 0.7995332 | 18.26 | 4135275 | 1000 |
| 1 | 5-15-17-5 | 5-5-5-8 | 9 | 0.0 | Adagrad | 0.7995549 | 19.2 | 4142670 | 1000 |
| 1 | 5-15-17-5 | 5-5-5-4 | 9 | 0.0 | Adagrad | 0.799587 | 15.21 | 1578990 | 500 |
| 1 | 17-5-5-15 | 5-5-5-4 | 8 | 0.0 | Adagrad | 0.7995959 | 12.65 | 1569985 | 500 |
| 1 | 5-15-17-5 | 5-5-5-8 | 3 | 0.4 | Adam | 0.7998418 | 15.42 | 4130760 | 1000 |
| 1 | 5-15-17-5 | 5-5-5-4 | 7 | 0.4 | RMSprop | 0.7999462 | 17.72 | 1573780 | 500 |
| 1 | 17-5-5-15 | 5-5-5-8 | 4 | 0.4 | RMSprop | 0.8001269 | 20.31 | 4130745 | 1000 |
| 1 | 5-15-17-5 | 5-5-5-4 | 1 | 0.4 | Adagrad | 0.8001795 | 15.74 | 1565830 | 500 |
| 1 | 17-5-5-15 | 5-5-5-4 | 4 | 0.2 | RMSprop | 0.8001949 | 14.26 | 1567005 | 500 |
| 1 | 17-5-5-15 | 5-5-5-8 | 2 | 0.2 | Adagrad | 0.8002378 | 14.8 | 4129735 | 1000 |
| 1 | 17-5-5-15 | 5-5-5-4 | 5 | 0.4 | Adam | 0.8002833 | 17.35 | 1567600 | 500 |
| 1 | 5-15-17-5 | 5-5-5-4 | 7 | 0.2 | Adam | 0.8003184 | 16.39 | 1573780 | 500 |
| 1 | 5-15-17-5 | 5-5-5-8 | 5 | 0.4 | RMSprop | 0.8003423 | 20.07 | 4133450 | 1000 |
| 1 | 5-15-17-5 | 5-5-5-8 | 1 | 0.4 | RMSprop | 0.8004573 | 21.91 | 4145775 | 1000 |
| 1 | 17-5-5-15 | 5-5-5-8 | 9 | 0.0 | Adagrad | 0.8004799 | 19.34 | 4135020 | 1000 |
| 1 | 17-5-5-15 | 5-5-5-4 | 9 | 0.4 | Adam | 0.8004878 | 16.5 | 1570980 | 500 |
| 1 | 5-15-17-5 | 5-5-5-8 | 7 | 0.2 | RMSprop | 0.8005364 | 15.21 | 4137420 | 1000 |
| 1 | 17-5-5-15 | 5-5-5-4 | 6 | 0.2 | Adagrad | 0.8005724 | 13.04 | 1568295 | 500 |
| 1 | 17-5-5-15 | 5-5-5-4 | 3 | 0.4 | RMSprop | 0.8006582 | 11.82 | 1566510 | 500 |
| 1 | 5-15-17-5 | 5-5-5-8 | 1 | 0.2 | Adagrad | 0.80074 | 18.65 | 4145775 | 1000 |
| 1 | 5-15-17-5 | 5-5-5-4 | 1 | 0.2 | RMSprop | 0.8007502 | 16.08 | 1582075 | 500 |
| 1 | 17-5-5-15 | 5-5-5-4 | 5 | 0.0 | Adagrad | 0.8007687 | 12.84 | 1567600 | 500 |
| 1 | 17-5-5-15 | 5-5-5-4 | 9 | 0.4 | RMSprop | 0.8007834 | 16.91 | 1570980 | 500 |
| 1 | 5-15-17-5 | 5-5-5-8 | 8 | 0.4 | Adam | 0.8008604 | 23.32 | 4139885 | 1000 |
| 1 | 5-15-17-5 | 5-5-5-4 | 9 | 0.2 | RMSprop | 0.8008969 | 15.18 | 1578990 | 500 |
| 1 | 17-5-5-15 | 5-5-5-8 | 7 | 0.2 | Adam | 0.8009019 | 18.72 | 4133010 | 1000 |
| 1 | 17-5-5-15 | 5-5-5-4 | 1 | 0.2 | Adam | 0.8009684 | 14.33 | 1572075 | 500 |
| 1 | 17-5-5-15 | 5-5-5-4 | 3 | 0.2 | RMSprop | 0.800986 | 10.86 | 1566510 | 500 |
| 1 | 5-15-17-5 | 5-5-5-8 | 1 | 0.2 | Adam | 0.8011233 | 18.1 | 4145775 | 1000 |
| 1 | 5-15-17-5 | 5-5-5-4 | 8 | 0.4 | Adam | 0.8011287 | 17.47 | 1576225 | 500 |
| 1 | 17-5-5-15 | 5-5-5-4 | 9 | 0.0 | Adagrad | 0.80116 | 12.28 | 1570980 | 500 |
| 1 | 17-5-5-15 | 5-5-5-4 | 4 | 0.2 | Adam | 0.8012566 | 14.04 | 1567005 | 500 |
| 1 | 17-5-5-15 | 5-5-5-4 | 5 | 0.4 | Adagrad | 0.8013064 | 14.95 | 1567600 | 500 |
| 1 | 5-15-17-5 | 5-5-5-4 | 6 | 0.0 | Adagrad | 0.8013201 | 12.45 | 1571655 | 500 |
| 1 | 17-5-5-15 | 5-5-5-8 | 8 | 0.2 | Adagrad | 0.8013205 | 18.83 | 4133965 | 1000 |
| 1 | 5-15-17-5 | 5-5-5-4 | 3 | 0.2 | RMSprop | 0.801332 | 11.27 | 1567200 | 500 |
| 1 | 17-5-5-15 | 5-5-5-4 | 4 | 0.4 | Adagrad | 0.8013949 | 14.51 | 1567005 | 500 |
| 1 | 5-15-17-5 | 5-5-5-4 | 5 | 0.4 | Adagrad | 0.8015303 | 16.24 | 1569850 | 500 |
| 1 | 5-15-17-5 | 5-5-5-4 | 3 | 0.2 | Adagrad | 0.8017219 | 11.0 | 1567200 | 500 |
| 1 | 5-15-17-5 | 5-5-5-8 | 4 | 0.0 | Adagrad | 0.8017772 | 15.79 | 4131945 | 1000 |
| 1 | 5-15-17-5 | 5-5-5-4 | 5 | 0.0 | Adagrad | 0.8018397 | 12.71 | 1569850 | 500 |
| 1 | 17-5-5-15 | 5-5-5-4 | 2 | 0.4 | Adagrad | 0.8020014 | 13.24 | 1566115 | 500 |
| 1 | 17-5-5-15 | 5-5-5-4 | 7 | 0.4 | Adagrad | 0.8020324 | 13.47 | 1569090 | 500 |
| 1 | 5-15-17-5 | 5-5-5-8 | 9 | 0.0 | Adam | 0.8021204 | 17.45 | 4142670 | 1000 |
| 1 | 5-15-17-5 | 5-5-5-4 | 3 | 0.0 | Adagrad | 0.8023749 | 10.78 | 1567200 | 500 |
| 1 | 17-5-5-15 | 5-5-5-8 | 4 | 0.4 | Adagrad | 0.8023783 | 20.23 | 4130745 | 1000 |
| 1 | 17-5-5-15 | 5-5-5-4 | 6 | 0.4 | Adam | 0.8024592 | 16.97 | 1568295 | 500 |
| 1 | 17-5-5-15 | 5-5-5-4 | 6 | 0.2 | Adam | 0.8024596 | 13.92 | 1568295 | 500 |
| 1 | 17-5-5-15 | 5-5-5-4 | 4 | 0.4 | Adam | 0.8025003 | 16.99 | 1567005 | 500 |
| 1 | 17-5-5-15 | 5-5-5-4 | 8 | 0.2 | Adam | 0.8025034 | 14.69 | 1569985 | 500 |
| 1 | 5-15-17-5 | 5-5-5-8 | 8 | 0.0 | Adagrad | 0.8025346 | 19.07 | 4139885 | 1000 |
| 1 | 5-15-17-5 | 5-5-5-4 | 8 | 0.2 | Adam | 0.8025411 | 15.01 | 1576225 | 500 |
| 1 | 5-15-17-5 | 5-5-5-8 | 4 | 0.2 | RMSprop | 0.8025562 | 17.73 | 4131945 | 1000 |
| 1 | 17-5-5-15 | 5-5-5-4 | 4 | 0.2 | Adagrad | 0.8025631 | 13.28 | 1567005 | 500 |
| 1 | 17-5-5-15 | 5-5-5-8 | 2 | 0.4 | Adagrad | 0.8026137 | 15.69 | 4129735 | 1000 |
| 1 | 5-15-17-5 | 5-5-5-8 | 1 | 0.2 | RMSprop | 0.8026446 | 16.88 | 4145775 | 1000 |
| 1 | 17-5-5-15 | 5-5-5-4 | 7 | 0.2 | RMSprop | 0.8026581 | 13.26 | 1569090 | 500 |
| 1 | 5-15-17-5 | 5-5-5-8 | 9 | 0.2 | Adagrad | 0.8026668 | 22.75 | 4142670 | 1000 |
| 1 | 17-5-5-15 | 5-5-5-8 | 3 | 0.4 | Adagrad | 0.802714 | 14.1 | 4130190 | 1000 |
| 1 | 5-15-17-5 | 5-5-5-8 | 7 | 0.2 | Adagrad | 0.8027655 | 16.96 | 4137420 | 1000 |
| 1 | 17-5-5-15 | 5-5-5-8 | 6 | 0.0 | Adagrad | 0.8027985 | 14.48 | 4132155 | 1000 |
| 1 | 5-15-17-5 | 5-5-5-4 | 7 | 0.0 | Adam | 0.8028745 | 13.38 | 1573780 | 500 |
| 1 | 17-5-5-15 | 5-5-5-8 | 8 | 0.0 | Adagrad | 0.8029158 | 16.42 | 4133965 | 1000 |
| 1 | 17-5-5-15 | 5-5-5-4 | 3 | 0.4 | Adam | 0.8029516 | 13.68 | 1566510 | 500 |
| 1 | 17-5-5-15 | 5-5-5-8 | 9 | 0.4 | Adam | 0.8029662 | 21.22 | 4135020 | 1000 |
| 1 | 17-5-5-15 | 5-5-5-8 | 2 | 0.4 | Adam | 0.8029941 | 17.98 | 4129735 | 1000 |
| 1 | 5-15-17-5 | 5-5-5-8 | 1 | 0.4 | Adam | 0.8030504 | 21.77 | 4145775 | 1000 |
| 1 | 17-5-5-15 | 5-5-5-4 | 7 | 0.2 | Adam | 0.8030814 | 14.75 | 1569090 | 500 |
| 1 | 17-5-5-15 | 5-5-5-4 | 9 | 0.4 | Adagrad | 0.8032891 | 15.45 | 1570980 | 500 |
| 1 | 17-5-5-15 | 5-5-5-4 | 6 | 0.2 | RMSprop | 0.8033795 | 12.15 | 1568295 | 500 |
| 1 | 17-5-5-15 | 5-5-5-4 | 2 | 0.4 | RMSprop | 0.8033908 | 16.15 | 1566115 | 500 |
| 1 | 17-5-5-15 | 5-5-5-4 | 7 | 0.0 | Adagrad | 0.8034389 | 11.72 | 1569090 | 500 |
| 1 | 17-5-5-15 | 5-5-5-8 | 9 | 0.4 | RMSprop | 0.8034571 | 17.51 | 4135020 | 1000 |
| 1 | 5-15-17-5 | 5-5-5-8 | 3 | 0.2 | Adam | 0.8035045 | 14.12 | 4130760 | 1000 |
| 1 | 17-5-5-15 | 5-5-5-4 | 7 | 0.4 | Adam | 0.8036704 | 17.01 | 1569090 | 500 |
| 1 | 5-15-17-5 | 5-5-5-8 | 8 | 0.2 | Adam | 0.8036985 | 18.88 | 4139885 | 1000 |
| 1 | 17-5-5-15 | 5-5-5-4 | 5 | 0.2 | Adam | 0.8037016 | 13.96 | 1567600 | 500 |
| 1 | 5-15-17-5 | 5-5-5-4 | 2 | 0.0 | Adagrad | 0.8037234 | 12.13 | 1566355 | 500 |
| 1 | 17-5-5-15 | 5-5-5-8 | 1 | 0.2 | Adagrad | 0.8037346 | 15.89 | 4129380 | 1000 |
| 1 | 5-15-17-5 | 5-5-5-8 | 4 | 0.2 | Adam | 0.8037422 | 17.3 | 4131945 | 1000 |
| 1 | 17-5-5-15 | 5-5-5-4 | 3 | 0.4 | Adagrad | 0.8039666 | 10.7 | 1566510 | 500 |
| 1 | 17-5-5-15 | 5-5-5-4 | 1 | 0.2 | RMSprop | 0.8040448 | 14.44 | 1572075 | 500 |
| 1 | 5-15-17-5 | 5-5-5-8 | 8 | 0.2 | RMSprop | 0.804198 | 20.64 | 4139885 | 1000 |
| 1 | 17-5-5-15 | 5-5-5-8 | 6 | 0.4 | Adam | 0.8043058 | 19.78 | 4132155 | 1000 |
| 1 | 5-15-17-5 | 5-5-5-4 | 2 | 0.2 | Adam | 0.8043283 | 13.51 | 1566355 | 500 |
| 1 | 5-15-17-5 | 5-5-5-4 | 4 | 0.2 | RMSprop | 0.8044003 | 14.03 | 1568365 | 500 |
| 1 | 17-5-5-15 | 5-5-5-4 | 8 | 0.4 | Adam | 0.8044282 | 17.34 | 1569985 | 500 |
| 1 | 5-15-17-5 | 5-5-5-8 | 3 | 0.4 | RMSprop | 0.8044609 | 16.16 | 4130760 | 1000 |
| 1 | 17-5-5-15 | 5-5-5-4 | 6 | 0.0 | Adagrad | 0.8044688 | 11.35 | 1568295 | 500 |
| 1 | 17-5-5-15 | 5-5-5-4 | 3 | 0.2 | Adam | 0.8045194 | 11.66 | 1566510 | 500 |
| 1 | 17-5-5-15 | 5-5-5-8 | 5 | 0.2 | Adam | 0.8045269 | 19.16 | 4131400 | 1000 |
| 1 | 17-5-5-15 | 5-5-5-8 | 8 | 0.2 | RMSprop | 0.8047219 | 17.85 | 4133965 | 1000 |
| 1 | 5-15-17-5 | 5-5-5-4 | 2 | 0.4 | Adam | 0.8048108 | 14.84 | 1566355 | 500 |
| 1 | 5-15-17-5 | 5-5-5-8 | 4 | 0.4 | RMSprop | 0.8048425 | 23.0 | 4131945 | 1000 |
| 1 | 5-15-17-5 | 5-5-5-4 | 2 | 0.4 | RMSprop | 0.8048738 | 16.67 | 1566355 | 500 |
| 1 | 17-5-5-15 | 5-5-5-8 | 9 | 0.2 | RMSprop | 0.8049034 | 19.05 | 4135020 | 1000 |
| 1 | 17-5-5-15 | 5-5-5-8 | 8 | 0.0 | Adam | 0.8049054 | 16.19 | 4133965 | 1000 |
| 1 | 17-5-5-15 | 5-5-5-4 | 1 | 0.0 | Adagrad | 0.8049543 | 12.74 | 1572075 | 500 |
| 1 | 17-5-5-15 | 5-5-5-4 | 8 | 0.2 | RMSprop | 0.8050012 | 13.73 | 1569985 | 500 |
| 1 | 17-5-5-15 | 5-5-5-8 | 1 | 0.4 | Adam | 0.805071 | 19.96 | 4136175 | 1000 |
| 1 | 5-15-17-5 | 5-5-5-8 | 5 | 0.4 | Adam | 0.8050773 | 21.29 | 4133450 | 1000 |
| 1 | 17-5-5-15 | 5-5-5-8 | 4 | 0.0 | Adagrad | 0.805095 | 16.07 | 4130745 | 1000 |
| 1 | 5-15-17-5 | 5-5-5-8 | 6 | 0.2 | RMSprop | 0.805109 | 16.5 | 4135275 | 1000 |
| 1 | 17-5-5-15 | 5-5-5-8 | 1 | 0.2 | RMSprop | 0.8051586 | 18.19 | 4136175 | 1000 |
| 1 | 5-15-17-5 | 5-5-5-4 | 9 | 0.0 | Adam | 0.8052602 | 12.89 | 1578990 | 500 |
| 1 | 5-15-17-5 | 5-5-5-4 | 1 | 0.0 | Adam | 0.8053226 | 15.09 | 1582075 | 500 |
| 1 | 5-15-17-5 | 5-5-5-4 | 5 | 0.0 | RMSprop | 0.8054044 | 12.63 | 1569850 | 500 |
| 1 | 17-5-5-15 | 5-5-5-4 | 3 | 0.0 | Adagrad | 0.8054554 | 10.19 | 1566510 | 500 |
| 1 | 5-15-17-5 | 5-5-5-8 | 2 | 0.4 | Adam | 0.8056106 | 19.31 | 4129895 | 1000 |
| 1 | 5-15-17-5 | 5-5-5-8 | 2 | 0.0 | Adagrad | 0.8056122 | 14.13 | 4129895 | 1000 |
| 1 | 5-15-17-5 | 5-5-5-4 | 1 | 0.0 | Adagrad | 0.8056169 | 13.97 | 1582075 | 500 |
| 1 | 17-5-5-15 | 5-5-5-8 | 3 | 0.4 | RMSprop | 0.8056934 | 16.2 | 4130190 | 1000 |
| 1 | 5-15-17-5 | 5-5-5-4 | 9 | 0.2 | Adam | 0.805702 | 16.2 | 1578990 | 500 |
| 1 | 17-5-5-15 | 5-5-5-8 | 1 | 0.4 | RMSprop | 0.8058395 | 19.66 | 4129380 | 1000 |
| 1 | 17-5-5-15 | 5-5-5-4 | 9 | 0.2 | Adam | 0.8058592 | 16.11 | 1570980 | 500 |
| 1 | 5-15-17-5 | 5-5-5-8 | 7 | 0.4 | RMSprop | 0.8058882 | 17.44 | 4137420 | 1000 |
| 1 | 5-15-17-5 | 5-5-5-4 | 8 | 0.0 | RMSprop | 0.8059288 | 12.68 | 1576225 | 500 |
| 1 | 5-15-17-5 | 5-5-5-4 | 4 | 0.2 | Adam | 0.805931 | 13.83 | 1568365 | 500 |
| 1 | 5-15-17-5 | 5-5-5-4 | 2 | 0.2 | Adagrad | 0.8059649 | 13.7 | 1566355 | 500 |
| 1 | 5-15-17-5 | 5-5-5-8 | 5 | 0.2 | Adam | 0.806161 | 20.65 | 4133450 | 1000 |
| 1 | 17-5-5-15 | 5-5-5-8 | 4 | 0.2 | Adam | 0.806179 | 17.7 | 4130745 | 1000 |
| 1 | 17-5-5-15 | 5-5-5-8 | 5 | 0.0 | Adam | 0.8061949 | 17.46 | 4131400 | 1000 |
| 1 | 17-5-5-15 | 5-5-5-4 | 9 | 0.0 | Adam | 0.8064025 | 13.44 | 1570980 | 500 |
| 1 | 5-15-17-5 | 5-5-5-8 | 1 | 0.0 | Adam | 0.8064499 | 16.42 | 4145775 | 1000 |
| 1 | 5-15-17-5 | 5-5-5-8 | 3 | 0.0 | Adam | 0.8065309 | 15.33 | 4130760 | 1000 |
| 1 | 17-5-5-15 | 5-5-5-8 | 1 | 0.0 | Adagrad | 0.8066517 | 15.0 | 4129380 | 1000 |
| 1 | 17-5-5-15 | 5-5-5-8 | 4 | 0.4 | Adam | 0.8068472 | 20.15 | 4130745 | 1000 |
| 1 | 17-5-5-15 | 5-5-5-8 | 8 | 0.4 | Adam | 0.8068634 | 21.87 | 4133965 | 1000 |
| 1 | 5-15-17-5 | 5-5-5-8 | 9 | 0.2 | Adam | 0.8069363 | 20.48 | 4142670 | 1000 |
| 1 | 17-5-5-15 | 5-5-5-8 | 5 | 0.2 | RMSprop | 0.8070756 | 18.2 | 4131400 | 1000 |
| 1 | 17-5-5-15 | 5-5-5-8 | 6 | 0.2 | RMSprop | 0.8071276 | 15.84 | 4132155 | 1000 |
| 1 | 5-15-17-5 | 5-5-5-4 | 9 | 0.0 | RMSprop | 0.8071341 | 12.86 | 1578990 | 500 |
| 1 | 5-15-17-5 | 5-5-5-4 | 2 | 0.4 | Adagrad | 0.8072133 | 14.46 | 1566355 | 500 |
| 1 | 17-5-5-15 | 5-5-5-4 | 2 | 0.0 | Adagrad | 0.8072196 | 10.56 | 1566115 | 500 |
| 1 | 5-15-17-5 | 5-5-5-4 | 5 | 0.0 | Adam | 0.8073081 | 13.54 | 1569850 | 500 |
| 1 | 17-5-5-15 | 5-5-5-4 | 1 | 0.2 | Adagrad | 0.8073148 | 12.83 | 1565820 | 500 |
| 1 | 17-5-5-15 | 5-5-5-8 | 7 | 0.4 | Adam | 0.8076673 | 18.98 | 4133010 | 1000 |
| 1 | 5-15-17-5 | 5-5-5-8 | 7 | 0.2 | Adam | 0.807754 | 20.04 | 4137420 | 1000 |
| 1 | 17-5-5-15 | 5-5-5-8 | 7 | 0.0 | RMSprop | 0.8079079 | 13.44 | 4133010 | 1000 |
| 1 | 17-5-5-15 | 5-5-5-8 | 4 | 0.0 | Adam | 0.807942 | 14.14 | 4130745 | 1000 |
| 1 | 5-15-17-5 | 5-5-5-4 | 1 | 0.4 | Adam | 0.8079872 | 17.02 | 1565830 | 500 |
| 1 | 17-5-5-15 | 5-5-5-4 | 2 | 0.4 | Adam | 0.8080055 | 15.8 | 1566115 | 500 |
| 1 | 17-5-5-15 | 5-5-5-8 | 3 | 0.4 | Adam | 0.8080684 | 16.89 | 4130190 | 1000 |
| 1 | 17-5-5-15 | 5-5-5-8 | 4 | 0.2 | RMSprop | 0.8083107 | 16.03 | 4130745 | 1000 |
| 1 | 5-15-17-5 | 5-5-5-4 | 2 | 0.2 | RMSprop | 0.80833 | 11.99 | 1566355 | 500 |
| 1 | 5-15-17-5 | 5-5-5-8 | 7 | 0.0 | RMSprop | 0.8084099 | 16.13 | 4137420 | 1000 |
| 1 | 17-5-5-15 | 5-5-5-8 | 1 | 0.0 | Adam | 0.8087147 | 14.15 | 4136175 | 1000 |
| 1 | 5-15-17-5 | 5-5-5-8 | 2 | 0.4 | RMSprop | 0.8087874 | 18.57 | 4129895 | 1000 |
| 1 | 5-15-17-5 | 5-5-5-4 | 4 | 0.0 | RMSprop | 0.8088962 | 11.81 | 1568365 | 500 |
| 1 | 17-5-5-15 | 5-5-5-4 | 1 | 0.2 | Adam | 0.8089817 | 12.72 | 1565820 | 500 |
| 1 | 5-15-17-5 | 5-5-5-4 | 3 | 0.0 | RMSprop | 0.8090514 | 10.28 | 1567200 | 500 |
| 1 | 5-15-17-5 | 5-5-5-8 | 6 | 0.4 | Adam | 0.809129 | 19.48 | 4135275 | 1000 |
| 1 | 17-5-5-15 | 5-5-5-8 | 2 | 0.0 | Adagrad | 0.8092495 | 13.93 | 4129735 | 1000 |
| 1 | 17-5-5-15 | 5-5-5-4 | 2 | 0.2 | Adam | 0.8092903 | 13.64 | 1566115 | 500 |
| 1 | 5-15-17-5 | 5-5-5-8 | 3 | 0.0 | Adagrad | 0.8093588 | 13.86 | 4130760 | 1000 |
| 1 | 17-5-5-15 | 5-5-5-8 | 7 | 0.4 | RMSprop | 0.8094724 | 16.26 | 4133010 | 1000 |
| 1 | 5-15-17-5 | 5-5-5-8 | 8 | 0.0 | Adam | 0.8094903 | 17.32 | 4139885 | 1000 |
| 1 | 17-5-5-15 | 5-5-5-4 | 2 | 0.2 | Adagrad | 0.8095208 | 12.56 | 1566115 | 500 |
| 1 | 17-5-5-15 | 5-5-5-8 | 9 | 0.0 | RMSprop | 0.809588 | 16.61 | 4135020 | 1000 |
| 1 | 17-5-5-15 | 5-5-5-4 | 4 | 0.0 | Adagrad | 0.8096532 | 10.69 | 1567005 | 500 |
| 1 | 5-15-17-5 | 5-5-5-8 | 4 | 0.0 | Adam | 0.8097027 | 14.95 | 4131945 | 1000 |
| 1 | 5-15-17-5 | 5-5-5-8 | 5 | 0.0 | RMSprop | 0.8097493 | 17.97 | 4133450 | 1000 |
| 1 | 5-15-17-5 | 5-5-5-8 | 1 | 0.4 | Adagrad | 0.8098431 | 17.08 | 4129350 | 1000 |
| 1 | 17-5-5-15 | 5-5-5-4 | 5 | 0.2 | RMSprop | 0.8099349 | 12.99 | 1567600 | 500 |
| 1 | 5-15-17-5 | 5-5-5-8 | 5 | 0.2 | RMSprop | 0.8099903 | 18.38 | 4133450 | 1000 |
| 1 | 5-15-17-5 | 5-5-5-8 | 6 | 0.2 | Adam | 0.8100361 | 17.2 | 4135275 | 1000 |
| 1 | 17-5-5-15 | 5-5-5-8 | 1 | 0.4 | Adam | 0.8100468 | 19.01 | 4129380 | 1000 |
| 1 | 17-5-5-15 | 5-5-5-8 | 7 | 0.2 | RMSprop | 0.8102219 | 14.29 | 4133010 | 1000 |
| 1 | 17-5-5-15 | 5-5-5-8 | 5 | 0.4 | Adam | 0.8102647 | 20.48 | 4131400 | 1000 |
| 1 | 5-15-17-5 | 5-5-5-8 | 4 | 0.0 | RMSprop | 0.810383 | 18.07 | 4131945 | 1000 |
| 1 | 17-5-5-15 | 5-5-5-8 | 9 | 0.2 | Adam | 0.8104243 | 21.08 | 4135020 | 1000 |
| 1 | 5-15-17-5 | 5-5-5-8 | 1 | 0.4 | RMSprop | 0.8104809 | 16.94 | 4129350 | 1000 |
| 1 | 17-5-5-15 | 5-5-5-8 | 3 | 0.0 | RMSprop | 0.8105769 | 11.36 | 4130190 | 1000 |
| 1 | 17-5-5-15 | 5-5-5-8 | 1 | 0.2 | Adam | 0.81062 | 18.34 | 4136175 | 1000 |
| 1 | 5-15-17-5 | 5-5-5-4 | 1 | 0.0 | RMSprop | 0.8108725 | 13.06 | 1582075 | 500 |
| 1 | 17-5-5-15 | 5-5-5-8 | 1 | 0.4 | Adagrad | 0.8111083 | 16.93 | 4129380 | 1000 |
| 1 | 17-5-5-15 | 5-5-5-4 | 1 | 0.4 | RMSprop | 0.8111508 | 15.42 | 1565820 | 500 |
| 1 | 5-15-17-5 | 5-5-5-4 | 4 | 0.0 | Adam | 0.8113685 | 12.21 | 1568365 | 500 |
| 1 | 17-5-5-15 | 5-5-5-8 | 2 | 0.4 | RMSprop | 0.8114426 | 15.8 | 4129735 | 1000 |
| 1 | 17-5-5-15 | 5-5-5-8 | 6 | 0.0 | Adam | 0.8115256 | 13.97 | 4132155 | 1000 |
| 1 | 5-15-17-5 | 5-5-5-4 | 7 | 0.0 | RMSprop | 0.8116181 | 12.74 | 1573780 | 500 |
| 1 | 17-5-5-15 | 5-5-5-8 | 1 | 0.0 | RMSprop | 0.8116401 | 13.49 | 4129380 | 1000 |
| 1 | 17-5-5-15 | 5-5-5-4 | 8 | 0.0 | RMSprop | 0.8116563 | 11.12 | 1569985 | 500 |
| 1 | 5-15-17-5 | 5-5-5-8 | 1 | 0.0 | RMSprop | 0.8118121 | 16.13 | 4145775 | 1000 |
| 1 | 17-5-5-15 | 5-5-5-4 | 8 | 0.0 | Adam | 0.8120535 | 12.5 | 1569985 | 500 |
| 1 | 17-5-5-15 | 5-5-5-4 | 1 | 0.2 | RMSprop | 0.8120819 | 13.35 | 1565820 | 500 |
| 1 | 5-15-17-5 | 5-5-5-8 | 7 | 0.0 | Adam | 0.8123466 | 16.02 | 4137420 | 1000 |
| 1 | 17-5-5-15 | 5-5-5-4 | 3 | 0.0 | Adam | 0.8123493 | 10.14 | 1566510 | 500 |
| 1 | 17-5-5-15 | 5-5-5-8 | 1 | 0.2 | Adam | 0.8123655 | 15.84 | 4129380 | 1000 |
| 1 | 17-5-5-15 | 5-5-5-8 | 8 | 0.2 | Adam | 0.8124088 | 18.63 | 4133965 | 1000 |
| 1 | 5-15-17-5 | 5-5-5-8 | 9 | 0.2 | RMSprop | 0.8124539 | 21.1 | 4142670 | 1000 |
| 1 | 17-5-5-15 | 5-5-5-8 | 7 | 0.0 | Adam | 0.8128488 | 14.03 | 4133010 | 1000 |
| 1 | 17-5-5-15 | 5-5-5-4 | 1 | 0.4 | Adagrad | 0.8128599 | 12.89 | 1565820 | 500 |
| 1 | 17-5-5-15 | 5-5-5-4 | 7 | 0.0 | Adam | 0.8130438 | 11.45 | 1569090 | 500 |
| 1 | 5-15-17-5 | 5-5-5-8 | 2 | 0.2 | Adam | 0.8132926 | 15.55 | 4129895 | 1000 |
| 1 | 5-15-17-5 | 5-5-5-8 | 2 | 0.2 | RMSprop | 0.8133547 | 14.84 | 4129895 | 1000 |
| 1 | 5-15-17-5 | 5-5-5-8 | 6 | 0.0 | RMSprop | 0.8134264 | 14.48 | 4135275 | 1000 |
| 1 | 17-5-5-15 | 5-5-5-4 | 2 | 0.2 | RMSprop | 0.8134962 | 11.93 | 1566115 | 500 |
| 1 | 5-15-17-5 | 5-5-5-4 | 6 | 0.0 | RMSprop | 0.813636 | 11.92 | 1571655 | 500 |
| 1 | 17-5-5-15 | 5-5-5-4 | 1 | 0.0 | Adagrad | 0.8137358 | 10.21 | 1565820 | 500 |
| 1 | 17-5-5-15 | 5-5-5-4 | 1 | 0.0 | Adam | 0.8142046 | 11.97 | 1572075 | 500 |
| 1 | 17-5-5-15 | 5-5-5-8 | 1 | 0.2 | RMSprop | 0.8142446 | 15.53 | 4129380 | 1000 |
| 1 | 17-5-5-15 | 5-5-5-4 | 6 | 0.0 | Adam | 0.8145171 | 11.96 | 1568295 | 500 |
| 1 | 5-15-17-5 | 5-5-5-4 | 6 | 0.0 | Adam | 0.8149191 | 12.57 | 1571655 | 500 |
| 1 | 17-5-5-15 | 5-5-5-8 | 3 | 0.2 | Adam | 0.815027 | 13.69 | 4130190 | 1000 |
| 1 | 17-5-5-15 | 5-5-5-4 | 6 | 0.0 | RMSprop | 0.8155144 | 10.0 | 1568295 | 500 |
| 1 | 5-15-17-5 | 5-5-5-4 | 1 | 0.2 | Adagrad | 0.8155393 | 12.16 | 1565830 | 500 |
| 1 | 17-5-5-15 | 5-5-5-8 | 2 | 0.0 | RMSprop | 0.8155845 | 14.34 | 4129735 | 1000 |
| 1 | 5-15-17-5 | 5-5-5-8 | 1 | 0.0 | Adagrad | 0.8161876 | 13.15 | 4129350 | 1000 |
| 1 | 17-5-5-15 | 5-5-5-8 | 6 | 0.2 | Adam | 0.8164113 | 16.42 | 4132155 | 1000 |
| 1 | 5-15-17-5 | 5-5-5-8 | 8 | 0.0 | RMSprop | 0.816505 | 17.38 | 4139885 | 1000 |
| 1 | 5-15-17-5 | 5-5-5-4 | 8 | 0.0 | Adam | 0.816687 | 13.01 | 1576225 | 500 |
| 1 | 17-5-5-15 | 5-5-5-4 | 5 | 0.0 | Adam | 0.8166909 | 11.78 | 1567600 | 500 |
| 1 | 17-5-5-15 | 5-5-5-4 | 5 | 0.0 | RMSprop | 0.8169576 | 11.05 | 1567600 | 500 |
| 1 | 17-5-5-15 | 5-5-5-8 | 9 | 0.0 | Adam | 0.8171968 | 16.4 | 4135020 | 1000 |
| 1 | 5-15-17-5 | 5-5-5-8 | 1 | 0.2 | Adagrad | 0.817405 | 14.9 | 4129350 | 1000 |
| 1 | 17-5-5-15 | 5-5-5-4 | 1 | 0.0 | RMSprop | 0.8175399 | 11.02 | 1572075 | 500 |
| 1 | 5-15-17-5 | 5-5-5-8 | 2 | 0.0 | RMSprop | 0.8175601 | 13.0 | 4129895 | 1000 |
| 1 | 5-15-17-5 | 5-5-5-8 | 5 | 0.0 | Adam | 0.8176652 | 16.46 | 4133450 | 1000 |
| 1 | 17-5-5-15 | 5-5-5-4 | 9 | 0.0 | RMSprop | 0.8177628 | 10.39 | 1570980 | 500 |
| 1 | 17-5-5-15 | 5-5-5-8 | 2 | 0.0 | Adam | 0.8180825 | 13.47 | 4129735 | 1000 |
| 1 | 5-15-17-5 | 5-5-5-4 | 1 | 0.2 | RMSprop | 0.8182422 | 13.48 | 1565830 | 500 |
| 1 | 17-5-5-15 | 5-5-5-8 | 5 | 0.0 | RMSprop | 0.8183351 | 14.83 | 4131400 | 1000 |
| 1 | 5-15-17-5 | 5-5-5-4 | 1 | 0.0 | Adagrad | 0.8184696 | 9.876 | 1565830 | 500 |
| 1 | 17-5-5-15 | 5-5-5-8 | 3 | 0.2 | RMSprop | 0.8189937 | 13.19 | 4130190 | 1000 |
| 1 | 5-15-17-5 | 5-5-5-4 | 2 | 0.0 | Adam | 0.8190442 | 11.72 | 1566355 | 500 |
| 1 | 17-5-5-15 | 5-5-5-8 | 6 | 0.0 | RMSprop | 0.819399 | 14.96 | 4132155 | 1000 |
| 1 | 5-15-17-5 | 5-5-5-8 | 9 | 0.0 | RMSprop | 0.8196182 | 18.69 | 4142670 | 1000 |
| 1 | 17-5-5-15 | 5-5-5-8 | 2 | 0.2 | Adam | 0.8198291 | 16.5 | 4129735 | 1000 |
| 1 | 17-5-5-15 | 5-5-5-4 | 1 | 0.4 | Adam | 0.8199821 | 16.0 | 1565820 | 500 |
| 1 | 5-15-17-5 | 5-5-5-8 | 1 | 0.4 | Adam | 0.8204239 | 18.44 | 4129350 | 1000 |
| 1 | 17-5-5-15 | 5-5-5-8 | 2 | 0.2 | RMSprop | 0.8204927 | 15.68 | 4129735 | 1000 |
| 1 | 17-5-5-15 | 5-5-5-4 | 2 | 0.0 | Adam | 0.8206402 | 11.29 | 1566115 | 500 |
| 1 | 17-5-5-15 | 5-5-5-8 | 1 | 0.0 | RMSprop | 0.8206874 | 14.57 | 4136175 | 1000 |
| 1 | 5-15-17-5 | 5-5-5-4 | 1 | 0.2 | Adam | 0.8209824 | 12.86 | 1565830 | 500 |
| 1 | 5-15-17-5 | 5-5-5-8 | 2 | 0.0 | Adam | 0.8211802 | 14.91 | 4129895 | 1000 |
| 1 | 17-5-5-15 | 5-5-5-4 | 4 | 0.0 | Adam | 0.8212865 | 11.94 | 1567005 | 500 |
| 1 | 17-5-5-15 | 5-5-5-8 | 4 | 0.0 | RMSprop | 0.8215684 | 14.48 | 4130745 | 1000 |
| 1 | 17-5-5-15 | 5-5-5-8 | 3 | 0.0 | Adam | 0.8221275 | 13.46 | 4130190 | 1000 |
| 1 | 17-5-5-15 | 5-5-5-4 | 1 | 0.0 | RMSprop | 0.8224377 | 10.67 | 1565820 | 500 |
| 1 | 17-5-5-15 | 5-5-5-4 | 7 | 0.0 | RMSprop | 0.8227225 | 10.48 | 1569090 | 500 |
| 1 | 17-5-5-15 | 5-5-5-8 | 8 | 0.0 | RMSprop | 0.8227258 | 16.14 | 4133965 | 1000 |
| 1 | 17-5-5-15 | 5-5-5-4 | 4 | 0.0 | RMSprop | 0.8228082 | 10.73 | 1567005 | 500 |
| 1 | 17-5-5-15 | 5-5-5-4 | 3 | 0.0 | RMSprop | 0.8251385 | 8.704 | 1566510 | 500 |
| 1 | 5-15-17-5 | 5-5-5-8 | 3 | 0.0 | RMSprop | 0.8256372 | 12.62 | 4130760 | 1000 |
| 1 | 17-5-5-15 | 5-5-5-8 | 1 | 0.0 | Adam | 0.8256723 | 13.54 | 4129380 | 1000 |
| 1 | 5-15-17-5 | 5-5-5-8 | 1 | 0.2 | Adam | 0.8257651 | 15.1 | 4129350 | 1000 |
| 1 | 5-15-17-5 | 5-5-5-8 | 1 | 0.0 | Adam | 0.8267253 | 13.89 | 4129350 | 1000 |
| 1 | 5-15-17-5 | 5-5-5-8 | 1 | 0.2 | RMSprop | 0.8295127 | 15.8 | 4129350 | 1000 |
| 1 | 5-15-17-5 | 5-5-5-4 | 1 | 0.0 | Adam | 0.830554 | 10.18 | 1565830 | 500 |
| 1 | 17-5-5-15 | 5-5-5-4 | 1 | 0.0 | Adam | 0.8310154 | 11.01 | 1565820 | 500 |
| 1 | 17-5-5-15 | 5-5-5-4 | 2 | 0.0 | RMSprop | 0.8310168 | 9.811 | 1566115 | 500 |
| 1 | 5-15-17-5 | 5-5-5-4 | 2 | 0.0 | RMSprop | 0.8314622 | 11.37 | 1566355 | 500 |
| 1 | 5-15-17-5 | 5-5-5-8 | 1 | 0.0 | RMSprop | 0.8328911 | 12.92 | 4129350 | 1000 |
