cnn cnn False False 0 128 0 0 16 16 16
cnn cnn False False 0 128 0 0 32 32 32
cnn cnn False False 0 128 0 0 64 64 64
cnn cnn False False 0 128 0 0 128 128 128
cnn cnn False False 0 128 0 0 256 256 256
cnn cnn False False 0 128 0 0.25 16 16 16
cnn cnn False False 0 128 0 0.25 32 32 32
cnn cnn False False 0 128 0 0.25 64 64 64
cnn cnn False False 0 128 0 0.25 128 128 128
cnn cnn False False 0 128 0 0.25 256 256 256
cnn cnn False False 0 128 0 0.5 16 16 16
cnn cnn False False 0 128 0 0.5 32 32 32
cnn cnn False False 0 128 0 0.5 64 64 64
cnn cnn False False 0 128 0 0.5 128 128 128
cnn cnn False False 0 128 0 0.5 256 256 256
cnn cnn False False 0 128 0.25 0 16 16 16
cnn cnn False False 0 128 0.25 0 32 32 32
cnn cnn False False 0 128 0.25 0 64 64 64
cnn cnn False False 0 128 0.25 0 128 128 128
cnn cnn False False 0 128 0.25 0 256 256 256
cnn cnn False False 0 128 0.25 0.25 16 16 16
cnn cnn False False 0 128 0.25 0.25 32 32 32
cnn cnn False False 0 128 0.25 0.25 64 64 64
cnn cnn False False 0 128 0.25 0.25 128 128 128
cnn cnn False False 0 128 0.25 0.25 256 256 256
cnn cnn False False 0 128 0.25 0.5 16 16 16
cnn cnn False False 0 128 0.25 0.5 32 32 32
cnn cnn False False 0 128 0.25 0.5 64 64 64
cnn cnn False False 0 128 0.25 0.5 128 128 128
cnn cnn False False 0 128 0.25 0.5 256 256 256
cnn cnn False False 0 128 0.5 0 16 16 16
cnn cnn False False 0 128 0.5 0 32 32 32
cnn cnn False False 0 128 0.5 0 64 64 64
cnn cnn False False 0 128 0.5 0 128 128 128
cnn cnn False False 0 128 0.5 0 256 256 256
cnn cnn False False 0 128 0.5 0.25 16 16 16
cnn cnn False False 0 128 0.5 0.25 32 32 32
cnn cnn False False 0 128 0.5 0.25 64 64 64
cnn cnn False False 0 128 0.5 0.25 128 128 128
cnn cnn False False 0 128 0.5 0.25 256 256 256
cnn cnn False False 0 128 0.5 0.5 16 16 16
cnn cnn False False 0 128 0.5 0.5 32 32 32
cnn cnn False False 0 128 0.5 0.5 64 64 64
cnn cnn False False 0 128 0.5 0.5 128 128 128
cnn cnn False False 0 128 0.5 0.5 256 256 256
cnn cnn False False 0 256 0 0 16 16 16
cnn cnn False False 0 256 0 0 32 32 32
cnn cnn False False 0 256 0 0 64 64 64
cnn cnn False False 0 256 0 0 128 128 128
cnn cnn False False 0 256 0 0 256 256 256
cnn cnn False False 0 256 0 0.25 16 16 16
cnn cnn False False 0 256 0 0.25 32 32 32
cnn cnn False False 0 256 0 0.25 64 64 64
cnn cnn False False 0 256 0 0.25 128 128 128
cnn cnn False False 0 256 0 0.25 256 256 256
cnn cnn False False 0 256 0 0.5 16 16 16
cnn cnn False False 0 256 0 0.5 32 32 32
cnn cnn False False 0 256 0 0.5 64 64 64
cnn cnn False False 0 256 0 0.5 128 128 128
cnn cnn False False 0 256 0 0.5 256 256 256
cnn cnn False False 0 256 0.25 0 16 16 16
cnn cnn False False 0 256 0.25 0 32 32 32
cnn cnn False False 0 256 0.25 0 64 64 64
cnn cnn False False 0 256 0.25 0 128 128 128
cnn cnn False False 0 256 0.25 0 256 256 256
cnn cnn False False 0 256 0.25 0.25 16 16 16
cnn cnn False False 0 256 0.25 0.25 32 32 32
cnn cnn False False 0 256 0.25 0.25 64 64 64
cnn cnn False False 0 256 0.25 0.25 128 128 128
cnn cnn False False 0 256 0.25 0.25 256 256 256
cnn cnn False False 0 256 0.25 0.5 16 16 16
cnn cnn False False 0 256 0.25 0.5 32 32 32
cnn cnn False False 0 256 0.25 0.5 64 64 64
cnn cnn False False 0 256 0.25 0.5 128 128 128
cnn cnn False False 0 256 0.25 0.5 256 256 256
cnn cnn False False 0 256 0.5 0 16 16 16
cnn cnn False False 0 256 0.5 0 32 32 32
cnn cnn False False 0 256 0.5 0 64 64 64
cnn cnn False False 0 256 0.5 0 128 128 128
cnn cnn False False 0 256 0.5 0 256 256 256
cnn cnn False False 0 256 0.5 0.25 16 16 16
cnn cnn False False 0 256 0.5 0.25 32 32 32
cnn cnn False False 0 256 0.5 0.25 64 64 64
cnn cnn False False 0 256 0.5 0.25 128 128 128
cnn cnn False False 0 256 0.5 0.25 256 256 256
cnn cnn False False 0 256 0.5 0.5 16 16 16
cnn cnn False False 0 256 0.5 0.5 32 32 32
cnn cnn False False 0 256 0.5 0.5 64 64 64
cnn cnn False False 0 256 0.5 0.5 128 128 128
cnn cnn False False 0 256 0.5 0.5 256 256 256
cnn cnn False False 1 128 0 0 16 16 16
cnn cnn False False 1 128 0 0 32 32 32
cnn cnn False False 1 128 0 0 64 64 64
cnn cnn False False 1 128 0 0 128 128 128
cnn cnn False False 1 128 0 0 256 256 256
cnn cnn False False 1 128 0 0.25 16 16 16
cnn cnn False False 1 128 0 0.25 32 32 32
cnn cnn False False 1 128 0 0.25 64 64 64
cnn cnn False False 1 128 0 0.25 128 128 128
cnn cnn False False 1 128 0 0.25 256 256 256
cnn cnn False False 1 128 0 0.5 16 16 16
cnn cnn False False 1 128 0 0.5 32 32 32
cnn cnn False False 1 128 0 0.5 64 64 64
cnn cnn False False 1 128 0 0.5 128 128 128
cnn cnn False False 1 128 0 0.5 256 256 256
cnn cnn False False 1 128 0.25 0 16 16 16
cnn cnn False False 1 128 0.25 0 32 32 32
cnn cnn False False 1 128 0.25 0 64 64 64
cnn cnn False False 1 128 0.25 0 128 128 128
cnn cnn False False 1 128 0.25 0 256 256 256
cnn cnn False False 1 128 0.25 0.25 16 16 16
cnn cnn False False 1 128 0.25 0.25 32 32 32
cnn cnn False False 1 128 0.25 0.25 64 64 64
cnn cnn False False 1 128 0.25 0.25 128 128 128
cnn cnn False False 1 128 0.25 0.25 256 256 256
cnn cnn False False 1 128 0.25 0.5 16 16 16
cnn cnn False False 1 128 0.25 0.5 32 32 32
cnn cnn False False 1 128 0.25 0.5 64 64 64
cnn cnn False False 1 128 0.25 0.5 128 128 128
cnn cnn False False 1 128 0.25 0.5 256 256 256
cnn cnn False False 1 128 0.5 0 16 16 16
cnn cnn False False 1 128 0.5 0 32 32 32
cnn cnn False False 1 128 0.5 0 64 64 64
cnn cnn False False 1 128 0.5 0 128 128 128
cnn cnn False False 1 128 0.5 0 256 256 256
cnn cnn False False 1 128 0.5 0.25 16 16 16
cnn cnn False False 1 128 0.5 0.25 32 32 32
cnn cnn False False 1 128 0.5 0.25 64 64 64
cnn cnn False False 1 128 0.5 0.25 128 128 128
cnn cnn False False 1 128 0.5 0.25 256 256 256
cnn cnn False False 1 128 0.5 0.5 16 16 16
cnn cnn False False 1 128 0.5 0.5 32 32 32
cnn cnn False False 1 128 0.5 0.5 64 64 64
cnn cnn False False 1 128 0.5 0.5 128 128 128
cnn cnn False False 1 128 0.5 0.5 256 256 256
cnn cnn False False 1 256 0 0 16 16 16
cnn cnn False False 1 256 0 0 32 32 32
cnn cnn False False 1 256 0 0 64 64 64
cnn cnn False False 1 256 0 0 128 128 128
cnn cnn False False 1 256 0 0 256 256 256
cnn cnn False False 1 256 0 0.25 16 16 16
cnn cnn False False 1 256 0 0.25 32 32 32
cnn cnn False False 1 256 0 0.25 64 64 64
cnn cnn False False 1 256 0 0.25 128 128 128
cnn cnn False False 1 256 0 0.25 256 256 256
cnn cnn False False 1 256 0 0.5 16 16 16
cnn cnn False False 1 256 0 0.5 32 32 32
cnn cnn False False 1 256 0 0.5 64 64 64
cnn cnn False False 1 256 0 0.5 128 128 128
cnn cnn False False 1 256 0 0.5 256 256 256
cnn cnn False False 1 256 0.25 0 16 16 16
cnn cnn False False 1 256 0.25 0 32 32 32
cnn cnn False False 1 256 0.25 0 64 64 64
cnn cnn False False 1 256 0.25 0 128 128 128
cnn cnn False False 1 256 0.25 0 256 256 256
cnn cnn False False 1 256 0.25 0.25 16 16 16
cnn cnn False False 1 256 0.25 0.25 32 32 32
cnn cnn False False 1 256 0.25 0.25 64 64 64
cnn cnn False False 1 256 0.25 0.25 128 128 128
cnn cnn False False 1 256 0.25 0.25 256 256 256
cnn cnn False False 1 256 0.25 0.5 16 16 16
cnn cnn False False 1 256 0.25 0.5 32 32 32
cnn cnn False False 1 256 0.25 0.5 64 64 64
cnn cnn False False 1 256 0.25 0.5 128 128 128
cnn cnn False False 1 256 0.25 0.5 256 256 256
cnn cnn False False 1 256 0.5 0 16 16 16
cnn cnn False False 1 256 0.5 0 32 32 32
cnn cnn False False 1 256 0.5 0 64 64 64
cnn cnn False False 1 256 0.5 0 128 128 128
cnn cnn False False 1 256 0.5 0 256 256 256
cnn cnn False False 1 256 0.5 0.25 16 16 16
cnn cnn False False 1 256 0.5 0.25 32 32 32
cnn cnn False False 1 256 0.5 0.25 64 64 64
cnn cnn False False 1 256 0.5 0.25 128 128 128
cnn cnn False False 1 256 0.5 0.25 256 256 256
cnn cnn False False 1 256 0.5 0.5 16 16 16
cnn cnn False False 1 256 0.5 0.5 32 32 32
cnn cnn False False 1 256 0.5 0.5 64 64 64
cnn cnn False False 1 256 0.5 0.5 128 128 128
cnn cnn False False 1 256 0.5 0.5 256 256 256
cnn cnn False False 2 128 0 0 16 16 16
cnn cnn False False 2 128 0 0 32 32 32
cnn cnn False False 2 128 0 0 64 64 64
cnn cnn False False 2 128 0 0 128 128 128
cnn cnn False False 2 128 0 0 256 256 256
cnn cnn False False 2 128 0 0.25 16 16 16
cnn cnn False False 2 128 0 0.25 32 32 32
cnn cnn False False 2 128 0 0.25 64 64 64
cnn cnn False False 2 128 0 0.25 128 128 128
cnn cnn False False 2 128 0 0.25 256 256 256
cnn cnn False False 2 128 0 0.5 16 16 16
cnn cnn False False 2 128 0 0.5 32 32 32
cnn cnn False False 2 128 0 0.5 64 64 64
cnn cnn False False 2 128 0 0.5 128 128 128
cnn cnn False False 2 128 0 0.5 256 256 256
cnn cnn False False 2 128 0.25 0 16 16 16
cnn cnn False False 2 128 0.25 0 32 32 32
cnn cnn False False 2 128 0.25 0 64 64 64
cnn cnn False False 2 128 0.25 0 128 128 128
cnn cnn False False 2 128 0.25 0 256 256 256
cnn cnn False False 2 128 0.25 0.25 16 16 16
cnn cnn False False 2 128 0.25 0.25 32 32 32
cnn cnn False False 2 128 0.25 0.25 64 64 64
cnn cnn False False 2 128 0.25 0.25 128 128 128
cnn cnn False False 2 128 0.25 0.25 256 256 256
cnn cnn False False 2 128 0.25 0.5 16 16 16
cnn cnn False False 2 128 0.25 0.5 32 32 32
cnn cnn False False 2 128 0.25 0.5 64 64 64
cnn cnn False False 2 128 0.25 0.5 128 128 128
cnn cnn False False 2 128 0.25 0.5 256 256 256
cnn cnn False False 2 128 0.5 0 16 16 16
cnn cnn False False 2 128 0.5 0 32 32 32
cnn cnn False False 2 128 0.5 0 64 64 64
cnn cnn False False 2 128 0.5 0 128 128 128
cnn cnn False False 2 128 0.5 0 256 256 256
cnn cnn False False 2 128 0.5 0.25 16 16 16
cnn cnn False False 2 128 0.5 0.25 32 32 32
cnn cnn False False 2 128 0.5 0.25 64 64 64
cnn cnn False False 2 128 0.5 0.25 128 128 128
cnn cnn False False 2 128 0.5 0.25 256 256 256
cnn cnn False False 2 128 0.5 0.5 16 16 16
cnn cnn False False 2 128 0.5 0.5 32 32 32
cnn cnn False False 2 128 0.5 0.5 64 64 64
cnn cnn False False 2 128 0.5 0.5 128 128 128
cnn cnn False False 2 128 0.5 0.5 256 256 256
cnn cnn False False 2 256 0 0 16 16 16
cnn cnn False False 2 256 0 0 32 32 32
cnn cnn False False 2 256 0 0 64 64 64
cnn cnn False False 2 256 0 0 128 128 128
cnn cnn False False 2 256 0 0 256 256 256
cnn cnn False False 2 256 0 0.25 16 16 16
cnn cnn False False 2 256 0 0.25 32 32 32
cnn cnn False False 2 256 0 0.25 64 64 64
cnn cnn False False 2 256 0 0.25 128 128 128
cnn cnn False False 2 256 0 0.25 256 256 256
cnn cnn False False 2 256 0 0.5 16 16 16
cnn cnn False False 2 256 0 0.5 32 32 32
cnn cnn False False 2 256 0 0.5 64 64 64
cnn cnn False False 2 256 0 0.5 128 128 128
cnn cnn False False 2 256 0 0.5 256 256 256
cnn cnn False False 2 256 0.25 0 16 16 16
cnn cnn False False 2 256 0.25 0 32 32 32
cnn cnn False False 2 256 0.25 0 64 64 64
cnn cnn False False 2 256 0.25 0 128 128 128
cnn cnn False False 2 256 0.25 0 256 256 256
cnn cnn False False 2 256 0.25 0.25 16 16 16
cnn cnn False False 2 256 0.25 0.25 32 32 32
cnn cnn False False 2 256 0.25 0.25 64 64 64
cnn cnn False False 2 256 0.25 0.25 128 128 128
cnn cnn False False 2 256 0.25 0.25 256 256 256
cnn cnn False False 2 256 0.25 0.5 16 16 16
cnn cnn False False 2 256 0.25 0.5 32 32 32
cnn cnn False False 2 256 0.25 0.5 64 64 64
cnn cnn False False 2 256 0.25 0.5 128 128 128
cnn cnn False False 2 256 0.25 0.5 256 256 256
cnn cnn False False 2 256 0.5 0 16 16 16
cnn cnn False False 2 256 0.5 0 32 32 32
cnn cnn False False 2 256 0.5 0 64 64 64
cnn cnn False False 2 256 0.5 0 128 128 128
cnn cnn False False 2 256 0.5 0 256 256 256
cnn cnn False False 2 256 0.5 0.25 16 16 16
cnn cnn False False 2 256 0.5 0.25 32 32 32
cnn cnn False False 2 256 0.5 0.25 64 64 64
cnn cnn False False 2 256 0.5 0.25 128 128 128
cnn cnn False False 2 256 0.5 0.25 256 256 256
cnn cnn False False 2 256 0.5 0.5 16 16 16
cnn cnn False False 2 256 0.5 0.5 32 32 32
cnn cnn False False 2 256 0.5 0.5 64 64 64
cnn cnn False False 2 256 0.5 0.5 128 128 128
cnn cnn False False 2 256 0.5 0.5 256 256 256
cnn cnn False True 0 128 0 0 16 16 16
cnn cnn False True 0 128 0 0 32 32 32
cnn cnn False True 0 128 0 0 64 64 64
cnn cnn False True 0 128 0 0 128 128 128
cnn cnn False True 0 128 0 0 256 256 256
cnn cnn False True 0 128 0 0.25 16 16 16
cnn cnn False True 0 128 0 0.25 32 32 32
cnn cnn False True 0 128 0 0.25 64 64 64
cnn cnn False True 0 128 0 0.25 128 128 128
cnn cnn False True 0 128 0 0.25 256 256 256
cnn cnn False True 0 128 0 0.5 16 16 16
cnn cnn False True 0 128 0 0.5 32 32 32
cnn cnn False True 0 128 0 0.5 64 64 64
cnn cnn False True 0 128 0 0.5 128 128 128
cnn cnn False True 0 128 0 0.5 256 256 256
cnn cnn False True 0 128 0.25 0 16 16 16
cnn cnn False True 0 128 0.25 0 32 32 32
cnn cnn False True 0 128 0.25 0 64 64 64
cnn cnn False True 0 128 0.25 0 128 128 128
cnn cnn False True 0 128 0.25 0 256 256 256
cnn cnn False True 0 128 0.25 0.25 16 16 16
cnn cnn False True 0 128 0.25 0.25 32 32 32
cnn cnn False True 0 128 0.25 0.25 64 64 64
cnn cnn False True 0 128 0.25 0.25 128 128 128
cnn cnn False True 0 128 0.25 0.25 256 256 256
cnn cnn False True 0 128 0.25 0.5 16 16 16
cnn cnn False True 0 128 0.25 0.5 32 32 32
cnn cnn False True 0 128 0.25 0.5 64 64 64
cnn cnn False True 0 128 0.25 0.5 128 128 128
cnn cnn False True 0 128 0.25 0.5 256 256 256
cnn cnn False True 0 128 0.5 0 16 16 16
cnn cnn False True 0 128 0.5 0 32 32 32
cnn cnn False True 0 128 0.5 0 64 64 64
cnn cnn False True 0 128 0.5 0 128 128 128
cnn cnn False True 0 128 0.5 0 256 256 256
cnn cnn False True 0 128 0.5 0.25 16 16 16
cnn cnn False True 0 128 0.5 0.25 32 32 32
cnn cnn False True 0 128 0.5 0.25 64 64 64
cnn cnn False True 0 128 0.5 0.25 128 128 128
cnn cnn False True 0 128 0.5 0.25 256 256 256
cnn cnn False True 0 128 0.5 0.5 16 16 16
cnn cnn False True 0 128 0.5 0.5 32 32 32
cnn cnn False True 0 128 0.5 0.5 64 64 64
cnn cnn False True 0 128 0.5 0.5 128 128 128
cnn cnn False True 0 128 0.5 0.5 256 256 256
cnn cnn False True 0 256 0 0 16 16 16
cnn cnn False True 0 256 0 0 32 32 32
cnn cnn False True 0 256 0 0 64 64 64
cnn cnn False True 0 256 0 0 128 128 128
cnn cnn False True 0 256 0 0 256 256 256
cnn cnn False True 0 256 0 0.25 16 16 16
cnn cnn False True 0 256 0 0.25 32 32 32
cnn cnn False True 0 256 0 0.25 64 64 64
cnn cnn False True 0 256 0 0.25 128 128 128
cnn cnn False True 0 256 0 0.25 256 256 256
cnn cnn False True 0 256 0 0.5 16 16 16
cnn cnn False True 0 256 0 0.5 32 32 32
cnn cnn False True 0 256 0 0.5 64 64 64
cnn cnn False True 0 256 0 0.5 128 128 128
cnn cnn False True 0 256 0 0.5 256 256 256
cnn cnn False True 0 256 0.25 0 16 16 16
cnn cnn False True 0 256 0.25 0 32 32 32
cnn cnn False True 0 256 0.25 0 64 64 64
cnn cnn False True 0 256 0.25 0 128 128 128
cnn cnn False True 0 256 0.25 0 256 256 256
cnn cnn False True 0 256 0.25 0.25 16 16 16
cnn cnn False True 0 256 0.25 0.25 32 32 32
cnn cnn False True 0 256 0.25 0.25 64 64 64
cnn cnn False True 0 256 0.25 0.25 128 128 128
cnn cnn False True 0 256 0.25 0.25 256 256 256
cnn cnn False True 0 256 0.25 0.5 16 16 16
cnn cnn False True 0 256 0.25 0.5 32 32 32
cnn cnn False True 0 256 0.25 0.5 64 64 64
cnn cnn False True 0 256 0.25 0.5 128 128 128
cnn cnn False True 0 256 0.25 0.5 256 256 256
cnn cnn False True 0 256 0.5 0 16 16 16
cnn cnn False True 0 256 0.5 0 32 32 32
cnn cnn False True 0 256 0.5 0 64 64 64
cnn cnn False True 0 256 0.5 0 128 128 128
cnn cnn False True 0 256 0.5 0 256 256 256
cnn cnn False True 0 256 0.5 0.25 16 16 16
cnn cnn False True 0 256 0.5 0.25 32 32 32
cnn cnn False True 0 256 0.5 0.25 64 64 64
cnn cnn False True 0 256 0.5 0.25 128 128 128
cnn cnn False True 0 256 0.5 0.25 256 256 256
cnn cnn False True 0 256 0.5 0.5 16 16 16
cnn cnn False True 0 256 0.5 0.5 32 32 32
cnn cnn False True 0 256 0.5 0.5 64 64 64
cnn cnn False True 0 256 0.5 0.5 128 128 128
cnn cnn False True 0 256 0.5 0.5 256 256 256
cnn cnn False True 1 128 0 0 16 16 16
cnn cnn False True 1 128 0 0 32 32 32
cnn cnn False True 1 128 0 0 64 64 64
cnn cnn False True 1 128 0 0 128 128 128
cnn cnn False True 1 128 0 0 256 256 256
cnn cnn False True 1 128 0 0.25 16 16 16
cnn cnn False True 1 128 0 0.25 32 32 32
cnn cnn False True 1 128 0 0.25 64 64 64
cnn cnn False True 1 128 0 0.25 128 128 128
cnn cnn False True 1 128 0 0.25 256 256 256
cnn cnn False True 1 128 0 0.5 16 16 16
cnn cnn False True 1 128 0 0.5 32 32 32
cnn cnn False True 1 128 0 0.5 64 64 64
cnn cnn False True 1 128 0 0.5 128 128 128
cnn cnn False True 1 128 0 0.5 256 256 256
cnn cnn False True 1 128 0.25 0 16 16 16
cnn cnn False True 1 128 0.25 0 32 32 32
cnn cnn False True 1 128 0.25 0 64 64 64
cnn cnn False True 1 128 0.25 0 128 128 128
cnn cnn False True 1 128 0.25 0 256 256 256
cnn cnn False True 1 128 0.25 0.25 16 16 16
cnn cnn False True 1 128 0.25 0.25 32 32 32
cnn cnn False True 1 128 0.25 0.25 64 64 64
cnn cnn False True 1 128 0.25 0.25 128 128 128
cnn cnn False True 1 128 0.25 0.25 256 256 256
cnn cnn False True 1 128 0.25 0.5 16 16 16
cnn cnn False True 1 128 0.25 0.5 32 32 32
cnn cnn False True 1 128 0.25 0.5 64 64 64
cnn cnn False True 1 128 0.25 0.5 128 128 128
cnn cnn False True 1 128 0.25 0.5 256 256 256
cnn cnn False True 1 128 0.5 0 16 16 16
cnn cnn False True 1 128 0.5 0 32 32 32
cnn cnn False True 1 128 0.5 0 64 64 64
cnn cnn False True 1 128 0.5 0 128 128 128
cnn cnn False True 1 128 0.5 0 256 256 256
cnn cnn False True 1 128 0.5 0.25 16 16 16
cnn cnn False True 1 128 0.5 0.25 32 32 32
cnn cnn False True 1 128 0.5 0.25 64 64 64
cnn cnn False True 1 128 0.5 0.25 128 128 128
cnn cnn False True 1 128 0.5 0.25 256 256 256
cnn cnn False True 1 128 0.5 0.5 16 16 16
cnn cnn False True 1 128 0.5 0.5 32 32 32
cnn cnn False True 1 128 0.5 0.5 64 64 64
cnn cnn False True 1 128 0.5 0.5 128 128 128
cnn cnn False True 1 128 0.5 0.5 256 256 256
cnn cnn False True 1 256 0 0 16 16 16
cnn cnn False True 1 256 0 0 32 32 32
cnn cnn False True 1 256 0 0 64 64 64
cnn cnn False True 1 256 0 0 128 128 128
cnn cnn False True 1 256 0 0 256 256 256
cnn cnn False True 1 256 0 0.25 16 16 16
cnn cnn False True 1 256 0 0.25 32 32 32
cnn cnn False True 1 256 0 0.25 64 64 64
cnn cnn False True 1 256 0 0.25 128 128 128
cnn cnn False True 1 256 0 0.25 256 256 256
cnn cnn False True 1 256 0 0.5 16 16 16
cnn cnn False True 1 256 0 0.5 32 32 32
cnn cnn False True 1 256 0 0.5 64 64 64
cnn cnn False True 1 256 0 0.5 128 128 128
cnn cnn False True 1 256 0 0.5 256 256 256
cnn cnn False True 1 256 0.25 0 16 16 16
cnn cnn False True 1 256 0.25 0 32 32 32
cnn cnn False True 1 256 0.25 0 64 64 64
cnn cnn False True 1 256 0.25 0 128 128 128
cnn cnn False True 1 256 0.25 0 256 256 256
cnn cnn False True 1 256 0.25 0.25 16 16 16
cnn cnn False True 1 256 0.25 0.25 32 32 32
cnn cnn False True 1 256 0.25 0.25 64 64 64
cnn cnn False True 1 256 0.25 0.25 128 128 128
cnn cnn False True 1 256 0.25 0.25 256 256 256
cnn cnn False True 1 256 0.25 0.5 16 16 16
cnn cnn False True 1 256 0.25 0.5 32 32 32
cnn cnn False True 1 256 0.25 0.5 64 64 64
cnn cnn False True 1 256 0.25 0.5 128 128 128
cnn cnn False True 1 256 0.25 0.5 256 256 256
cnn cnn False True 1 256 0.5 0 16 16 16
cnn cnn False True 1 256 0.5 0 32 32 32
cnn cnn False True 1 256 0.5 0 64 64 64
cnn cnn False True 1 256 0.5 0 128 128 128
cnn cnn False True 1 256 0.5 0 256 256 256
cnn cnn False True 1 256 0.5 0.25 16 16 16
cnn cnn False True 1 256 0.5 0.25 32 32 32
cnn cnn False True 1 256 0.5 0.25 64 64 64
cnn cnn False True 1 256 0.5 0.25 128 128 128
cnn cnn False True 1 256 0.5 0.25 256 256 256
cnn cnn False True 1 256 0.5 0.5 16 16 16
cnn cnn False True 1 256 0.5 0.5 32 32 32
cnn cnn False True 1 256 0.5 0.5 64 64 64
cnn cnn False True 1 256 0.5 0.5 128 128 128
cnn cnn False True 1 256 0.5 0.5 256 256 256
cnn cnn False True 2 128 0 0 16 16 16
cnn cnn False True 2 128 0 0 32 32 32
cnn cnn False True 2 128 0 0 64 64 64
cnn cnn False True 2 128 0 0 128 128 128
cnn cnn False True 2 128 0 0 256 256 256
cnn cnn False True 2 128 0 0.25 16 16 16
cnn cnn False True 2 128 0 0.25 32 32 32
cnn cnn False True 2 128 0 0.25 64 64 64
cnn cnn False True 2 128 0 0.25 128 128 128
cnn cnn False True 2 128 0 0.25 256 256 256
cnn cnn False True 2 128 0 0.5 16 16 16
cnn cnn False True 2 128 0 0.5 32 32 32
cnn cnn False True 2 128 0 0.5 64 64 64
cnn cnn False True 2 128 0 0.5 128 128 128
cnn cnn False True 2 128 0 0.5 256 256 256
cnn cnn False True 2 128 0.25 0 16 16 16
cnn cnn False True 2 128 0.25 0 32 32 32
cnn cnn False True 2 128 0.25 0 64 64 64
cnn cnn False True 2 128 0.25 0 128 128 128
cnn cnn False True 2 128 0.25 0 256 256 256
cnn cnn False True 2 128 0.25 0.25 16 16 16
cnn cnn False True 2 128 0.25 0.25 32 32 32
cnn cnn False True 2 128 0.25 0.25 64 64 64
cnn cnn False True 2 128 0.25 0.25 128 128 128
cnn cnn False True 2 128 0.25 0.25 256 256 256
cnn cnn False True 2 128 0.25 0.5 16 16 16
cnn cnn False True 2 128 0.25 0.5 32 32 32
cnn cnn False True 2 128 0.25 0.5 64 64 64
cnn cnn False True 2 128 0.25 0.5 128 128 128
cnn cnn False True 2 128 0.25 0.5 256 256 256
cnn cnn False True 2 128 0.5 0 16 16 16
cnn cnn False True 2 128 0.5 0 32 32 32
cnn cnn False True 2 128 0.5 0 64 64 64
cnn cnn False True 2 128 0.5 0 128 128 128
cnn cnn False True 2 128 0.5 0 256 256 256
cnn cnn False True 2 128 0.5 0.25 16 16 16
cnn cnn False True 2 128 0.5 0.25 32 32 32
cnn cnn False True 2 128 0.5 0.25 64 64 64
cnn cnn False True 2 128 0.5 0.25 128 128 128
cnn cnn False True 2 128 0.5 0.25 256 256 256
cnn cnn False True 2 128 0.5 0.5 16 16 16
cnn cnn False True 2 128 0.5 0.5 32 32 32
cnn cnn False True 2 128 0.5 0.5 64 64 64
cnn cnn False True 2 128 0.5 0.5 128 128 128
cnn cnn False True 2 128 0.5 0.5 256 256 256
cnn cnn False True 2 256 0 0 16 16 16
cnn cnn False True 2 256 0 0 32 32 32
cnn cnn False True 2 256 0 0 64 64 64
cnn cnn False True 2 256 0 0 128 128 128
cnn cnn False True 2 256 0 0 256 256 256
cnn cnn False True 2 256 0 0.25 16 16 16
cnn cnn False True 2 256 0 0.25 32 32 32
cnn cnn False True 2 256 0 0.25 64 64 64
cnn cnn False True 2 256 0 0.25 128 128 128
cnn cnn False True 2 256 0 0.25 256 256 256
cnn cnn False True 2 256 0 0.5 16 16 16
cnn cnn False True 2 256 0 0.5 32 32 32
cnn cnn False True 2 256 0 0.5 64 64 64
cnn cnn False True 2 256 0 0.5 128 128 128
cnn cnn False True 2 256 0 0.5 256 256 256
cnn cnn False True 2 256 0.25 0 16 16 16
cnn cnn False True 2 256 0.25 0 32 32 32
cnn cnn False True 2 256 0.25 0 64 64 64
cnn cnn False True 2 256 0.25 0 128 128 128
cnn cnn False True 2 256 0.25 0 256 256 256
cnn cnn False True 2 256 0.25 0.25 16 16 16
cnn cnn False True 2 256 0.25 0.25 32 32 32
cnn cnn False True 2 256 0.25 0.25 64 64 64
cnn cnn False True 2 256 0.25 0.25 128 128 128
cnn cnn False True 2 256 0.25 0.25 256 256 256
cnn cnn False True 2 256 0.25 0.5 16 16 16
cnn cnn False True 2 256 0.25 0.5 32 32 32
cnn cnn False True 2 256 0.25 0.5 64 64 64
cnn cnn False True 2 256 0.25 0.5 128 128 128
cnn cnn False True 2 256 0.25 0.5 256 256 256
cnn cnn False True 2 256 0.5 0 16 16 16
cnn cnn False True 2 256 0.5 0 32 32 32
cnn cnn False True 2 256 0.5 0 64 64 64
cnn cnn False True 2 256 0.5 0 128 128 128
cnn cnn False True 2 256 0.5 0 256 256 256
cnn cnn False True 2 256 0.5 0.25 16 16 16
cnn cnn False True 2 256 0.5 0.25 32 32 32
cnn cnn False True 2 256 0.5 0.25 64 64 64
cnn cnn False True 2 256 0.5 0.25 128 128 128
cnn cnn False True 2 256 0.5 0.25 256 256 256
cnn cnn False True 2 256 0.5 0.5 16 16 16
cnn cnn False True 2 256 0.5 0.5 32 32 32
cnn cnn False True 2 256 0.5 0.5 64 64 64
cnn cnn False True 2 256 0.5 0.5 128 128 128
cnn cnn False True 2 256 0.5 0.5 256 256 256
cnn cnn True False 0 128 0 0 16 16 16
cnn cnn True False 0 128 0 0 32 32 32
cnn cnn True False 0 128 0 0 64 64 64
cnn cnn True False 0 128 0 0 128 128 128
cnn cnn True False 0 128 0 0 256 256 256
cnn cnn True False 0 128 0 0.25 16 16 16
cnn cnn True False 0 128 0 0.25 32 32 32
cnn cnn True False 0 128 0 0.25 64 64 64
cnn cnn True False 0 128 0 0.25 128 128 128
cnn cnn True False 0 128 0 0.25 256 256 256
cnn cnn True False 0 128 0 0.5 16 16 16
cnn cnn True False 0 128 0 0.5 32 32 32
cnn cnn True False 0 128 0 0.5 64 64 64
cnn cnn True False 0 128 0 0.5 128 128 128
cnn cnn True False 0 128 0 0.5 256 256 256
cnn cnn True False 0 128 0.25 0 16 16 16
cnn cnn True False 0 128 0.25 0 32 32 32
cnn cnn True False 0 128 0.25 0 64 64 64
cnn cnn True False 0 128 0.25 0 128 128 128
cnn cnn True False 0 128 0.25 0 256 256 256
cnn cnn True False 0 128 0.25 0.25 16 16 16
cnn cnn True False 0 128 0.25 0.25 32 32 32
cnn cnn True False 0 128 0.25 0.25 64 64 64
cnn cnn True False 0 128 0.25 0.25 128 128 128
cnn cnn True False 0 128 0.25 0.25 256 256 256
cnn cnn True False 0 128 0.25 0.5 16 16 16
cnn cnn True False 0 128 0.25 0.5 32 32 32
cnn cnn True False 0 128 0.25 0.5 64 64 64
cnn cnn True False 0 128 0.25 0.5 128 128 128
cnn cnn True False 0 128 0.25 0.5 256 256 256
cnn cnn True False 0 128 0.5 0 16 16 16
cnn cnn True False 0 128 0.5 0 32 32 32
cnn cnn True False 0 128 0.5 0 64 64 64
cnn cnn True False 0 128 0.5 0 128 128 128
cnn cnn True False 0 128 0.5 0 256 256 256
cnn cnn True False 0 128 0.5 0.25 16 16 16
cnn cnn True False 0 128 0.5 0.25 32 32 32
cnn cnn True False 0 128 0.5 0.25 64 64 64
cnn cnn True False 0 128 0.5 0.25 128 128 128
cnn cnn True False 0 128 0.5 0.25 256 256 256
cnn cnn True False 0 128 0.5 0.5 16 16 16
cnn cnn True False 0 128 0.5 0.5 32 32 32
cnn cnn True False 0 128 0.5 0.5 64 64 64
cnn cnn True False 0 128 0.5 0.5 128 128 128
cnn cnn True False 0 128 0.5 0.5 256 256 256
cnn cnn True False 0 256 0 0 16 16 16
cnn cnn True False 0 256 0 0 32 32 32
cnn cnn True False 0 256 0 0 64 64 64
cnn cnn True False 0 256 0 0 128 128 128
cnn cnn True False 0 256 0 0 256 256 256
cnn cnn True False 0 256 0 0.25 16 16 16
cnn cnn True False 0 256 0 0.25 32 32 32
cnn cnn True False 0 256 0 0.25 64 64 64
cnn cnn True False 0 256 0 0.25 128 128 128
cnn cnn True False 0 256 0 0.25 256 256 256
cnn cnn True False 0 256 0 0.5 16 16 16
cnn cnn True False 0 256 0 0.5 32 32 32
cnn cnn True False 0 256 0 0.5 64 64 64
cnn cnn True False 0 256 0 0.5 128 128 128
cnn cnn True False 0 256 0 0.5 256 256 256
cnn cnn True False 0 256 0.25 0 16 16 16
cnn cnn True False 0 256 0.25 0 32 32 32
cnn cnn True False 0 256 0.25 0 64 64 64
cnn cnn True False 0 256 0.25 0 128 128 128
cnn cnn True False 0 256 0.25 0 256 256 256
cnn cnn True False 0 256 0.25 0.25 16 16 16
cnn cnn True False 0 256 0.25 0.25 32 32 32
cnn cnn True False 0 256 0.25 0.25 64 64 64
cnn cnn True False 0 256 0.25 0.25 128 128 128
cnn cnn True False 0 256 0.25 0.25 256 256 256
cnn cnn True False 0 256 0.25 0.5 16 16 16
cnn cnn True False 0 256 0.25 0.5 32 32 32
cnn cnn True False 0 256 0.25 0.5 64 64 64
cnn cnn True False 0 256 0.25 0.5 128 128 128
cnn cnn True False 0 256 0.25 0.5 256 256 256
cnn cnn True False 0 256 0.5 0 16 16 16
cnn cnn True False 0 256 0.5 0 32 32 32
cnn cnn True False 0 256 0.5 0 64 64 64
cnn cnn True False 0 256 0.5 0 128 128 128
cnn cnn True False 0 256 0.5 0 256 256 256
cnn cnn True False 0 256 0.5 0.25 16 16 16
cnn cnn True False 0 256 0.5 0.25 32 32 32
cnn cnn True False 0 256 0.5 0.25 64 64 64
cnn cnn True False 0 256 0.5 0.25 128 128 128
cnn cnn True False 0 256 0.5 0.25 256 256 256
cnn cnn True False 0 256 0.5 0.5 16 16 16
cnn cnn True False 0 256 0.5 0.5 32 32 32
cnn cnn True False 0 256 0.5 0.5 64 64 64
cnn cnn True False 0 256 0.5 0.5 128 128 128
cnn cnn True False 0 256 0.5 0.5 256 256 256
cnn cnn True False 1 128 0 0 16 16 16
cnn cnn True False 1 128 0 0 32 32 32
cnn cnn True False 1 128 0 0 64 64 64
cnn cnn True False 1 128 0 0 128 128 128
cnn cnn True False 1 128 0 0 256 256 256
cnn cnn True False 1 128 0 0.25 16 16 16
cnn cnn True False 1 128 0 0.25 32 32 32
cnn cnn True False 1 128 0 0.25 64 64 64
cnn cnn True False 1 128 0 0.25 128 128 128
cnn cnn True False 1 128 0 0.25 256 256 256
cnn cnn True False 1 128 0 0.5 16 16 16
cnn cnn True False 1 128 0 0.5 32 32 32
cnn cnn True False 1 128 0 0.5 64 64 64
cnn cnn True False 1 128 0 0.5 128 128 128
cnn cnn True False 1 128 0 0.5 256 256 256
cnn cnn True False 1 128 0.25 0 16 16 16
cnn cnn True False 1 128 0.25 0 32 32 32
cnn cnn True False 1 128 0.25 0 64 64 64
cnn cnn True False 1 128 0.25 0 128 128 128
cnn cnn True False 1 128 0.25 0 256 256 256
cnn cnn True False 1 128 0.25 0.25 16 16 16
cnn cnn True False 1 128 0.25 0.25 32 32 32
cnn cnn True False 1 128 0.25 0.25 64 64 64
cnn cnn True False 1 128 0.25 0.25 128 128 128
cnn cnn True False 1 128 0.25 0.25 256 256 256
cnn cnn True False 1 128 0.25 0.5 16 16 16
cnn cnn True False 1 128 0.25 0.5 32 32 32
cnn cnn True False 1 128 0.25 0.5 64 64 64
cnn cnn True False 1 128 0.25 0.5 128 128 128
cnn cnn True False 1 128 0.25 0.5 256 256 256
cnn cnn True False 1 128 0.5 0 16 16 16
cnn cnn True False 1 128 0.5 0 32 32 32
cnn cnn True False 1 128 0.5 0 64 64 64
cnn cnn True False 1 128 0.5 0 128 128 128
cnn cnn True False 1 128 0.5 0 256 256 256
cnn cnn True False 1 128 0.5 0.25 16 16 16
cnn cnn True False 1 128 0.5 0.25 32 32 32
cnn cnn True False 1 128 0.5 0.25 64 64 64
cnn cnn True False 1 128 0.5 0.25 128 128 128
cnn cnn True False 1 128 0.5 0.25 256 256 256
cnn cnn True False 1 128 0.5 0.5 16 16 16
cnn cnn True False 1 128 0.5 0.5 32 32 32
cnn cnn True False 1 128 0.5 0.5 64 64 64
cnn cnn True False 1 128 0.5 0.5 128 128 128
cnn cnn True False 1 128 0.5 0.5 256 256 256
cnn cnn True False 1 256 0 0 16 16 16
cnn cnn True False 1 256 0 0 32 32 32
cnn cnn True False 1 256 0 0 64 64 64
cnn cnn True False 1 256 0 0 128 128 128
cnn cnn True False 1 256 0 0 256 256 256
cnn cnn True False 1 256 0 0.25 16 16 16
cnn cnn True False 1 256 0 0.25 32 32 32
cnn cnn True False 1 256 0 0.25 64 64 64
cnn cnn True False 1 256 0 0.25 128 128 128
cnn cnn True False 1 256 0 0.25 256 256 256
cnn cnn True False 1 256 0 0.5 16 16 16
cnn cnn True False 1 256 0 0.5 32 32 32
cnn cnn True False 1 256 0 0.5 64 64 64
cnn cnn True False 1 256 0 0.5 128 128 128
cnn cnn True False 1 256 0 0.5 256 256 256
cnn cnn True False 1 256 0.25 0 16 16 16
cnn cnn True False 1 256 0.25 0 32 32 32
cnn cnn True False 1 256 0.25 0 64 64 64
cnn cnn True False 1 256 0.25 0 128 128 128
cnn cnn True False 1 256 0.25 0 256 256 256
cnn cnn True False 1 256 0.25 0.25 16 16 16
cnn cnn True False 1 256 0.25 0.25 32 32 32
cnn cnn True False 1 256 0.25 0.25 64 64 64
cnn cnn True False 1 256 0.25 0.25 128 128 128
cnn cnn True False 1 256 0.25 0.25 256 256 256
cnn cnn True False 1 256 0.25 0.5 16 16 16
cnn cnn True False 1 256 0.25 0.5 32 32 32
cnn cnn True False 1 256 0.25 0.5 64 64 64
cnn cnn True False 1 256 0.25 0.5 128 128 128
cnn cnn True False 1 256 0.25 0.5 256 256 256
cnn cnn True False 1 256 0.5 0 16 16 16
cnn cnn True False 1 256 0.5 0 32 32 32
cnn cnn True False 1 256 0.5 0 64 64 64
cnn cnn True False 1 256 0.5 0 128 128 128
cnn cnn True False 1 256 0.5 0 256 256 256
cnn cnn True False 1 256 0.5 0.25 16 16 16
cnn cnn True False 1 256 0.5 0.25 32 32 32
cnn cnn True False 1 256 0.5 0.25 64 64 64
cnn cnn True False 1 256 0.5 0.25 128 128 128
cnn cnn True False 1 256 0.5 0.25 256 256 256
cnn cnn True False 1 256 0.5 0.5 16 16 16
cnn cnn True False 1 256 0.5 0.5 32 32 32
cnn cnn True False 1 256 0.5 0.5 64 64 64
cnn cnn True False 1 256 0.5 0.5 128 128 128
cnn cnn True False 1 256 0.5 0.5 256 256 256
cnn cnn True False 2 128 0 0 16 16 16
cnn cnn True False 2 128 0 0 32 32 32
cnn cnn True False 2 128 0 0 64 64 64
cnn cnn True False 2 128 0 0 128 128 128
cnn cnn True False 2 128 0 0 256 256 256
cnn cnn True False 2 128 0 0.25 16 16 16
cnn cnn True False 2 128 0 0.25 32 32 32
cnn cnn True False 2 128 0 0.25 64 64 64
cnn cnn True False 2 128 0 0.25 128 128 128
cnn cnn True False 2 128 0 0.25 256 256 256
cnn cnn True False 2 128 0 0.5 16 16 16
cnn cnn True False 2 128 0 0.5 32 32 32
cnn cnn True False 2 128 0 0.5 64 64 64
cnn cnn True False 2 128 0 0.5 128 128 128
cnn cnn True False 2 128 0 0.5 256 256 256
cnn cnn True False 2 128 0.25 0 16 16 16
cnn cnn True False 2 128 0.25 0 32 32 32
cnn cnn True False 2 128 0.25 0 64 64 64
cnn cnn True False 2 128 0.25 0 128 128 128
cnn cnn True False 2 128 0.25 0 256 256 256
cnn cnn True False 2 128 0.25 0.25 16 16 16
cnn cnn True False 2 128 0.25 0.25 32 32 32
cnn cnn True False 2 128 0.25 0.25 64 64 64
cnn cnn True False 2 128 0.25 0.25 128 128 128
cnn cnn True False 2 128 0.25 0.25 256 256 256
cnn cnn True False 2 128 0.25 0.5 16 16 16
cnn cnn True False 2 128 0.25 0.5 32 32 32
cnn cnn True False 2 128 0.25 0.5 64 64 64
cnn cnn True False 2 128 0.25 0.5 128 128 128
cnn cnn True False 2 128 0.25 0.5 256 256 256
cnn cnn True False 2 128 0.5 0 16 16 16
cnn cnn True False 2 128 0.5 0 32 32 32
cnn cnn True False 2 128 0.5 0 64 64 64
cnn cnn True False 2 128 0.5 0 128 128 128
cnn cnn True False 2 128 0.5 0 256 256 256
cnn cnn True False 2 128 0.5 0.25 16 16 16
cnn cnn True False 2 128 0.5 0.25 32 32 32
cnn cnn True False 2 128 0.5 0.25 64 64 64
cnn cnn True False 2 128 0.5 0.25 128 128 128
cnn cnn True False 2 128 0.5 0.25 256 256 256
cnn cnn True False 2 128 0.5 0.5 16 16 16
cnn cnn True False 2 128 0.5 0.5 32 32 32
cnn cnn True False 2 128 0.5 0.5 64 64 64
cnn cnn True False 2 128 0.5 0.5 128 128 128
cnn cnn True False 2 128 0.5 0.5 256 256 256
cnn cnn True False 2 256 0 0 16 16 16
cnn cnn True False 2 256 0 0 32 32 32
cnn cnn True False 2 256 0 0 64 64 64
cnn cnn True False 2 256 0 0 128 128 128
cnn cnn True False 2 256 0 0 256 256 256
cnn cnn True False 2 256 0 0.25 16 16 16
cnn cnn True False 2 256 0 0.25 32 32 32
cnn cnn True False 2 256 0 0.25 64 64 64
cnn cnn True False 2 256 0 0.25 128 128 128
cnn cnn True False 2 256 0 0.25 256 256 256
cnn cnn True False 2 256 0 0.5 16 16 16
cnn cnn True False 2 256 0 0.5 32 32 32
cnn cnn True False 2 256 0 0.5 64 64 64
cnn cnn True False 2 256 0 0.5 128 128 128
cnn cnn True False 2 256 0 0.5 256 256 256
cnn cnn True False 2 256 0.25 0 16 16 16
cnn cnn True False 2 256 0.25 0 32 32 32
cnn cnn True False 2 256 0.25 0 64 64 64
cnn cnn True False 2 256 0.25 0 128 128 128
cnn cnn True False 2 256 0.25 0 256 256 256
cnn cnn True False 2 256 0.25 0.25 16 16 16
cnn cnn True False 2 256 0.25 0.25 32 32 32
cnn cnn True False 2 256 0.25 0.25 64 64 64
cnn cnn True False 2 256 0.25 0.25 128 128 128
cnn cnn True False 2 256 0.25 0.25 256 256 256
cnn cnn True False 2 256 0.25 0.5 16 16 16
cnn cnn True False 2 256 0.25 0.5 32 32 32
cnn cnn True False 2 256 0.25 0.5 64 64 64
cnn cnn True False 2 256 0.25 0.5 128 128 128
cnn cnn True False 2 256 0.25 0.5 256 256 256
cnn cnn True False 2 256 0.5 0 16 16 16
cnn cnn True False 2 256 0.5 0 32 32 32
cnn cnn True False 2 256 0.5 0 64 64 64
cnn cnn True False 2 256 0.5 0 128 128 128
cnn cnn True False 2 256 0.5 0 256 256 256
cnn cnn True False 2 256 0.5 0.25 16 16 16
cnn cnn True False 2 256 0.5 0.25 32 32 32
cnn cnn True False 2 256 0.5 0.25 64 64 64
cnn cnn True False 2 256 0.5 0.25 128 128 128
cnn cnn True False 2 256 0.5 0.25 256 256 256
cnn cnn True False 2 256 0.5 0.5 16 16 16
cnn cnn True False 2 256 0.5 0.5 32 32 32
cnn cnn True False 2 256 0.5 0.5 64 64 64
cnn cnn True False 2 256 0.5 0.5 128 128 128
cnn cnn True False 2 256 0.5 0.5 256 256 256
cnn cnn True True 0 128 0 0 16 16 16
cnn cnn True True 0 128 0 0 32 32 32
cnn cnn True True 0 128 0 0 64 64 64
cnn cnn True True 0 128 0 0 128 128 128
cnn cnn True True 0 128 0 0 256 256 256
cnn cnn True True 0 128 0 0.25 16 16 16
cnn cnn True True 0 128 0 0.25 32 32 32
cnn cnn True True 0 128 0 0.25 64 64 64
cnn cnn True True 0 128 0 0.25 128 128 128
cnn cnn True True 0 128 0 0.25 256 256 256
cnn cnn True True 0 128 0 0.5 16 16 16
cnn cnn True True 0 128 0 0.5 32 32 32
cnn cnn True True 0 128 0 0.5 64 64 64
cnn cnn True True 0 128 0 0.5 128 128 128
cnn cnn True True 0 128 0 0.5 256 256 256
cnn cnn True True 0 128 0.25 0 16 16 16
cnn cnn True True 0 128 0.25 0 32 32 32
cnn cnn True True 0 128 0.25 0 64 64 64
cnn cnn True True 0 128 0.25 0 128 128 128
cnn cnn True True 0 128 0.25 0 256 256 256
cnn cnn True True 0 128 0.25 0.25 16 16 16
cnn cnn True True 0 128 0.25 0.25 32 32 32
cnn cnn True True 0 128 0.25 0.25 64 64 64
cnn cnn True True 0 128 0.25 0.25 128 128 128
cnn cnn True True 0 128 0.25 0.25 256 256 256
cnn cnn True True 0 128 0.25 0.5 16 16 16
cnn cnn True True 0 128 0.25 0.5 32 32 32
cnn cnn True True 0 128 0.25 0.5 64 64 64
cnn cnn True True 0 128 0.25 0.5 128 128 128
cnn cnn True True 0 128 0.25 0.5 256 256 256
cnn cnn True True 0 128 0.5 0 16 16 16
cnn cnn True True 0 128 0.5 0 32 32 32
cnn cnn True True 0 128 0.5 0 64 64 64
cnn cnn True True 0 128 0.5 0 128 128 128
cnn cnn True True 0 128 0.5 0 256 256 256
cnn cnn True True 0 128 0.5 0.25 16 16 16
cnn cnn True True 0 128 0.5 0.25 32 32 32
cnn cnn True True 0 128 0.5 0.25 64 64 64
cnn cnn True True 0 128 0.5 0.25 128 128 128
cnn cnn True True 0 128 0.5 0.25 256 256 256
cnn cnn True True 0 128 0.5 0.5 16 16 16
cnn cnn True True 0 128 0.5 0.5 32 32 32
cnn cnn True True 0 128 0.5 0.5 64 64 64
cnn cnn True True 0 128 0.5 0.5 128 128 128
cnn cnn True True 0 128 0.5 0.5 256 256 256
cnn cnn True True 0 256 0 0 16 16 16
cnn cnn True True 0 256 0 0 32 32 32
cnn cnn True True 0 256 0 0 64 64 64
cnn cnn True True 0 256 0 0 128 128 128
cnn cnn True True 0 256 0 0 256 256 256
cnn cnn True True 0 256 0 0.25 16 16 16
cnn cnn True True 0 256 0 0.25 32 32 32
cnn cnn True True 0 256 0 0.25 64 64 64
cnn cnn True True 0 256 0 0.25 128 128 128
cnn cnn True True 0 256 0 0.25 256 256 256
cnn cnn True True 0 256 0 0.5 16 16 16
cnn cnn True True 0 256 0 0.5 32 32 32
cnn cnn True True 0 256 0 0.5 64 64 64
cnn cnn True True 0 256 0 0.5 128 128 128
cnn cnn True True 0 256 0 0.5 256 256 256
cnn cnn True True 0 256 0.25 0 16 16 16
cnn cnn True True 0 256 0.25 0 32 32 32
cnn cnn True True 0 256 0.25 0 64 64 64
cnn cnn True True 0 256 0.25 0 128 128 128
cnn cnn True True 0 256 0.25 0 256 256 256
cnn cnn True True 0 256 0.25 0.25 16 16 16
cnn cnn True True 0 256 0.25 0.25 32 32 32
cnn cnn True True 0 256 0.25 0.25 64 64 64
cnn cnn True True 0 256 0.25 0.25 128 128 128
cnn cnn True True 0 256 0.25 0.25 256 256 256
cnn cnn True True 0 256 0.25 0.5 16 16 16
cnn cnn True True 0 256 0.25 0.5 32 32 32
cnn cnn True True 0 256 0.25 0.5 64 64 64
cnn cnn True True 0 256 0.25 0.5 128 128 128
cnn cnn True True 0 256 0.25 0.5 256 256 256
cnn cnn True True 0 256 0.5 0 16 16 16
cnn cnn True True 0 256 0.5 0 32 32 32
cnn cnn True True 0 256 0.5 0 64 64 64
cnn cnn True True 0 256 0.5 0 128 128 128
cnn cnn True True 0 256 0.5 0 256 256 256
cnn cnn True True 0 256 0.5 0.25 16 16 16
cnn cnn True True 0 256 0.5 0.25 32 32 32
cnn cnn True True 0 256 0.5 0.25 64 64 64
cnn cnn True True 0 256 0.5 0.25 128 128 128
cnn cnn True True 0 256 0.5 0.25 256 256 256
cnn cnn True True 0 256 0.5 0.5 16 16 16
cnn cnn True True 0 256 0.5 0.5 32 32 32
cnn cnn True True 0 256 0.5 0.5 64 64 64
cnn cnn True True 0 256 0.5 0.5 128 128 128
cnn cnn True True 0 256 0.5 0.5 256 256 256
cnn cnn True True 1 128 0 0 16 16 16
cnn cnn True True 1 128 0 0 32 32 32
cnn cnn True True 1 128 0 0 64 64 64
cnn cnn True True 1 128 0 0 128 128 128
cnn cnn True True 1 128 0 0 256 256 256
cnn cnn True True 1 128 0 0.25 16 16 16
cnn cnn True True 1 128 0 0.25 32 32 32
cnn cnn True True 1 128 0 0.25 64 64 64
cnn cnn True True 1 128 0 0.25 128 128 128
cnn cnn True True 1 128 0 0.25 256 256 256
cnn cnn True True 1 128 0 0.5 16 16 16
cnn cnn True True 1 128 0 0.5 32 32 32
cnn cnn True True 1 128 0 0.5 64 64 64
cnn cnn True True 1 128 0 0.5 128 128 128
cnn cnn True True 1 128 0 0.5 256 256 256
cnn cnn True True 1 128 0.25 0 16 16 16
cnn cnn True True 1 128 0.25 0 32 32 32
cnn cnn True True 1 128 0.25 0 64 64 64
cnn cnn True True 1 128 0.25 0 128 128 128
cnn cnn True True 1 128 0.25 0 256 256 256
cnn cnn True True 1 128 0.25 0.25 16 16 16
cnn cnn True True 1 128 0.25 0.25 32 32 32
cnn cnn True True 1 128 0.25 0.25 64 64 64
cnn cnn True True 1 128 0.25 0.25 128 128 128
cnn cnn True True 1 128 0.25 0.25 256 256 256
cnn cnn True True 1 128 0.25 0.5 16 16 16
cnn cnn True True 1 128 0.25 0.5 32 32 32
cnn cnn True True 1 128 0.25 0.5 64 64 64
cnn cnn True True 1 128 0.25 0.5 128 128 128
cnn cnn True True 1 128 0.25 0.5 256 256 256
cnn cnn True True 1 128 0.5 0 16 16 16
cnn cnn True True 1 128 0.5 0 32 32 32
cnn cnn True True 1 128 0.5 0 64 64 64
cnn cnn True True 1 128 0.5 0 128 128 128
cnn cnn True True 1 128 0.5 0 256 256 256
cnn cnn True True 1 128 0.5 0.25 16 16 16
cnn cnn True True 1 128 0.5 0.25 32 32 32
cnn cnn True True 1 128 0.5 0.25 64 64 64
cnn cnn True True 1 128 0.5 0.25 128 128 128
cnn cnn True True 1 128 0.5 0.25 256 256 256
cnn cnn True True 1 128 0.5 0.5 16 16 16
cnn cnn True True 1 128 0.5 0.5 32 32 32
cnn cnn True True 1 128 0.5 0.5 64 64 64
cnn cnn True True 1 128 0.5 0.5 128 128 128
cnn cnn True True 1 128 0.5 0.5 256 256 256
cnn cnn True True 1 256 0 0 16 16 16
cnn cnn True True 1 256 0 0 32 32 32
cnn cnn True True 1 256 0 0 64 64 64
cnn cnn True True 1 256 0 0 128 128 128
cnn cnn True True 1 256 0 0 256 256 256
cnn cnn True True 1 256 0 0.25 16 16 16
cnn cnn True True 1 256 0 0.25 32 32 32
cnn cnn True True 1 256 0 0.25 64 64 64
cnn cnn True True 1 256 0 0.25 128 128 128
cnn cnn True True 1 256 0 0.25 256 256 256
cnn cnn True True 1 256 0 0.5 16 16 16
cnn cnn True True 1 256 0 0.5 32 32 32
cnn cnn True True 1 256 0 0.5 64 64 64
cnn cnn True True 1 256 0 0.5 128 128 128
cnn cnn True True 1 256 0 0.5 256 256 256
cnn cnn True True 1 256 0.25 0 16 16 16
cnn cnn True True 1 256 0.25 0 32 32 32
cnn cnn True True 1 256 0.25 0 64 64 64
cnn cnn True True 1 256 0.25 0 128 128 128
cnn cnn True True 1 256 0.25 0 256 256 256
cnn cnn True True 1 256 0.25 0.25 16 16 16
cnn cnn True True 1 256 0.25 0.25 32 32 32
cnn cnn True True 1 256 0.25 0.25 64 64 64
cnn cnn True True 1 256 0.25 0.25 128 128 128
cnn cnn True True 1 256 0.25 0.25 256 256 256
cnn cnn True True 1 256 0.25 0.5 16 16 16
cnn cnn True True 1 256 0.25 0.5 32 32 32
cnn cnn True True 1 256 0.25 0.5 64 64 64
cnn cnn True True 1 256 0.25 0.5 128 128 128
cnn cnn True True 1 256 0.25 0.5 256 256 256
cnn cnn True True 1 256 0.5 0 16 16 16
cnn cnn True True 1 256 0.5 0 32 32 32
cnn cnn True True 1 256 0.5 0 64 64 64
cnn cnn True True 1 256 0.5 0 128 128 128
cnn cnn True True 1 256 0.5 0 256 256 256
cnn cnn True True 1 256 0.5 0.25 16 16 16
cnn cnn True True 1 256 0.5 0.25 32 32 32
cnn cnn True True 1 256 0.5 0.25 64 64 64
cnn cnn True True 1 256 0.5 0.25 128 128 128
cnn cnn True True 1 256 0.5 0.25 256 256 256
cnn cnn True True 1 256 0.5 0.5 16 16 16
cnn cnn True True 1 256 0.5 0.5 32 32 32
cnn cnn True True 1 256 0.5 0.5 64 64 64
cnn cnn True True 1 256 0.5 0.5 128 128 128
cnn cnn True True 1 256 0.5 0.5 256 256 256
cnn cnn True True 2 128 0 0 16 16 16
cnn cnn True True 2 128 0 0 32 32 32
cnn cnn True True 2 128 0 0 64 64 64
cnn cnn True True 2 128 0 0 128 128 128
cnn cnn True True 2 128 0 0 256 256 256
cnn cnn True True 2 128 0 0.25 16 16 16
cnn cnn True True 2 128 0 0.25 32 32 32
cnn cnn True True 2 128 0 0.25 64 64 64
cnn cnn True True 2 128 0 0.25 128 128 128
cnn cnn True True 2 128 0 0.25 256 256 256
cnn cnn True True 2 128 0 0.5 16 16 16
cnn cnn True True 2 128 0 0.5 32 32 32
cnn cnn True True 2 128 0 0.5 64 64 64
cnn cnn True True 2 128 0 0.5 128 128 128
cnn cnn True True 2 128 0 0.5 256 256 256
cnn cnn True True 2 128 0.25 0 16 16 16
cnn cnn True True 2 128 0.25 0 32 32 32
cnn cnn True True 2 128 0.25 0 64 64 64
cnn cnn True True 2 128 0.25 0 128 128 128
cnn cnn True True 2 128 0.25 0 256 256 256
cnn cnn True True 2 128 0.25 0.25 16 16 16
cnn cnn True True 2 128 0.25 0.25 32 32 32
cnn cnn True True 2 128 0.25 0.25 64 64 64
cnn cnn True True 2 128 0.25 0.25 128 128 128
cnn cnn True True 2 128 0.25 0.25 256 256 256
cnn cnn True True 2 128 0.25 0.5 16 16 16
cnn cnn True True 2 128 0.25 0.5 32 32 32
cnn cnn True True 2 128 0.25 0.5 64 64 64
cnn cnn True True 2 128 0.25 0.5 128 128 128
cnn cnn True True 2 128 0.25 0.5 256 256 256
cnn cnn True True 2 128 0.5 0 16 16 16
cnn cnn True True 2 128 0.5 0 32 32 32
cnn cnn True True 2 128 0.5 0 64 64 64
cnn cnn True True 2 128 0.5 0 128 128 128
cnn cnn True True 2 128 0.5 0 256 256 256
cnn cnn True True 2 128 0.5 0.25 16 16 16
cnn cnn True True 2 128 0.5 0.25 32 32 32
cnn cnn True True 2 128 0.5 0.25 64 64 64
cnn cnn True True 2 128 0.5 0.25 128 128 128
cnn cnn True True 2 128 0.5 0.25 256 256 256
cnn cnn True True 2 128 0.5 0.5 16 16 16
cnn cnn True True 2 128 0.5 0.5 32 32 32
cnn cnn True True 2 128 0.5 0.5 64 64 64
cnn cnn True True 2 128 0.5 0.5 128 128 128
cnn cnn True True 2 128 0.5 0.5 256 256 256
cnn cnn True True 2 256 0 0 16 16 16
cnn cnn True True 2 256 0 0 32 32 32
cnn cnn True True 2 256 0 0 64 64 64
cnn cnn True True 2 256 0 0 128 128 128
cnn cnn True True 2 256 0 0 256 256 256
cnn cnn True True 2 256 0 0.25 16 16 16
cnn cnn True True 2 256 0 0.25 32 32 32
cnn cnn True True 2 256 0 0.25 64 64 64
cnn cnn True True 2 256 0 0.25 128 128 128
cnn cnn True True 2 256 0 0.25 256 256 256
cnn cnn True True 2 256 0 0.5 16 16 16
cnn cnn True True 2 256 0 0.5 32 32 32
cnn cnn True True 2 256 0 0.5 64 64 64
cnn cnn True True 2 256 0 0.5 128 128 128
cnn cnn True True 2 256 0 0.5 256 256 256
cnn cnn True True 2 256 0.25 0 16 16 16
cnn cnn True True 2 256 0.25 0 32 32 32
cnn cnn True True 2 256 0.25 0 64 64 64
cnn cnn True True 2 256 0.25 0 128 128 128
cnn cnn True True 2 256 0.25 0 256 256 256
cnn cnn True True 2 256 0.25 0.25 16 16 16
cnn cnn True True 2 256 0.25 0.25 32 32 32
cnn cnn True True 2 256 0.25 0.25 64 64 64
cnn cnn True True 2 256 0.25 0.25 128 128 128
cnn cnn True True 2 256 0.25 0.25 256 256 256
cnn cnn True True 2 256 0.25 0.5 16 16 16
cnn cnn True True 2 256 0.25 0.5 32 32 32
cnn cnn True True 2 256 0.25 0.5 64 64 64
cnn cnn True True 2 256 0.25 0.5 128 128 128
cnn cnn True True 2 256 0.25 0.5 256 256 256
cnn cnn True True 2 256 0.5 0 16 16 16
cnn cnn True True 2 256 0.5 0 32 32 32
cnn cnn True True 2 256 0.5 0 64 64 64
cnn cnn True True 2 256 0.5 0 128 128 128
cnn cnn True True 2 256 0.5 0 256 256 256
cnn cnn True True 2 256 0.5 0.25 16 16 16
cnn cnn True True 2 256 0.5 0.25 32 32 32
cnn cnn True True 2 256 0.5 0.25 64 64 64
cnn cnn True True 2 256 0.5 0.25 128 128 128
cnn cnn True True 2 256 0.5 0.25 256 256 256
cnn cnn True True 2 256 0.5 0.5 16 16 16
cnn cnn True True 2 256 0.5 0.5 32 32 32
cnn cnn True True 2 256 0.5 0.5 64 64 64
cnn cnn True True 2 256 0.5 0.5 128 128 128
cnn cnn True True 2 256 0.5 0.5 256 256 256
