# Best result

**t1** : *type de la premiere couche testee (convolution ou kronecker)*  
**t2** : *type de la deuxieme couche testee (convolution ou kronecker)*  
**bn1** : *presence ou non de la premiere couche de batch normalisation*  
**bn2** : *presence ou non de la deuxieme couche de batch normalisation*  
**relu** : *presence ou non de la couche d'activation relu (0=non, 1=oui:avant ou 2=oui:apres la batch normalisation)*   
**nbN** : *nombre de neurone dans la couche dense cachee*  
**do1** : *force de la premiere couche de drop out*  
**do2** : *force de la deuxieme couche de drop out*  
**K1** : *nombre de filtres de convolution ou rang de kronecker (suivant le type de la premiere couche testee)*  
**K2** : *nombre de filtres de convolution ou rang de kronecker (suivant le type de la deuxieme couche testee)*  
**K3** : *nombre de filtres de convolution de la couche de convolution*  
**vloss** : *erreur sur le corpus de validation*  
**vacc** : *precision sur le corpus de validation*  
**tloss** : *erreur sur le corpus de test*  
**tacc** : *precision sur le corpus de test*  

| **t1** | **t2** | **bn1** |**bn2** | **relu** | **nbN** | **do1** | **do2** | **K1** | **K2** | **K3** | **vloss** | **vacc** | **tloss** | **tacc** |
|:------:|:------:|:-------:|:------:|:--------:|:-------:|:-------:|:-------:|:------:|:------:|:------:|:---------:|:--------:|:---------:|:--------:|
| cnn | kro | True | True | 1 | 128 | 0.0 | 0.25 | 64 | 64 | 64 | 1.225 | 0.5784 | 1.2408 | 0.5764 |

# Other results

**t1** : *type de la premiere couche testee (convolution ou kronecker)*  
**t2** : *type de la deuxieme couche testee (convolution ou kronecker)*  
**bn1** : *presence ou non de la premiere couche de batch normalisation*  
**bn2** : *presence ou non de la deuxieme couche de batch normalisation*  
**relu** : *presence ou non de la couche d'activation relu (0=non, 1=oui:avant ou 2=oui:apres la batch normalisation)*   
**nbN** : *nombre de neurone dans la couche dense cachee*  
**do1** : *force de la premiere couche de drop out*  
**do2** : *force de la deuxieme couche de drop out*  
**K1** : *nombre de filtres de convolution ou rang de kronecker (suivant le type de la premiere couche testee)*  
**K2** : *nombre de filtres de convolution ou rang de kronecker (suivant le type de la deuxieme couche testee)*  
**K3** : *nombre de filtres de convolution de la couche de convolution*  
**vloss** : *erreur sur le corpus de validation*  
**vacc** : *precision sur le corpus de validation*  
**tloss** : *erreur sur le corpus de test*  
**tacc** : *precision sur le corpus de test*  

| **t1** | **t2** | **bn1** |**bn2** | **relu** | **nbN** | **do1** | **do2** | **K1** | **K2** | **K3** | **vloss** | **vacc** | **tloss** | **tacc** |
|:------:|:------:|:-------:|:------:|:--------:|:-------:|:-------:|:-------:|:------:|:------:|:------:|:---------:|:--------:|:---------:|:--------:|
| cnn | kro | True | True | 1 | 128 | 0.0 | 0.25 | 64 | 64 | 64 | 1.225 | 0.5784 | 1.2408 | 0.5764 |
| cnn | kro | True | True | 1 | 128 | 0.0 | 0.25 | 32 | 32 | 32 | 1.196 | 0.5751 | 1.2007 | 0.5816 |
| cnn | kro | True | True | 1 | 128 | 0.0 | 0.5 | 64 | 64 | 64 | 1.198 | 0.5746 | 1.197 | 0.5737 |
| cnn | kro | True | True | 1 | 256 | 0.5 | 0.0 | 64 | 64 | 64 | 1.216 | 0.5740 | 1.2363 | 0.5631 |
| cnn | kro | True | True | 1 | 256 | 0.25 | 0.0 | 64 | 64 | 64 | 1.270 | 0.5704 | 1.2998 | 0.5703 |
| cnn | kro | True | True | 1 | 128 | 0.25 | 0.25 | 64 | 64 | 64 | 1.206 | 0.5681 | 1.2126 | 0.5671 |
| cnn | kro | True | True | 1 | 128 | 0.0 | 0.25 | 32 | 32 | 32 | 1.215 | 0.5645 | 1.2286 | 0.5657 |
| cnn | kro | True | True | 1 | 256 | 0.25 | 0.0 | 64 | 64 | 64 | 1.263 | 0.5613 | 1.2728 | 0.5531 |
| cnn | kro | True | True | 1 | 256 | 0.25 | 0.0 | 32 | 32 | 32 | 1.288 | 0.5613 | 1.3029 | 0.5542 |
| cnn | kro | True | True | 1 | 128 | 0.25 | 0.0 | 32 | 32 | 32 | 1.261 | 0.5591 | 1.2731 | 0.5551 |
| cnn | kro | True | True | 1 | 256 | 0.25 | 0.0 | 64 | 64 | 64 | 1.294 | 0.5585 | 1.3116 | 0.5432 |
| cnn | kro | True | True | 1 | 128 | 0.25 | 0.25 | 64 | 64 | 64 | 1.252 | 0.5583 | 1.2608 | 0.5559 |
| cnn | kro | True | True | 1 | 128 | 0.5 | 0.0 | 32 | 32 | 32 | 1.228 | 0.5582 | 1.2389 | 0.558 |
| cnn | kro | True | True | 1 | 128 | 0.5 | 0.0 | 64 | 64 | 64 | 1.248 | 0.5537 | 1.2378 | 0.5642 |
| cnn | kro | True | True | 1 | 256 | 0.0 | 0.25 | 64 | 64 | 64 | 1.328 | 0.5515 | 1.3256 | 0.5501 |
| cnn | kro | True | True | 1 | 128 | 0.25 | 0.0 | 32 | 32 | 32 | 1.277 | 0.5488 | 1.2997 | 0.5518 |
| cnn | kro | True | True | 1 | 256 | 0.0 | 0.5 | 32 | 32 | 32 | 1.276 | 0.5487 | 1.2918 | 0.5456 |
| cnn | kro | True | True | 1 | 128 | 0.25 | 0.0 | 32 | 32 | 32 | 1.334 | 0.5483 | 1.3524 | 0.5408 |
| cnn | kro | True | True | 1 | 256 | 0.0 | 0.25 | 32 | 32 | 32 | 1.315 | 0.5459 | 1.3231 | 0.5451 |
| cnn | kro | True | True | 1 | 256 | 0.25 | 0.0 | 32 | 32 | 32 | 1.300 | 0.5455 | 1.3193 | 0.5428 |
| cnn | kro | True | True | 1 | 256 | 0.25 | 0.5 | 64 | 64 | 64 | 1.329 | 0.5439 | 1.3247 | 0.5366 |
| cnn | kro | True | True | 1 | 128 | 0.0 | 0.25 | 32 | 32 | 32 | 1.299 | 0.5426 | 1.3216 | 0.5313 |
| cnn | kro | True | True | 1 | 256 | 0.25 | 0.0 | 64 | 64 | 64 | 1.319 | 0.5397 | 1.3398 | 0.5324 |
| cnn | kro | True | True | 1 | 256 | 0.25 | 0.25 | 64 | 64 | 64 | 1.322 | 0.5380 | 1.331 | 0.5347 |
| cnn | kro | True | True | 1 | 256 | 0.5 | 0.25 | 32 | 32 | 32 | 1.301 | 0.5365 | 1.3249 | 0.5221 |
| cnn | kro | True | True | 1 | 256 | 0.0 | 0.5 | 32 | 32 | 32 | 1.305 | 0.5351 | 1.3069 | 0.5356 |
| cnn | kro | True | True | 1 | 128 | 0.5 | 0.0 | 64 | 64 | 64 | 1.332 | 0.5344 | 1.3337 | 0.5303 |
| cnn | kro | True | True | 1 | 128 | 0.5 | 0.25 | 64 | 64 | 64 | 1.300 | 0.5309 | 1.3067 | 0.5287 |
| cnn | kro | True | True | 1 | 256 | 0.25 | 0.5 | 32 | 32 | 32 | 1.324 | 0.5308 | 1.3402 | 0.5228 |
| cnn | kro | True | True | 1 | 128 | 0.25 | 0.5 | 64 | 64 | 64 | 1.326 | 0.5303 | 1.3501 | 0.5229 |
| cnn | kro | True | True | 1 | 128 | 0.0 | 0.5 | 32 | 32 | 32 | 1.316 | 0.5290 | 1.328 | 0.526 |
| cnn | kro | True | True | 1 | 128 | 0.5 | 0.25 | 64 | 64 | 64 | 1.301 | 0.5283 | 1.3083 | 0.5249 |
| cnn | kro | True | True | 1 | 128 | 0.0 | 0.5 | 32 | 32 | 32 | 1.321 | 0.5255 | 1.3282 | 0.5182 |
| cnn | kro | True | True | 1 | 256 | 0.0 | 0.0 | 32 | 32 | 32 | 1.901 | 0.5239 | 1.8974 | 0.5233 |
| cnn | kro | True | True | 1 | 256 | 0.0 | 0.25 | 64 | 64 | 64 | 1.414 | 0.5230 | 1.4292 | 0.5224 |
| cnn | kro | True | True | 1 | 256 | 0.25 | 0.5 | 64 | 64 | 64 | 1.339 | 0.5199 | 1.3446 | 0.5195 |
| cnn | kro | True | True | 1 | 128 | 0.25 | 0.5 | 64 | 64 | 64 | 1.339 | 0.5197 | 1.3442 | 0.5156 |
| cnn | kro | True | True | 1 | 128 | 0.25 | 0.5 | 64 | 64 | 64 | 1.351 | 0.5191 | 1.3734 | 0.5121 |
| cnn | kro | True | True | 1 | 256 | 0.0 | 0.25 | 32 | 32 | 32 | 1.341 | 0.5183 | 1.3624 | 0.5176 |
| cnn | kro | True | True | 0 | 256 | 0.25 | 0.25 | 32 | 32 | 32 | 1.434 | 0.5175 | 1.445 | 0.5154 |
| cnn | kro | True | True | 1 | 256 | 0.0 | 0.0 | 64 | 64 | 64 | 2.199 | 0.5159 | 2.1966 | 0.516 |
| cnn | kro | True | True | 2 | 128 | 0.25 | 0.25 | 32 | 32 | 32 | 1.368 | 0.5117 | 1.3812 | 0.4955 |
| cnn | kro | True | True | 1 | 256 | 0.0 | 0.0 | 64 | 64 | 64 | 2.790 | 0.5117 | 2.7795 | 0.5092 |
| cnn | kro | True | True | 2 | 256 | 0.25 | 0.25 | 32 | 32 | 32 | 1.373 | 0.5096 | 1.374 | 0.5111 |
| cnn | kro | True | True | 1 | 256 | 0.5 | 0.5 | 64 | 64 | 64 | 1.396 | 0.5095 | 1.4017 | 0.5108 |
| cnn | kro | True | True | 1 | 128 | 0.0 | 0.0 | 32 | 32 | 32 | 1.612 | 0.5076 | 1.6081 | 0.5005 |
| cnn | kro | True | True | 1 | 128 | 0.25 | 0.0 | 32 | 32 | 32 | 1.400 | 0.5072 | 1.4349 | 0.507 |
| cnn | kro | True | True | 1 | 128 | 0.0 | 0.0 | 32 | 32 | 32 | 1.497 | 0.5070 | 1.5103 | 0.5075 |
| cnn | kro | True | True | 1 | 128 | 0.0 | 0.0 | 64 | 64 | 64 | 2.069 | 0.5049 | 2.0881 | 0.5071 |
| cnn | kro | True | True | 1 | 128 | 0.25 | 0.25 | 32 | 32 | 32 | 1.355 | 0.5048 | 1.3614 | 0.5074 |
| cnn | kro | True | True | 2 | 256 | 0.5 | 0.0 | 32 | 32 | 32 | 1.404 | 0.5030 | 1.4147 | 0.5014 |
| cnn | kro | True | True | 1 | 128 | 0.5 | 0.5 | 64 | 64 | 64 | 1.381 | 0.4992 | 1.3821 | 0.4935 |
| cnn | kro | True | True | 1 | 128 | 0.25 | 0.5 | 32 | 32 | 32 | 1.390 | 0.4971 | 1.3832 | 0.499 |
| cnn | kro | True | True | 2 | 128 | 0.5 | 0.0 | 32 | 32 | 32 | 1.436 | 0.4911 | 1.469 | 0.4933 |
| cnn | kro | True | True | 2 | 256 | 0.25 | 0.0 | 32 | 32 | 32 | 1.478 | 0.4907 | 1.4903 | 0.4872 |
| cnn | kro | True | True | 1 | 128 | 0.5 | 0.25 | 32 | 32 | 32 | 1.411 | 0.4896 | 1.4096 | 0.4913 |
| cnn | kro | True | True | 1 | 256 | 0.25 | 0.25 | 64 | 64 | 64 | 1.544 | 0.4893 | 1.5931 | 0.4825 |
| cnn | kro | True | True | 1 | 128 | 0.25 | 0.5 | 32 | 32 | 32 | 1.391 | 0.4887 | 1.3838 | 0.5014 |
| cnn | kro | True | True | 1 | 128 | 0.5 | 0.25 | 32 | 32 | 32 | 1.391 | 0.4882 | 1.388 | 0.4857 |
| cnn | kro | True | True | 0 | 128 | 0.0 | 0.25 | 32 | 32 | 32 | 1.529 | 0.4881 | 1.5426 | 0.4905 |
| cnn | kro | True | True | 0 | 128 | 0.5 | 0.5 | 32 | 32 | 32 | 1.454 | 0.4874 | 1.4629 | 0.4827 |
| cnn | kro | True | True | 0 | 128 | 0.0 | 0.5 | 32 | 32 | 32 | 1.470 | 0.4869 | 1.4766 | 0.479 |
| cnn | kro | True | True | 0 | 128 | 0.5 | 0.5 | 32 | 32 | 32 | 1.463 | 0.4855 | 1.4579 | 0.4838 |
| cnn | kro | True | True | 1 | 128 | 0.5 | 0.5 | 32 | 32 | 32 | 1.446 | 0.4853 | 1.4489 | 0.4845 |
| cnn | kro | True | True | 2 | 128 | 0.0 | 0.25 | 32 | 32 | 32 | 1.434 | 0.4821 | 1.4319 | 0.4838 |
| cnn | kro | True | True | 2 | 128 | 0.0 | 0.25 | 32 | 32 | 32 | 1.422 | 0.4798 | 1.419 | 0.4826 |
| cnn | kro | True | True | 2 | 128 | 0.25 | 0.0 | 32 | 32 | 32 | 1.509 | 0.4791 | 1.4874 | 0.4913 |
| cnn | kro | True | True | 2 | 256 | 0.0 | 0.0 | 32 | 32 | 32 | 1.481 | 0.4782 | 1.4947 | 0.4785 |
| cnn | kro | True | True | 1 | 128 | 0.0 | 0.25 | 32 | 32 | 32 | 1.431 | 0.4779 | 1.4541 | 0.4711 |
| cnn | kro | True | True | 1 | 128 | 0.0 | 0.5 | 32 | 32 | 32 | 1.484 | 0.4763 | 1.4743 | 0.4817 |
| cnn | kro | True | True | 2 | 256 | 0.25 | 0.0 | 32 | 32 | 32 | 1.493 | 0.4757 | 1.5107 | 0.4617 |
| cnn | kro | True | True | 1 | 128 | 0.5 | 0.5 | 64 | 64 | 64 | 1.485 | 0.4757 | 1.4863 | 0.4811 |
| cnn | kro | True | True | 0 | 256 | 0.0 | 0.5 | 32 | 32 | 32 | 1.483 | 0.4751 | 1.5021 | 0.471 |
| cnn | kro | True | True | 0 | 128 | 0.25 | 0.5 | 32 | 32 | 32 | 1.486 | 0.4740 | 1.4961 | 0.4742 |
| cnn | kro | True | True | 2 | 256 | 0.25 | 0.5 | 32 | 32 | 32 | 1.563 | 0.4711 | 1.5678 | 0.4627 |
| cnn | kro | True | True | 2 | 128 | 0.25 | 0.25 | 32 | 32 | 32 | 1.463 | 0.4710 | 1.4729 | 0.4658 |
| cnn | kro | True | True | 1 | 128 | 0.5 | 0.0 | 32 | 32 | 32 | 1.526 | 0.4707 | 1.5307 | 0.4676 |
| cnn | kro | True | True | 0 | 128 | 0.0 | 0.5 | 64 | 64 | 64 | 1.594 | 0.4697 | 1.5902 | 0.4698 |
| cnn | kro | True | True | 2 | 256 | 0.0 | 0.0 | 64 | 64 | 64 | 3.767 | 0.4683 | 3.8481 | 0.4622 |
| cnn | kro | True | True | 2 | 256 | 0.5 | 0.25 | 32 | 32 | 32 | 1.466 | 0.4681 | 1.4686 | 0.4651 |
| cnn | kro | True | True | 1 | 256 | 0.25 | 0.25 | 32 | 32 | 32 | 1.435 | 0.4658 | 1.42 | 0.4756 |
| cnn | kro | True | True | 0 | 128 | 0.25 | 0.25 | 64 | 64 | 64 | 1.557 | 0.4657 | 1.552 | 0.4686 |
| cnn | kro | True | True | 2 | 256 | 0.5 | 0.25 | 32 | 32 | 32 | 1.449 | 0.4645 | 1.4448 | 0.4682 |
| cnn | kro | True | True | 0 | 128 | 0.0 | 0.0 | 32 | 32 | 32 | 1.922 | 0.4603 | 1.9814 | 0.4432 |
| cnn | kro | True | True | 0 | 128 | 0.5 | 0.5 | 64 | 64 | 64 | 1.518 | 0.4596 | 1.5312 | 0.4606 |
| cnn | kro | True | True | 1 | 256 | 0.5 | 0.25 | 32 | 32 | 32 | 1.476 | 0.4587 | 1.4703 | 0.4632 |
| cnn | kro | True | True | 1 | 128 | 0.5 | 0.0 | 32 | 32 | 32 | 1.472 | 0.4567 | 1.4781 | 0.4543 |
| cnn | kro | True | True | 2 | 128 | 0.25 | 0.0 | 32 | 32 | 32 | 1.543 | 0.4565 | 1.5267 | 0.469 |
| cnn | kro | True | True | 1 | 128 | 0.5 | 0.0 | 32 | 32 | 32 | 1.516 | 0.4558 | 1.5254 | 0.4468 |
| cnn | kro | True | True | 2 | 128 | 0.0 | 0.5 | 32 | 32 | 32 | 1.494 | 0.4555 | 1.4911 | 0.4567 |
| cnn | kro | True | True | 0 | 256 | 0.0 | 0.0 | 32 | 32 | 32 | 2.719 | 0.4542 | 2.6987 | 0.4488 |
| cnn | kro | True | True | 0 | 128 | 0.0 | 0.5 | 32 | 32 | 32 | 1.528 | 0.4539 | 1.5361 | 0.4562 |
| cnn | kro | True | True | 1 | 256 | 0.0 | 0.5 | 64 | 64 | 64 | 1.723 | 0.4538 | 1.7085 | 0.4585 |
| cnn | kro | True | True | 0 | 128 | 0.5 | 0.0 | 32 | 32 | 32 | 1.558 | 0.4534 | 1.5549 | 0.4513 |
| cnn | kro | True | True | 2 | 128 | 0.0 | 0.0 | 64 | 64 | 64 | 3.047 | 0.4527 | 3.0683 | 0.4537 |
| cnn | kro | True | True | 0 | 128 | 0.5 | 0.25 | 32 | 32 | 32 | 1.544 | 0.4525 | 1.5554 | 0.4414 |
| cnn | kro | True | True | 0 | 256 | 0.0 | 0.25 | 32 | 32 | 32 | 1.591 | 0.4525 | 1.6008 | 0.448 |
| cnn | kro | True | True | 1 | 256 | 0.5 | 0.5 | 32 | 32 | 32 | 1.464 | 0.4522 | 1.4698 | 0.4516 |
| cnn | kro | True | True | 2 | 128 | 0.25 | 0.0 | 32 | 32 | 32 | 1.489 | 0.4510 | 1.4891 | 0.4533 |
| cnn | kro | True | True | 2 | 128 | 0.0 | 0.25 | 32 | 32 | 32 | 1.510 | 0.4503 | 1.5023 | 0.4583 |
| cnn | kro | True | True | 0 | 256 | 0.5 | 0.0 | 64 | 64 | 64 | 1.641 | 0.4495 | 1.6648 | 0.4436 |
| cnn | kro | True | True | 2 | 128 | 0.25 | 0.5 | 64 | 64 | 64 | 1.533 | 0.4493 | 1.5409 | 0.4495 |
| cnn | kro | True | True | 1 | 256 | 0.25 | 0.5 | 32 | 32 | 32 | 1.554 | 0.4492 | 1.5408 | 0.4542 |
| cnn | kro | True | True | 0 | 256 | 0.25 | 0.0 | 32 | 32 | 32 | 1.754 | 0.4475 | 1.7342 | 0.4499 |
| cnn | kro | True | True | 2 | 256 | 0.0 | 0.25 | 64 | 64 | 64 | 1.809 | 0.4468 | 1.8034 | 0.4546 |
| cnn | kro | True | True | 2 | 128 | 0.5 | 0.25 | 64 | 64 | 64 | 1.571 | 0.4437 | 1.5755 | 0.4414 |
| cnn | kro | True | True | 2 | 128 | 0.0 | 0.5 | 32 | 32 | 32 | 1.535 | 0.4430 | 1.5382 | 0.4416 |
| cnn | kro | True | True | 2 | 128 | 0.5 | 0.25 | 64 | 64 | 64 | 1.563 | 0.4428 | 1.5744 | 0.4387 |
| cnn | kro | True | True | 0 | 256 | 0.25 | 0.5 | 64 | 64 | 64 | 1.554 | 0.4423 | 1.5749 | 0.435 |
| cnn | kro | True | True | 2 | 256 | 0.0 | 0.5 | 32 | 32 | 32 | 1.520 | 0.4422 | 1.5163 | 0.452 |
| cnn | kro | True | True | 0 | 128 | 0.5 | 0.0 | 64 | 64 | 64 | 1.576 | 0.4411 | 1.585 | 0.4365 |
| cnn | kro | True | True | 2 | 128 | 0.0 | 0.0 | 32 | 32 | 32 | 1.702 | 0.4362 | 1.6953 | 0.4431 |
| cnn | kro | True | True | 2 | 128 | 0.25 | 0.0 | 64 | 64 | 64 | 1.602 | 0.4342 | 1.5973 | 0.4295 |
| cnn | kro | True | True | 2 | 256 | 0.0 | 0.5 | 32 | 32 | 32 | 1.556 | 0.4329 | 1.5506 | 0.4354 |
| cnn | kro | True | True | 2 | 128 | 0.0 | 0.25 | 32 | 32 | 32 | 1.545 | 0.4327 | 1.558 | 0.427 |
| cnn | kro | True | True | 2 | 128 | 0.0 | 0.5 | 32 | 32 | 32 | 1.530 | 0.4313 | 1.5295 | 0.4446 |
| cnn | kro | True | True | 0 | 128 | 0.5 | 0.0 | 64 | 64 | 64 | 1.745 | 0.4301 | 1.7206 | 0.4348 |
| cnn | kro | True | True | 1 | 256 | 0.0 | 0.0 | 32 | 32 | 32 | 1.687 | 0.4301 | 1.6827 | 0.434 |
| cnn | kro | True | True | 0 | 128 | 0.5 | 0.0 | 64 | 64 | 64 | 1.716 | 0.4291 | 1.7191 | 0.4304 |
| cnn | kro | True | True | 1 | 128 | 0.5 | 0.5 | 32 | 32 | 32 | 1.588 | 0.4288 | 1.5804 | 0.4368 |
| cnn | kro | True | True | 0 | 128 | 0.0 | 0.25 | 64 | 64 | 64 | 1.961 | 0.4260 | 2.0146 | 0.4154 |
| cnn | kro | True | True | 0 | 256 | 0.0 | 0.0 | 32 | 32 | 32 | 1.746 | 0.4255 | 1.7233 | 0.4286 |
| cnn | kro | True | True | 0 | 256 | 0.25 | 0.0 | 32 | 32 | 32 | 1.678 | 0.4247 | 1.6675 | 0.4259 |
| cnn | kro | True | True | 0 | 128 | 0.25 | 0.0 | 32 | 32 | 32 | 1.639 | 0.4244 | 1.6417 | 0.4188 |
| cnn | kro | True | True | 0 | 256 | 0.5 | 0.0 | 64 | 64 | 64 | 1.683 | 0.4233 | 1.7166 | 0.4167 |
| cnn | kro | True | True | 0 | 256 | 0.25 | 0.25 | 32 | 32 | 32 | 1.666 | 0.4212 | 1.6732 | 0.411 |
| cnn | kro | True | True | 0 | 128 | 0.0 | 0.0 | 64 | 64 | 64 | 2.673 | 0.4201 | 2.6963 | 0.4203 |
| cnn | kro | True | True | 0 | 256 | 0.25 | 0.25 | 32 | 32 | 32 | 1.642 | 0.4178 | 1.6297 | 0.4236 |
| cnn | kro | True | True | 0 | 128 | 0.0 | 0.5 | 64 | 64 | 64 | 1.648 | 0.4175 | 1.6616 | 0.4108 |
| cnn | kro | True | True | 2 | 128 | 0.25 | 0.0 | 32 | 32 | 32 | 1.686 | 0.4171 | 1.7013 | 0.4071 |
| cnn | kro | True | True | 2 | 256 | 0.5 | 0.0 | 64 | 64 | 64 | 1.687 | 0.4141 | 1.6976 | 0.4011 |
| cnn | kro | True | True | 1 | 128 | 0.0 | 0.5 | 32 | 32 | 32 | 1.561 | 0.4121 | 1.5508 | 0.4188 |
| cnn | kro | True | True | 2 | 256 | 0.25 | 0.25 | 64 | 64 | 64 | 1.651 | 0.4098 | 1.6682 | 0.4022 |
| cnn | kro | True | True | 0 | 256 | 0.5 | 0.25 | 32 | 32 | 32 | 1.668 | 0.4095 | 1.6685 | 0.4104 |
| cnn | kro | True | True | 2 | 128 | 0.5 | 0.0 | 32 | 32 | 32 | 1.580 | 0.4095 | 1.5823 | 0.415 |
| cnn | kro | True | True | 0 | 128 | 0.0 | 0.0 | 32 | 32 | 32 | 2.577 | 0.4083 | 2.5321 | 0.4106 |
| cnn | kro | True | True | 0 | 256 | 0.5 | 0.5 | 32 | 32 | 32 | 1.744 | 0.4077 | 1.7474 | 0.4039 |
| cnn | kro | True | True | 0 | 256 | 0.25 | 0.5 | 64 | 64 | 64 | 1.658 | 0.4046 | 1.6535 | 0.4072 |
| cnn | kro | True | True | 2 | 256 | 0.25 | 0.0 | 64 | 64 | 64 | 1.697 | 0.4037 | 1.7109 | 0.396 |
| cnn | kro | True | True | 0 | 256 | 0.5 | 0.0 | 64 | 64 | 64 | 2.271 | 0.4008 | 2.2352 | 0.4036 |
| cnn | kro | True | True | 0 | 256 | 0.5 | 0.5 | 32 | 32 | 32 | 1.675 | 0.3997 | 1.6835 | 0.3987 |
| cnn | kro | True | True | 0 | 256 | 0.0 | 0.25 | 64 | 64 | 64 | 2.878 | 0.3987 | 2.8692 | 0.3884 |
| cnn | kro | True | True | 2 | 128 | 0.5 | 0.0 | 32 | 32 | 32 | 1.613 | 0.3986 | 1.6071 | 0.4076 |
| cnn | kro | True | True | 0 | 128 | 0.0 | 0.0 | 64 | 64 | 64 | 3.026 | 0.3982 | 3.0335 | 0.3958 |
| cnn | kro | True | True | 0 | 256 | 0.25 | 0.25 | 64 | 64 | 64 | 1.890 | 0.3974 | 1.8982 | 0.3936 |
| cnn | kro | True | True | 2 | 128 | 0.5 | 0.0 | 32 | 32 | 32 | 1.659 | 0.3938 | 1.6575 | 0.3979 |
| cnn | kro | True | True | 0 | 128 | 0.25 | 0.0 | 32 | 32 | 32 | 1.728 | 0.3919 | 1.7245 | 0.402 |
| cnn | kro | True | True | 0 | 256 | 0.25 | 0.0 | 64 | 64 | 64 | 2.826 | 0.3873 | 2.8323 | 0.392 |
| cnn | kro | True | True | 2 | 128 | 0.0 | 0.0 | 64 | 64 | 64 | 3.591 | 0.3871 | 3.5558 | 0.3848 |
| cnn | kro | True | True | 2 | 128 | 0.5 | 0.5 | 32 | 32 | 32 | 1.694 | 0.3859 | 1.7096 | 0.3891 |
| cnn | kro | True | True | 0 | 128 | 0.5 | 0.0 | 64 | 64 | 64 | 2.134 | 0.3841 | 2.136 | 0.3889 |
| cnn | kro | True | True | 2 | 128 | 0.25 | 0.25 | 64 | 64 | 64 | 1.705 | 0.3839 | 1.7201 | 0.3734 |
| cnn | kro | True | True | 0 | 128 | 0.0 | 0.25 | 64 | 64 | 64 | 2.745 | 0.3753 | 2.7488 | 0.3755 |
| cnn | kro | True | True | 2 | 256 | 0.25 | 0.0 | 64 | 64 | 64 | 1.674 | 0.3751 | 1.6764 | 0.3717 |
| cnn | kro | True | True | 2 | 128 | 0.25 | 0.25 | 64 | 64 | 64 | 2.489 | 0.3708 | 2.5208 | 0.3704 |
| cnn | kro | True | True | 2 | 256 | 0.0 | 0.25 | 64 | 64 | 64 | 2.511 | 0.3704 | 2.5277 | 0.3755 |
| cnn | kro | True | True | 2 | 256 | 0.5 | 0.0 | 32 | 32 | 32 | 1.788 | 0.3634 | 1.7904 | 0.3628 |
| cnn | kro | True | True | 2 | 128 | 0.0 | 0.5 | 32 | 32 | 32 | 1.819 | 0.3624 | 1.8009 | 0.3655 |
| cnn | kro | True | True | 2 | 256 | 0.5 | 0.0 | 64 | 64 | 64 | 1.830 | 0.3579 | 1.8217 | 0.3639 |
| cnn | kro | True | True | 0 | 128 | 0.25 | 0.0 | 64 | 64 | 64 | 2.959 | 0.3568 | 2.9507 | 0.3579 |
| cnn | kro | True | True | 2 | 256 | 0.25 | 0.5 | 64 | 64 | 64 | 1.841 | 0.3533 | 1.8421 | 0.3561 |
| cnn | kro | True | True | 0 | 128 | 0.25 | 0.25 | 64 | 64 | 64 | 3.259 | 0.3517 | 3.2072 | 0.36 |
| cnn | kro | True | True | 2 | 128 | 0.5 | 0.5 | 64 | 64 | 64 | 1.864 | 0.3497 | 1.8641 | 0.3514 |
| cnn | kro | True | True | 2 | 256 | 0.5 | 0.5 | 64 | 64 | 64 | 1.885 | 0.3476 | 1.8777 | 0.3521 |
| cnn | kro | True | True | 2 | 256 | 0.5 | 0.25 | 64 | 64 | 64 | 1.858 | 0.3435 | 1.8592 | 0.3348 |
| cnn | kro | True | True | 0 | 256 | 0.25 | 0.5 | 64 | 64 | 64 | 2.085 | 0.3366 | 2.0943 | 0.3355 |
| cnn | kro | True | True | 2 | 128 | 0.25 | 0.25 | 64 | 64 | 64 | 2.251 | 0.3272 | 2.2777 | 0.3164 |
| cnn | kro | True | True | 0 | 256 | 0.0 | 0.0 | 32 | 32 | 32 | 2.068 | 0.3257 | 2.0655 | 0.3319 |
| cnn | kro | True | True | 2 | 128 | 0.25 | 0.5 | 64 | 64 | 64 | 1.827 | 0.3228 | 1.8323 | 0.3237 |
| cnn | kro | True | True | 2 | 256 | 0.5 | 0.0 | 64 | 64 | 64 | 1.908 | 0.3173 | 1.9123 | 0.3182 |
| cnn | kro | True | True | 2 | 128 | 0.25 | 0.25 | 64 | 64 | 64 | 2.359 | 0.3149 | 2.3705 | 0.3243 |
| cnn | kro | True | True | 0 | 256 | 0.25 | 0.5 | 16 | 16 | 16 | 11.345 | 0.2952 | 11.2615 | 0.3005 |
| cnn | kro | True | True | 2 | 256 | 0.5 | 0.5 | 64 | 64 | 64 | 1.941 | 0.2879 | 1.9508 | 0.2818 |
| cnn | kro | True | True | 0 | 128 | 0.5 | 0.25 | 64 | 64 | 64 | 4.428 | 0.2821 | 4.3395 | 0.2965 |
| cnn | kro | True | True | 0 | 256 | 0.5 | 0.5 | 32 | 32 | 32 | 11.638 | 0.2773 | 11.5834 | 0.2808 |
| cnn | kro | True | True | 0 | 256 | 0.25 | 0.25 | 16 | 16 | 16 | 11.644 | 0.2771 | 11.5732 | 0.2812 |
| cnn | kro | True | True | 0 | 256 | 0.0 | 0.0 | 16 | 16 | 16 | 11.660 | 0.2756 | 11.519 | 0.2847 |
| cnn | kro | True | True | 2 | 256 | 0.0 | 0.25 | 64 | 64 | 64 | 5.741 | 0.2738 | 5.8792 | 0.2687 |
| cnn | kro | True | True | 0 | 256 | 0.0 | 0.5 | 16 | 16 | 16 | 11.710 | 0.2724 | 11.5864 | 0.2807 |
| cnn | kro | True | True | 0 | 256 | 0.5 | 0.25 | 32 | 32 | 32 | 11.737 | 0.2711 | 11.5163 | 0.2847 |
| cnn | kro | True | True | 2 | 128 | 0.0 | 0.5 | 64 | 64 | 64 | 3.681 | 0.2703 | 3.6722 | 0.2697 |
| cnn | kro | True | True | 0 | 256 | 0.5 | 0.5 | 32 | 32 | 32 | 11.790 | 0.2677 | 11.7906 | 0.2682 |
| cnn | kro | True | True | 0 | 256 | 0.0 | 0.0 | 16 | 16 | 16 | 11.795 | 0.2675 | 11.7097 | 0.2726 |
| cnn | kro | True | True | 0 | 256 | 0.0 | 0.5 | 16 | 16 | 16 | 11.826 | 0.2656 | 11.6835 | 0.2738 |
| cnn | kro | True | True | 0 | 128 | 0.0 | 0.0 | 16 | 16 | 16 | 11.842 | 0.2648 | 11.7531 | 0.2699 |
| cnn | kro | True | True | 0 | 256 | 0.5 | 0.25 | 16 | 16 | 16 | 11.827 | 0.2646 | 11.6232 | 0.2772 |
| cnn | kro | True | True | 0 | 256 | 0.0 | 0.5 | 16 | 16 | 16 | 11.852 | 0.2642 | 11.7518 | 0.2698 |
| cnn | kro | True | True | 2 | 256 | 0.25 | 0.0 | 64 | 64 | 64 | 2.488 | 0.2619 | 2.538 | 0.2575 |
| cnn | kro | True | True | 0 | 256 | 0.25 | 0.5 | 32 | 32 | 32 | 11.896 | 0.2615 | 11.7787 | 0.2687 |
| cnn | kro | True | True | 0 | 256 | 0.25 | 0.5 | 32 | 32 | 32 | 11.905 | 0.2611 | 11.8382 | 0.265 |
| cnn | kro | True | True | 0 | 256 | 0.25 | 0.0 | 16 | 16 | 16 | 11.906 | 0.2608 | 11.8235 | 0.2661 |
| cnn | kro | True | True | 0 | 256 | 0.5 | 0.0 | 16 | 16 | 16 | 11.950 | 0.2579 | 11.9363 | 0.2588 |
| cnn | kro | True | True | 0 | 256 | 0.0 | 0.25 | 16 | 16 | 16 | 11.966 | 0.2571 | 11.8046 | 0.2666 |
| cnn | kro | True | True | 0 | 256 | 0.0 | 0.0 | 16 | 16 | 16 | 11.974 | 0.2566 | 11.8857 | 0.2625 |
| cnn | kro | True | True | 0 | 256 | 0.0 | 0.25 | 16 | 16 | 16 | 11.996 | 0.2551 | 11.8984 | 0.2613 |
| cnn | kro | True | True | 0 | 256 | 0.5 | 0.0 | 16 | 16 | 16 | 12.027 | 0.2531 | 12.0156 | 0.2538 |
| cnn | kro | True | True | 0 | 256 | 0.5 | 0.25 | 16 | 16 | 16 | 12.030 | 0.2528 | 12.0708 | 0.2498 |
| cnn | kro | True | True | 0 | 256 | 0.25 | 0.5 | 16 | 16 | 16 | 12.035 | 0.2518 | 12.0208 | 0.253 |
| cnn | kro | True | True | 0 | 256 | 0.0 | 0.0 | 32 | 32 | 32 | 12.068 | 0.2511 | 11.9582 | 0.2578 |
| cnn | kro | True | True | 0 | 128 | 0.0 | 0.0 | 16 | 16 | 16 | 12.075 | 0.2501 | 12.0542 | 0.2512 |
| cnn | kro | True | True | 0 | 256 | 0.0 | 0.25 | 16 | 16 | 16 | 12.081 | 0.2497 | 12.1675 | 0.2446 |
| cnn | kro | True | True | 0 | 256 | 0.5 | 0.25 | 32 | 32 | 32 | 12.091 | 0.2491 | 12.0102 | 0.2546 |
| cnn | kro | True | True | 0 | 256 | 0.25 | 0.5 | 16 | 16 | 16 | 12.146 | 0.2455 | 12.0278 | 0.253 |
| cnn | kro | True | True | 0 | 256 | 0.25 | 0.5 | 32 | 32 | 32 | 12.178 | 0.2440 | 12.1218 | 0.2477 |
| cnn | kro | True | True | 0 | 256 | 0.0 | 0.25 | 16 | 16 | 16 | 12.186 | 0.2433 | 12.1223 | 0.2473 |
| cnn | kro | True | True | 0 | 128 | 0.5 | 0.5 | 32 | 32 | 32 | 12.189 | 0.2427 | 12.009 | 0.2542 |
| cnn | kro | True | True | 0 | 128 | 0.25 | 0.25 | 16 | 16 | 16 | 12.216 | 0.2411 | 12.1775 | 0.2438 |
| cnn | kro | True | True | 0 | 256 | 0.25 | 0.5 | 32 | 32 | 32 | 12.217 | 0.2409 | 12.1961 | 0.2423 |
| cnn | kro | True | True | 0 | 128 | 0.25 | 0.5 | 32 | 32 | 32 | 12.235 | 0.2404 | 12.2268 | 0.2405 |
| cnn | kro | True | True | 0 | 256 | 0.5 | 0.5 | 64 | 64 | 64 | 12.266 | 0.2388 | 12.1568 | 0.2456 |
| cnn | kro | True | True | 0 | 256 | 0.0 | 0.25 | 32 | 32 | 32 | 12.281 | 0.2378 | 12.2094 | 0.242 |
| cnn | kro | True | True | 0 | 256 | 0.25 | 0.0 | 16 | 16 | 16 | 12.312 | 0.2358 | 12.2508 | 0.2395 |
| cnn | kro | True | True | 0 | 256 | 0.5 | 0.25 | 16 | 16 | 16 | 12.294 | 0.2358 | 12.1747 | 0.2441 |
| cnn | kro | True | True | 0 | 256 | 0.0 | 0.5 | 32 | 32 | 32 | 12.322 | 0.2352 | 12.3138 | 0.2358 |
| cnn | kro | True | True | 0 | 128 | 0.5 | 0.25 | 64 | 64 | 64 | 12.335 | 0.2345 | 12.4461 | 0.2276 |
| cnn | kro | True | True | 0 | 256 | 0.5 | 0.0 | 16 | 16 | 16 | 12.338 | 0.2342 | 12.3833 | 0.2312 |
| cnn | kro | True | True | 0 | 128 | 0.5 | 0.0 | 32 | 32 | 32 | 12.336 | 0.2340 | 12.3183 | 0.2351 |
| cnn | kro | True | True | 0 | 256 | 0.5 | 0.0 | 32 | 32 | 32 | 12.341 | 0.2338 | 12.3996 | 0.2305 |
| cnn | kro | True | True | 0 | 128 | 0.25 | 0.5 | 32 | 32 | 32 | 12.344 | 0.2333 | 12.2672 | 0.2379 |
| cnn | kro | True | True | 0 | 128 | 0.0 | 0.0 | 16 | 16 | 16 | 12.355 | 0.2328 | 12.3806 | 0.2314 |
| cnn | kro | True | True | 1 | 128 | 0.0 | 0.0 | 16 | 16 | 16 | 12.351 | 0.2325 | 12.3772 | 0.2308 |
| cnn | kro | True | True | 0 | 256 | 0.25 | 0.25 | 32 | 32 | 32 | 12.369 | 0.2321 | 12.3046 | 0.2365 |
| cnn | kro | True | True | 0 | 256 | 0.0 | 0.0 | 16 | 16 | 16 | 12.373 | 0.2321 | 12.3685 | 0.2323 |
| cnn | kro | True | True | 0 | 256 | 0.0 | 0.25 | 32 | 32 | 32 | 12.374 | 0.2318 | 12.2901 | 0.2372 |
| cnn | kro | True | True | 0 | 128 | 0.25 | 0.0 | 16 | 16 | 16 | 12.377 | 0.2314 | 12.4889 | 0.2247 |
| cnn | kro | True | True | 0 | 256 | 0.25 | 0.25 | 16 | 16 | 16 | 12.382 | 0.2311 | 12.3279 | 0.2347 |
| cnn | kro | True | True | 0 | 256 | 0.5 | 0.5 | 64 | 64 | 64 | 12.392 | 0.2309 | 12.4051 | 0.2302 |
| cnn | kro | True | True | 0 | 256 | 0.0 | 0.5 | 32 | 32 | 32 | 12.389 | 0.2308 | 12.3747 | 0.2318 |
| cnn | kro | True | True | 0 | 256 | 0.25 | 0.0 | 32 | 32 | 32 | 12.399 | 0.2304 | 12.3708 | 0.232 |
| cnn | kro | True | True | 0 | 256 | 0.5 | 0.0 | 16 | 16 | 16 | 12.418 | 0.2292 | 12.5459 | 0.2215 |
| cnn | kro | True | True | 0 | 128 | 0.25 | 0.25 | 16 | 16 | 16 | 12.424 | 0.2286 | 12.5889 | 0.2182 |
| cnn | kro | True | True | 0 | 128 | 0.0 | 0.25 | 32 | 32 | 32 | 12.440 | 0.2276 | 12.3595 | 0.2322 |
| cnn | kro | True | True | 0 | 128 | 0.25 | 0.5 | 16 | 16 | 16 | 12.445 | 0.2266 | 12.4941 | 0.2235 |
| cnn | kro | True | True | 0 | 128 | 0.5 | 0.25 | 32 | 32 | 32 | 12.467 | 0.2258 | 12.4265 | 0.2287 |
| cnn | kro | True | True | 2 | 128 | 0.25 | 0.5 | 64 | 64 | 64 | 3.710 | 0.2251 | 3.6572 | 0.2297 |
| cnn | kro | True | True | 2 | 128 | 0.5 | 0.5 | 64 | 64 | 64 | 2.805 | 0.2247 | 2.8269 | 0.2145 |
| cnn | kro | True | True | 1 | 128 | 0.25 | 0.25 | 16 | 16 | 16 | 12.470 | 0.2246 | 12.5032 | 0.2228 |
| cnn | kro | True | True | 0 | 128 | 0.25 | 0.5 | 32 | 32 | 32 | 12.487 | 0.2240 | 12.4094 | 0.229 |
| cnn | kro | True | True | 0 | 128 | 0.0 | 0.25 | 16 | 16 | 16 | 12.505 | 0.2235 | 12.5285 | 0.2219 |
| cnn | kro | True | True | 0 | 128 | 0.0 | 0.0 | 32 | 32 | 32 | 12.507 | 0.2230 | 12.4204 | 0.2284 |
| cnn | kro | True | True | 0 | 256 | 0.25 | 0.0 | 32 | 32 | 32 | 12.524 | 0.2227 | 12.4 | 0.2303 |
| cnn | kro | True | True | 0 | 128 | 0.5 | 0.0 | 16 | 16 | 16 | 12.520 | 0.2227 | 12.6138 | 0.2163 |
| cnn | kro | True | True | 0 | 128 | 0.0 | 0.5 | 16 | 16 | 16 | 12.518 | 0.2226 | 12.7051 | 0.2109 |
| cnn | kro | True | True | 0 | 128 | 0.25 | 0.5 | 16 | 16 | 16 | 12.526 | 0.2221 | 12.5757 | 0.2188 |
| cnn | kro | True | True | 1 | 128 | 0.5 | 0.5 | 32 | 32 | 32 | 12.515 | 0.2219 | 12.4664 | 0.2247 |
| cnn | kro | True | True | 0 | 256 | 0.0 | 0.25 | 64 | 64 | 64 | 12.558 | 0.2207 | 12.4512 | 0.2275 |
| cnn | kro | True | True | 0 | 256 | 0.25 | 0.0 | 16 | 16 | 16 | 12.558 | 0.2205 | 12.3743 | 0.2318 |
| cnn | kro | True | True | 0 | 128 | 0.25 | 0.5 | 16 | 16 | 16 | 12.543 | 0.2203 | 12.609 | 0.2165 |
| cnn | kro | True | True | 0 | 256 | 0.25 | 0.25 | 64 | 64 | 64 | 12.566 | 0.2202 | 12.4122 | 0.2298 |
| cnn | kro | True | True | 0 | 128 | 0.25 | 0.0 | 16 | 16 | 16 | 12.560 | 0.2198 | 12.582 | 0.2183 |
| cnn | kro | True | True | 0 | 128 | 0.0 | 0.0 | 32 | 32 | 32 | 12.567 | 0.2198 | 12.4754 | 0.2254 |
| cnn | kro | True | True | 1 | 128 | 0.5 | 0.25 | 16 | 16 | 16 | 12.570 | 0.2194 | 12.5829 | 0.2187 |
| cnn | kro | True | True | 0 | 256 | 0.0 | 0.5 | 32 | 32 | 32 | 12.585 | 0.2188 | 12.7439 | 0.2092 |
| cnn | kro | True | True | 0 | 128 | 0.25 | 0.25 | 32 | 32 | 32 | 12.598 | 0.2176 | 12.4978 | 0.2241 |
| cnn | kro | True | True | 1 | 128 | 0.5 | 0.0 | 16 | 16 | 16 | 12.588 | 0.2175 | 12.5663 | 0.2189 |
| cnn | kro | True | True | 0 | 256 | 0.0 | 0.5 | 16 | 16 | 16 | 12.605 | 0.2174 | 12.6369 | 0.2153 |
| cnn | kro | True | True | 0 | 128 | 0.5 | 0.0 | 16 | 16 | 16 | 12.605 | 0.2173 | 12.6534 | 0.2147 |
| cnn | kro | True | True | 0 | 256 | 0.5 | 0.0 | 32 | 32 | 32 | 12.611 | 0.2173 | 12.5799 | 0.2191 |
| cnn | kro | True | True | 0 | 256 | 0.5 | 0.0 | 32 | 32 | 32 | 12.624 | 0.2166 | 12.3957 | 0.2304 |
| cnn | kro | True | True | 0 | 256 | 0.25 | 0.5 | 64 | 64 | 64 | 12.624 | 0.2164 | 12.5718 | 0.2197 |
| cnn | kro | True | True | 1 | 256 | 0.25 | 0.25 | 16 | 16 | 16 | 12.617 | 0.2163 | 12.6518 | 0.2142 |
| cnn | kro | True | True | 0 | 128 | 0.5 | 0.25 | 32 | 32 | 32 | 12.630 | 0.2162 | 12.5997 | 0.2178 |
| cnn | kro | True | True | 0 | 256 | 0.25 | 0.0 | 16 | 16 | 16 | 12.628 | 0.2159 | 12.6888 | 0.2123 |
| cnn | kro | True | True | 2 | 256 | 0.25 | 0.5 | 16 | 16 | 16 | 12.625 | 0.2157 | 12.6575 | 0.2139 |
| cnn | kro | True | True | 2 | 128 | 0.25 | 0.0 | 16 | 16 | 16 | 12.616 | 0.2154 | 12.7194 | 0.2094 |
| cnn | kro | True | True | 0 | 128 | 0.0 | 0.5 | 16 | 16 | 16 | 12.657 | 0.2135 | 12.6843 | 0.212 |
| cnn | kro | True | True | 0 | 128 | 0.5 | 0.25 | 32 | 32 | 32 | 12.668 | 0.2134 | 12.6358 | 0.2156 |
| cnn | kro | True | True | 0 | 256 | 0.0 | 0.25 | 32 | 32 | 32 | 12.679 | 0.2130 | 12.5201 | 0.223 |
| cnn | kro | True | True | 0 | 256 | 0.5 | 0.25 | 16 | 16 | 16 | 12.685 | 0.2126 | 12.7594 | 0.2081 |
| cnn | kro | True | True | 0 | 128 | 0.5 | 0.5 | 32 | 32 | 32 | 12.686 | 0.2120 | 12.5793 | 0.219 |
| cnn | kro | True | True | 1 | 128 | 0.0 | 0.25 | 16 | 16 | 16 | 12.690 | 0.2115 | 12.6299 | 0.2155 |
| cnn | kro | True | True | 0 | 128 | 0.0 | 0.5 | 16 | 16 | 16 | 12.698 | 0.2114 | 12.7181 | 0.2104 |
| cnn | kro | True | True | 0 | 128 | 0.0 | 0.25 | 16 | 16 | 16 | 12.701 | 0.2113 | 12.5757 | 0.2194 |
| cnn | kro | True | True | 0 | 256 | 0.5 | 0.5 | 16 | 16 | 16 | 12.705 | 0.2109 | 12.767 | 0.2069 |
| cnn | kro | True | True | 0 | 128 | 0.0 | 0.5 | 64 | 64 | 64 | 12.720 | 0.2106 | 12.8609 | 0.2019 |
| cnn | kro | True | True | 0 | 128 | 0.25 | 0.0 | 32 | 32 | 32 | 12.745 | 0.2090 | 12.5629 | 0.2201 |
| cnn | kro | True | True | 0 | 128 | 0.0 | 0.5 | 16 | 16 | 16 | 12.749 | 0.2077 | 12.7909 | 0.2054 |
| cnn | kro | True | True | 1 | 256 | 0.0 | 0.5 | 32 | 32 | 32 | 12.772 | 0.2072 | 12.7257 | 0.21 |
| cnn | kro | True | True | 0 | 128 | 0.5 | 0.25 | 16 | 16 | 16 | 12.771 | 0.2070 | 12.8748 | 0.2006 |
| cnn | kro | True | True | 1 | 128 | 0.0 | 0.25 | 16 | 16 | 16 | 12.771 | 0.2063 | 12.7914 | 0.2051 |
| cnn | kro | True | True | 0 | 256 | 0.5 | 0.0 | 32 | 32 | 32 | 12.794 | 0.2060 | 12.7859 | 0.2064 |
| cnn | kro | True | True | 1 | 128 | 0.5 | 0.5 | 16 | 16 | 16 | 12.802 | 0.2046 | 12.8161 | 0.2038 |
| cnn | kro | True | True | 0 | 256 | 0.25 | 0.25 | 16 | 16 | 16 | 12.815 | 0.2045 | 12.78 | 0.2068 |
| cnn | kro | True | True | 1 | 256 | 0.25 | 0.25 | 16 | 16 | 16 | 12.822 | 0.2040 | 12.8114 | 0.2046 |
| cnn | kro | True | True | 1 | 256 | 0.0 | 0.25 | 32 | 32 | 32 | 12.835 | 0.2033 | 12.8089 | 0.2049 |
| cnn | kro | True | True | 0 | 128 | 0.25 | 0.25 | 32 | 32 | 32 | 12.850 | 0.2021 | 12.804 | 0.2052 |
| cnn | kro | True | True | 0 | 256 | 0.5 | 0.5 | 16 | 16 | 16 | 12.875 | 0.2008 | 12.9137 | 0.1984 |
| cnn | kro | True | True | 1 | 128 | 0.25 | 0.5 | 32 | 32 | 32 | 12.877 | 0.2005 | 12.9257 | 0.1973 |
| cnn | kro | True | True | 1 | 256 | 0.5 | 0.25 | 16 | 16 | 16 | 12.877 | 0.2004 | 12.7442 | 0.2083 |
| cnn | kro | True | True | 0 | 128 | 0.0 | 0.25 | 32 | 32 | 32 | 12.898 | 0.1995 | 12.8128 | 0.2047 |
| cnn | kro | True | True | 0 | 256 | 0.25 | 0.25 | 16 | 16 | 16 | 12.893 | 0.1994 | 13.0255 | 0.1916 |
| cnn | kro | True | True | 1 | 128 | 0.5 | 0.25 | 16 | 16 | 16 | 12.879 | 0.1992 | 12.819 | 0.2033 |
| cnn | kro | True | True | 1 | 256 | 0.25 | 0.0 | 16 | 16 | 16 | 12.913 | 0.1986 | 12.8559 | 0.2019 |
| cnn | kro | True | True | 1 | 256 | 0.5 | 0.0 | 32 | 32 | 32 | 12.909 | 0.1985 | 12.7865 | 0.2064 |
| cnn | kro | True | True | 0 | 128 | 0.25 | 0.0 | 16 | 16 | 16 | 12.905 | 0.1984 | 12.8018 | 0.2048 |
| cnn | kro | True | True | 1 | 128 | 0.0 | 0.25 | 16 | 16 | 16 | 12.911 | 0.1980 | 12.8834 | 0.2001 |
| cnn | kro | True | True | 1 | 256 | 0.0 | 0.0 | 16 | 16 | 16 | 12.917 | 0.1980 | 12.9849 | 0.1941 |
| cnn | kro | True | True | 1 | 256 | 0.25 | 0.25 | 16 | 16 | 16 | 12.933 | 0.1972 | 12.9286 | 0.1975 |
| cnn | kro | True | True | 1 | 256 | 0.0 | 0.0 | 32 | 32 | 32 | 12.940 | 0.1968 | 13.0448 | 0.1901 |
| cnn | kro | True | True | 1 | 128 | 0.5 | 0.25 | 16 | 16 | 16 | 12.931 | 0.1967 | 12.815 | 0.204 |
| cnn | kro | True | True | 1 | 128 | 0.0 | 0.0 | 32 | 32 | 32 | 12.941 | 0.1967 | 12.8435 | 0.2026 |
| cnn | kro | True | True | 1 | 128 | 0.25 | 0.0 | 16 | 16 | 16 | 12.936 | 0.1965 | 12.9397 | 0.1965 |
| cnn | kro | True | True | 0 | 256 | 0.5 | 0.25 | 32 | 32 | 32 | 12.946 | 0.1963 | 12.8425 | 0.2027 |
| cnn | kro | True | True | 0 | 128 | 0.25 | 0.5 | 16 | 16 | 16 | 12.963 | 0.1949 | 12.9062 | 0.1981 |
| cnn | kro | True | True | 0 | 128 | 0.0 | 0.5 | 32 | 32 | 32 | 12.984 | 0.1942 | 12.8808 | 0.2004 |
| cnn | kro | True | True | 0 | 256 | 0.5 | 0.5 | 16 | 16 | 16 | 12.981 | 0.1940 | 13.0434 | 0.1906 |
| cnn | kro | True | True | 1 | 128 | 0.25 | 0.5 | 16 | 16 | 16 | 12.993 | 0.1935 | 12.9315 | 0.197 |
| cnn | kro | True | True | 0 | 128 | 0.5 | 0.0 | 16 | 16 | 16 | 12.987 | 0.1934 | 12.9855 | 0.1939 |
| cnn | kro | True | True | 1 | 256 | 0.5 | 0.0 | 16 | 16 | 16 | 12.988 | 0.1930 | 13.007 | 0.1925 |
| cnn | kro | True | True | 0 | 256 | 0.0 | 0.25 | 64 | 64 | 64 | 13.017 | 0.1921 | 12.8846 | 0.2005 |
| cnn | kro | True | True | 0 | 128 | 0.25 | 0.25 | 32 | 32 | 32 | 13.015 | 0.1920 | 12.9446 | 0.1967 |
| cnn | kro | True | True | 1 | 256 | 0.0 | 0.5 | 16 | 16 | 16 | 13.033 | 0.1908 | 12.9134 | 0.1982 |
| cnn | kro | True | True | 0 | 256 | 0.5 | 0.5 | 16 | 16 | 16 | 13.042 | 0.1905 | 13.0295 | 0.1911 |
| cnn | kro | True | True | 0 | 256 | 0.25 | 0.5 | 16 | 16 | 16 | 13.037 | 0.1904 | 13.1298 | 0.1849 |
| cnn | kro | True | True | 1 | 128 | 0.25 | 0.25 | 16 | 16 | 16 | 13.029 | 0.1904 | 13.0285 | 0.1907 |
| cnn | kro | True | True | 1 | 256 | 0.0 | 0.25 | 16 | 16 | 16 | 13.025 | 0.1904 | 13.0262 | 0.1911 |
| cnn | kro | True | True | 0 | 128 | 0.25 | 0.0 | 16 | 16 | 16 | 13.058 | 0.1894 | 13.0815 | 0.1882 |
| cnn | kro | True | True | 1 | 256 | 0.0 | 0.25 | 16 | 16 | 16 | 13.059 | 0.1892 | 13.1025 | 0.1869 |
| cnn | kro | True | True | 1 | 256 | 0.25 | 0.0 | 16 | 16 | 16 | 13.072 | 0.1887 | 13.0914 | 0.1875 |
| cnn | kro | True | True | 1 | 128 | 0.0 | 0.0 | 16 | 16 | 16 | 13.066 | 0.1887 | 12.9195 | 0.1977 |
| cnn | kro | True | True | 1 | 256 | 0.0 | 0.25 | 16 | 16 | 16 | 13.074 | 0.1884 | 12.949 | 0.1956 |
| cnn | kro | True | True | 0 | 128 | 0.25 | 0.25 | 32 | 32 | 32 | 13.083 | 0.1880 | 12.971 | 0.195 |
| cnn | kro | True | True | 0 | 128 | 0.5 | 0.25 | 16 | 16 | 16 | 13.081 | 0.1874 | 13.1603 | 0.1829 |
| cnn | kro | True | True | 2 | 256 | 0.5 | 0.5 | 16 | 16 | 16 | 13.097 | 0.1871 | 13.2213 | 0.1794 |
| cnn | kro | True | True | 1 | 256 | 0.0 | 0.0 | 16 | 16 | 16 | 13.093 | 0.1868 | 13.0084 | 0.1922 |
| cnn | kro | True | True | 2 | 128 | 0.0 | 0.25 | 16 | 16 | 16 | 13.109 | 0.1864 | 13.1972 | 0.1806 |
| cnn | kro | True | True | 1 | 128 | 0.0 | 0.0 | 16 | 16 | 16 | 13.105 | 0.1862 | 13.0778 | 0.1882 |
| cnn | kro | True | True | 0 | 128 | 0.5 | 0.5 | 16 | 16 | 16 | 13.103 | 0.1862 | 13.1959 | 0.1804 |
| cnn | kro | True | True | 1 | 128 | 0.0 | 0.25 | 16 | 16 | 16 | 13.098 | 0.1862 | 13.0528 | 0.1891 |
| cnn | kro | True | True | 2 | 128 | 0.5 | 0.25 | 64 | 64 | 64 | 13.115 | 0.1859 | 13.1714 | 0.1826 |
| cnn | kro | True | True | 1 | 256 | 0.0 | 0.0 | 32 | 32 | 32 | 13.116 | 0.1859 | 13.0698 | 0.1889 |
| cnn | kro | True | True | 1 | 256 | 0.5 | 0.0 | 32 | 32 | 32 | 13.122 | 0.1855 | 13.123 | 0.1855 |
| cnn | kro | True | True | 1 | 256 | 0.0 | 0.5 | 16 | 16 | 16 | 13.128 | 0.1849 | 13.1665 | 0.1825 |
| cnn | kro | True | True | 2 | 256 | 0.5 | 0.5 | 16 | 16 | 16 | 13.143 | 0.1844 | 13.2471 | 0.1777 |
| cnn | kro | True | True | 1 | 128 | 0.5 | 0.25 | 64 | 64 | 64 | 13.133 | 0.1842 | 13.0958 | 0.1869 |
| cnn | kro | True | True | 0 | 128 | 0.0 | 0.25 | 16 | 16 | 16 | 13.144 | 0.1834 | 13.1628 | 0.1814 |
| cnn | kro | True | True | 0 | 128 | 0.25 | 0.25 | 16 | 16 | 16 | 13.160 | 0.1829 | 13.2278 | 0.1789 |
| cnn | kro | True | True | 2 | 128 | 0.25 | 0.5 | 32 | 32 | 32 | 13.166 | 0.1826 | 13.2559 | 0.1774 |
| cnn | kro | True | True | 2 | 256 | 0.0 | 0.0 | 16 | 16 | 16 | 13.170 | 0.1826 | 13.272 | 0.1764 |
| cnn | kro | True | True | 1 | 128 | 0.25 | 0.5 | 32 | 32 | 32 | 13.172 | 0.1820 | 13.1754 | 0.1822 |
| cnn | kro | True | True | 0 | 128 | 0.5 | 0.5 | 16 | 16 | 16 | 13.184 | 0.1811 | 13.2395 | 0.1777 |
| cnn | kro | True | True | 1 | 128 | 0.0 | 0.0 | 16 | 16 | 16 | 13.186 | 0.1810 | 13.0983 | 0.1867 |
| cnn | kro | True | True | 2 | 128 | 0.5 | 0.0 | 16 | 16 | 16 | 13.204 | 0.1806 | 13.2813 | 0.1757 |
| cnn | kro | True | True | 1 | 128 | 0.5 | 0.25 | 16 | 16 | 16 | 13.200 | 0.1800 | 13.1659 | 0.1817 |
| cnn | kro | True | True | 1 | 256 | 0.5 | 0.5 | 16 | 16 | 16 | 13.207 | 0.1800 | 13.1726 | 0.1824 |
| cnn | kro | True | True | 1 | 256 | 0.5 | 0.25 | 16 | 16 | 16 | 13.215 | 0.1793 | 13.2044 | 0.1806 |
| cnn | kro | True | True | 2 | 128 | 0.25 | 0.5 | 32 | 32 | 32 | 13.224 | 0.1789 | 13.3159 | 0.1732 |
| cnn | kro | True | True | 2 | 128 | 0.0 | 0.25 | 16 | 16 | 16 | 13.212 | 0.1789 | 13.1817 | 0.1805 |
| cnn | kro | True | True | 1 | 128 | 0.5 | 0.25 | 32 | 32 | 32 | 13.255 | 0.1773 | 13.2667 | 0.1766 |
| cnn | kro | True | True | 1 | 128 | 0.0 | 0.5 | 16 | 16 | 16 | 13.247 | 0.1769 | 13.2677 | 0.1755 |
| cnn | kro | True | True | 1 | 256 | 0.25 | 0.5 | 32 | 32 | 32 | 13.273 | 0.1763 | 13.3199 | 0.1736 |
| cnn | kro | True | True | 2 | 128 | 0.0 | 0.5 | 16 | 16 | 16 | 13.276 | 0.1756 | 13.2668 | 0.1758 |
| cnn | kro | True | True | 0 | 128 | 0.5 | 0.5 | 16 | 16 | 16 | 13.282 | 0.1754 | 13.2738 | 0.1758 |
| cnn | kro | True | True | 0 | 128 | 0.5 | 0.0 | 32 | 32 | 32 | 13.285 | 0.1750 | 13.2053 | 0.1799 |
| cnn | kro | True | True | 2 | 128 | 0.5 | 0.25 | 16 | 16 | 16 | 13.300 | 0.1744 | 13.2926 | 0.1749 |
| cnn | kro | True | True | 2 | 256 | 0.5 | 0.25 | 32 | 32 | 32 | 13.307 | 0.1740 | 13.3276 | 0.173 |
| cnn | kro | True | True | 1 | 128 | 0.25 | 0.25 | 32 | 32 | 32 | 13.310 | 0.1738 | 13.3431 | 0.1718 |
| cnn | kro | True | True | 1 | 256 | 0.0 | 0.5 | 32 | 32 | 32 | 13.324 | 0.1732 | 13.3155 | 0.1738 |
| cnn | kro | True | True | 1 | 256 | 0.25 | 0.0 | 32 | 32 | 32 | 13.326 | 0.1731 | 13.2921 | 0.1753 |
| cnn | kro | True | True | 2 | 256 | 0.5 | 0.25 | 32 | 32 | 32 | 13.323 | 0.1730 | 13.3372 | 0.1718 |
| cnn | kro | True | True | 2 | 256 | 0.0 | 0.5 | 32 | 32 | 32 | 13.329 | 0.1728 | 13.3688 | 0.1703 |
| cnn | kro | True | True | 1 | 256 | 0.0 | 0.25 | 16 | 16 | 16 | 13.330 | 0.1726 | 13.3187 | 0.1731 |
| cnn | kro | True | True | 2 | 256 | 0.25 | 0.5 | 16 | 16 | 16 | 13.336 | 0.1723 | 13.4388 | 0.1659 |
| cnn | kro | True | True | 2 | 128 | 0.5 | 0.5 | 16 | 16 | 16 | 13.332 | 0.1722 | 13.34 | 0.1718 |
| cnn | kro | True | True | 2 | 256 | 0.5 | 0.5 | 32 | 32 | 32 | 13.339 | 0.1719 | 13.3434 | 0.1718 |
| cnn | kro | True | True | 2 | 256 | 0.25 | 0.5 | 32 | 32 | 32 | 13.354 | 0.1713 | 13.3456 | 0.1717 |
| cnn | kro | True | True | 2 | 256 | 0.0 | 0.5 | 16 | 16 | 16 | 13.379 | 0.1694 | 13.4096 | 0.1676 |
| cnn | kro | True | True | 0 | 128 | 0.0 | 0.25 | 16 | 16 | 16 | 13.385 | 0.1688 | 13.3632 | 0.1705 |
| cnn | kro | True | True | 0 | 128 | 0.25 | 0.25 | 16 | 16 | 16 | 13.386 | 0.1685 | 13.4602 | 0.1644 |
| cnn | kro | True | True | 2 | 128 | 0.5 | 0.0 | 16 | 16 | 16 | 13.406 | 0.1676 | 13.504 | 0.1616 |
| cnn | kro | True | True | 2 | 128 | 0.5 | 0.25 | 32 | 32 | 32 | 13.417 | 0.1673 | 13.3734 | 0.17 |
| cnn | kro | True | True | 2 | 128 | 0.25 | 0.5 | 16 | 16 | 16 | 13.418 | 0.1672 | 13.4206 | 0.1669 |
| cnn | kro | True | True | 2 | 256 | 0.0 | 0.5 | 16 | 16 | 16 | 13.421 | 0.1671 | 13.4097 | 0.1677 |
| cnn | kro | True | True | 2 | 128 | 0.25 | 0.5 | 64 | 64 | 64 | 13.419 | 0.1671 | 13.4135 | 0.1675 |
| cnn | kro | True | True | 1 | 128 | 0.5 | 0.5 | 64 | 64 | 64 | 13.431 | 0.1665 | 13.4644 | 0.1646 |
| cnn | kro | True | True | 1 | 128 | 0.25 | 0.25 | 64 | 64 | 64 | 13.435 | 0.1659 | 13.4492 | 0.1648 |
| cnn | kro | True | True | 2 | 256 | 0.25 | 0.0 | 16 | 16 | 16 | 13.438 | 0.1656 | 13.4911 | 0.1627 |
| cnn | kro | True | True | 1 | 128 | 0.5 | 0.0 | 16 | 16 | 16 | 13.434 | 0.1655 | 13.3613 | 0.1701 |
| cnn | kro | True | True | 1 | 128 | 0.5 | 0.5 | 64 | 64 | 64 | 13.445 | 0.1655 | 13.4464 | 0.1656 |
| cnn | kro | True | True | 1 | 128 | 0.5 | 0.5 | 16 | 16 | 16 | 13.446 | 0.1653 | 13.4086 | 0.1679 |
| cnn | kro | True | True | 0 | 128 | 0.5 | 0.0 | 32 | 32 | 32 | 13.451 | 0.1652 | 13.384 | 0.1692 |
| cnn | kro | True | True | 1 | 128 | 0.5 | 0.5 | 16 | 16 | 16 | 13.443 | 0.1652 | 13.4249 | 0.1656 |
| cnn | kro | True | True | 2 | 256 | 0.5 | 0.5 | 32 | 32 | 32 | 13.449 | 0.1651 | 13.4545 | 0.165 |
| cnn | kro | True | True | 2 | 128 | 0.25 | 0.25 | 16 | 16 | 16 | 13.445 | 0.1651 | 13.414 | 0.1669 |
| cnn | kro | True | True | 1 | 256 | 0.5 | 0.25 | 16 | 16 | 16 | 13.456 | 0.1648 | 13.4102 | 0.1677 |
| cnn | kro | True | True | 2 | 256 | 0.5 | 0.25 | 16 | 16 | 16 | 13.459 | 0.1647 | 13.4198 | 0.1672 |
| cnn | kro | True | True | 0 | 128 | 0.0 | 0.0 | 16 | 16 | 16 | 13.452 | 0.1646 | 13.4585 | 0.1644 |
| cnn | kro | True | True | 1 | 128 | 0.5 | 0.5 | 16 | 16 | 16 | 13.454 | 0.1645 | 13.4174 | 0.167 |
| cnn | kro | True | True | 1 | 128 | 0.5 | 0.0 | 16 | 16 | 16 | 13.459 | 0.1643 | 13.4205 | 0.167 |
| cnn | kro | True | True | 1 | 128 | 0.5 | 0.0 | 64 | 64 | 64 | 13.470 | 0.1642 | 13.4176 | 0.1673 |
| cnn | kro | True | True | 0 | 128 | 0.5 | 0.25 | 16 | 16 | 16 | 13.468 | 0.1639 | 13.3731 | 0.1696 |
| cnn | kro | True | True | 1 | 256 | 0.25 | 0.25 | 32 | 32 | 32 | 13.478 | 0.1634 | 13.416 | 0.1673 |
| cnn | kro | True | True | 2 | 128 | 0.25 | 0.5 | 16 | 16 | 16 | 13.482 | 0.1632 | 13.4062 | 0.1678 |
| cnn | kro | True | True | 1 | 256 | 0.5 | 0.0 | 32 | 32 | 32 | 13.483 | 0.1632 | 13.4658 | 0.1643 |
| cnn | kro | True | True | 1 | 128 | 0.25 | 0.0 | 16 | 16 | 16 | 13.484 | 0.1631 | 13.4472 | 0.1653 |
| cnn | kro | True | True | 1 | 256 | 0.25 | 0.25 | 32 | 32 | 32 | 13.488 | 0.1628 | 13.4673 | 0.1643 |
| cnn | kro | True | True | 1 | 128 | 0.0 | 0.0 | 64 | 64 | 64 | 13.490 | 0.1625 | 13.428 | 0.1664 |
| cnn | kro | True | True | 1 | 256 | 0.5 | 0.5 | 32 | 32 | 32 | 13.499 | 0.1624 | 13.4897 | 0.1627 |
| cnn | kro | True | True | 1 | 256 | 0.5 | 0.5 | 16 | 16 | 16 | 13.497 | 0.1623 | 13.4074 | 0.1681 |
| cnn | kro | True | True | 1 | 128 | 0.5 | 0.5 | 32 | 32 | 32 | 13.499 | 0.1623 | 13.4797 | 0.1635 |
| cnn | kro | True | True | 1 | 256 | 0.0 | 0.5 | 16 | 16 | 16 | 13.505 | 0.1619 | 13.4606 | 0.1646 |
| cnn | kro | True | True | 2 | 128 | 0.5 | 0.5 | 16 | 16 | 16 | 13.500 | 0.1618 | 13.4298 | 0.1665 |
| cnn | kro | True | True | 1 | 256 | 0.5 | 0.25 | 32 | 32 | 32 | 13.513 | 0.1615 | 13.4259 | 0.1669 |
| cnn | kro | True | True | 1 | 128 | 0.25 | 0.5 | 16 | 16 | 16 | 13.497 | 0.1613 | 13.3239 | 0.1725 |
| cnn | kro | True | True | 2 | 128 | 0.25 | 0.5 | 16 | 16 | 16 | 13.511 | 0.1611 | 13.4542 | 0.1648 |
| cnn | kro | True | True | 2 | 256 | 0.0 | 0.5 | 32 | 32 | 32 | 13.518 | 0.1610 | 13.4661 | 0.1644 |
| cnn | kro | True | True | 1 | 256 | 0.25 | 0.5 | 16 | 16 | 16 | 13.521 | 0.1610 | 13.4448 | 0.1656 |
| cnn | kro | True | True | 1 | 128 | 0.0 | 0.5 | 16 | 16 | 16 | 13.512 | 0.1609 | 13.4878 | 0.163 |
| cnn | kro | True | True | 1 | 256 | 0.25 | 0.0 | 16 | 16 | 16 | 13.534 | 0.1602 | 13.5162 | 0.1608 |
| cnn | kro | True | True | 2 | 256 | 0.25 | 0.5 | 16 | 16 | 16 | 13.540 | 0.1596 | 13.5444 | 0.1595 |
| cnn | kro | True | True | 2 | 128 | 0.5 | 0.5 | 32 | 32 | 32 | 13.545 | 0.1592 | 13.529 | 0.1602 |
| cnn | kro | True | True | 1 | 256 | 0.5 | 0.0 | 32 | 32 | 32 | 13.547 | 0.1590 | 13.3957 | 0.1685 |
| cnn | kro | True | True | 2 | 256 | 0.0 | 0.5 | 16 | 16 | 16 | 13.557 | 0.1587 | 13.6313 | 0.1539 |
| cnn | kro | True | True | 1 | 256 | 0.5 | 0.5 | 32 | 32 | 32 | 13.558 | 0.1586 | 13.4372 | 0.1661 |
| cnn | kro | True | True | 1 | 256 | 0.5 | 0.25 | 16 | 16 | 16 | 13.566 | 0.1583 | 13.6148 | 0.1549 |
| cnn | kro | True | True | 1 | 256 | 0.25 | 0.5 | 16 | 16 | 16 | 13.576 | 0.1573 | 13.5425 | 0.1594 |
| cnn | kro | True | True | 1 | 128 | 0.25 | 0.25 | 16 | 16 | 16 | 13.586 | 0.1565 | 13.5533 | 0.1585 |
| cnn | kro | True | True | 1 | 256 | 0.5 | 0.0 | 16 | 16 | 16 | 13.588 | 0.1565 | 13.4764 | 0.1635 |
| cnn | kro | True | True | 1 | 256 | 0.25 | 0.0 | 32 | 32 | 32 | 13.603 | 0.1559 | 13.6199 | 0.1546 |
| cnn | kro | True | True | 2 | 128 | 0.25 | 0.25 | 16 | 16 | 16 | 13.600 | 0.1558 | 13.6476 | 0.153 |
| cnn | kro | True | True | 2 | 256 | 0.5 | 0.5 | 16 | 16 | 16 | 13.603 | 0.1554 | 13.5702 | 0.1579 |
| cnn | kro | True | True | 1 | 256 | 0.25 | 0.25 | 16 | 16 | 16 | 13.609 | 0.1553 | 13.5573 | 0.1585 |
| cnn | kro | True | True | 1 | 256 | 0.0 | 0.25 | 32 | 32 | 32 | 13.619 | 0.1547 | 13.6203 | 0.1549 |
| cnn | kro | True | True | 0 | 128 | 0.0 | 0.5 | 32 | 32 | 32 | 13.628 | 0.1543 | 13.6211 | 0.1547 |
| cnn | kro | True | True | 2 | 128 | 0.0 | 0.25 | 16 | 16 | 16 | 13.657 | 0.1515 | 13.5711 | 0.1574 |
| cnn | kro | True | True | 1 | 128 | 0.0 | 0.5 | 16 | 16 | 16 | 13.673 | 0.1510 | 13.6542 | 0.1524 |
| cnn | kro | True | True | 2 | 128 | 0.5 | 0.5 | 32 | 32 | 32 | 13.674 | 0.1508 | 13.7094 | 0.1488 |
| cnn | kro | True | True | 0 | 128 | 0.5 | 0.5 | 16 | 16 | 16 | 13.671 | 0.1508 | 13.6499 | 0.1523 |
| cnn | kro | True | True | 0 | 128 | 0.5 | 0.25 | 16 | 16 | 16 | 13.691 | 0.1503 | 13.6902 | 0.1502 |
| cnn | kro | True | True | 1 | 128 | 0.5 | 0.0 | 16 | 16 | 16 | 13.693 | 0.1491 | 13.6126 | 0.1548 |
| cnn | kro | True | True | 1 | 128 | 0.25 | 0.0 | 16 | 16 | 16 | 13.711 | 0.1486 | 13.6473 | 0.1527 |
| cnn | kro | True | True | 1 | 256 | 0.0 | 0.0 | 16 | 16 | 16 | 13.734 | 0.1476 | 13.7452 | 0.1472 |
| cnn | kro | True | True | 1 | 128 | 0.25 | 0.0 | 64 | 64 | 64 | 13.747 | 0.1467 | 13.6423 | 0.153 |
| cnn | kro | True | True | 0 | 128 | 0.0 | 0.25 | 32 | 32 | 32 | 13.775 | 0.1452 | 13.649 | 0.1531 |
| cnn | kro | True | True | 1 | 256 | 0.5 | 0.0 | 16 | 16 | 16 | 13.804 | 0.1432 | 13.7957 | 0.1435 |
| cnn | kro | True | True | 1 | 128 | 0.25 | 0.25 | 32 | 32 | 32 | 13.809 | 0.1431 | 13.7983 | 0.1436 |
| cnn | kro | True | True | 1 | 256 | 0.25 | 0.5 | 16 | 16 | 16 | 13.821 | 0.1424 | 13.8119 | 0.1429 |
| cnn | kro | True | True | 2 | 256 | 0.5 | 0.0 | 16 | 16 | 16 | 13.833 | 0.1415 | 13.7657 | 0.1451 |
| cnn | kro | True | True | 2 | 256 | 0.0 | 0.25 | 16 | 16 | 16 | 13.833 | 0.1411 | 13.8473 | 0.1403 |
| cnn | kro | True | True | 1 | 256 | 0.0 | 0.0 | 16 | 16 | 16 | 13.873 | 0.1391 | 13.917 | 0.1363 |
| cnn | kro | True | True | 0 | 128 | 0.5 | 0.0 | 16 | 16 | 16 | 13.881 | 0.1381 | 13.855 | 0.1399 |
| cnn | kro | True | True | 1 | 128 | 0.25 | 0.5 | 16 | 16 | 16 | 13.887 | 0.1380 | 13.9482 | 0.1344 |
| cnn | kro | True | True | 1 | 128 | 0.25 | 0.25 | 32 | 32 | 32 | 13.894 | 0.1377 | 13.8998 | 0.1374 |
| cnn | kro | True | True | 1 | 256 | 0.5 | 0.0 | 16 | 16 | 16 | 13.897 | 0.1372 | 13.8531 | 0.1399 |
| cnn | kro | True | True | 2 | 128 | 0.0 | 0.5 | 16 | 16 | 16 | 13.911 | 0.1363 | 13.9407 | 0.1344 |
| cnn | kro | True | True | 1 | 128 | 0.0 | 0.0 | 32 | 32 | 32 | 13.926 | 0.1354 | 13.9458 | 0.1344 |
| cnn | kro | True | True | 1 | 128 | 0.0 | 0.5 | 16 | 16 | 16 | 13.934 | 0.1351 | 13.8463 | 0.1403 |
| cnn | kro | True | True | 1 | 256 | 0.25 | 0.5 | 16 | 16 | 16 | 13.951 | 0.1338 | 13.9725 | 0.1329 |
| cnn | kro | True | True | 1 | 256 | 0.25 | 0.5 | 32 | 32 | 32 | 13.977 | 0.1326 | 14.0502 | 0.1282 |
| cnn | kro | True | True | 2 | 256 | 0.25 | 0.25 | 16 | 16 | 16 | 14.001 | 0.1311 | 13.9636 | 0.1333 |
| cnn | kro | True | True | 2 | 256 | 0.25 | 0.0 | 32 | 32 | 32 | 13.996 | 0.1310 | 14.0499 | 0.1277 |
| cnn | kro | True | True | 2 | 128 | 0.5 | 0.5 | 16 | 16 | 16 | 14.010 | 0.1302 | 13.9579 | 0.1336 |
| cnn | kro | True | True | 2 | 128 | 0.5 | 0.25 | 16 | 16 | 16 | 14.047 | 0.1281 | 14.04 | 0.1284 |
| cnn | kro | True | True | 2 | 128 | 0.25 | 0.5 | 16 | 16 | 16 | 14.048 | 0.1271 | 14.0595 | 0.1272 |
| cnn | kro | True | True | 1 | 256 | 0.25 | 0.0 | 16 | 16 | 16 | 14.076 | 0.1263 | 14.0692 | 0.127 |
| cnn | kro | True | True | 1 | 256 | 0.5 | 0.25 | 32 | 32 | 32 | 14.121 | 0.1236 | 14.0319 | 0.129 |
| cnn | kro | True | True | 1 | 128 | 0.25 | 0.0 | 16 | 16 | 16 | 14.140 | 0.1225 | 14.1407 | 0.1224 |
| cnn | kro | True | True | 1 | 256 | 0.0 | 0.5 | 16 | 16 | 16 | 14.173 | 0.1204 | 14.1388 | 0.1228 |
| cnn | kro | True | True | 2 | 256 | 0.0 | 0.0 | 16 | 16 | 16 | 14.171 | 0.1202 | 14.0927 | 0.1254 |
| cnn | kro | True | True | 2 | 128 | 0.0 | 0.25 | 16 | 16 | 16 | 14.183 | 0.1196 | 14.1539 | 0.1214 |
| cnn | kro | True | True | 2 | 256 | 0.5 | 0.5 | 32 | 32 | 32 | 14.194 | 0.1193 | 14.2645 | 0.1147 |
| cnn | kro | True | True | 2 | 128 | 0.5 | 0.25 | 16 | 16 | 16 | 14.219 | 0.1170 | 14.076 | 0.1267 |
| cnn | kro | True | True | 2 | 256 | 0.25 | 0.25 | 16 | 16 | 16 | 14.314 | 0.1116 | 14.3888 | 0.1069 |
| cnn | kro | True | True | 2 | 128 | 0.0 | 0.0 | 16 | 16 | 16 | 14.345 | 0.1098 | 14.2832 | 0.1135 |
| cnn | kro | True | True | 2 | 128 | 0.25 | 0.25 | 16 | 16 | 16 | 14.416 | 0.1054 | 14.4725 | 0.1021 |
| cnn | kro | True | True | 1 | 128 | 0.25 | 0.25 | 16 | 16 | 16 | 14.451 | 0.1033 | 14.5048 | 0.1 |
| cnn | kro | True | True | 2 | 256 | 0.0 | 0.0 | 32 | 32 | 32 | 14.454 | 0.1032 | 14.5063 | 0.1 |
| cnn | kro | True | True | 2 | 256 | 0.0 | 0.25 | 32 | 32 | 32 | 14.454 | 0.1032 | 14.5063 | 0.1 |
| cnn | kro | True | True | 2 | 256 | 0.0 | 0.5 | 16 | 16 | 16 | 14.454 | 0.1032 | 14.5063 | 0.1 |
| cnn | kro | True | True | 2 | 256 | 0.25 | 0.25 | 16 | 16 | 16 | 14.454 | 0.1032 | 14.5063 | 0.1 |
| cnn | kro | True | True | 2 | 256 | 0.25 | 0.25 | 32 | 32 | 32 | 14.454 | 0.1032 | 14.5063 | 0.1 |
| cnn | kro | True | True | 2 | 256 | 0.0 | 0.0 | 32 | 32 | 32 | 14.454 | 0.1032 | 14.5063 | 0.1 |
| cnn | kro | True | True | 2 | 256 | 0.5 | 0.25 | 16 | 16 | 16 | 14.454 | 0.1032 | 14.5063 | 0.1 |
| cnn | kro | True | True | 1 | 128 | 0.5 | 0.25 | 32 | 32 | 32 | 14.454 | 0.1032 | 14.5063 | 0.1 |
| cnn | kro | True | True | 1 | 256 | 0.25 | 0.25 | 32 | 32 | 32 | 14.454 | 0.1032 | 14.5063 | 0.1 |
| cnn | kro | True | True | 2 | 128 | 0.25 | 0.25 | 32 | 32 | 32 | 14.454 | 0.1032 | 14.5063 | 0.1 |
| cnn | kro | True | True | 2 | 256 | 0.0 | 0.0 | 16 | 16 | 16 | 14.454 | 0.1032 | 14.5063 | 0.1 |
| cnn | kro | True | True | 2 | 256 | 0.5 | 0.0 | 16 | 16 | 16 | 14.454 | 0.1032 | 14.5063 | 0.1 |
| cnn | kro | True | True | 2 | 256 | 0.5 | 0.0 | 32 | 32 | 32 | 14.454 | 0.1032 | 14.5063 | 0.1 |
| cnn | kro | True | True | 2 | 256 | 0.5 | 0.5 | 16 | 16 | 16 | 14.454 | 0.1032 | 14.5063 | 0.1 |
| cnn | kro | True | True | 1 | 256 | 0.5 | 0.5 | 16 | 16 | 16 | 14.454 | 0.1032 | 14.5063 | 0.1 |
| cnn | kro | True | True | 2 | 256 | 0.0 | 0.0 | 16 | 16 | 16 | 14.454 | 0.1032 | 14.5063 | 0.1 |
| cnn | kro | True | True | 2 | 256 | 0.0 | 0.25 | 32 | 32 | 32 | 14.454 | 0.1032 | 14.5063 | 0.1 |
| cnn | kro | True | True | 2 | 256 | 0.25 | 0.25 | 16 | 16 | 16 | 14.454 | 0.1032 | 14.5063 | 0.1 |
| cnn | kro | True | True | 2 | 256 | 0.25 | 0.5 | 16 | 16 | 16 | 14.454 | 0.1032 | 14.5063 | 0.1 |
| cnn | kro | True | True | 2 | 256 | 0.5 | 0.0 | 16 | 16 | 16 | 14.454 | 0.1032 | 14.5063 | 0.1 |
| cnn | kro | True | True | 2 | 256 | 0.5 | 0.0 | 32 | 32 | 32 | 14.454 | 0.1032 | 14.5063 | 0.1 |
| cnn | kro | True | True | 2 | 128 | 0.25 | 0.0 | 16 | 16 | 16 | 14.457 | 0.1030 | 14.5063 | 0.1 |
| cnn | kro | True | True | 2 | 256 | 0.0 | 0.0 | 32 | 32 | 32 | 14.457 | 0.1030 | 14.5063 | 0.1 |
| cnn | kro | True | True | 2 | 128 | 0.5 | 0.25 | 32 | 32 | 32 | 14.466 | 0.1025 | 14.5063 | 0.1 |
| cnn | kro | True | True | 2 | 256 | 0.5 | 0.25 | 16 | 16 | 16 | 14.466 | 0.1025 | 14.5063 | 0.1 |
| cnn | kro | True | True | 2 | 128 | 0.0 | 0.0 | 32 | 32 | 32 | 14.466 | 0.1025 | 14.5063 | 0.1 |
| cnn | kro | True | True | 2 | 256 | 0.25 | 0.0 | 16 | 16 | 16 | 14.474 | 0.1017 | 14.481 | 0.1013 |
| cnn | kro | True | True | 2 | 128 | 0.0 | 0.0 | 32 | 32 | 32 | 14.489 | 0.1010 | 14.4758 | 0.1017 |
| cnn | kro | True | True | 0 | 128 | 0.25 | 0.0 | 32 | 32 | 32 | 14.496 | 0.1006 | 14.5063 | 0.1 |
| cnn | kro | True | True | 1 | 128 | 0.25 | 0.5 | 16 | 16 | 16 | 14.498 | 0.1005 | 14.5063 | 0.1 |
| cnn | kro | True | True | 2 | 128 | 0.25 | 0.25 | 32 | 32 | 32 | 14.498 | 0.1005 | 14.5063 | 0.1 |
| cnn | kro | True | True | 2 | 128 | 0.5 | 0.25 | 64 | 64 | 64 | 14.498 | 0.1005 | 14.5063 | 0.1 |
| cnn | kro | True | True | 2 | 256 | 0.0 | 0.25 | 16 | 16 | 16 | 14.498 | 0.1005 | 14.5063 | 0.1 |
| cnn | kro | True | True | 2 | 256 | 0.25 | 0.25 | 64 | 64 | 64 | 14.498 | 0.1005 | 14.5063 | 0.1 |
| cnn | kro | True | True | 2 | 256 | 0.5 | 0.0 | 16 | 16 | 16 | 14.498 | 0.1005 | 14.5063 | 0.1 |
| cnn | kro | True | True | 1 | 256 | 0.5 | 0.5 | 32 | 32 | 32 | 14.498 | 0.1005 | 14.5063 | 0.1 |
| cnn | kro | True | True | 2 | 128 | 0.5 | 0.5 | 32 | 32 | 32 | 14.498 | 0.1005 | 14.5063 | 0.1 |
| cnn | kro | True | True | 2 | 256 | 0.0 | 0.25 | 16 | 16 | 16 | 14.498 | 0.1005 | 14.5063 | 0.1 |
| cnn | kro | True | True | 2 | 256 | 0.0 | 0.25 | 32 | 32 | 32 | 14.498 | 0.1005 | 14.5063 | 0.1 |
| cnn | kro | True | True | 2 | 256 | 0.25 | 0.25 | 32 | 32 | 32 | 14.498 | 0.1005 | 14.5063 | 0.1 |
| cnn | kro | True | True | 2 | 256 | 0.5 | 0.25 | 16 | 16 | 16 | 14.498 | 0.1005 | 14.5063 | 0.1 |
| cnn | kro | True | True | 2 | 256 | 0.5 | 0.5 | 32 | 32 | 32 | 14.498 | 0.1005 | 14.5063 | 0.1 |
| cnn | kro | True | True | 2 | 128 | 0.5 | 0.25 | 16 | 16 | 16 | 14.498 | 0.1005 | 14.5063 | 0.1 |
| cnn | kro | True | True | 2 | 128 | 0.5 | 0.5 | 64 | 64 | 64 | 14.498 | 0.1005 | 14.5063 | 0.1 |
| cnn | kro | True | True | 2 | 128 | 0.0 | 0.5 | 16 | 16 | 16 | 14.498 | 0.1005 | 14.5063 | 0.1 |
| cnn | kro | True | True | 2 | 128 | 0.0 | 0.5 | 16 | 16 | 16 | 14.504 | 0.1001 | 14.5063 | 0.1 |
| cnn | kro | True | True | 2 | 128 | 0.5 | 0.25 | 32 | 32 | 32 | 14.504 | 0.1001 | 14.5063 | 0.1 |
| cnn | kro | True | True | 2 | 256 | 0.0 | 0.25 | 16 | 16 | 16 | 14.504 | 0.1001 | 14.5063 | 0.1 |
| cnn | kro | True | True | 2 | 128 | 0.5 | 0.0 | 16 | 16 | 16 | 14.504 | 0.1001 | 14.5063 | 0.1 |
| cnn | kro | True | True | 2 | 256 | 0.25 | 0.0 | 16 | 16 | 16 | 14.504 | 0.1001 | 14.5063 | 0.1 |
| cnn | kro | True | True | 2 | 256 | 0.25 | 0.0 | 32 | 32 | 32 | 14.504 | 0.1001 | 14.5063 | 0.1 |
| cnn | kro | True | True | 2 | 128 | 0.25 | 0.25 | 16 | 16 | 16 | 14.507 | 0.0999 | 14.5063 | 0.1 |
| cnn | kro | True | True | 2 | 256 | 0.25 | 0.5 | 32 | 32 | 32 | 14.507 | 0.0999 | 14.5063 | 0.1 |
| cnn | kro | True | True | 2 | 128 | 0.0 | 0.0 | 16 | 16 | 16 | 14.507 | 0.0999 | 14.5063 | 0.1 |
| cnn | kro | True | True | 2 | 128 | 0.0 | 0.0 | 32 | 32 | 32 | 14.507 | 0.0999 | 14.5063 | 0.1 |
| cnn | kro | True | True | 2 | 128 | 0.5 | 0.5 | 16 | 16 | 16 | 14.507 | 0.0999 | 14.5063 | 0.1 |
| cnn | kro | True | True | 2 | 256 | 0.25 | 0.0 | 16 | 16 | 16 | 14.507 | 0.0999 | 14.5063 | 0.1 |
| cnn | kro | True | True | 2 | 128 | 0.25 | 0.5 | 32 | 32 | 32 | 14.507 | 0.0999 | 14.5063 | 0.1 |
| cnn | kro | True | True | 2 | 256 | 0.0 | 0.25 | 32 | 32 | 32 | 14.507 | 0.0999 | 14.5063 | 0.1 |
| cnn | kro | True | True | 2 | 128 | 0.0 | 0.0 | 16 | 16 | 16 | 14.507 | 0.0999 | 14.5063 | 0.1 |
| cnn | kro | True | True | 2 | 128 | 0.25 | 0.5 | 32 | 32 | 32 | 14.507 | 0.0999 | 14.5063 | 0.1 |
| cnn | kro | True | True | 2 | 128 | 0.5 | 0.25 | 32 | 32 | 32 | 14.507 | 0.0999 | 14.5063 | 0.1 |
| cnn | kro | True | True | 2 | 256 | 0.25 | 0.25 | 32 | 32 | 32 | 14.507 | 0.0999 | 14.5063 | 0.1 |
| cnn | kro | True | True | 1 | 256 | 0.5 | 0.5 | 16 | 16 | 16 | 14.507 | 0.0999 | 14.5063 | 0.1 |
| cnn | kro | True | True | 2 | 128 | 0.25 | 0.0 | 16 | 16 | 16 | 14.536 | 0.0981 | 14.5063 | 0.1 |
| cnn | kro | True | True | 2 | 128 | 0.25 | 0.0 | 16 | 16 | 16 | 14.548 | 0.0974 | 14.5063 | 0.1 |
| cnn | kro | True | True | 2 | 256 | 0.25 | 0.5 | 32 | 32 | 32 | 14.548 | 0.0974 | 14.5063 | 0.1 |
| cnn | kro | True | True | 0 | 128 | 0.25 | 0.25 | 64 | 64 | 64 | 2.302 | 0.0939 | 2.3031 | 0.1004 |
| cnn | kro | True | True | 2 | 128 | 0.5 | 0.0 | 16 | 16 | 16 | 14.607 | 0.0937 | 14.5063 | 0.1 |
| cnn | kro | True | True | 2 | 128 | 0.0 | 0.0 | 16 | 16 | 16 | 14.607 | 0.0937 | 14.5063 | 0.1 |
