| 0 | 0-0-0-0 | 0-0-0-0 | 9 | 0.0 | Adagrad | 0.8123547 | 37.36 | 4753625 | 500 |
| 0 | 0-0-0-0 | 0-0-0-0 | 4 | 0.0 | Adagrad | 0.8145353 | 21.95 | 4753625 | 500 |
| 0 | 0-0-0-0 | 0-0-0-0 | 2 | 0.0 | Adagrad | 0.8155369 | 16.43 | 4753625 | 500 |
| 0 | 0-0-0-0 | 0-0-0-0 | 5 | 0.0 | Adagrad | 0.8157585 | 19.29 | 4753625 | 500 |
| 0 | 0-0-0-0 | 0-0-0-0 | 7 | 0.0 | Adagrad | 0.816794 | 16.96 | 4753625 | 500 |
| 0 | 0-0-0-0 | 0-0-0-0 | 8 | 0.0 | Adagrad | 0.8170454 | 17.84 | 4753625 | 500 |
| 0 | 0-0-0-0 | 0-0-0-0 | 3 | 0.0 | Adagrad | 0.8173482 | 17.19 | 4753625 | 500 |
| 0 | 0-0-0-0 | 0-0-0-0 | 10 | 0.0 | Adagrad | 0.8178305 | 35.11 | 4753625 | 500 |
| 0 | 0-0-0-0 | 0-0-0-0 | 1 | 0.0 | Adagrad | 0.8196195 | 16.15 | 4753625 | 500 |
| 0 | 0-0-0-0 | 0-0-0-0 | 6 | 0.2 | Adagrad | 0.8204456 | 42.59 | 10505125 | 1000 |
| 0 | 0-0-0-0 | 0-0-0-0 | 6 | 0.0 | Adagrad | 0.8208372 | 17.43 | 4753625 | 500 |
| 0 | 0-0-0-0 | 0-0-0-0 | 4 | 0.0 | Adagrad | 0.8227277 | 32.15 | 10505125 | 1000 |
| 0 | 0-0-0-0 | 0-0-0-0 | 9 | 0.0 | Adagrad | 0.8239883 | 34.13 | 10505125 | 1000 |
| 0 | 0-0-0-0 | 0-0-0-0 | 7 | 0.0 | Adagrad | 0.8259397 | 28.1 | 10505125 | 1000 |
| 0 | 0-0-0-0 | 0-0-0-0 | 1 | 0.2 | Adagrad | 0.8259746 | 47.97 | 10505125 | 1000 |
| 0 | 0-0-0-0 | 0-0-0-0 | 5 | 0.0 | Adam | 0.8265116 | 22.6 | 4753625 | 500 |
| 0 | 0-0-0-0 | 0-0-0-0 | 9 | 0.2 | Adagrad | 0.8270812 | 47.43 | 10505125 | 1000 |
| 0 | 0-0-0-0 | 0-0-0-0 | 2 | 0.0 | Adam | 0.8276211 | 40.14 | 10505125 | 1000 |
| 0 | 0-0-0-0 | 0-0-0-0 | 2 | 0.2 | Adagrad | 0.828491 | 53.93 | 10505125 | 1000 |
| 0 | 0-0-0-0 | 0-0-0-0 | 9 | 0.0 | Adam | 0.8288473 | 35.0 | 10505125 | 1000 |
| 0 | 0-0-0-0 | 0-0-0-0 | 3 | 0.0 | Adam | 0.8297979 | 41.89 | 10505125 | 1000 |
| 0 | 0-0-0-0 | 0-0-0-0 | 3 | 0.2 | Adagrad | 0.8300276 | 52.02 | 10505125 | 1000 |
| 0 | 0-0-0-0 | 0-0-0-0 | 8 | 0.0 | Adagrad | 0.8305184 | 31.03 | 10505125 | 1000 |
| 0 | 0-0-0-0 | 0-0-0-0 | 2 | 0.0 | Adagrad | 0.8306214 | 33.66 | 10505125 | 1000 |
| 0 | 0-0-0-0 | 0-0-0-0 | 1 | 0.0 | Adam | 0.8309109 | 16.5 | 4753625 | 500 |
| 0 | 0-0-0-0 | 0-0-0-0 | 8 | 0.0 | Adam | 0.8312379 | 18.33 | 4753625 | 500 |
| 0 | 0-0-0-0 | 0-0-0-0 | 3 | 0.0 | Adam | 0.8313458 | 18.83 | 4753625 | 500 |
| 0 | 0-0-0-0 | 0-0-0-0 | 5 | 0.0 | Adagrad | 0.8319678 | 30.52 | 10505125 | 1000 |
| 0 | 0-0-0-0 | 0-0-0-0 | 9 | 0.0 | Adam | 0.8319924 | 33.76 | 4753625 | 500 |
| 0 | 0-0-0-0 | 0-0-0-0 | 8 | 0.0 | Adam | 0.8325249 | 31.14 | 10505125 | 1000 |
| 0 | 0-0-0-0 | 0-0-0-0 | 8 | 0.2 | Adagrad | 0.8328824 | 36.2 | 10505125 | 1000 |
| 0 | 0-0-0-0 | 0-0-0-0 | 6 | 0.0 | Adam | 0.8330075 | 18.11 | 4753625 | 500 |
| 0 | 0-0-0-0 | 0-0-0-0 | 5 | 0.0 | Adam | 0.8330116 | 37.44 | 10505125 | 1000 |
| 0 | 0-0-0-0 | 0-0-0-0 | 4 | 0.0 | Adam | 0.8330612 | 38.96 | 10505125 | 1000 |
| 0 | 0-0-0-0 | 0-0-0-0 | 10 | 0.0 | Adam | 0.8333675 | 37.59 | 10505125 | 1000 |
| 0 | 0-0-0-0 | 0-0-0-0 | 5 | 0.2 | Adagrad | 0.8336983 | 45.36 | 10505125 | 1000 |
| 0 | 0-0-0-0 | 0-0-0-0 | 1 | 0.0 | Adam | 0.8337842 | 38.17 | 10505125 | 1000 |
| 0 | 0-0-0-0 | 0-0-0-0 | 6 | 0.0 | Adagrad | 0.8340239 | 27.58 | 10505125 | 1000 |
| 0 | 0-0-0-0 | 0-0-0-0 | 7 | 0.2 | Adagrad | 0.8355093 | 41.4 | 10505125 | 1000 |
| 0 | 0-0-0-0 | 0-0-0-0 | 2 | 0.0 | Adam | 0.8359072 | 16.7 | 4753625 | 500 |
| 0 | 0-0-0-0 | 0-0-0-0 | 1 | 0.0 | Adagrad | 0.8361539 | 28.2 | 10505125 | 1000 |
| 0 | 0-0-0-0 | 0-0-0-0 | 6 | 0.0 | Adam | 0.8362847 | 35.02 | 10505125 | 1000 |
| 0 | 0-0-0-0 | 0-0-0-0 | 7 | 0.0 | Adam | 0.8364898 | 18.03 | 4753625 | 500 |
| 0 | 0-0-0-0 | 0-0-0-0 | 4 | 0.0 | Adam | 0.8366571 | 18.81 | 4753625 | 500 |
| 0 | 0-0-0-0 | 0-0-0-0 | 7 | 0.0 | RMSprop | 0.8376146 | 19.91 | 4753625 | 500 |
| 0 | 0-0-0-0 | 0-0-0-0 | 2 | 0.2 | Adam | 0.8376342 | 20.96 | 4753625 | 500 |
| 0 | 0-0-0-0 | 0-0-0-0 | 7 | 0.0 | Adam | 0.8379651 | 27.25 | 10505125 | 1000 |
| 0 | 0-0-0-0 | 0-0-0-0 | 10 | 0.2 | Adagrad | 0.8381623 | 37.88 | 10505125 | 1000 |
| 0 | 0-0-0-0 | 0-0-0-0 | 3 | 0.2 | Adam | 0.8382742 | 25.25 | 4753625 | 500 |
| 0 | 0-0-0-0 | 0-0-0-0 | 5 | 0.2 | Adagrad | 0.8383445 | 27.9 | 4753625 | 500 |
| 0 | 0-0-0-0 | 0-0-0-0 | 6 | 0.0 | RMSprop | 0.8386354 | 17.06 | 4753625 | 500 |
| 0 | 0-0-0-0 | 0-0-0-0 | 10 | 0.0 | Adagrad | 0.8388799 | 33.94 | 10505125 | 1000 |
| 0 | 0-0-0-0 | 0-0-0-0 | 2 | 0.2 | Adam | 0.838975 | 49.28 | 10505125 | 1000 |
| 0 | 0-0-0-0 | 0-0-0-0 | 1 | 0.2 | Adam | 0.8390344 | 41.86 | 10505125 | 1000 |
| 0 | 0-0-0-0 | 0-0-0-0 | 10 | 0.2 | Adam | 0.8392515 | 47.98 | 10505125 | 1000 |
| 0 | 0-0-0-0 | 0-0-0-0 | 8 | 0.2 | Adam | 0.8398721 | 37.75 | 10505125 | 1000 |
| 0 | 0-0-0-0 | 0-0-0-0 | 6 | 0.2 | Adam | 0.8408636 | 21.81 | 4753625 | 500 |
| 0 | 0-0-0-0 | 0-0-0-0 | 7 | 0.2 | Adagrad | 0.8410613 | 21.58 | 4753625 | 500 |
| 0 | 0-0-0-0 | 0-0-0-0 | 3 | 0.0 | Adagrad | 0.8419095 | 34.12 | 10505125 | 1000 |
| 0 | 0-0-0-0 | 0-0-0-0 | 9 | 0.2 | Adagrad | 0.8422221 | 42.48 | 4753625 | 500 |
| 0 | 0-0-0-0 | 0-0-0-0 | 8 | 0.0 | RMSprop | 0.8422871 | 16.74 | 4753625 | 500 |
| 0 | 0-0-0-0 | 0-0-0-0 | 4 | 0.2 | Adagrad | 0.8423847 | 38.51 | 10505125 | 1000 |
| 0 | 0-0-0-0 | 0-0-0-0 | 1 | 0.2 | Adagrad | 0.8424409 | 24.55 | 4753625 | 500 |
| 0 | 0-0-0-0 | 0-0-0-0 | 1 | 0.2 | Adam | 0.8428091 | 20.25 | 4753625 | 500 |
| 0 | 0-0-0-0 | 0-0-0-0 | 5 | 0.2 | Adam | 0.8428377 | 41.82 | 10505125 | 1000 |
| 0 | 0-0-0-0 | 0-0-0-0 | 10 | 0.2 | Adagrad | 0.843585 | 43.94 | 4753625 | 500 |
| 0 | 0-0-0-0 | 0-0-0-0 | 7 | 0.2 | Adam | 0.843768 | 19.42 | 4753625 | 500 |
| 0 | 0-0-0-0 | 0-0-0-0 | 4 | 0.0 | RMSprop | 0.8441043 | 18.93 | 4753625 | 500 |
| 0 | 0-0-0-0 | 0-0-0-0 | 4 | 0.2 | Adagrad | 0.8442428 | 24.33 | 4753625 | 500 |
| 0 | 0-0-0-0 | 0-0-0-0 | 10 | 0.0 | RMSprop | 0.8453296 | 32.95 | 4753625 | 500 |
| 0 | 0-0-0-0 | 0-0-0-0 | 3 | 0.0 | RMSprop | 0.8455727 | 18.16 | 4753625 | 500 |
| 0 | 0-0-0-0 | 0-0-0-0 | 3 | 0.2 | Adagrad | 0.8463053 | 25.0 | 4753625 | 500 |
| 0 | 0-0-0-0 | 0-0-0-0 | 6 | 0.2 | Adam | 0.8464611 | 38.16 | 10505125 | 1000 |
| 0 | 0-0-0-0 | 0-0-0-0 | 9 | 0.0 | RMSprop | 0.8466423 | 30.28 | 4753625 | 500 |
| 0 | 0-0-0-0 | 0-0-0-0 | 4 | 0.0 | RMSprop | 0.8466786 | 34.27 | 10505125 | 1000 |
| 0 | 0-0-0-0 | 0-0-0-0 | 8 | 0.2 | Adam | 0.8469983 | 20.81 | 4753625 | 500 |
| 0 | 0-0-0-0 | 0-0-0-0 | 10 | 0.0 | Adam | 0.84703 | 32.33 | 4753625 | 500 |
| 0 | 0-0-0-0 | 0-0-0-0 | 2 | 0.0 | RMSprop | 0.847039 | 35.4 | 10505125 | 1000 |
| 0 | 0-0-0-0 | 0-0-0-0 | 2 | 0.2 | Adagrad | 0.8470603 | 19.97 | 4753625 | 500 |
| 0 | 0-0-0-0 | 0-0-0-0 | 3 | 0.2 | RMSprop | 0.8472205 | 24.37 | 4753625 | 500 |
| 0 | 0-0-0-0 | 0-0-0-0 | 3 | 0.2 | Adam | 0.8473941 | 47.17 | 10505125 | 1000 |
| 0 | 0-0-0-0 | 0-0-0-0 | 10 | 0.2 | Adam | 0.8486589 | 36.69 | 4753625 | 500 |
| 0 | 0-0-0-0 | 0-0-0-0 | 9 | 0.0 | RMSprop | 0.8489142 | 32.27 | 10505125 | 1000 |
| 0 | 0-0-0-0 | 0-0-0-0 | 9 | 0.2 | Adam | 0.8491106 | 46.25 | 10505125 | 1000 |
| 0 | 0-0-0-0 | 0-0-0-0 | 9 | 0.2 | Adam | 0.849146 | 39.58 | 4753625 | 500 |
| 0 | 0-0-0-0 | 0-0-0-0 | 8 | 0.0 | RMSprop | 0.8492025 | 28.05 | 10505125 | 1000 |
| 0 | 0-0-0-0 | 0-0-0-0 | 6 | 0.0 | RMSprop | 0.8493241 | 31.65 | 10505125 | 1000 |
| 0 | 0-0-0-0 | 0-0-0-0 | 5 | 0.2 | RMSprop | 0.8494425 | 24.26 | 4753625 | 500 |
| 0 | 0-0-0-0 | 0-0-0-0 | 2 | 0.0 | RMSprop | 0.8498045 | 14.97 | 4753625 | 500 |
| 0 | 0-0-0-0 | 0-0-0-0 | 9 | 0.2 | RMSprop | 0.8498192 | 32.25 | 4753625 | 500 |
| 0 | 0-0-0-0 | 0-0-0-0 | 4 | 0.2 | RMSprop | 0.8505554 | 22.74 | 4753625 | 500 |
| 0 | 0-0-0-0 | 0-0-0-0 | 1 | 0.2 | RMSprop | 0.8510472 | 20.47 | 4753625 | 500 |
| 0 | 0-0-0-0 | 0-0-0-0 | 10 | 0.2 | RMSprop | 0.8511477 | 32.36 | 4753625 | 500 |
| 0 | 0-0-0-0 | 0-0-0-0 | 7 | 0.0 | RMSprop | 0.8521012 | 27.42 | 10505125 | 1000 |
| 0 | 0-0-0-0 | 0-0-0-0 | 5 | 0.0 | RMSprop | 0.8528376 | 16.56 | 4753625 | 500 |
| 0 | 0-0-0-0 | 0-0-0-0 | 5 | 0.0 | RMSprop | 0.8529404 | 38.3 | 10505125 | 1000 |
| 0 | 0-0-0-0 | 0-0-0-0 | 8 | 0.2 | Adagrad | 0.852964 | 23.05 | 4753625 | 500 |
| 0 | 0-0-0-0 | 0-0-0-0 | 4 | 0.2 | Adam | 0.8532129 | 43.3 | 10505125 | 1000 |
| 0 | 0-0-0-0 | 0-0-0-0 | 5 | 0.2 | Adam | 0.8537424 | 20.86 | 4753625 | 500 |
| 0 | 0-0-0-0 | 0-0-0-0 | 4 | 0.2 | Adam | 0.8537884 | 24.02 | 4753625 | 500 |
| 0 | 0-0-0-0 | 0-0-0-0 | 1 | 0.0 | RMSprop | 0.8550574 | 15.46 | 4753625 | 500 |
| 0 | 0-0-0-0 | 0-0-0-0 | 3 | 0.0 | RMSprop | 0.8555784 | 36.13 | 10505125 | 1000 |
| 0 | 0-0-0-0 | 0-0-0-0 | 1 | 0.0 | RMSprop | 0.8556351 | 32.95 | 10505125 | 1000 |
| 0 | 0-0-0-0 | 0-0-0-0 | 2 | 0.2 | RMSprop | 0.8570651 | 22.43 | 4753625 | 500 |
| 0 | 0-0-0-0 | 0-0-0-0 | 8 | 0.2 | RMSprop | 0.8576316 | 21.39 | 4753625 | 500 |
| 0 | 0-0-0-0 | 0-0-0-0 | 6 | 0.2 | Adagrad | 0.8577306 | 19.56 | 4753625 | 500 |
| 0 | 0-0-0-0 | 0-0-0-0 | 6 | 0.2 | RMSprop | 0.8579185 | 20.16 | 4753625 | 500 |
| 0 | 0-0-0-0 | 0-0-0-0 | 7 | 0.2 | Adam | 0.8599527 | 34.85 | 10505125 | 1000 |
| 0 | 0-0-0-0 | 0-0-0-0 | 2 | 0.2 | RMSprop | 0.8627129 | 46.18 | 10505125 | 1000 |
| 0 | 0-0-0-0 | 0-0-0-0 | 9 | 0.2 | RMSprop | 0.863144 | 41.18 | 10505125 | 1000 |
| 0 | 0-0-0-0 | 0-0-0-0 | 10 | 0.0 | RMSprop | 0.8637601 | 32.13 | 10505125 | 1000 |
| 0 | 0-0-0-0 | 0-0-0-0 | 7 | 0.2 | RMSprop | 0.8646478 | 17.03 | 4753625 | 500 |
| 0 | 0-0-0-0 | 0-0-0-0 | 3 | 0.2 | RMSprop | 0.8678076 | 44.63 | 10505125 | 1000 |
| 0 | 0-0-0-0 | 0-0-0-0 | 7 | 0.2 | RMSprop | 0.8698546 | 34.02 | 10505125 | 1000 |
| 0 | 0-0-0-0 | 0-0-0-0 | 4 | 0.2 | RMSprop | 0.8725928 | 39.18 | 10505125 | 1000 |
| 0 | 0-0-0-0 | 0-0-0-0 | 5 | 0.2 | RMSprop | 0.8731871 | 35.57 | 10505125 | 1000 |
| 0 | 0-0-0-0 | 0-0-0-0 | 10 | 0.2 | RMSprop | 0.8739312 | 36.05 | 10505125 | 1000 |
| 0 | 0-0-0-0 | 0-0-0-0 | 8 | 0.2 | RMSprop | 0.8784476 | 37.24 | 10505125 | 1000 |
| 0 | 0-0-0-0 | 0-0-0-0 | 4 | 0.4 | Adam | 0.8830822 | 24.16 | 4753625 | 500 |
| 0 | 0-0-0-0 | 0-0-0-0 | 9 | 0.4 | Adam | 0.8843502 | 34.65 | 4753625 | 500 |
| 0 | 0-0-0-0 | 0-0-0-0 | 3 | 0.4 | RMSprop | 0.8850813 | 25.16 | 4753625 | 500 |
| 0 | 0-0-0-0 | 0-0-0-0 | 10 | 0.4 | Adam | 0.8863775 | 41.54 | 4753625 | 500 |
| 0 | 0-0-0-0 | 0-0-0-0 | 6 | 0.2 | RMSprop | 0.8868415 | 30.88 | 10505125 | 1000 |
| 0 | 0-0-0-0 | 0-0-0-0 | 2 | 0.4 | Adam | 0.8876734 | 21.23 | 4753625 | 500 |
| 0 | 0-0-0-0 | 0-0-0-0 | 8 | 0.4 | Adam | 0.888525 | 19.5 | 4753625 | 500 |
| 0 | 0-0-0-0 | 0-0-0-0 | 1 | 0.2 | RMSprop | 0.8891969 | 31.93 | 10505125 | 1000 |
| 0 | 0-0-0-0 | 0-0-0-0 | 6 | 0.4 | Adam | 0.8897698 | 22.15 | 4753625 | 500 |
| 0 | 0-0-0-0 | 0-0-0-0 | 3 | 0.4 | Adam | 0.8898184 | 23.62 | 4753625 | 500 |
| 0 | 0-0-0-0 | 0-0-0-0 | 9 | 0.4 | RMSprop | 0.8903227 | 40.63 | 4753625 | 500 |
| 0 | 0-0-0-0 | 0-0-0-0 | 5 | 0.4 | Adam | 0.8931576 | 20.75 | 4753625 | 500 |
| 0 | 0-0-0-0 | 0-0-0-0 | 1 | 0.4 | Adam | 0.8941113 | 17.84 | 4753625 | 500 |
| 0 | 0-0-0-0 | 0-0-0-0 | 7 | 0.4 | Adam | 0.8942837 | 19.09 | 4753625 | 500 |
| 0 | 0-0-0-0 | 0-0-0-0 | 5 | 0.4 | RMSprop | 0.8980702 | 22.77 | 4753625 | 500 |
| 0 | 0-0-0-0 | 0-0-0-0 | 1 | 0.4 | RMSprop | 0.9028874 | 18.64 | 4753625 | 500 |
| 0 | 0-0-0-0 | 0-0-0-0 | 3 | 0.4 | Adam | 0.9035585 | 43.93 | 10505125 | 1000 |
| 0 | 0-0-0-0 | 0-0-0-0 | 6 | 0.4 | RMSprop | 0.9039247 | 19.01 | 4753625 | 500 |
| 0 | 0-0-0-0 | 0-0-0-0 | 8 | 0.4 | RMSprop | 0.9074523 | 18.2 | 4753625 | 500 |
| 0 | 0-0-0-0 | 0-0-0-0 | 1 | 0.4 | Adam | 0.9081596 | 33.32 | 10505125 | 1000 |
| 0 | 0-0-0-0 | 0-0-0-0 | 7 | 0.4 | RMSprop | 0.9083103 | 18.64 | 4753625 | 500 |
| 0 | 0-0-0-0 | 0-0-0-0 | 10 | 0.4 | RMSprop | 0.9145504 | 33.44 | 4753625 | 500 |
| 0 | 0-0-0-0 | 0-0-0-0 | 4 | 0.4 | RMSprop | 0.9165814 | 18.03 | 4753625 | 500 |
| 0 | 0-0-0-0 | 0-0-0-0 | 5 | 0.4 | Adam | 0.916614 | 30.56 | 10505125 | 1000 |
| 0 | 0-0-0-0 | 0-0-0-0 | 2 | 0.4 | RMSprop | 0.9166548 | 15.17 | 4753625 | 500 |
| 0 | 0-0-0-0 | 0-0-0-0 | 7 | 0.4 | Adam | 0.9175967 | 25.19 | 10505125 | 1000 |
| 0 | 0-0-0-0 | 0-0-0-0 | 2 | 0.4 | Adam | 0.9186887 | 34.4 | 10505125 | 1000 |
| 0 | 0-0-0-0 | 0-0-0-0 | 6 | 0.4 | Adam | 0.9194337 | 30.72 | 10505125 | 1000 |
| 0 | 0-0-0-0 | 0-0-0-0 | 4 | 0.4 | Adam | 0.9200151 | 32.91 | 10505125 | 1000 |
| 0 | 0-0-0-0 | 0-0-0-0 | 10 | 0.4 | Adam | 0.9257107 | 29.34 | 10505125 | 1000 |
| 0 | 0-0-0-0 | 0-0-0-0 | 9 | 0.4 | Adam | 0.928658 | 32.9 | 10505125 | 1000 |
| 0 | 0-0-0-0 | 0-0-0-0 | 8 | 0.4 | Adam | 0.9307694 | 23.43 | 10505125 | 1000 |
| 0 | 0-0-0-0 | 0-0-0-0 | 1 | 0.4 | RMSprop | 0.9415867 | 28.15 | 10505125 | 1000 |
| 0 | 0-0-0-0 | 0-0-0-0 | 10 | 0.4 | Adagrad | 0.9430121 | 30.91 | 10505125 | 1000 |
| 0 | 0-0-0-0 | 0-0-0-0 | 8 | 0.4 | RMSprop | 0.9465822 | 23.75 | 10505125 | 1000 |
| 0 | 0-0-0-0 | 0-0-0-0 | 10 | 0.4 | RMSprop | 0.9471112 | 28.51 | 10505125 | 1000 |
| 0 | 0-0-0-0 | 0-0-0-0 | 5 | 0.4 | RMSprop | 0.9472406 | 25.76 | 10505125 | 1000 |
| 0 | 0-0-0-0 | 0-0-0-0 | 7 | 0.4 | RMSprop | 0.948721 | 23.07 | 10505125 | 1000 |
| 0 | 0-0-0-0 | 0-0-0-0 | 8 | 0.4 | Adagrad | 0.9506623 | 24.3 | 10505125 | 1000 |
| 0 | 0-0-0-0 | 0-0-0-0 | 2 | 0.4 | RMSprop | 0.9520714 | 37.75 | 10505125 | 1000 |
| 0 | 0-0-0-0 | 0-0-0-0 | 3 | 0.4 | RMSprop | 0.9526285 | 31.62 | 10505125 | 1000 |
| 0 | 0-0-0-0 | 0-0-0-0 | 9 | 0.4 | RMSprop | 0.9539912 | 22.58 | 10505125 | 1000 |
| 0 | 0-0-0-0 | 0-0-0-0 | 4 | 0.4 | Adagrad | 0.9551383 | 27.3 | 10505125 | 1000 |
| 0 | 0-0-0-0 | 0-0-0-0 | 6 | 0.4 | RMSprop | 0.9569784 | 27.02 | 10505125 | 1000 |
| 0 | 0-0-0-0 | 0-0-0-0 | 1 | 0.4 | Adagrad | 0.9571783 | 12.26 | 4753625 | 500 |
| 0 | 0-0-0-0 | 0-0-0-0 | 4 | 0.4 | RMSprop | 0.9582026 | 23.6 | 10505125 | 1000 |
| 0 | 0-0-0-0 | 0-0-0-0 | 8 | 0.4 | Adagrad | 0.9618107 | 12.28 | 4753625 | 500 |
| 0 | 0-0-0-0 | 0-0-0-0 | 6 | 0.4 | Adagrad | 0.9631278 | 14.32 | 4753625 | 500 |
| 0 | 0-0-0-0 | 0-0-0-0 | 5 | 0.4 | Adagrad | 0.9640394 | 13.44 | 4753625 | 500 |
| 0 | 0-0-0-0 | 0-0-0-0 | 3 | 0.4 | Adagrad | 0.9664113 | 11.85 | 4753625 | 500 |
| 0 | 0-0-0-0 | 0-0-0-0 | 9 | 0.4 | Adagrad | 0.9676729 | 19.58 | 10505125 | 1000 |
| 0 | 0-0-0-0 | 0-0-0-0 | 6 | 0.4 | Adagrad | 0.9683789 | 16.94 | 10505125 | 1000 |
| 0 | 0-0-0-0 | 0-0-0-0 | 10 | 0.4 | Adagrad | 0.9704421 | 15.91 | 4753625 | 500 |
| 0 | 0-0-0-0 | 0-0-0-0 | 1 | 0.4 | Adagrad | 0.9704595 | 17.96 | 10505125 | 1000 |
| 0 | 0-0-0-0 | 0-0-0-0 | 7 | 0.4 | Adagrad | 0.9706682 | 9.643 | 4753625 | 500 |
| 0 | 0-0-0-0 | 0-0-0-0 | 3 | 0.4 | Adagrad | 0.9708084 | 21.12 | 10505125 | 1000 |
| 0 | 0-0-0-0 | 0-0-0-0 | 7 | 0.4 | Adagrad | 0.9709719 | 16.88 | 10505125 | 1000 |
| 0 | 0-0-0-0 | 0-0-0-0 | 2 | 0.4 | Adagrad | 0.9716976 | 23.24 | 10505125 | 1000 |
| 0 | 0-0-0-0 | 0-0-0-0 | 9 | 0.4 | Adagrad | 0.9720183 | 17.31 | 4753625 | 500 |
| 0 | 0-0-0-0 | 0-0-0-0 | 4 | 0.4 | Adagrad | 0.9727678 | 11.22 | 4753625 | 500 |
| 0 | 0-0-0-0 | 0-0-0-0 | 5 | 0.4 | Adagrad | 0.9738277 | 16.25 | 10505125 | 1000 |
| 0 | 0-0-0-0 | 0-0-0-0 | 2 | 0.4 | Adagrad | 0.9780497 | 9.205 | 4753625 | 500 |
