5-3-17-25 16-16-2-2 6 5
85-5-3-5 2-16-4-8 7 5
5-17-15-5 4-2-4-32 4 5
85-15-5 32-4-8 10 5
25-5-17-3 2-8-16-4 8 5
51-25-5 16-2-32 6 5
5-5-3-17-5 4-2-4-2-16 6 5
3-17-5-5-5 4-8-2-4-4 9 5
5-17-5-3-5 2-4-16-2-4 8 5
5-5-3-5-17 4-16-2-2-4 6 5
5-17-15-5 8-4-16-2 9 5
5-17-25-3 8-2-32-2 9 5
5-5-3-5-17 2-2-4-4-16 9 5
5-5-3-5-17 4-2-4-8-4 10 5
3-17-5-25 2-2-8-32 8 5
5-17-5-5-3 2-64-2-2-2 5 5
5-17-3-5-5 8-2-4-2-8 8 5
5-3-5-5-17 2-8-2-4-8 4 5
5-17-3-5-5 2-16-8-2-2 4 5
25-5-51 2-2-256 10 5
5-5-5-3-17 4-2-4-8-4 5 5
17-3-25-5 8-2-32-2 5 5
25-5-3-17 4-2-2-64 4 5
5-51-25 32-16-2 9 5
25-5-3-17 2-2-32-8 7 5
5-15-17-5 4-16-2-8 5 5
85-3-25 64-4-4 5 5
5-5-3-17-5 4-2-2-4-16 6 5
5-5-5-17-3 4-4-2-8-4 5 5
5-5-17-3-5 2-64-2-2-2 10 5
3-5-425 4-32-8 10 5
5-3-5-5-17 2-8-4-4-4 9 5
3-5-5-5-17 2-4-4-8-4 5 5
17-15-5-5 2-8-8-8 6 5
255-5-5 16-2-32 9 5
25-15-17 8-64-2 5 5
75-85 64-16 6 5
5-17-5-15 64-2-4-2 4 5
85-15-5 32-4-8 7 5
3-5-17-5-5 16-2-2-4-4 8 5
5-5-3-5-17 4-16-2-2-4 9 5
5-17-5-3-5 2-4-2-32-2 4 5
5-17-3-5-5 8-2-2-2-16 8 5
5-17-5-3-5 16-4-2-2-4 8 5
5-5-3-5-17 8-2-8-4-2 8 5
5-15-17-5 2-4-32-4 10 5
5-17-3-5-5 2-2-16-2-8 5 5
17-125-3 2-256-2 8 5
5-3-5-5-17 2-2-2-64-2 9 5
5-425-3 128-2-4 4 5
17-25-3-5 2-2-16-16 6 5
5-17-25-3 8-16-2-4 10 5
17-5-75 16-32-2 10 5
5-3-17-5-5 4-2-16-4-2 9 5
5-5-5-17-3 8-2-2-8-4 4 5
5-85-3-5 32-4-2-4 4 5
17-5-5-3-5 8-4-2-8-2 6 5
3-5-5-5-17 2-4-2-16-4 7 5
3-5-85-5 4-32-2-4 6 5
3-17-25-5 2-2-32-8 10 5
5-85-3-5 2-8-2-32 5 5
5-5-17-15 4-16-2-8 9 5
75-5-17 16-4-16 7 5
5-17-5-3-5 64-2-2-2-2 9 5
5-3-17-5-5 8-8-4-2-2 9 5
17-5-3-5-5 16-2-2-8-2 8 5
1-6375 128-8 5 5
3-17-25-5 2-8-16-4 8 5
17-5-3-5-5 8-4-2-2-8 9 5
3-25-5-17 4-64-2-2 6 5
85-25-3 2-16-32 4 5
25-5-3-17 16-4-2-8 5 5
5-5-51-5 2-8-8-8 4 5
5-5-51-5 16-8-2-4 6 5
5-5-15-17 128-2-2-2 6 5
25-3-5-17 16-8-4-2 8 5
85-5-5-3 8-4-4-8 8 5
3-5-85-5 16-4-8-2 5 5
3-5-25-17 2-16-2-16 6 5
3-5-85-5 16-4-8-2 5 5
3-17-5-5-5 2-16-2-2-8 7 5
2125-3 32-32 4 5
3-17-5-5-5 2-4-4-2-16 8 5
5-17-3-5-5 4-4-2-2-16 5 5
25-51-5 64-8-2 9 5
5-17-5-15 8-4-16-2 7 5
5-17-5-5-3 2-2-2-16-8 7 5
85-5-3-5 4-4-4-16 4 5
5-17-3-5-5 2-8-8-2-4 6 5
5-3-85-5 2-128-2-2 9 5
17-5-3-5-5 2-4-2-2-32 9 5
51-5-25 32-16-2 4 5
5-5-17-3-5 8-2-8-4-2 8 5
5-5-17-5-3 4-8-2-2-8 9 5
85-15-5 8-2-64 8 5
25-17-3-5 4-2-2-64 7 5
5-5-17-3-5 4-2-2-16-4 9 5
3-25-5-17 4-64-2-2 10 5
5-51-5-5 4-2-64-2 6 5
15-5-17-5 2-64-4-2 5 5
3-5-5-5-17 2-2-4-8-8 10 5
5-5-5-17-3 2-8-4-4-4 4 5
25-17-5-3 4-2-32-4 9 5
5-5-5-17-3 4-2-2-4-16 4 5
3-5-5-5-17 4-16-2-4-2 8 5
3-17-5-5-5 2-16-4-4-2 10 5
3-17-25-5 4-8-4-8 6 5
25-17-3-5 8-4-8-4 10 5
17-5-3-5-5 2-2-2-4-32 5 5
5-17-5-5-3 2-4-32-2-2 4 5
5-17-3-5-5 4-8-2-8-2 9 5
15-17-5-5 8-2-4-16 8 5
5-5-3-85 4-4-4-16 7 5
3-5-25-17 32-2-2-8 8 5
3-17-25-5 2-32-8-2 4 5
25-5-3-17 4-8-4-8 4 5
85-5-5-3 2-4-32-4 4 5
5-5-3-5-17 2-64-2-2-2 7 5
5-255-5 8-8-16 7 5
17-5-25-3 4-8-2-16 5 5
5-5-3-85 32-8-2-2 6 5
15-17-25 128-4-2 6 5
3-5-17-25 4-8-4-8 9 5
5-85-5-3 16-2-4-8 8 5
3-5-5-85 8-4-8-4 4 5
85-3-5-5 32-2-4-4 6 5
3-5-25-17 2-32-2-8 4 5
3-5-25-17 2-2-128-2 5 5
17-15-5-5 4-32-4-2 5 5
5-3-5-5-17 64-2-2-2-2 8 5
5-5-85-3 32-8-2-2 7 5
5-5-3-17-5 2-2-2-64-2 8 5
5-3-85-5 32-2-4-4 7 5
3-25-5-17 4-2-2-64 5 5
3-17-5-25 2-16-2-16 8 5
3-5-5-5-17 4-2-2-32-2 8 5
17-5-5-5-3 4-8-2-2-8 9 5
51-5-5-5 16-16-2-2 10 5
17-3-5-5-5 16-2-2-2-8 8 5
5-5-17-3-5 2-2-8-2-16 10 5
3-5-17-25 2-16-8-4 6 5
5-5-17-5-3 2-16-4-2-4 5 5
85-25-3 8-2-64 4 5
17-3-5-25 2-4-2-64 9 5
17-25-5-3 2-2-16-16 5 5
5-3-85-5 4-8-2-16 10 5
5-3-17-5-5 4-16-4-2-2 4 5
5-25-51 2-4-128 4 5
25-5-17-3 16-2-2-16 8 5
85-75 1-1024 6 5
5-3-5-85 2-4-8-16 6 5
3-5-5-17-5 2-4-8-2-8 6 5
5-5-85-3 8-2-8-8 4 5
5-51-5-5 4-16-8-2 10 5
5-3-17-25 2-2-4-64 6 5
5-5-5-51 8-2-8-8 4 5
125-17-3 8-64-2 5 5
17-25-15 64-4-4 7 5
5-15-5-17 2-8-8-8 6 5
5-1275 32-32 6 5
85-5-5-3 32-2-4-4 6 5
5-3-17-5-5 2-8-4-4-4 8 5
17-5-3-25 4-2-64-2 6 5
25-17-3-5 8-8-8-2 4 5
5-17-75 32-4-8 7 5
5-5-3-5-17 4-2-2-16-4 7 5
5-5-5-51 4-2-16-8 10 5
5-17-3-5-5 8-2-4-2-8 10 5
3-85-5-5 2-2-32-8 4 5
3-5-5-17-5 8-2-8-2-4 7 5
15-5-5-17 2-2-128-2 7 5
5-17-5-3-5 2-4-2-32-2 8 5
15-17-5-5 4-4-32-2 10 5
17-5-5-5-3 2-4-2-32-2 10 5
5-3-5-17-5 8-2-2-2-16 4 5
5-17-5-3-5 2-2-16-8-2 4 5
5-5-5-3-17 2-2-8-2-16 4 5
17-5-25-3 8-8-4-4 4 5
25-85-3 32-8-4 4 5
85-5-5-3 8-32-2-2 7 5
5-17-3-25 2-16-4-8 4 5
25-17-3-5 4-4-8-8 10 5
17-3-25-5 16-16-2-2 8 5
5-25-3-17 2-16-16-2 6 5
3-25-5-17 2-4-4-32 4 5
75-85 64-16 10 5
15-5-5-17 2-4-16-8 5 5
5-5-5-51 2-128-2-2 4 5
5-51-25 128-2-4 8 5
3-85-5-5 2-8-16-4 8 5
17-3-5-5-5 4-2-4-8-4 7 5
5-3-5-5-17 2-4-2-2-32 6 5
5-17-15-5 4-16-8-2 5 5
17-5-5-5-3 8-2-2-8-4 9 5
5-5-3-85 8-32-2-2 5 5
3-125-17 2-2-256 6 5
3-85-5-5 2-16-8-4 9 5
5-15-5-17 2-128-2-2 7 5
25-3-17-5 2-32-8-2 4 5
17-25-5-3 2-128-2-2 7 5
5-3-5-17-5 32-2-4-2-2 10 5
3-25-85 8-4-32 7 5
3-17-5-5-5 8-2-2-16-2 4 5
3-5-5-17-5 4-2-4-4-8 7 5
5-3-5-5-17 4-4-4-8-2 5 5
3-5-17-25 16-2-2-16 10 5
25-5-17-3 8-8-8-2 10 5
17-25-5-3 8-32-2-2 7 5
15-5-5-17 2-16-2-16 5 5
5-425-3 4-4-64 6 5
15-5-17-5 16-4-8-2 6 5
3-5-5-17-5 2-16-2-2-8 7 5
17-5-5-15 2-4-2-64 8 5
3-25-85 2-32-16 10 5
75-17-5 8-16-8 9 5
3-17-5-25 16-4-8-2 7 5
5-17-75 4-16-16 9 5
5-17-25-3 16-4-4-4 7 5
5-5-17-5-3 2-2-8-8-4 7 5
5-5-17-5-3 2-4-4-16-2 4 5
5-15-85 64-4-4 10 5
5-3-5-17-5 2-16-8-2-2 9 5
5-5-3-5-17 8-2-2-2-16 7 5
3-5-17-25 64-2-2-4 4 5
85-3-25 16-8-8 6 5
15-17-5-5 8-16-4-2 8 5
3-5-5-85 16-4-2-8 9 5
3-125-17 8-4-32 9 5
5-5-255 8-2-64 6 5
5-5-3-5-17 4-4-4-2-8 9 5
5-17-5-15 32-4-2-4 7 5
3-5-17-25 16-4-2-8 4 5
5-3-5-5-17 2-4-16-2-4 8 5
17-25-3-5 16-2-16-2 4 5
5-5-17-3-5 16-2-2-2-8 4 5
3-5-85-5 8-16-4-2 8 5
5-5-17-5-3 4-2-8-2-8 8 5
5-5-5-3-17 2-2-16-2-8 4 5
5-15-17-5 8-32-2-2 4 5
15-5-17-5 32-2-2-8 7 5
5-5-5-51 2-8-8-8 8 5
17-5-5-3-5 4-4-2-2-16 8 5
3-25-17-5 2-2-2-128 6 5
17-5-3-5-5 4-2-2-4-16 8 5
3-5-85-5 4-2-8-16 8 5
5-51-25 4-4-64 4 5
5-17-3-25 2-4-2-64 6 5
5-3-425 16-32-2 7 5
3-5-17-25 64-2-2-4 7 5
3-425-5 8-64-2 6 5
25-17-5-3 4-2-2-64 4 5
5-15-85 8-32-4 8 5
17-5-3-25 8-4-16-2 7 5
3-17-5-5-5 8-4-8-2-2 9 5
5-3-85-5 2-8-8-8 4 5
5-17-3-25 2-2-16-16 7 5
15-85-5 64-2-8 5 5
3-85-5-5 64-2-2-4 4 5
5-17-5-3-5 4-2-2-4-16 9 5
5-25-3-17 2-64-2-4 4 5
5-85-3-5 2-4-8-16 10 5
5-17-5-15 4-4-16-4 4 5
25-5-3-17 8-2-16-4 6 5
5-15-5-17 8-2-8-8 5 5
5-3-17-5-5 2-32-2-4-2 9 5
5-3-5-17-5 8-2-4-2-8 6 5
3-5-17-5-5 4-4-16-2-2 5 5
5-5-3-17-5 2-16-4-2-4 7 5
125-3-17 2-32-16 9 5
5-5-5-17-3 8-4-4-4-2 10 5
5-25-3-17 4-8-8-4 5 5
5-17-3-5-5 16-4-4-2-2 5 5
17-15-5-5 32-2-4-4 4 5
5-5-15-17 8-32-2-2 5 5
75-5-17 128-4-2 6 5
3-17-5-5-5 2-4-8-2-8 6 5
5-5-85-3 2-16-4-8 7 5
3-5-17-5-5 8-2-16-2-2 8 5
425-5-3 2-256-2 9 5
3-17-5-25 2-2-8-32 10 5
5-3-5-85 2-4-8-16 7 5
3-5-17-5-5 4-2-4-16-2 9 5
17-15-5-5 16-8-2-4 7 5
25-17-3-5 4-2-2-64 10 5
5-5-3-5-17 2-8-8-2-4 5 5
5-425-3 128-2-4 6 5
85-15-5 8-32-4 7 5
17-5-15-5 2-4-2-64 4 5
85-3-25 16-8-8 5 5
425-5-3 256-2-2 5 5
15-17-5-5 2-64-4-2 10 5
51-25-5 2-64-8 8 5
5-17-5-5-3 2-64-2-2-2 5 5
5-17-3-5-5 16-4-4-2-2 10 5
25-17-3-5 64-2-2-4 9 5
5-3-5-5-17 4-16-4-2-2 10 5
3-2125 256-4 9 5
5-255-5 4-64-4 9 5
5-5-3-5-17 2-2-4-4-16 8 5
255-25 32-32 7 5