WARNING (theano.tensor.blas): We did not found a dynamic library into the library_dir of the library we use for blas. If you use ATLAS, make sure to compile it with dynamics library.
INFO (theano.gof.compilelock): Waiting for existing lock by process '73187' (I am process '73148')
INFO (theano.gof.compilelock): To manually release the lock, delete /tmp/pierre-antoine.martrice/theano.NOBACKUP/compiledir_Linux-3.10-el7.x86_64-x86_64-with-centos-7.3.1611-Core-x86_64-2.7.13-64/lock_dir
INFO (theano.gof.compilelock): Waiting for existing lock by process '73184' (I am process '73148')
INFO (theano.gof.compilelock): To manually release the lock, delete /tmp/pierre-antoine.martrice/theano.NOBACKUP/compiledir_Linux-3.10-el7.x86_64-x86_64-with-centos-7.3.1611-Core-x86_64-2.7.13-64/lock_dir
INFO (theano.gof.compilelock): Waiting for existing lock by process '73212' (I am process '73148')
INFO (theano.gof.compilelock): To manually release the lock, delete /tmp/pierre-antoine.martrice/theano.NOBACKUP/compiledir_Linux-3.10-el7.x86_64-x86_64-with-centos-7.3.1611-Core-x86_64-2.7.13-64/lock_dir
INFO (theano.gof.compilelock): Waiting for existing lock by process '73118' (I am process '73148')
INFO (theano.gof.compilelock): To manually release the lock, delete /tmp/pierre-antoine.martrice/theano.NOBACKUP/compiledir_Linux-3.10-el7.x86_64-x86_64-with-centos-7.3.1611-Core-x86_64-2.7.13-64/lock_dir
INFO (theano.gof.compilelock): Waiting for existing lock by process '73184' (I am process '73148')
INFO (theano.gof.compilelock): To manually release the lock, delete /tmp/pierre-antoine.martrice/theano.NOBACKUP/compiledir_Linux-3.10-el7.x86_64-x86_64-with-centos-7.3.1611-Core-x86_64-2.7.13-64/lock_dir
INFO (theano.gof.compilelock): Waiting for existing lock by process '73198' (I am process '73148')
INFO (theano.gof.compilelock): To manually release the lock, delete /tmp/pierre-antoine.martrice/theano.NOBACKUP/compiledir_Linux-3.10-el7.x86_64-x86_64-with-centos-7.3.1611-Core-x86_64-2.7.13-64/lock_dir
INFO (theano.gof.compilelock): Waiting for existing lock by process '76573' (I am process '73148')
INFO (theano.gof.compilelock): To manually release the lock, delete /tmp/pierre-antoine.martrice/theano.NOBACKUP/compiledir_Linux-3.10-el7.x86_64-x86_64-with-centos-7.3.1611-Core-x86_64-2.7.13-64/lock_dir
INFO (theano.gof.compilelock): Waiting for existing lock by process '73184' (I am process '73148')
INFO (theano.gof.compilelock): To manually release the lock, delete /tmp/pierre-antoine.martrice/theano.NOBACKUP/compiledir_Linux-3.10-el7.x86_64-x86_64-with-centos-7.3.1611-Core-x86_64-2.7.13-64/lock_dir
INFO (theano.gof.compilelock): Waiting for existing lock by process '73187' (I am process '73148')
INFO (theano.gof.compilelock): To manually release the lock, delete /tmp/pierre-antoine.martrice/theano.NOBACKUP/compiledir_Linux-3.10-el7.x86_64-x86_64-with-centos-7.3.1611-Core-x86_64-2.7.13-64/lock_dir
INFO (theano.gof.compilelock): Waiting for existing lock by process '72459' (I am process '73148')
INFO (theano.gof.compilelock): To manually release the lock, delete /tmp/pierre-antoine.martrice/theano.NOBACKUP/compiledir_Linux-3.10-el7.x86_64-x86_64-with-centos-7.3.1611-Core-x86_64-2.7.13-64/lock_dir
INFO (theano.gof.compilelock): Waiting for existing lock by process '73198' (I am process '73148')
INFO (theano.gof.compilelock): To manually release the lock, delete /tmp/pierre-antoine.martrice/theano.NOBACKUP/compiledir_Linux-3.10-el7.x86_64-x86_64-with-centos-7.3.1611-Core-x86_64-2.7.13-64/lock_dir
INFO (theano.gof.compilelock): Waiting for existing lock by process '73198' (I am process '73148')
INFO (theano.gof.compilelock): To manually release the lock, delete /tmp/pierre-antoine.martrice/theano.NOBACKUP/compiledir_Linux-3.10-el7.x86_64-x86_64-with-centos-7.3.1611-Core-x86_64-2.7.13-64/lock_dir
INFO (theano.gof.compilelock): Waiting for existing lock by process '73184' (I am process '73148')
INFO (theano.gof.compilelock): To manually release the lock, delete /tmp/pierre-antoine.martrice/theano.NOBACKUP/compiledir_Linux-3.10-el7.x86_64-x86_64-with-centos-7.3.1611-Core-x86_64-2.7.13-64/lock_dir
INFO (theano.gof.compilelock): Waiting for existing lock by process '72460' (I am process '73148')
INFO (theano.gof.compilelock): To manually release the lock, delete /tmp/pierre-antoine.martrice/theano.NOBACKUP/compiledir_Linux-3.10-el7.x86_64-x86_64-with-centos-7.3.1611-Core-x86_64-2.7.13-64/lock_dir
INFO (theano.gof.compilelock): Waiting for existing lock by process '73184' (I am process '73148')
INFO (theano.gof.compilelock): To manually release the lock, delete /tmp/pierre-antoine.martrice/theano.NOBACKUP/compiledir_Linux-3.10-el7.x86_64-x86_64-with-centos-7.3.1611-Core-x86_64-2.7.13-64/lock_dir
INFO (theano.gof.compilelock): Waiting for existing lock by process '76579' (I am process '73148')
INFO (theano.gof.compilelock): To manually release the lock, delete /tmp/pierre-antoine.martrice/theano.NOBACKUP/compiledir_Linux-3.10-el7.x86_64-x86_64-with-centos-7.3.1611-Core-x86_64-2.7.13-64/lock_dir
INFO (theano.gof.compilelock): Waiting for existing lock by process '73188' (I am process '73148')
INFO (theano.gof.compilelock): To manually release the lock, delete /tmp/pierre-antoine.martrice/theano.NOBACKUP/compiledir_Linux-3.10-el7.x86_64-x86_64-with-centos-7.3.1611-Core-x86_64-2.7.13-64/lock_dir
INFO (theano.gof.compilelock): Waiting for existing lock by process '73188' (I am process '73148')
INFO (theano.gof.compilelock): To manually release the lock, delete /tmp/pierre-antoine.martrice/theano.NOBACKUP/compiledir_Linux-3.10-el7.x86_64-x86_64-with-centos-7.3.1611-Core-x86_64-2.7.13-64/lock_dir
INFO (theano.gof.compilelock): Waiting for existing lock by process '72492' (I am process '73148')
INFO (theano.gof.compilelock): To manually release the lock, delete /tmp/pierre-antoine.martrice/theano.NOBACKUP/compiledir_Linux-3.10-el7.x86_64-x86_64-with-centos-7.3.1611-Core-x86_64-2.7.13-64/lock_dir
INFO (theano.gof.compilelock): Waiting for existing lock by process '72460' (I am process '73148')
INFO (theano.gof.compilelock): To manually release the lock, delete /tmp/pierre-antoine.martrice/theano.NOBACKUP/compiledir_Linux-3.10-el7.x86_64-x86_64-with-centos-7.3.1611-Core-x86_64-2.7.13-64/lock_dir
INFO (theano.gof.compilelock): Waiting for existing lock by process '73184' (I am process '73148')
INFO (theano.gof.compilelock): To manually release the lock, delete /tmp/pierre-antoine.martrice/theano.NOBACKUP/compiledir_Linux-3.10-el7.x86_64-x86_64-with-centos-7.3.1611-Core-x86_64-2.7.13-64/lock_dir
INFO (theano.gof.compilelock): Waiting for existing lock by process '73184' (I am process '73148')
INFO (theano.gof.compilelock): To manually release the lock, delete /tmp/pierre-antoine.martrice/theano.NOBACKUP/compiledir_Linux-3.10-el7.x86_64-x86_64-with-centos-7.3.1611-Core-x86_64-2.7.13-64/lock_dir
INFO (theano.gof.compilelock): Waiting for existing lock by process '73118' (I am process '73148')
INFO (theano.gof.compilelock): To manually release the lock, delete /tmp/pierre-antoine.martrice/theano.NOBACKUP/compiledir_Linux-3.10-el7.x86_64-x86_64-with-centos-7.3.1611-Core-x86_64-2.7.13-64/lock_dir
INFO (theano.gof.compilelock): Waiting for existing lock by process '73212' (I am process '73148')
INFO (theano.gof.compilelock): To manually release the lock, delete /tmp/pierre-antoine.martrice/theano.NOBACKUP/compiledir_Linux-3.10-el7.x86_64-x86_64-with-centos-7.3.1611-Core-x86_64-2.7.13-64/lock_dir
INFO (theano.gof.compilelock): Waiting for existing lock by process '72492' (I am process '73148')
INFO (theano.gof.compilelock): To manually release the lock, delete /tmp/pierre-antoine.martrice/theano.NOBACKUP/compiledir_Linux-3.10-el7.x86_64-x86_64-with-centos-7.3.1611-Core-x86_64-2.7.13-64/lock_dir
INFO (theano.gof.compilelock): Waiting for existing lock by process '73118' (I am process '73148')
INFO (theano.gof.compilelock): To manually release the lock, delete /tmp/pierre-antoine.martrice/theano.NOBACKUP/compiledir_Linux-3.10-el7.x86_64-x86_64-with-centos-7.3.1611-Core-x86_64-2.7.13-64/lock_dir
INFO (theano.gof.compilelock): Waiting for existing lock by process '73118' (I am process '73148')
INFO (theano.gof.compilelock): To manually release the lock, delete /tmp/pierre-antoine.martrice/theano.NOBACKUP/compiledir_Linux-3.10-el7.x86_64-x86_64-with-centos-7.3.1611-Core-x86_64-2.7.13-64/lock_dir
INFO (theano.gof.compilelock): Waiting for existing lock by process '72460' (I am process '73148')
INFO (theano.gof.compilelock): To manually release the lock, delete /tmp/pierre-antoine.martrice/theano.NOBACKUP/compiledir_Linux-3.10-el7.x86_64-x86_64-with-centos-7.3.1611-Core-x86_64-2.7.13-64/lock_dir
INFO (theano.gof.compilelock): Waiting for existing lock by process '73212' (I am process '73148')
INFO (theano.gof.compilelock): To manually release the lock, delete /tmp/pierre-antoine.martrice/theano.NOBACKUP/compiledir_Linux-3.10-el7.x86_64-x86_64-with-centos-7.3.1611-Core-x86_64-2.7.13-64/lock_dir
INFO (theano.gof.compilelock): Waiting for existing lock by process '73212' (I am process '73148')
INFO (theano.gof.compilelock): To manually release the lock, delete /tmp/pierre-antoine.martrice/theano.NOBACKUP/compiledir_Linux-3.10-el7.x86_64-x86_64-with-centos-7.3.1611-Core-x86_64-2.7.13-64/lock_dir
INFO (theano.gof.compilelock): Waiting for existing lock by process '73184' (I am process '73148')
INFO (theano.gof.compilelock): To manually release the lock, delete /tmp/pierre-antoine.martrice/theano.NOBACKUP/compiledir_Linux-3.10-el7.x86_64-x86_64-with-centos-7.3.1611-Core-x86_64-2.7.13-64/lock_dir
INFO (theano.gof.compilelock): Waiting for existing lock by process '73212' (I am process '73148')
INFO (theano.gof.compilelock): To manually release the lock, delete /tmp/pierre-antoine.martrice/theano.NOBACKUP/compiledir_Linux-3.10-el7.x86_64-x86_64-with-centos-7.3.1611-Core-x86_64-2.7.13-64/lock_dir
INFO (theano.gof.compilelock): Waiting for existing lock by process '72492' (I am process '73148')
INFO (theano.gof.compilelock): To manually release the lock, delete /tmp/pierre-antoine.martrice/theano.NOBACKUP/compiledir_Linux-3.10-el7.x86_64-x86_64-with-centos-7.3.1611-Core-x86_64-2.7.13-64/lock_dir
INFO (theano.gof.compilelock): Waiting for existing lock by process '73188' (I am process '73148')
INFO (theano.gof.compilelock): To manually release the lock, delete /tmp/pierre-antoine.martrice/theano.NOBACKUP/compiledir_Linux-3.10-el7.x86_64-x86_64-with-centos-7.3.1611-Core-x86_64-2.7.13-64/lock_dir
INFO (theano.gof.compilelock): Waiting for existing lock by process '73184' (I am process '73148')
INFO (theano.gof.compilelock): To manually release the lock, delete /tmp/pierre-antoine.martrice/theano.NOBACKUP/compiledir_Linux-3.10-el7.x86_64-x86_64-with-centos-7.3.1611-Core-x86_64-2.7.13-64/lock_dir
INFO (theano.gof.compilelock): Waiting for existing lock by process '73184' (I am process '73148')
INFO (theano.gof.compilelock): To manually release the lock, delete /tmp/pierre-antoine.martrice/theano.NOBACKUP/compiledir_Linux-3.10-el7.x86_64-x86_64-with-centos-7.3.1611-Core-x86_64-2.7.13-64/lock_dir
INFO (theano.gof.compilelock): Waiting for existing lock by process '73184' (I am process '73148')
INFO (theano.gof.compilelock): To manually release the lock, delete /tmp/pierre-antoine.martrice/theano.NOBACKUP/compiledir_Linux-3.10-el7.x86_64-x86_64-with-centos-7.3.1611-Core-x86_64-2.7.13-64/lock_dir
INFO (theano.gof.compilelock): Waiting for existing lock by process '73187' (I am process '73148')
INFO (theano.gof.compilelock): To manually release the lock, delete /tmp/pierre-antoine.martrice/theano.NOBACKUP/compiledir_Linux-3.10-el7.x86_64-x86_64-with-centos-7.3.1611-Core-x86_64-2.7.13-64/lock_dir
INFO (theano.gof.compilelock): Waiting for existing lock by process '76579' (I am process '73148')
INFO (theano.gof.compilelock): To manually release the lock, delete /tmp/pierre-antoine.martrice/theano.NOBACKUP/compiledir_Linux-3.10-el7.x86_64-x86_64-with-centos-7.3.1611-Core-x86_64-2.7.13-64/lock_dir
INFO (theano.gof.compilelock): Waiting for existing lock by process '76579' (I am process '73148')
INFO (theano.gof.compilelock): To manually release the lock, delete /tmp/pierre-antoine.martrice/theano.NOBACKUP/compiledir_Linux-3.10-el7.x86_64-x86_64-with-centos-7.3.1611-Core-x86_64-2.7.13-64/lock_dir
INFO (theano.gof.compilelock): Waiting for existing lock by process '76573' (I am process '73148')
INFO (theano.gof.compilelock): To manually release the lock, delete /tmp/pierre-antoine.martrice/theano.NOBACKUP/compiledir_Linux-3.10-el7.x86_64-x86_64-with-centos-7.3.1611-Core-x86_64-2.7.13-64/lock_dir
INFO (theano.gof.compilelock): Waiting for existing lock by process '76573' (I am process '73148')
INFO (theano.gof.compilelock): To manually release the lock, delete /tmp/pierre-antoine.martrice/theano.NOBACKUP/compiledir_Linux-3.10-el7.x86_64-x86_64-with-centos-7.3.1611-Core-x86_64-2.7.13-64/lock_dir
INFO (theano.gof.compilelock): Waiting for existing lock by process '73198' (I am process '73148')
INFO (theano.gof.compilelock): To manually release the lock, delete /tmp/pierre-antoine.martrice/theano.NOBACKUP/compiledir_Linux-3.10-el7.x86_64-x86_64-with-centos-7.3.1611-Core-x86_64-2.7.13-64/lock_dir
INFO (theano.gof.compilelock): Waiting for existing lock by process '73188' (I am process '73148')
INFO (theano.gof.compilelock): To manually release the lock, delete /tmp/pierre-antoine.martrice/theano.NOBACKUP/compiledir_Linux-3.10-el7.x86_64-x86_64-with-centos-7.3.1611-Core-x86_64-2.7.13-64/lock_dir
INFO (theano.gof.compilelock): Waiting for existing lock by process '73188' (I am process '73148')
INFO (theano.gof.compilelock): To manually release the lock, delete /tmp/pierre-antoine.martrice/theano.NOBACKUP/compiledir_Linux-3.10-el7.x86_64-x86_64-with-centos-7.3.1611-Core-x86_64-2.7.13-64/lock_dir
INFO (theano.gof.compilelock): Waiting for existing lock by process '72459' (I am process '73148')
INFO (theano.gof.compilelock): To manually release the lock, delete /tmp/pierre-antoine.martrice/theano.NOBACKUP/compiledir_Linux-3.10-el7.x86_64-x86_64-with-centos-7.3.1611-Core-x86_64-2.7.13-64/lock_dir
INFO (theano.gof.compilelock): Waiting for existing lock by process '72459' (I am process '73148')
INFO (theano.gof.compilelock): To manually release the lock, delete /tmp/pierre-antoine.martrice/theano.NOBACKUP/compiledir_Linux-3.10-el7.x86_64-x86_64-with-centos-7.3.1611-Core-x86_64-2.7.13-64/lock_dir
INFO (theano.gof.compilelock): Waiting for existing lock by process '73212' (I am process '73148')
INFO (theano.gof.compilelock): To manually release the lock, delete /tmp/pierre-antoine.martrice/theano.NOBACKUP/compiledir_Linux-3.10-el7.x86_64-x86_64-with-centos-7.3.1611-Core-x86_64-2.7.13-64/lock_dir
INFO (theano.gof.compilelock): Waiting for existing lock by process '73187' (I am process '73148')
INFO (theano.gof.compilelock): To manually release the lock, delete /tmp/pierre-antoine.martrice/theano.NOBACKUP/compiledir_Linux-3.10-el7.x86_64-x86_64-with-centos-7.3.1611-Core-x86_64-2.7.13-64/lock_dir
INFO (theano.gof.compilelock): Waiting for existing lock by process '73187' (I am process '73148')
INFO (theano.gof.compilelock): To manually release the lock, delete /tmp/pierre-antoine.martrice/theano.NOBACKUP/compiledir_Linux-3.10-el7.x86_64-x86_64-with-centos-7.3.1611-Core-x86_64-2.7.13-64/lock_dir
INFO (theano.gof.compilelock): Waiting for existing lock by process '73188' (I am process '73148')
INFO (theano.gof.compilelock): To manually release the lock, delete /tmp/pierre-antoine.martrice/theano.NOBACKUP/compiledir_Linux-3.10-el7.x86_64-x86_64-with-centos-7.3.1611-Core-x86_64-2.7.13-64/lock_dir
INFO (theano.gof.compilelock): Waiting for existing lock by process '73188' (I am process '73148')
INFO (theano.gof.compilelock): To manually release the lock, delete /tmp/pierre-antoine.martrice/theano.NOBACKUP/compiledir_Linux-3.10-el7.x86_64-x86_64-with-centos-7.3.1611-Core-x86_64-2.7.13-64/lock_dir
INFO (theano.gof.compilelock): Waiting for existing lock by process '73187' (I am process '73148')
INFO (theano.gof.compilelock): To manually release the lock, delete /tmp/pierre-antoine.martrice/theano.NOBACKUP/compiledir_Linux-3.10-el7.x86_64-x86_64-with-centos-7.3.1611-Core-x86_64-2.7.13-64/lock_dir
INFO (theano.gof.compilelock): Waiting for existing lock by process '73118' (I am process '73148')
INFO (theano.gof.compilelock): To manually release the lock, delete /tmp/pierre-antoine.martrice/theano.NOBACKUP/compiledir_Linux-3.10-el7.x86_64-x86_64-with-centos-7.3.1611-Core-x86_64-2.7.13-64/lock_dir
INFO (theano.gof.compilelock): Waiting for existing lock by process '73118' (I am process '73148')
INFO (theano.gof.compilelock): To manually release the lock, delete /tmp/pierre-antoine.martrice/theano.NOBACKUP/compiledir_Linux-3.10-el7.x86_64-x86_64-with-centos-7.3.1611-Core-x86_64-2.7.13-64/lock_dir
INFO (theano.gof.compilelock): Waiting for existing lock by process '72459' (I am process '73148')
INFO (theano.gof.compilelock): To manually release the lock, delete /tmp/pierre-antoine.martrice/theano.NOBACKUP/compiledir_Linux-3.10-el7.x86_64-x86_64-with-centos-7.3.1611-Core-x86_64-2.7.13-64/lock_dir
INFO (theano.gof.compilelock): Waiting for existing lock by process '72460' (I am process '73148')
INFO (theano.gof.compilelock): To manually release the lock, delete /tmp/pierre-antoine.martrice/theano.NOBACKUP/compiledir_Linux-3.10-el7.x86_64-x86_64-with-centos-7.3.1611-Core-x86_64-2.7.13-64/lock_dir
INFO (theano.gof.compilelock): Waiting for existing lock by process '73184' (I am process '73148')
INFO (theano.gof.compilelock): To manually release the lock, delete /tmp/pierre-antoine.martrice/theano.NOBACKUP/compiledir_Linux-3.10-el7.x86_64-x86_64-with-centos-7.3.1611-Core-x86_64-2.7.13-64/lock_dir
INFO (theano.gof.compilelock): Waiting for existing lock by process '72460' (I am process '73148')
INFO (theano.gof.compilelock): To manually release the lock, delete /tmp/pierre-antoine.martrice/theano.NOBACKUP/compiledir_Linux-3.10-el7.x86_64-x86_64-with-centos-7.3.1611-Core-x86_64-2.7.13-64/lock_dir
INFO (theano.gof.compilelock): Waiting for existing lock by process '73118' (I am process '73148')
INFO (theano.gof.compilelock): To manually release the lock, delete /tmp/pierre-antoine.martrice/theano.NOBACKUP/compiledir_Linux-3.10-el7.x86_64-x86_64-with-centos-7.3.1611-Core-x86_64-2.7.13-64/lock_dir
INFO (theano.gof.compilelock): Waiting for existing lock by process '73198' (I am process '73148')
INFO (theano.gof.compilelock): To manually release the lock, delete /tmp/pierre-antoine.martrice/theano.NOBACKUP/compiledir_Linux-3.10-el7.x86_64-x86_64-with-centos-7.3.1611-Core-x86_64-2.7.13-64/lock_dir
INFO (theano.gof.compilelock): Waiting for existing lock by process '73198' (I am process '73148')
INFO (theano.gof.compilelock): To manually release the lock, delete /tmp/pierre-antoine.martrice/theano.NOBACKUP/compiledir_Linux-3.10-el7.x86_64-x86_64-with-centos-7.3.1611-Core-x86_64-2.7.13-64/lock_dir
INFO (theano.gof.compilelock): Waiting for existing lock by process '72459' (I am process '73148')
INFO (theano.gof.compilelock): To manually release the lock, delete /tmp/pierre-antoine.martrice/theano.NOBACKUP/compiledir_Linux-3.10-el7.x86_64-x86_64-with-centos-7.3.1611-Core-x86_64-2.7.13-64/lock_dir
INFO (theano.gof.compilelock): Waiting for existing lock by process '72459' (I am process '73148')
INFO (theano.gof.compilelock): To manually release the lock, delete /tmp/pierre-antoine.martrice/theano.NOBACKUP/compiledir_Linux-3.10-el7.x86_64-x86_64-with-centos-7.3.1611-Core-x86_64-2.7.13-64/lock_dir
INFO (theano.gof.compilelock): Waiting for existing lock by process '73188' (I am process '73148')
INFO (theano.gof.compilelock): To manually release the lock, delete /tmp/pierre-antoine.martrice/theano.NOBACKUP/compiledir_Linux-3.10-el7.x86_64-x86_64-with-centos-7.3.1611-Core-x86_64-2.7.13-64/lock_dir
INFO (theano.gof.compilelock): Waiting for existing lock by process '73188' (I am process '73148')
INFO (theano.gof.compilelock): To manually release the lock, delete /tmp/pierre-antoine.martrice/theano.NOBACKUP/compiledir_Linux-3.10-el7.x86_64-x86_64-with-centos-7.3.1611-Core-x86_64-2.7.13-64/lock_dir
INFO (theano.gof.compilelock): Waiting for existing lock by process '73187' (I am process '73148')
INFO (theano.gof.compilelock): To manually release the lock, delete /tmp/pierre-antoine.martrice/theano.NOBACKUP/compiledir_Linux-3.10-el7.x86_64-x86_64-with-centos-7.3.1611-Core-x86_64-2.7.13-64/lock_dir
INFO (theano.gof.compilelock): Waiting for existing lock by process '73188' (I am process '73148')
INFO (theano.gof.compilelock): To manually release the lock, delete /tmp/pierre-antoine.martrice/theano.NOBACKUP/compiledir_Linux-3.10-el7.x86_64-x86_64-with-centos-7.3.1611-Core-x86_64-2.7.13-64/lock_dir
INFO (theano.gof.compilelock): Waiting for existing lock by process '73198' (I am process '73148')
INFO (theano.gof.compilelock): To manually release the lock, delete /tmp/pierre-antoine.martrice/theano.NOBACKUP/compiledir_Linux-3.10-el7.x86_64-x86_64-with-centos-7.3.1611-Core-x86_64-2.7.13-64/lock_dir
INFO (theano.gof.compilelock): Waiting for existing lock by process '73187' (I am process '73148')
INFO (theano.gof.compilelock): To manually release the lock, delete /tmp/pierre-antoine.martrice/theano.NOBACKUP/compiledir_Linux-3.10-el7.x86_64-x86_64-with-centos-7.3.1611-Core-x86_64-2.7.13-64/lock_dir
INFO (theano.gof.compilelock): Waiting for existing lock by process '73187' (I am process '73148')
INFO (theano.gof.compilelock): To manually release the lock, delete /tmp/pierre-antoine.martrice/theano.NOBACKUP/compiledir_Linux-3.10-el7.x86_64-x86_64-with-centos-7.3.1611-Core-x86_64-2.7.13-64/lock_dir
INFO (theano.gof.compilelock): Waiting for existing lock by process '73187' (I am process '73148')
INFO (theano.gof.compilelock): To manually release the lock, delete /tmp/pierre-antoine.martrice/theano.NOBACKUP/compiledir_Linux-3.10-el7.x86_64-x86_64-with-centos-7.3.1611-Core-x86_64-2.7.13-64/lock_dir
INFO (theano.gof.compilelock): Waiting for existing lock by process '73187' (I am process '73148')
INFO (theano.gof.compilelock): To manually release the lock, delete /tmp/pierre-antoine.martrice/theano.NOBACKUP/compiledir_Linux-3.10-el7.x86_64-x86_64-with-centos-7.3.1611-Core-x86_64-2.7.13-64/lock_dir
INFO (theano.gof.compilelock): Waiting for existing lock by process '73187' (I am process '73148')
INFO (theano.gof.compilelock): To manually release the lock, delete /tmp/pierre-antoine.martrice/theano.NOBACKUP/compiledir_Linux-3.10-el7.x86_64-x86_64-with-centos-7.3.1611-Core-x86_64-2.7.13-64/lock_dir
INFO (theano.gof.compilelock): Waiting for existing lock by process '76573' (I am process '73148')
INFO (theano.gof.compilelock): To manually release the lock, delete /tmp/pierre-antoine.martrice/theano.NOBACKUP/compiledir_Linux-3.10-el7.x86_64-x86_64-with-centos-7.3.1611-Core-x86_64-2.7.13-64/lock_dir
INFO (theano.gof.compilelock): Waiting for existing lock by process '72492' (I am process '73148')
INFO (theano.gof.compilelock): To manually release the lock, delete /tmp/pierre-antoine.martrice/theano.NOBACKUP/compiledir_Linux-3.10-el7.x86_64-x86_64-with-centos-7.3.1611-Core-x86_64-2.7.13-64/lock_dir
INFO (theano.gof.compilelock): Waiting for existing lock by process '73184' (I am process '73148')
INFO (theano.gof.compilelock): To manually release the lock, delete /tmp/pierre-antoine.martrice/theano.NOBACKUP/compiledir_Linux-3.10-el7.x86_64-x86_64-with-centos-7.3.1611-Core-x86_64-2.7.13-64/lock_dir
INFO (theano.gof.compilelock): Waiting for existing lock by process '73184' (I am process '73148')
INFO (theano.gof.compilelock): To manually release the lock, delete /tmp/pierre-antoine.martrice/theano.NOBACKUP/compiledir_Linux-3.10-el7.x86_64-x86_64-with-centos-7.3.1611-Core-x86_64-2.7.13-64/lock_dir
INFO (theano.gof.compilelock): Waiting for existing lock by process '73198' (I am process '73148')
INFO (theano.gof.compilelock): To manually release the lock, delete /tmp/pierre-antoine.martrice/theano.NOBACKUP/compiledir_Linux-3.10-el7.x86_64-x86_64-with-centos-7.3.1611-Core-x86_64-2.7.13-64/lock_dir
INFO (theano.gof.compilelock): Waiting for existing lock by process '73198' (I am process '73148')
INFO (theano.gof.compilelock): To manually release the lock, delete /tmp/pierre-antoine.martrice/theano.NOBACKUP/compiledir_Linux-3.10-el7.x86_64-x86_64-with-centos-7.3.1611-Core-x86_64-2.7.13-64/lock_dir
INFO (theano.gof.compilelock): Waiting for existing lock by process '73198' (I am process '73148')
INFO (theano.gof.compilelock): To manually release the lock, delete /tmp/pierre-antoine.martrice/theano.NOBACKUP/compiledir_Linux-3.10-el7.x86_64-x86_64-with-centos-7.3.1611-Core-x86_64-2.7.13-64/lock_dir
INFO (theano.gof.compilelock): Waiting for existing lock by process '73184' (I am process '73148')
INFO (theano.gof.compilelock): To manually release the lock, delete /tmp/pierre-antoine.martrice/theano.NOBACKUP/compiledir_Linux-3.10-el7.x86_64-x86_64-with-centos-7.3.1611-Core-x86_64-2.7.13-64/lock_dir
INFO (theano.gof.compilelock): Waiting for existing lock by process '73184' (I am process '73148')
INFO (theano.gof.compilelock): To manually release the lock, delete /tmp/pierre-antoine.martrice/theano.NOBACKUP/compiledir_Linux-3.10-el7.x86_64-x86_64-with-centos-7.3.1611-Core-x86_64-2.7.13-64/lock_dir
INFO (theano.gof.compilelock): Waiting for existing lock by process '72460' (I am process '73148')
INFO (theano.gof.compilelock): To manually release the lock, delete /tmp/pierre-antoine.martrice/theano.NOBACKUP/compiledir_Linux-3.10-el7.x86_64-x86_64-with-centos-7.3.1611-Core-x86_64-2.7.13-64/lock_dir
INFO (theano.gof.compilelock): Waiting for existing lock by process '72460' (I am process '73148')
INFO (theano.gof.compilelock): To manually release the lock, delete /tmp/pierre-antoine.martrice/theano.NOBACKUP/compiledir_Linux-3.10-el7.x86_64-x86_64-with-centos-7.3.1611-Core-x86_64-2.7.13-64/lock_dir
INFO (theano.gof.compilelock): Waiting for existing lock by process '73118' (I am process '73148')
INFO (theano.gof.compilelock): To manually release the lock, delete /tmp/pierre-antoine.martrice/theano.NOBACKUP/compiledir_Linux-3.10-el7.x86_64-x86_64-with-centos-7.3.1611-Core-x86_64-2.7.13-64/lock_dir
INFO (theano.gof.compilelock): Waiting for existing lock by process '73118' (I am process '73148')
INFO (theano.gof.compilelock): To manually release the lock, delete /tmp/pierre-antoine.martrice/theano.NOBACKUP/compiledir_Linux-3.10-el7.x86_64-x86_64-with-centos-7.3.1611-Core-x86_64-2.7.13-64/lock_dir
INFO (theano.gof.compilelock): Waiting for existing lock by process '73118' (I am process '73148')
INFO (theano.gof.compilelock): To manually release the lock, delete /tmp/pierre-antoine.martrice/theano.NOBACKUP/compiledir_Linux-3.10-el7.x86_64-x86_64-with-centos-7.3.1611-Core-x86_64-2.7.13-64/lock_dir
INFO (theano.gof.compilelock): Waiting for existing lock by process '73188' (I am process '73148')
INFO (theano.gof.compilelock): To manually release the lock, delete /tmp/pierre-antoine.martrice/theano.NOBACKUP/compiledir_Linux-3.10-el7.x86_64-x86_64-with-centos-7.3.1611-Core-x86_64-2.7.13-64/lock_dir
INFO (theano.gof.compilelock): Waiting for existing lock by process '73187' (I am process '73148')
INFO (theano.gof.compilelock): To manually release the lock, delete /tmp/pierre-antoine.martrice/theano.NOBACKUP/compiledir_Linux-3.10-el7.x86_64-x86_64-with-centos-7.3.1611-Core-x86_64-2.7.13-64/lock_dir
INFO (theano.gof.compilelock): Waiting for existing lock by process '73187' (I am process '73148')
INFO (theano.gof.compilelock): To manually release the lock, delete /tmp/pierre-antoine.martrice/theano.NOBACKUP/compiledir_Linux-3.10-el7.x86_64-x86_64-with-centos-7.3.1611-Core-x86_64-2.7.13-64/lock_dir
INFO (theano.gof.compilelock): Waiting for existing lock by process '73187' (I am process '73148')
INFO (theano.gof.compilelock): To manually release the lock, delete /tmp/pierre-antoine.martrice/theano.NOBACKUP/compiledir_Linux-3.10-el7.x86_64-x86_64-with-centos-7.3.1611-Core-x86_64-2.7.13-64/lock_dir
INFO (theano.gof.compilelock): Waiting for existing lock by process '72460' (I am process '73148')
INFO (theano.gof.compilelock): To manually release the lock, delete /tmp/pierre-antoine.martrice/theano.NOBACKUP/compiledir_Linux-3.10-el7.x86_64-x86_64-with-centos-7.3.1611-Core-x86_64-2.7.13-64/lock_dir
INFO (theano.gof.compilelock): Waiting for existing lock by process '76573' (I am process '73148')
INFO (theano.gof.compilelock): To manually release the lock, delete /tmp/pierre-antoine.martrice/theano.NOBACKUP/compiledir_Linux-3.10-el7.x86_64-x86_64-with-centos-7.3.1611-Core-x86_64-2.7.13-64/lock_dir
INFO (theano.gof.compilelock): Waiting for existing lock by process '72459' (I am process '73148')
INFO (theano.gof.compilelock): To manually release the lock, delete /tmp/pierre-antoine.martrice/theano.NOBACKUP/compiledir_Linux-3.10-el7.x86_64-x86_64-with-centos-7.3.1611-Core-x86_64-2.7.13-64/lock_dir
INFO (theano.gof.compilelock): Waiting for existing lock by process '72459' (I am process '73148')
INFO (theano.gof.compilelock): To manually release the lock, delete /tmp/pierre-antoine.martrice/theano.NOBACKUP/compiledir_Linux-3.10-el7.x86_64-x86_64-with-centos-7.3.1611-Core-x86_64-2.7.13-64/lock_dir
INFO (theano.gof.compilelock): Waiting for existing lock by process '72492' (I am process '73148')
INFO (theano.gof.compilelock): To manually release the lock, delete /tmp/pierre-antoine.martrice/theano.NOBACKUP/compiledir_Linux-3.10-el7.x86_64-x86_64-with-centos-7.3.1611-Core-x86_64-2.7.13-64/lock_dir
INFO (theano.gof.compilelock): Waiting for existing lock by process '72492' (I am process '73148')
INFO (theano.gof.compilelock): To manually release the lock, delete /tmp/pierre-antoine.martrice/theano.NOBACKUP/compiledir_Linux-3.10-el7.x86_64-x86_64-with-centos-7.3.1611-Core-x86_64-2.7.13-64/lock_dir
INFO (theano.gof.compilelock): Waiting for existing lock by process '72492' (I am process '73148')
INFO (theano.gof.compilelock): To manually release the lock, delete /tmp/pierre-antoine.martrice/theano.NOBACKUP/compiledir_Linux-3.10-el7.x86_64-x86_64-with-centos-7.3.1611-Core-x86_64-2.7.13-64/lock_dir
INFO (theano.gof.compilelock): Waiting for existing lock by process '73184' (I am process '73148')
INFO (theano.gof.compilelock): To manually release the lock, delete /tmp/pierre-antoine.martrice/theano.NOBACKUP/compiledir_Linux-3.10-el7.x86_64-x86_64-with-centos-7.3.1611-Core-x86_64-2.7.13-64/lock_dir
INFO (theano.gof.compilelock): Waiting for existing lock by process '76579' (I am process '73148')
INFO (theano.gof.compilelock): To manually release the lock, delete /tmp/pierre-antoine.martrice/theano.NOBACKUP/compiledir_Linux-3.10-el7.x86_64-x86_64-with-centos-7.3.1611-Core-x86_64-2.7.13-64/lock_dir
INFO (theano.gof.compilelock): Waiting for existing lock by process '76579' (I am process '73148')
INFO (theano.gof.compilelock): To manually release the lock, delete /tmp/pierre-antoine.martrice/theano.NOBACKUP/compiledir_Linux-3.10-el7.x86_64-x86_64-with-centos-7.3.1611-Core-x86_64-2.7.13-64/lock_dir
INFO (theano.gof.compilelock): Waiting for existing lock by process '76579' (I am process '73148')
INFO (theano.gof.compilelock): To manually release the lock, delete /tmp/pierre-antoine.martrice/theano.NOBACKUP/compiledir_Linux-3.10-el7.x86_64-x86_64-with-centos-7.3.1611-Core-x86_64-2.7.13-64/lock_dir
INFO (theano.gof.compilelock): Waiting for existing lock by process '72492' (I am process '73148')
INFO (theano.gof.compilelock): To manually release the lock, delete /tmp/pierre-antoine.martrice/theano.NOBACKUP/compiledir_Linux-3.10-el7.x86_64-x86_64-with-centos-7.3.1611-Core-x86_64-2.7.13-64/lock_dir
INFO (theano.gof.compilelock): Waiting for existing lock by process '73188' (I am process '73148')
INFO (theano.gof.compilelock): To manually release the lock, delete /tmp/pierre-antoine.martrice/theano.NOBACKUP/compiledir_Linux-3.10-el7.x86_64-x86_64-with-centos-7.3.1611-Core-x86_64-2.7.13-64/lock_dir
INFO (theano.gof.compilelock): Waiting for existing lock by process '73188' (I am process '73148')
INFO (theano.gof.compilelock): To manually release the lock, delete /tmp/pierre-antoine.martrice/theano.NOBACKUP/compiledir_Linux-3.10-el7.x86_64-x86_64-with-centos-7.3.1611-Core-x86_64-2.7.13-64/lock_dir
INFO (theano.gof.compilelock): Waiting for existing lock by process '73188' (I am process '73148')
INFO (theano.gof.compilelock): To manually release the lock, delete /tmp/pierre-antoine.martrice/theano.NOBACKUP/compiledir_Linux-3.10-el7.x86_64-x86_64-with-centos-7.3.1611-Core-x86_64-2.7.13-64/lock_dir
INFO (theano.gof.compilelock): Waiting for existing lock by process '76579' (I am process '73148')
INFO (theano.gof.compilelock): To manually release the lock, delete /tmp/pierre-antoine.martrice/theano.NOBACKUP/compiledir_Linux-3.10-el7.x86_64-x86_64-with-centos-7.3.1611-Core-x86_64-2.7.13-64/lock_dir
INFO (theano.gof.compilelock): Waiting for existing lock by process '76579' (I am process '73148')
INFO (theano.gof.compilelock): To manually release the lock, delete /tmp/pierre-antoine.martrice/theano.NOBACKUP/compiledir_Linux-3.10-el7.x86_64-x86_64-with-centos-7.3.1611-Core-x86_64-2.7.13-64/lock_dir
INFO (theano.gof.compilelock): Waiting for existing lock by process '73188' (I am process '73148')
INFO (theano.gof.compilelock): To manually release the lock, delete /tmp/pierre-antoine.martrice/theano.NOBACKUP/compiledir_Linux-3.10-el7.x86_64-x86_64-with-centos-7.3.1611-Core-x86_64-2.7.13-64/lock_dir
INFO (theano.gof.compilelock): Waiting for existing lock by process '73188' (I am process '73148')
INFO (theano.gof.compilelock): To manually release the lock, delete /tmp/pierre-antoine.martrice/theano.NOBACKUP/compiledir_Linux-3.10-el7.x86_64-x86_64-with-centos-7.3.1611-Core-x86_64-2.7.13-64/lock_dir
INFO (theano.gof.compilelock): Waiting for existing lock by process '72492' (I am process '73148')
INFO (theano.gof.compilelock): To manually release the lock, delete /tmp/pierre-antoine.martrice/theano.NOBACKUP/compiledir_Linux-3.10-el7.x86_64-x86_64-with-centos-7.3.1611-Core-x86_64-2.7.13-64/lock_dir
INFO (theano.gof.compilelock): Waiting for existing lock by process '72460' (I am process '73148')
INFO (theano.gof.compilelock): To manually release the lock, delete /tmp/pierre-antoine.martrice/theano.NOBACKUP/compiledir_Linux-3.10-el7.x86_64-x86_64-with-centos-7.3.1611-Core-x86_64-2.7.13-64/lock_dir
INFO (theano.gof.compilelock): Waiting for existing lock by process '73118' (I am process '73148')
INFO (theano.gof.compilelock): To manually release the lock, delete /tmp/pierre-antoine.martrice/theano.NOBACKUP/compiledir_Linux-3.10-el7.x86_64-x86_64-with-centos-7.3.1611-Core-x86_64-2.7.13-64/lock_dir
INFO (theano.gof.compilelock): Waiting for existing lock by process '73118' (I am process '73148')
INFO (theano.gof.compilelock): To manually release the lock, delete /tmp/pierre-antoine.martrice/theano.NOBACKUP/compiledir_Linux-3.10-el7.x86_64-x86_64-with-centos-7.3.1611-Core-x86_64-2.7.13-64/lock_dir
INFO (theano.gof.compilelock): Waiting for existing lock by process '73188' (I am process '73148')
INFO (theano.gof.compilelock): To manually release the lock, delete /tmp/pierre-antoine.martrice/theano.NOBACKUP/compiledir_Linux-3.10-el7.x86_64-x86_64-with-centos-7.3.1611-Core-x86_64-2.7.13-64/lock_dir
INFO (theano.gof.compilelock): Waiting for existing lock by process '73212' (I am process '73148')
INFO (theano.gof.compilelock): To manually release the lock, delete /tmp/pierre-antoine.martrice/theano.NOBACKUP/compiledir_Linux-3.10-el7.x86_64-x86_64-with-centos-7.3.1611-Core-x86_64-2.7.13-64/lock_dir
INFO (theano.gof.compilelock): Waiting for existing lock by process '72459' (I am process '73148')
INFO (theano.gof.compilelock): To manually release the lock, delete /tmp/pierre-antoine.martrice/theano.NOBACKUP/compiledir_Linux-3.10-el7.x86_64-x86_64-with-centos-7.3.1611-Core-x86_64-2.7.13-64/lock_dir
INFO (theano.gof.compilelock): Waiting for existing lock by process '72492' (I am process '73148')
INFO (theano.gof.compilelock): To manually release the lock, delete /tmp/pierre-antoine.martrice/theano.NOBACKUP/compiledir_Linux-3.10-el7.x86_64-x86_64-with-centos-7.3.1611-Core-x86_64-2.7.13-64/lock_dir
INFO (theano.gof.compilelock): Waiting for existing lock by process '72492' (I am process '73148')
INFO (theano.gof.compilelock): To manually release the lock, delete /tmp/pierre-antoine.martrice/theano.NOBACKUP/compiledir_Linux-3.10-el7.x86_64-x86_64-with-centos-7.3.1611-Core-x86_64-2.7.13-64/lock_dir
INFO (theano.gof.compilelock): Waiting for existing lock by process '72492' (I am process '73148')
INFO (theano.gof.compilelock): To manually release the lock, delete /tmp/pierre-antoine.martrice/theano.NOBACKUP/compiledir_Linux-3.10-el7.x86_64-x86_64-with-centos-7.3.1611-Core-x86_64-2.7.13-64/lock_dir
INFO (theano.gof.compilelock): Waiting for existing lock by process '73184' (I am process '73148')
INFO (theano.gof.compilelock): To manually release the lock, delete /tmp/pierre-antoine.martrice/theano.NOBACKUP/compiledir_Linux-3.10-el7.x86_64-x86_64-with-centos-7.3.1611-Core-x86_64-2.7.13-64/lock_dir
INFO (theano.gof.compilelock): Waiting for existing lock by process '73184' (I am process '73148')
INFO (theano.gof.compilelock): To manually release the lock, delete /tmp/pierre-antoine.martrice/theano.NOBACKUP/compiledir_Linux-3.10-el7.x86_64-x86_64-with-centos-7.3.1611-Core-x86_64-2.7.13-64/lock_dir
INFO (theano.gof.compilelock): Waiting for existing lock by process '73184' (I am process '73148')
INFO (theano.gof.compilelock): To manually release the lock, delete /tmp/pierre-antoine.martrice/theano.NOBACKUP/compiledir_Linux-3.10-el7.x86_64-x86_64-with-centos-7.3.1611-Core-x86_64-2.7.13-64/lock_dir
INFO (theano.gof.compilelock): Waiting for existing lock by process '73198' (I am process '73148')
INFO (theano.gof.compilelock): To manually release the lock, delete /tmp/pierre-antoine.martrice/theano.NOBACKUP/compiledir_Linux-3.10-el7.x86_64-x86_64-with-centos-7.3.1611-Core-x86_64-2.7.13-64/lock_dir
INFO (theano.gof.compilelock): Waiting for existing lock by process '73187' (I am process '73148')
INFO (theano.gof.compilelock): To manually release the lock, delete /tmp/pierre-antoine.martrice/theano.NOBACKUP/compiledir_Linux-3.10-el7.x86_64-x86_64-with-centos-7.3.1611-Core-x86_64-2.7.13-64/lock_dir
INFO (theano.gof.compilelock): Waiting for existing lock by process '73187' (I am process '73148')
INFO (theano.gof.compilelock): To manually release the lock, delete /tmp/pierre-antoine.martrice/theano.NOBACKUP/compiledir_Linux-3.10-el7.x86_64-x86_64-with-centos-7.3.1611-Core-x86_64-2.7.13-64/lock_dir
INFO (theano.gof.compilelock): Waiting for existing lock by process '73188' (I am process '73148')
INFO (theano.gof.compilelock): To manually release the lock, delete /tmp/pierre-antoine.martrice/theano.NOBACKUP/compiledir_Linux-3.10-el7.x86_64-x86_64-with-centos-7.3.1611-Core-x86_64-2.7.13-64/lock_dir
INFO (theano.gof.compilelock): Waiting for existing lock by process '73188' (I am process '73148')
INFO (theano.gof.compilelock): To manually release the lock, delete /tmp/pierre-antoine.martrice/theano.NOBACKUP/compiledir_Linux-3.10-el7.x86_64-x86_64-with-centos-7.3.1611-Core-x86_64-2.7.13-64/lock_dir
INFO (theano.gof.compilelock): Waiting for existing lock by process '73187' (I am process '73148')
INFO (theano.gof.compilelock): To manually release the lock, delete /tmp/pierre-antoine.martrice/theano.NOBACKUP/compiledir_Linux-3.10-el7.x86_64-x86_64-with-centos-7.3.1611-Core-x86_64-2.7.13-64/lock_dir
INFO (theano.gof.compilelock): Waiting for existing lock by process '73187' (I am process '73148')
INFO (theano.gof.compilelock): To manually release the lock, delete /tmp/pierre-antoine.martrice/theano.NOBACKUP/compiledir_Linux-3.10-el7.x86_64-x86_64-with-centos-7.3.1611-Core-x86_64-2.7.13-64/lock_dir
INFO (theano.gof.compilelock): Waiting for existing lock by process '73187' (I am process '73148')
INFO (theano.gof.compilelock): To manually release the lock, delete /tmp/pierre-antoine.martrice/theano.NOBACKUP/compiledir_Linux-3.10-el7.x86_64-x86_64-with-centos-7.3.1611-Core-x86_64-2.7.13-64/lock_dir
INFO (theano.gof.compilelock): Waiting for existing lock by process '73187' (I am process '73148')
INFO (theano.gof.compilelock): To manually release the lock, delete /tmp/pierre-antoine.martrice/theano.NOBACKUP/compiledir_Linux-3.10-el7.x86_64-x86_64-with-centos-7.3.1611-Core-x86_64-2.7.13-64/lock_dir
INFO (theano.gof.compilelock): Waiting for existing lock by process '72459' (I am process '73148')
INFO (theano.gof.compilelock): To manually release the lock, delete /tmp/pierre-antoine.martrice/theano.NOBACKUP/compiledir_Linux-3.10-el7.x86_64-x86_64-with-centos-7.3.1611-Core-x86_64-2.7.13-64/lock_dir
INFO (theano.gof.compilelock): Waiting for existing lock by process '76573' (I am process '73148')
INFO (theano.gof.compilelock): To manually release the lock, delete /tmp/pierre-antoine.martrice/theano.NOBACKUP/compiledir_Linux-3.10-el7.x86_64-x86_64-with-centos-7.3.1611-Core-x86_64-2.7.13-64/lock_dir
INFO (theano.gof.compilelock): Waiting for existing lock by process '73118' (I am process '73148')
INFO (theano.gof.compilelock): To manually release the lock, delete /tmp/pierre-antoine.martrice/theano.NOBACKUP/compiledir_Linux-3.10-el7.x86_64-x86_64-with-centos-7.3.1611-Core-x86_64-2.7.13-64/lock_dir
INFO (theano.gof.compilelock): Waiting for existing lock by process '73118' (I am process '73148')
INFO (theano.gof.compilelock): To manually release the lock, delete /tmp/pierre-antoine.martrice/theano.NOBACKUP/compiledir_Linux-3.10-el7.x86_64-x86_64-with-centos-7.3.1611-Core-x86_64-2.7.13-64/lock_dir
INFO (theano.gof.compilelock): Waiting for existing lock by process '73118' (I am process '73148')
INFO (theano.gof.compilelock): To manually release the lock, delete /tmp/pierre-antoine.martrice/theano.NOBACKUP/compiledir_Linux-3.10-el7.x86_64-x86_64-with-centos-7.3.1611-Core-x86_64-2.7.13-64/lock_dir
INFO (theano.gof.compilelock): Waiting for existing lock by process '73184' (I am process '73148')
INFO (theano.gof.compilelock): To manually release the lock, delete /tmp/pierre-antoine.martrice/theano.NOBACKUP/compiledir_Linux-3.10-el7.x86_64-x86_64-with-centos-7.3.1611-Core-x86_64-2.7.13-64/lock_dir
INFO (theano.gof.compilelock): Waiting for existing lock by process '73184' (I am process '73148')
INFO (theano.gof.compilelock): To manually release the lock, delete /tmp/pierre-antoine.martrice/theano.NOBACKUP/compiledir_Linux-3.10-el7.x86_64-x86_64-with-centos-7.3.1611-Core-x86_64-2.7.13-64/lock_dir
INFO (theano.gof.compilelock): Waiting for existing lock by process '73184' (I am process '73148')
INFO (theano.gof.compilelock): To manually release the lock, delete /tmp/pierre-antoine.martrice/theano.NOBACKUP/compiledir_Linux-3.10-el7.x86_64-x86_64-with-centos-7.3.1611-Core-x86_64-2.7.13-64/lock_dir
INFO (theano.gof.compilelock): Waiting for existing lock by process '72492' (I am process '73148')
INFO (theano.gof.compilelock): To manually release the lock, delete /tmp/pierre-antoine.martrice/theano.NOBACKUP/compiledir_Linux-3.10-el7.x86_64-x86_64-with-centos-7.3.1611-Core-x86_64-2.7.13-64/lock_dir
