| 5-17-5-3-5 | 8-4-2-2-8 | 5 | 0.955389592701 | 0.974696535881 | 37.4203151941 | 820 | 0.849323804992 |
| 5-3-5-5-17 | 4-2-2-4-16 | 4 | 0.954681870457 | 0.974349410598 | 31.1308107853 | 1312 | 0.773824480919 |
| 17-5-5-5-3 | 8-2-2-8-4 | 5 | 0.955089236663 | 0.974581041693 | 39.1121559143 | 1040 | 0.815590565871 |
| 3-25-17-5 | 2-4-4-32 | 7 | 0.959126829612 | 0.976618875533 | 46.5573154926 | 2338 | 0.618448690279 |
| 5-5-17-5-3 | 4-2-2-4-16 | 8 | 0.958568213514 | 0.976360255263 | 55.0064397812 | 1056 | 0.814629050626 |
| 17-15-5-5 | 16-8-2-4 | 7 | 0.957291711225 | 0.9756646087 | 47.9922090769 | 2954 | 0.523568411978 |
| 3-5-25-17 | 4-32-2-4 | 5 | 0.95787550163 | 0.975969362556 | 36.4655020237 | 1450 | 0.75398417421 |
| 15-5-5-17 | 4-4-2-32 | 4 | 0.957039572801 | 0.975554527082 | 29.330531764 | 2536 | 0.587475110505 |
| 5-3-5-5-17 | 16-4-2-2-4 | 6 | 0.955763196111 | 0.97492211104 | 41.0852034092 | 1080 | 0.809758835758 |
| 5-17-5-3-5 | 8-4-2-2-8 | 4 | 0.955299205292 | 0.974658583032 | 31.5972800255 | 656 | 0.874364303743 |
| 17-5-3-5-5 | 16-4-2-2-4 | 9 | 0.956644284334 | 0.975353650088 | 61.6156773806 | 2952 | 0.523707536353 |
| 25-5-17-3 | 16-4-2-8 | 5 | 0.957150139942 | 0.975593569493 | 38.2174453974 | 2390 | 0.609841627361 |
| 5-17-15-5 | 8-2-2-32 | 7 | 0.957663929345 | 0.975849792174 | 51.9701445103 | 1848 | 0.692968158302 |
| 5-3-17-25 | 16-2-4-8 | 6 | 0.963409362316 | 0.978759028853 | 45.9546183348 | 2124 | 0.652659550063 |
| 5-3-85-5 | 32-2-4-4 | 10 | 0.959107303794 | 0.976589218194 | 77.0072487116 | 5260 | 0.170807369143 |
| 15-17-25 | 8-16-8 | 6 | 0.958151087309 | 0.976164430614 | 45.0787739038 | 3552 | 0.432268578451 |
| 5-3-25-17 | 16-2-16-2 | 9 | 0.959864821573 | 0.976980831819 | 72.1985715866 | 4680 | 0.259761962343 |
| 5-85-5-3 | 16-4-4-4 | 10 | 0.957090986519 | 0.975564593517 | 76.0564675331 | 4520 | 0.283870167996 |
| 17-5-5-15 | 16-2-16-2 | 6 | 0.957374972885 | 0.975711135654 | 51.8533799171 | 2352 | 0.61573112137 |
| 5-3-5-17-5 | 2-2-16-2-8 | 8 | 0.957329178285 | 0.975696831563 | 60.8237794161 | 1360 | 0.767548174163 |
| 5-5-3-17-5 | 64-2-2-2-2 | 9 | 0.956600845413 | 0.975316667179 | 84.9363300085 | 3420 | 0.452087961022 |
| 3-17-25-5 | 2-32-8-2 | 5 | 0.95819301169 | 0.976126882287 | 50.0650678158 | 3800 | 0.394278701473 |
| 5-3-5-85 | 16-4-4-4 | 7 | 0.957122913574 | 0.975579300777 | 48.3667494535 | 3164 | 0.491385903497 |
| 3-25-5-17 | 2-4-64-2 | 6 | 0.958172784383 | 0.97611325958 | 48.5995983124 | 2760 | 0.553513636609 |
| 5-17-15-5 | 2-16-16-2 | 5 | 0.956298050053 | 0.975174633796 | 49.8182715893 | 2660 | 0.568278237577 |
| 3-5-17-25 | 64-2-2-4 | 9 | 0.957635568804 | 0.975854648522 | 65.4834447622 | 3024 | 0.512955125835 |
| 3-17-25-5 | 8-8-8-2 | 6 | 0.957671332945 | 0.97586735056 | 56.1565846205 | 2220 | 0.636035896718 |
| 5-51-5-5 | 4-4-16-4 | 8 | 0.957511175894 | 0.975789730489 | 56.3615685463 | 2592 | 0.579045105951 |
| 3-25-17-5 | 8-2-16-4 | 9 | 0.957480580864 | 0.975773602642 | 65.3769716263 | 3294 | 0.471585642312 |
| 5-17-5-3-5 | 8-2-2-8-4 | 4 | 0.955414412518 | 0.974790469069 | 34.001132226 | 512 | 0.896501414926 |
| 5-5-85-3 | 8-8-4-4 | 9 | 0.95707989107 | 0.975568951529 | 67.7385697603 | 3888 | 0.380586663914 |
| 5-17-5-3-5 | 4-8-4-4-2 | 8 | 0.958150262753 | 0.976101650394 | 75.1594575644 | 1584 | 0.733569099144 |
| 25-5-3-17 | 2-8-16-4 | 5 | 0.957586671611 | 0.975828424719 | 40.0791920662 | 1030 | 0.81816516551 |
| 5-3-17-5-5 | 16-2-2-8-2 | 8 | 0.956016932145 | 0.975034462816 | 73.5267437696 | 1360 | 0.767027110748 |
| 5-5-17-3-5 | 4-4-4-2-8 | 9 | 0.957955418391 | 0.976016918062 | 63.3681725264 | 1386 | 0.763819357523 |
| 17-5-3-25 | 16-4-4-4 | 5 | 0.956862332727 | 0.975456752187 | 38.9421775103 | 2020 | 0.666370847965 |
| 3-25-17-5 | 4-8-4-8 | 7 | 0.958523562863 | 0.976308695265 | 48.9822442293 | 2240 | 0.63326062038 |
| 5-5-85-3 | 2-16-4-8 | 9 | 0.957256954481 | 0.975646414132 | 64.9293051004 | 4086 | 0.350314453639 |
| 15-17-5-5 | 2-2-8-32 | 10 | 0.957100098654 | 0.975562244189 | 69.3548251867 | 2640 | 0.571564703066 |
| 17-3-125 | 16-8-8 | 4 | 0.957548879137 | 0.975792116592 | 31.2615031242 | 5184 | 0.182300927194 |
| 3-5-5-17-5 | 4-4-2-16-2 | 5 | 0.955161144014 | 0.974642842205 | 47.076371479 | 1620 | 0.726968896421 |
| 5-17-15-5 | 4-2-64-2 | 6 | 0.957330085758 | 0.975699208351 | 56.6899668932 | 6144 | 0.0353547477849 |
| 5-17-5-15 | 8-4-16-2 | 5 | 0.957550758258 | 0.975813991614 | 41.7904369354 | 1090 | 0.808968932655 |
| 5-17-3-5-5 | 2-8-8-2-4 | 4 | 0.953044597067 | 0.973549736222 | 31.8979847193 | 800 | 0.851378788932 |
| 3-17-25-5 | 4-16-4-4 | 7 | 0.957662584523 | 0.975891906075 | 51.4033842087 | 2828 | 0.542978602486 |
| 17-15-5-5 | 4-16-2-8 | 4 | 0.958788792519 | 0.976463253521 | 33.0142582893 | 1432 | 0.757122801907 |
| 5-5-3-5-17 | 4-8-2-8-2 | 6 | 0.955843620848 | 0.974942115242 | 47.1275001049 | 840 | 0.846479154175 |
| 25-5-17-3 | 2-2-32-8 | 5 | 0.957302441154 | 0.975684494442 | 37.6927714825 | 3140 | 0.495112053258 |
| 17-3-5-5-5 | 2-8-2-16-2 | 7 | 0.957393077221 | 0.975759920594 | 64.0046979666 | 1106 | 0.806475140644 |
| 5-5-5-17-3 | 2-8-4-4-4 | 8 | 0.958231894701 | 0.976166225678 | 57.4271441936 | 1200 | 0.792417289079 |
| 3-5-17-5-5 | 2-2-2-32-4 | 7 | 0.957768953972 | 0.975967695412 | 49.9904713631 | 1610 | 0.729488010766 |
| 5-51-5-5 | 4-16-8-2 | 4 | 0.956373213997 | 0.975207553334 | 40.1009965181 | 3544 | 0.433068640547 |
| 25-17-3-5 | 4-2-32-4 | 4 | 0.95728903868 | 0.975673936459 | 31.3187133312 | 1000 | 0.822627044465 |
| 3-5-5-5-17 | 16-2-2-4-4 | 9 | 0.957685743988 | 0.975893795985 | 60.3695198059 | 1404 | 0.760967538799 |
| 5-17-3-25 | 4-32-4-2 | 10 | 0.956958614807 | 0.975493713487 | 70.5602426529 | 6260 | 0.0175971414982 |
| 15-5-5-17 | 8-8-2-8 | 4 | 0.957960234709 | 0.97604401306 | 30.8345868587 | 1224 | 0.788643562552 |
| 3-5-17-5-5 | 2-2-8-4-8 | 7 | 0.957056284343 | 0.975555929524 | 49.6437400103 | 1484 | 0.748461811969 |
| 5-15-17-5 | 2-2-16-16 | 5 | 0.957914807973 | 0.976005371176 | 37.9505667925 | 1960 | 0.67593156294 |
| 25-5-51 | 8-64-2 | 7 | 0.957227148767 | 0.975621511933 | 49.3749493361 | 4354 | 0.309291149116 |
| 3-25-5-17 | 2-2-32-8 | 4 | 0.959471614586 | 0.976797975654 | 31.2085194111 | 1408 | 0.761059693345 |
| 25-5-17-3 | 4-16-4-4 | 4 | 0.957260543011 | 0.975666493408 | 34.4206479073 | 1040 | 0.816498939974 |
| 17-25-3-5 | 2-8-8-8 | 8 | 0.957377003582 | 0.975706060543 | 52.7153441906 | 2384 | 0.610830256883 |
| 5-5-3-17-5 | 8-8-4-2-2 | 5 | 0.955418345387 | 0.974721757128 | 48.8424501181 | 680 | 0.870751436367 |
| 5-5-3-5-17 | 2-64-2-2-2 | 9 | 0.9559553966 | 0.975017903755 | 67.8209682226 | 3420 | 0.451949475388 |
| 17-3-5-5-5 | 4-8-2-8-2 | 10 | 0.958365922993 | 0.976220125177 | 85.5620744944 | 1520 | 0.743458620821 |
| 3-5-5-17-5 | 8-2-8-2-4 | 9 | 0.958296026004 | 0.976222828494 | 61.9774897814 | 1152 | 0.799813620898 |
| 5-3-85-5 | 4-4-4-16 | 4 | 0.956794649897 | 0.975429413702 | 32.1379131317 | 1808 | 0.698789981549 |
| 17-25-15 | 8-2-64 | 4 | 0.958928109666 | 0.976490285607 | 29.8773498058 | 4584 | 0.27433632965 |
| 15-17-25 | 32-2-16 | 4 | 0.957206894997 | 0.975616721891 | 29.0132277489 | 3656 | 0.416110096757 |
| 3-5-5-5-17 | 16-2-2-4-4 | 4 | 0.954351768333 | 0.974179654726 | 29.7286687851 | 624 | 0.878824657934 |
| 5-5-17-15 | 4-16-2-8 | 5 | 0.95799050152 | 0.976039789537 | 38.4537624121 | 1270 | 0.781597353033 |
| 5-17-5-15 | 16-2-4-8 | 5 | 0.957466162632 | 0.975762130269 | 37.5344170094 | 1270 | 0.781375007847 |
| 5-3-85-5 | 4-8-2-16 | 8 | 0.95708382107 | 0.975551103927 | 53.5573765993 | 2352 | 0.615630131937 |
| 15-5-17-5 | 4-4-32-2 | 10 | 0.95715614423 | 0.975605779062 | 86.1451648712 | 6340 | 0.0053562670223 |
| 3-5-5-85 | 64-2-2-4 | 4 | 0.956645903917 | 0.975350493875 | 29.8640210629 | 2208 | 0.637534981644 |
| 3-17-5-5-5 | 2-8-2-8-4 | 6 | 0.956976843744 | 0.975540003842 | 43.0076255798 | 1272 | 0.780891080722 |
| 17-3-25-5 | 16-2-4-8 | 9 | 0.959894813399 | 0.977008108353 | 60.6816872358 | 3762 | 0.400458382294 |
| 17-5-5-5-3 | 4-4-4-8-2 | 7 | 0.956039440051 | 0.975060670372 | 70.0836857557 | 1078 | 0.810179822895 |
| 15-5-17-5 | 4-2-8-16 | 8 | 0.958000983573 | 0.976022769862 | 54.4365377903 | 2288 | 0.625726283989 |
| 25-17-3-5 | 8-2-16-4 | 5 | 0.958265107801 | 0.976140854708 | 38.4404415131 | 1510 | 0.74492945226 |
| 5-5-3-5-17 | 2-2-2-16-8 | 6 | 0.955950355393 | 0.974999754059 | 42.2624242544 | 1452 | 0.75292922184 |
| 3-25-5-17 | 64-2-2-4 | 9 | 0.957804262528 | 0.975971355943 | 61.6705797672 | 2880 | 0.535061943376 |
| 17-3-5-5-5 | 4-2-4-8-4 | 8 | 0.956925709744 | 0.975508690852 | 56.3734327793 | 1232 | 0.78698685444 |
| 5-5-3-17-5 | 2-32-2-4-2 | 9 | 0.956173613802 | 0.975096778848 | 79.8802121401 | 2286 | 0.62543854568 |
| 5-5-17-3-5 | 4-2-2-16-4 | 6 | 0.957921107591 | 0.976016341332 | 44.67987957 | 792 | 0.854760664103 |
| 5-5-85-3 | 4-16-2-8 | 6 | 0.957100573267 | 0.975568523583 | 43.5512237787 | 1764 | 0.705622974469 |
| 5-25-17-3 | 4-16-8-2 | 4 | 0.963660506312 | 0.978897174629 | 42.9867649078 | 2248 | 0.633711159168 |
| 17-3-25-5 | 8-16-2-4 | 5 | 0.956884233247 | 0.975450877807 | 37.6435388803 | 1270 | 0.781125761757 |
| 5-5-17-15 | 16-8-2-4 | 6 | 0.957591005094 | 0.975854267765 | 42.1268850327 | 1284 | 0.779305737598 |
| 5-5-3-5-17 | 2-2-16-2-8 | 4 | 0.953267578376 | 0.973656422626 | 31.7106583834 | 856 | 0.842919183761 |
| 3-17-5-5-5 | 16-4-2-4-2 | 8 | 0.955758890589 | 0.974892517289 | 73.7044029713 | 1248 | 0.784042970375 |
| 5-3-5-5-17 | 8-4-4-4-2 | 9 | 0.957917144786 | 0.97597912667 | 67.027999258 | 1134 | 0.802369663197 |
| 5-17-3-5-5 | 2-2-8-2-16 | 6 | 0.956930421293 | 0.975519906959 | 41.6353129148 | 948 | 0.830454358442 |
| 5-5-5-17-3 | 8-8-4-2-2 | 10 | 0.957499340157 | 0.975791883197 | 94.5944062233 | 1400 | 0.761500332377 |
| 5-5-3-5-17 | 4-4-4-2-8 | 5 | 0.95533145935 | 0.974689190925 | 37.2184349537 | 990 | 0.82332569304 |
| 5-5-17-3-5 | 2-4-32-2-2 | 5 | 0.955035470917 | 0.974521831569 | 48.5703401089 | 2950 | 0.523566631078 |
| 17-3-25-5 | 8-16-2-4 | 4 | 0.95753080679 | 0.975796201389 | 33.4266722918 | 1016 | 0.82028107345 |
| 17-5-3-5-5 | 2-4-2-32-2 | 8 | 0.957464511568 | 0.975743977514 | 73.5475912571 | 1840 | 0.694117480475 |
| 25-3-17-5 | 4-16-4-4 | 5 | 0.95817425188 | 0.976124930982 | 39.2877839088 | 1180 | 0.795446120227 |
| 17-5-5-3-5 | 8-4-2-8-2 | 7 | 0.956805045561 | 0.97542842592 | 66.1191105127 | 1400 | 0.761216693169 |
| 3-5-5-5-17 | 4-8-4-2-4 | 5 | 0.958253723798 | 0.976195632509 | 38.1294189453 | 750 | 0.861349087508 |
| 17-5-3-25 | 4-16-8-2 | 7 | 0.957431330619 | 0.975758445152 | 51.6029129982 | 1554 | 0.737902974757 |
| 3-5-5-85 | 2-2-32-8 | 6 | 0.958306831333 | 0.976184957837 | 40.3000751019 | 5136 | 0.189724417688 |
| 5-15-17-5 | 2-4-32-4 | 7 | 0.95712135744 | 0.975592320426 | 50.4576949835 | 4438 | 0.29642703132 |
| 5-17-3-25 | 8-8-4-4 | 5 | 0.956803882461 | 0.975418146889 | 37.2334477186 | 1440 | 0.755088400769 |
| 3-17-25-5 | 4-2-2-64 | 6 | 0.957596117409 | 0.975816136169 | 44.1821921587 | 2496 | 0.593755418384 |
| 5-5-5-3-17 | 8-2-4-2-8 | 5 | 0.953950919792 | 0.973932713578 | 36.905360198 | 1060 | 0.811992529046 |
| 25-3-5-17 | 2-2-32-8 | 8 | 0.959342436384 | 0.976740767939 | 55.0587179184 | 2816 | 0.545289473426 |
| 17-25-3-5 | 2-4-2-64 | 10 | 0.959497560351 | 0.976811677654 | 66.4842649937 | 4600 | 0.271975016131 |
| 5-5-5-51 | 4-2-16-8 | 5 | 0.957625700688 | 0.975831078232 | 35.7878166914 | 2590 | 0.579375785272 |
| 17-5-3-5-5 | 4-4-2-8-4 | 10 | 0.957748870095 | 0.9759277634 | 70.281998086 | 1540 | 0.740174233105 |
| 5-3-25-17 | 2-8-8-8 | 8 | 0.956991275865 | 0.975514272657 | 56.0781912327 | 2960 | 0.522569606451 |
| 3-5-5-5-17 | 4-16-2-4-2 | 9 | 0.957871817426 | 0.975974562983 | 69.5581968307 | 1404 | 0.761030518053 |
| 5-15-17-5 | 2-16-4-8 | 9 | 0.957477365604 | 0.975773854475 | 64.0650823832 | 3222 | 0.482606268731 |
| 5-5-3-5-17 | 2-4-32-2-2 | 10 | 0.957905731418 | 0.975975212817 | 76.0695729971 | 1700 | 0.715715156066 |
| 3-5-17-25 | 2-2-32-8 | 5 | 0.959234151075 | 0.97660455767 | 39.0896935225 | 3800 | 0.394471644863 |
| 5-5-15-17 | 2-128-2-2 | 5 | 0.956727530144 | 0.975362184647 | 39.4645609856 | 3570 | 0.429159361245 |
| 5-17-5-15 | 4-2-4-32 | 8 | 0.957234218221 | 0.975643522712 | 51.0047688961 | 4432 | 0.29736084151 |
| 5-5-17-15 | 4-2-16-8 | 6 | 0.956969508268 | 0.97549711426 | 44.3978469133 | 2532 | 0.588052613349 |
| 25-5-3-17 | 2-8-16-4 | 4 | 0.957923135473 | 0.975995577346 | 33.7326160431 | 824 | 0.849843364682 |
| 3-5-5-5-17 | 2-4-8-8-2 | 8 | 0.958607938772 | 0.976331859829 | 63.0938911438 | 1120 | 0.804803752691 |
| 3-25-5-17 | 2-16-8-4 | 6 | 0.958717628809 | 0.976416181972 | 44.1252985716 | 3084 | 0.504060494881 |
| 25-5-51 | 4-32-8 | 4 | 0.956601919348 | 0.975315233012 | 31.7829920292 | 2672 | 0.566524283583 |
| 17-5-5-5-3 | 4-8-2-2-8 | 7 | 0.956610755244 | 0.975349241183 | 53.706189847 | 1064 | 0.81256154038 |
| 5-5-17-3-5 | 2-2-32-4-2 | 9 | 0.956730176506 | 0.975379900291 | 80.4541604042 | 5274 | 0.168453846309 |
| 17-5-5-5-3 | 4-4-4-8-2 | 7 | 0.956347211373 | 0.975204662502 | 72.8922755241 | 1078 | 0.810299466239 |
| 17-15-5-5 | 8-4-4-8 | 4 | 0.957143164109 | 0.975596236045 | 33.4269171 | 1024 | 0.818888699463 |
| 17-5-25-3 | 8-32-2-2 | 9 | 0.959611039735 | 0.976864601963 | 90.7537401199 | 3168 | 0.491420357411 |
| 5-3-5-17-5 | 16-4-4-2-2 | 7 | 0.957529726413 | 0.975796349662 | 67.3697430611 | 1092 | 0.808648174943 |
| 17-5-25-3 | 32-2-4-4 | 9 | 0.956775431105 | 0.97540308066 | 66.2617387533 | 5994 | 0.0582946782324 |
| 5-5-17-15 | 8-2-8-8 | 7 | 0.957249836841 | 0.975664611797 | 48.8135432005 | 2142 | 0.647841302233 |
| 5-5-3-17-5 | 2-8-2-4-8 | 7 | 0.95655022192 | 0.975294982394 | 52.9041306257 | 1148 | 0.799665391839 |
| 3-5-5-85 | 4-2-32-4 | 4 | 0.957362639387 | 0.975734107939 | 31.2933845043 | 2088 | 0.656152489527 |
| 51-5-25 | 4-64-4 | 4 | 0.957359541428 | 0.975692220044 | 32.0982569218 | 2496 | 0.593680019067 |
| 5-5-3-5-17 | 4-4-2-2-16 | 8 | 0.956246784774 | 0.975167803438 | 56.934313941 | 2624 | 0.573781087168 |
| 17-5-15-5 | 2-8-8-8 | 10 | 0.957034557595 | 0.975524609788 | 68.1251686811 | 2340 | 0.617449694195 |
| 17-5-5-3-5 | 2-2-8-2-16 | 8 | 0.957784288185 | 0.975921242472 | 57.7122135639 | 1360 | 0.767724710744 |
| 5-5-15-17 | 4-32-4-2 | 4 | 0.95706186111 | 0.975560572338 | 35.5677124023 | 1096 | 0.807840668451 |
| 5-15-17-5 | 8-8-4-4 | 8 | 0.956911958675 | 0.975484368172 | 54.3484370232 | 1984 | 0.671898331081 |
| 3-17-5-5-5 | 4-4-2-16-2 | 10 | 0.957940290549 | 0.976027951884 | 87.2598176241 | 1800 | 0.700443588999 |
| 17-3-5-5-5 | 4-16-2-2-4 | 9 | 0.957379276996 | 0.975734837097 | 64.2038241863 | 1404 | 0.760843588268 |
| 5-17-5-5-3 | 16-2-2-2-8 | 4 | 0.954049836838 | 0.973990469407 | 32.4771981478 | 632 | 0.877431727969 |
| 17-5-3-25 | 2-64-2-4 | 9 | 0.960263504242 | 0.977249117079 | 61.8492041588 | 4140 | 0.342612043399 |
| 5-17-5-15 | 8-4-16-2 | 6 | 0.957143749799 | 0.975594236732 | 47.6124983788 | 1308 | 0.775425254513 |
| 5-5-17-3-5 | 4-2-4-8-4 | 8 | 0.957401599741 | 0.975713874361 | 56.7979398012 | 1136 | 0.801845488279 |
| 5-5-5-17-3 | 2-4-2-32-2 | 8 | 0.954742412203 | 0.974407725603 | 79.6916096687 | 4720 | 0.25296388798 |
| 5-17-5-3-5 | 2-2-8-8-4 | 10 | 0.957843379908 | 0.975969024447 | 69.7589434624 | 1280 | 0.780009753656 |
| 5-5-17-15 | 4-2-16-8 | 8 | 0.957591082165 | 0.975824751698 | 52.4395875216 | 3376 | 0.459058577309 |
| 17-3-5-5-5 | 2-8-2-16-2 | 10 | 0.958372750167 | 0.976227984688 | 87.7151134968 | 1580 | 0.734276578287 |
| 17-25-5-3 | 2-16-4-8 | 4 | 0.957309493916 | 0.975694719899 | 32.0448350191 | 1912 | 0.683062829005 |
| 85-5-3-5 | 8-32-2-2 | 4 | 0.959212077989 | 0.97664551076 | 40.8959216833 | 3424 | 0.452091121922 |
| 3-17-25-5 | 8-8-8-2 | 8 | 0.95780621242 | 0.975938449333 | 67.8886825323 | 2960 | 0.522796832074 |
| 25-17-5-3 | 4-8-4-8 | 6 | 0.957713625034 | 0.97588033589 | 44.5075551033 | 1680 | 0.71870716502 |
| 5-5-3-85 | 32-2-4-4 | 10 | 0.957177499369 | 0.975601191931 | 66.1809636354 | 5220 | 0.176755980656 |
| 5-17-3-5-5 | 4-4-4-2-8 | 5 | 0.954559096743 | 0.974341712666 | 37.5546426535 | 750 | 0.859713275882 |
| 5-17-15-5 | 2-2-64-4 | 4 | 0.957207125536 | 0.975645380881 | 32.2945172071 | 4096 | 0.348783658514 |
| 5-3-5-5-17 | 8-2-4-8-2 | 8 | 0.956910778877 | 0.975475820253 | 62.7634719372 | 1120 | 0.804098107519 |
| 25-5-17-3 | 4-4-8-8 | 4 | 0.957625748909 | 0.975826819757 | 32.6621340513 | 1120 | 0.804387441228 |
| 5-5-17-15 | 8-2-8-8 | 5 | 0.957519234459 | 0.975792201926 | 37.4741601944 | 1530 | 0.741602073464 |
| 5-17-25-3 | 2-2-4-64 | 6 | 0.957480341916 | 0.975772071443 | 43.0909596205 | 2016 | 0.667198503438 |
| 5-25-3-17 | 4-2-64-2 | 10 | 0.956956092914 | 0.975507699707 | 73.5422369719 | 2960 | 0.522566085412 |
| 5-5-5-17-3 | 2-4-2-2-32 | 6 | 0.955471956847 | 0.974749539381 | 42.5860105753 | 1020 | 0.81878961308 |
| 5-25-3-17 | 16-2-4-8 | 10 | 0.95691140658 | 0.97547010155 | 68.2402172327 | 2780 | 0.550088629815 |
| 25-17-5-3 | 4-2-2-64 | 10 | 0.957056336823 | 0.975565779022 | 67.5495301723 | 3360 | 0.461385227255 |
| 17-75-5 | 8-2-64 | 8 | 0.956589696714 | 0.975301535322 | 50.3896636963 | 4848 | 0.233613403049 |
| 5-5-3-17-5 | 4-8-2-2-8 | 7 | 0.956769025134 | 0.975436570444 | 50.7335191011 | 980 | 0.825487105498 |
| 17-5-25-3 | 2-32-4-4 | 10 | 0.957471228237 | 0.97575457501 | 72.7765090227 | 3060 | 0.507392379005 |
| 5-5-3-85 | 2-16-4-8 | 6 | 0.956749731415 | 0.975397729076 | 40.6318223 | 4692 | 0.257505000476 |
| 5-25-51 | 32-16-2 | 8 | 0.95857768848 | 0.976300862018 | 55.5593019724 | 5296 | 0.165243706685 |
| 15-17-5-5 | 8-2-4-16 | 8 | 0.957130296411 | 0.975582194083 | 55.5471500158 | 2032 | 0.664620151985 |
| 5-5-51-5 | 2-128-2-2 | 7 | 0.956589782101 | 0.975327476091 | 62.4296780348 | 5334 | 0.159265239625 |
| 17-5-5-5-3 | 2-2-16-8-2 | 5 | 0.95605050101 | 0.975042092461 | 52.2816559076 | 850 | 0.845036480133 |
| 3-17-25-5 | 2-4-4-32 | 5 | 0.95860896528 | 0.97632001552 | 37.4298395395 | 1670 | 0.720562458513 |
| 5-5-5-17-3 | 2-2-16-8-2 | 8 | 0.956061257401 | 0.97505559716 | 78.9509888172 | 1936 | 0.678944595418 |
| 51-5-5-5 | 2-2-64-4 | 6 | 0.957948001644 | 0.976009546035 | 45.6144551992 | 2712 | 0.560803602686 |
| 17-15-5-5 | 4-4-4-16 | 4 | 0.956655850693 | 0.975362547816 | 33.0871353149 | 912 | 0.835828329211 |
| 5-3-5-17-5 | 2-2-4-4-16 | 7 | 0.955993242757 | 0.975009401357 | 51.1460432768 | 1288 | 0.77801926662 |
| 5-51-5-5 | 4-16-8-2 | 6 | 0.95707480871 | 0.975563355144 | 56.3151209831 | 5316 | 0.162058289113 |
| 17-25-3-5 | 8-32-2-2 | 5 | 0.959159633752 | 0.976612797124 | 48.9840894461 | 4760 | 0.247408575271 |
| 5-5-17-3-5 | 2-2-4-4-16 | 8 | 0.956854175092 | 0.975475546461 | 58.1301770926 | 1440 | 0.75513283479 |
| 5-5-17-3-5 | 4-8-2-8-2 | 9 | 0.958854558743 | 0.976460350267 | 81.5804046869 | 1152 | 0.80000822109 |
| 5-5-15-17 | 2-2-16-16 | 8 | 0.958763223223 | 0.976411683059 | 49.9274438858 | 4256 | 0.324551585318 |
| 3-17-25-5 | 16-4-2-8 | 6 | 0.958172156113 | 0.976126498157 | 42.5701975107 | 1236 | 0.786872795926 |
| 5-5-17-15 | 4-4-4-16 | 8 | 0.957345653592 | 0.975707923111 | 53.5241384029 | 2784 | 0.54961053363 |
| 5-17-5-5-3 | 4-2-4-8-4 | 4 | 0.954305776605 | 0.974159966971 | 33.611596489 | 504 | 0.897144026052 |
| 5-25-17-3 | 32-4-2-4 | 9 | 0.956949588428 | 0.975487766427 | 66.2876425028 | 2754 | 0.554077051331 |
| 25-5-3-17 | 2-2-32-8 | 10 | 0.957214024366 | 0.975624233439 | 69.6420602083 | 2920 | 0.52875007475 |
| 5-3-17-5-5 | 8-4-4-4-2 | 7 | 0.957827799263 | 0.975938762991 | 66.3188720226 | 1050 | 0.81519590791 |
| 25-17-3-5 | 8-8-8-2 | 4 | 0.956919127502 | 0.975499138514 | 40.326080513 | 1480 | 0.749030318906 |
| 15-5-5-17 | 2-16-2-16 | 4 | 0.958452818743 | 0.976280143563 | 32.3184231281 | 1568 | 0.736153513742 |
| 5-5-5-17-3 | 4-16-4-2-2 | 8 | 0.956811566427 | 0.97543824461 | 80.1970870256 | 1280 | 0.779585546085 |
| 5-15-17-5 | 2-4-2-64 | 4 | 0.958278014667 | 0.976180510936 | 33.0021254063 | 1696 | 0.716478213438 |
| 5-17-5-5-3 | 4-2-4-8-4 | 7 | 0.956901295819 | 0.975497256933 | 53.3107525826 | 882 | 0.840534342327 |
| 17-5-5-5-3 | 2-2-16-8-2 | 9 | 0.956749352321 | 0.975399516526 | 88.3938364983 | 1530 | 0.741303632559 |
| 85-5-5-3 | 8-4-4-8 | 6 | 0.957202099796 | 0.975616646195 | 42.3437546968 | 4464 | 0.292455437001 |
| 17-5-15-5 | 4-4-4-16 | 10 | 0.95717312009 | 0.97561079994 | 69.0698096514 | 2280 | 0.626686466785 |
| 25-5-3-17 | 4-64-2-2 | 4 | 0.963772427378 | 0.97897574554 | 35.2840041637 | 1840 | 0.696416471533 |
| 5-5-85-3 | 8-32-2-2 | 8 | 0.960678790234 | 0.977423840177 | 77.5209652662 | 3008 | 0.516233109 |
| 3-5-5-5-17 | 2-2-8-4-8 | 9 | 0.958803227112 | 0.976428169869 | 59.9953786612 | 1908 | 0.684188962322 |
| 17-25-5-3 | 4-32-4-2 | 4 | 0.96195301102 | 0.978041226621 | 44.0331005573 | 3576 | 0.429417630324 |
| 5-5-5-3-17 | 2-64-2-2-2 | 8 | 0.956370953217 | 0.975200658779 | 61.0763640881 | 3040 | 0.510163795612 |
| 5-5-51-5 | 16-8-2-4 | 10 | 0.956770097716 | 0.975403720516 | 66.6808946371 | 2420 | 0.605132817983 |
| 5-5-3-17-5 | 2-8-2-4-8 | 7 | 0.956181946151 | 0.975123087879 | 52.0489179373 | 1148 | 0.799524451819 |
| 3-5-5-85 | 16-8-4-2 | 4 | 0.957191582548 | 0.975625254254 | 31.7846866131 | 1112 | 0.805445602061 |
| 25-17-5-3 | 2-8-16-4 | 8 | 0.957318957773 | 0.975689793313 | 54.9307025194 | 2224 | 0.635307973654 |
| 25-3-17-5 | 16-4-2-8 | 6 | 0.957043290237 | 0.975543005598 | 42.4490838528 | 2916 | 0.529318157861 |
| 5-75-17 | 128-2-4 | 6 | 0.957183447689 | 0.975614112571 | 43.1564217091 | 5148 | 0.187777022137 |
| 51-25-5 | 16-2-32 | 5 | 0.957874037775 | 0.975989744828 | 38.9690418243 | 5130 | 0.190605056049 |
| 5-17-3-5-5 | 2-8-8-2-4 | 8 | 0.957147971432 | 0.975622892329 | 54.6155531406 | 1600 | 0.730760676215 |
| 5-17-3-25 | 2-16-4-8 | 10 | 0.957123944668 | 0.975579559819 | 66.4684994459 | 4940 | 0.219601046014 |
| 17-25-5-3 | 16-8-2-4 | 4 | 0.956396287812 | 0.975216935081 | 34.4461624146 | 1976 | 0.672937929007 |
| 5-17-3-25 | 2-4-32-4 | 4 | 0.958891640176 | 0.976500773095 | 32.0329137802 | 1096 | 0.808619228419 |
| 5-17-3-5-5 | 4-4-4-2-8 | 7 | 0.955957450297 | 0.97498229964 | 47.4697137117 | 1050 | 0.8143969797 |
| 17-5-5-3-5 | 4-4-8-4-2 | 6 | 0.956167467903 | 0.975104160356 | 54.197249341 | 900 | 0.837442396541 |
| 17-15-5-5 | 4-32-4-2 | 5 | 0.956889215158 | 0.975466029955 | 46.9947134256 | 2890 | 0.533254763042 |
| 5-17-25-3 | 8-4-16-2 | 4 | 0.963300851388 | 0.978795785618 | 43.2002015114 | 2056 | 0.663124548719 |
| 5-3-5-85 | 2-64-2-4 | 5 | 0.956797222479 | 0.975430373114 | 33.7187493563 | 2760 | 0.553126399813 |
| 17-25-3-5 | 4-32-4-2 | 4 | 0.956331440865 | 0.975171816326 | 38.9107690096 | 3560 | 0.430605280464 |
| 3-5-17-5-5 | 16-2-2-4-4 | 4 | 0.954252837236 | 0.974152787518 | 32.074257803 | 528 | 0.89347001547 |
| 17-5-5-3-5 | 16-4-4-2-2 | 5 | 0.955395800518 | 0.9747227332 | 46.7051071882 | 1640 | 0.723970532032 |
| 5-5-17-5-3 | 2-2-2-64-2 | 5 | 0.955059541469 | 0.974557240202 | 49.8657592058 | 1900 | 0.684100964691 |
| 3-17-5-25 | 2-4-16-8 | 9 | 0.958332673562 | 0.976240195196 | 58.29728477 | 3186 | 0.488349801174 |
| 5-5-5-51 | 2-8-8-8 | 5 | 0.95763614599 | 0.975854721752 | 33.8044775486 | 2490 | 0.59469734808 |
| 5-17-5-15 | 64-2-4-2 | 6 | 0.957574815294 | 0.975823237189 | 47.5637802362 | 2424 | 0.60478080159 |
| 5-5-17-3-5 | 32-2-4-2-2 | 6 | 0.955604257487 | 0.974823813354 | 54.2705373764 | 1524 | 0.741783579385 |
| 17-5-25-3 | 8-2-8-8 | 5 | 0.957775406083 | 0.975928013242 | 36.9286346912 | 1850 | 0.692717530968 |
| 5-3-17-25 | 16-2-4-8 | 6 | 0.960515631581 | 0.977348124444 | 42.7316553116 | 2124 | 0.651718725806 |
| 25-3-17-5 | 8-8-8-2 | 6 | 0.957019319088 | 0.975537324416 | 53.9140646935 | 2220 | 0.635820797326 |
| 3-5-5-17-5 | 2-4-2-4-16 | 5 | 0.957888371793 | 0.975972399964 | 34.9466860294 | 920 | 0.835126186949 |
| 17-3-25-5 | 2-8-2-32 | 8 | 0.957338057445 | 0.975690225438 | 48.7211229086 | 2144 | 0.647552210796 |
| 5-5-17-15 | 2-32-4-4 | 9 | 0.957267822284 | 0.97566204664 | 52.9286194086 | 2682 | 0.56519528443 |
| 5-51-5-5 | 4-2-64-2 | 7 | 0.957138252294 | 0.975601001334 | 53.9248376369 | 3164 | 0.49139683377 |
| 5-25-17-3 | 32-4-2-4 | 5 | 0.957039599239 | 0.975535772329 | 34.564956665 | 1530 | 0.74140718697 |
| 75-17-5 | 4-8-32 | 6 | 0.956506586108 | 0.975264179806 | 38.3800565004 | 3576 | 0.428198343416 |
| 15-5-5-17 | 4-8-16-2 | 5 | 0.95814283679 | 0.976097690029 | 36.17007792 | 1070 | 0.812266391467 |
| 5-5-5-17-3 | 2-4-2-2-32 | 9 | 0.9580286047 | 0.976121025422 | 53.1446931839 | 1530 | 0.741851979321 |
| 17-5-5-3-5 | 2-2-4-4-16 | 8 | 0.958215421214 | 0.976144555417 | 49.0912396669 | 1248 | 0.785049903627 |
