| 3-17-5-5-5 | 8-2-8-2-4 | 4 | 0.95478810196 | 0.974439833183 | 32.6165582418 | 512 | 0.896178939914 |
| 17-3-5-5-5 | 2-2-4-4-16 | 8 | 0.957940254641 | 0.97600937809 | 54.9676272869 | 1280 | 0.78004200492 |
| 5-17-5-5-3 | 4-2-4-8-4 | 10 | 0.957434121839 | 0.975796589554 | 68.7441570282 | 1260 | 0.782933263619 |
| 17-3-5-5-5 | 2-2-4-4-16 | 7 | 0.957228947622 | 0.975639626761 | 49.4436681986 | 1120 | 0.804233135471 |
| 25-17-15 | 16-16-4 | 6 | 0.957527391241 | 0.975778444281 | 42.1694106817 | 4392 | 0.303524494903 |
| 3-5-17-5-5 | 4-2-4-16-2 | 7 | 0.957988513627 | 0.976044199143 | 62.1399013996 | 1260 | 0.7831319339 |
| 3-5-17-5-5 | 2-8-2-2-16 | 4 | 0.955676662314 | 0.974877651773 | 31.8711697817 | 680 | 0.870890702251 |
| 25-17-5-3 | 2-32-8-2 | 8 | 0.960623768345 | 0.977398143793 | 74.0367334366 | 5120 | 0.192413281641 |
| 17-25-15 | 16-8-8 | 6 | 0.956593833963 | 0.975313359526 | 43.5009658098 | 3552 | 0.431891704148 |
| 75-17-5 | 4-8-32 | 5 | 0.956928039037 | 0.975496160275 | 38.780741024 | 2980 | 0.519499523786 |
| 3-5-5-5-17 | 4-2-4-16-2 | 10 | 0.959400205887 | 0.976749052399 | 79.1256890059 | 1560 | 0.737732813694 |
| 17-25-5-3 | 4-2-16-8 | 5 | 0.957224375164 | 0.97563740712 | 42.5301420927 | 1110 | 0.80576171741 |
| 5-3-85-5 | 2-4-2-64 | 7 | 0.958081147701 | 0.976078257218 | 51.2267319202 | 3584 | 0.427330888768 |
| 51-5-5-5 | 2-64-2-4 | 9 | 0.95776199513 | 0.975927109549 | 69.0327288389 | 4068 | 0.353170798703 |
| 5-51-5-5 | 4-2-4-32 | 6 | 0.957260633428 | 0.975648370408 | 45.2096975327 | 1812 | 0.698334668889 |
| 5-3-85-5 | 8-2-8-8 | 8 | 0.96107788257 | 0.977662899103 | 58.2519515753 | 6128 | 0.037879644875 |
| 17-5-3-5-5 | 8-2-2-8-4 | 7 | 0.955996686663 | 0.975051484623 | 56.0252671242 | 1484 | 0.748074793928 |
| 15-17-5-5 | 2-2-8-32 | 9 | 0.957651177835 | 0.97584643611 | 66.4769329548 | 2376 | 0.612142729099 |
| 5-25-3-17 | 8-2-32-2 | 5 | 0.95755664288 | 0.975812838574 | 44.8859134436 | 1100 | 0.807437289958 |
| 17-5-15-5 | 8-4-4-8 | 8 | 0.957687899857 | 0.975853798797 | 56.6898416996 | 2048 | 0.662355982337 |
| 5-3-17-5-5 | 2-8-4-4-4 | 6 | 0.957329155833 | 0.975714982746 | 45.2951009989 | 852 | 0.845313545052 |
| 5-5-17-3-5 | 2-8-8-2-4 | 6 | 0.955565418573 | 0.974790735421 | 46.3121184826 | 1272 | 0.780291313388 |
| 5-3-5-5-17 | 2-2-4-16-4 | 6 | 0.955721082754 | 0.974912524656 | 45.7002883196 | 1104 | 0.806080614504 |
| 5-5-5-3-17 | 8-2-2-2-16 | 5 | 0.954659695523 | 0.974341945734 | 38.4236538172 | 1690 | 0.716045806394 |
| 51-5-5-5 | 4-8-8-4 | 9 | 0.957087424027 | 0.975560468103 | 66.9542075872 | 2736 | 0.556872869557 |
| 3-5-5-17-5 | 2-2-4-32-2 | 6 | 0.957891911058 | 0.975990814584 | 56.7058335543 | 3540 | 0.434028856368 |
| 17-5-5-3-5 | 16-4-4-2-2 | 8 | 0.956325048117 | 0.975186991239 | 77.1889259338 | 2624 | 0.573792377119 |
| 3-17-25-5 | 16-2-2-16 | 10 | 0.957962129846 | 0.976014158177 | 69.0201118469 | 2120 | 0.651441606752 |
| 17-75-5 | 8-2-64 | 4 | 0.957241798561 | 0.975647698982 | 33.0154298067 | 2424 | 0.604672009204 |
| 17-75-5 | 4-16-16 | 4 | 0.95673404473 | 0.975367756456 | 33.2742114782 | 5392 | 0.150397883074 |
| 5-5-5-51 | 4-2-16-8 | 10 | 0.957245275339 | 0.975655833374 | 65.6432057858 | 5180 | 0.182887642491 |
| 5-5-85-3 | 2-4-2-64 | 9 | 0.957574119098 | 0.975818364422 | 63.1122550011 | 3528 | 0.435789001335 |
| 5-17-3-5-5 | 4-8-2-8-2 | 6 | 0.955600998819 | 0.974825731716 | 55.9808192492 | 1272 | 0.780319326894 |
| 5-5-3-85 | 4-2-16-8 | 7 | 0.957135915313 | 0.975592130055 | 46.8514970541 | 5306 | 0.16359340973 |
| 5-51-5-5 | 4-4-16-4 | 6 | 0.956358615438 | 0.975212880451 | 45.0616983652 | 1944 | 0.677830317377 |
| 5-85-3-5 | 8-2-32-2 | 5 | 0.957256702907 | 0.975654160651 | 48.6052903414 | 1580 | 0.7338449726 |
| 15-17-5-5 | 64-4-2-2 | 6 | 0.956670255124 | 0.975365149738 | 56.5213677168 | 6288 | 0.0133108655729 |
| 5-5-3-17-5 | 4-2-4-2-16 | 10 | 0.957608558621 | 0.975848231265 | 69.0194274902 | 1560 | 0.737052428791 |
| 17-25-3-5 | 4-8-2-16 | 10 | 0.959755055261 | 0.976939713427 | 69.8067588329 | 3540 | 0.434450837265 |
| 5-85-5-3 | 2-2-64-4 | 10 | 0.957388357892 | 0.975720194098 | 72.2848180294 | 5120 | 0.192082955858 |
| 17-3-5-25 | 2-32-4-4 | 7 | 0.957309311272 | 0.975667933068 | 50.2060986042 | 1750 | 0.707837520069 |
| 5-5-5-3-17 | 2-2-16-2-8 | 4 | 0.954442944491 | 0.974221914177 | 33.5846764803 | 968 | 0.826293002346 |
| 17-5-5-3-5 | 4-8-2-8-2 | 9 | 0.956566323663 | 0.975309542112 | 79.3732916117 | 1368 | 0.766019588605 |
| 3-5-17-5-5 | 4-2-2-32-2 | 4 | 0.956754296273 | 0.975410016033 | 41.0129786968 | 904 | 0.837093050622 |
| 17-5-5-5-3 | 4-4-4-8-2 | 10 | 0.957246934509 | 0.975667385581 | 95.9761573792 | 1540 | 0.739976754397 |
| 25-17-5-3 | 8-2-16-4 | 7 | 0.957449452485 | 0.975749425647 | 51.4791879892 | 2282 | 0.626469395949 |
| 17-5-3-25 | 64-2-4-2 | 5 | 0.956349404249 | 0.975181124197 | 41.7154903889 | 5800 | 0.0879575131629 |
| 5-5-17-5-3 | 8-8-4-2-2 | 4 | 0.953937032816 | 0.973994946061 | 47.8179958344 | 656 | 0.873768956317 |
| 3-17-25-5 | 32-2-8-2 | 8 | 0.957181223557 | 0.97561611363 | 67.5155048609 | 2720 | 0.559353238481 |
| 5-17-5-5-3 | 16-2-4-4-2 | 4 | 0.955072390942 | 0.974538229013 | 43.7833444834 | 640 | 0.876702234257 |
| 5-5-5-3-17 | 4-16-2-2-4 | 4 | 0.954284732266 | 0.974164179129 | 32.120774436 | 736 | 0.861695969585 |
| 17-5-5-3-5 | 2-4-4-4-8 | 10 | 0.958444797176 | 0.976267603841 | 66.5928181648 | 1260 | 0.783311183317 |
| 5-5-15-17 | 8-4-4-8 | 5 | 0.957397332893 | 0.975725008182 | 38.4848228455 | 1280 | 0.779814732029 |
| 3-5-5-5-17 | 4-4-16-2-2 | 9 | 0.958171245721 | 0.976096539073 | 68.6887214899 | 1404 | 0.761125630703 |
| 15-17-5-5 | 2-8-4-16 | 10 | 0.957037864108 | 0.975542609602 | 67.4382183552 | 2660 | 0.568492673674 |
| 25-17-3-5 | 4-2-2-64 | 8 | 0.961048549567 | 0.977618203466 | 54.0381816387 | 3680 | 0.413283303269 |
| 3-5-25-17 | 2-16-2-16 | 5 | 0.959296089327 | 0.9767354818 | 38.0081422091 | 2040 | 0.664180127624 |
| 5-5-51-5 | 4-4-4-16 | 7 | 0.957512165556 | 0.975767598041 | 49.1380039215 | 2268 | 0.628623925514 |
| 85-5-15 | 2-16-32 | 6 | 0.956538713055 | 0.97528227169 | 41.788319087 | 4380 | 0.305205981494 |
| 25-5-3-17 | 16-4-2-8 | 10 | 0.960135353612 | 0.977098434705 | 67.2673787832 | 5620 | 0.115719108738 |
| 25-85-3 | 8-4-32 | 6 | 0.957003567844 | 0.975504066786 | 44.5504984379 | 3816 | 0.391578808926 |
| 5-3-5-85 | 4-4-16-4 | 10 | 0.957001182802 | 0.975515022885 | 67.0049120188 | 4520 | 0.283855743914 |
| 5-51-25 | 128-2-4 | 4 | 0.957328338685 | 0.975713613685 | 33.9379022837 | 3368 | 0.460230719428 |
| 5-51-5-5 | 2-8-2-32 | 10 | 0.95755674162 | 0.97581602399 | 69.1995030403 | 5880 | 0.0757692442157 |
| 5-5-51-5 | 2-4-2-64 | 9 | 0.958228701226 | 0.97613415561 | 61.0138501883 | 4068 | 0.353245725019 |
| 3-5-17-5-5 | 16-2-8-2-2 | 10 | 0.957729248596 | 0.975903549562 | 87.8597046614 | 2140 | 0.648306122729 |
| 17-5-5-15 | 4-8-2-16 | 6 | 0.957474678122 | 0.975763468278 | 42.3117841721 | 2148 | 0.646988577319 |
| 85-3-5-5 | 2-4-2-64 | 7 | 0.958088833275 | 0.976069944055 | 49.1340238571 | 3584 | 0.427327249233 |
| 5-17-5-3-5 | 4-2-8-2-8 | 7 | 0.957000327509 | 0.975544480657 | 51.0031599045 | 980 | 0.82557842716 |
| 17-5-5-15 | 8-4-4-8 | 8 | 0.957309517563 | 0.975690612864 | 54.580474472 | 2368 | 0.613269378156 |
| 5-5-3-17-5 | 8-2-2-8-4 | 10 | 0.95682933549 | 0.975440908431 | 67.3496508598 | 2120 | 0.651058990647 |
| 51-5-5-5 | 4-8-8-4 | 5 | 0.957473356367 | 0.975730845258 | 38.1004727602 | 1520 | 0.743086000585 |
| 5-3-17-5-5 | 2-8-4-4-4 | 7 | 0.957298155071 | 0.975714850831 | 52.6036947012 | 994 | 0.823579860756 |
| 17-5-5-5-3 | 2-2-4-16-4 | 5 | 0.955134657687 | 0.974530164781 | 40.3214083433 | 780 | 0.855293532855 |
| 5-3-85-5 | 8-8-4-4 | 6 | 0.957229099338 | 0.975642335969 | 44.3111137867 | 2544 | 0.586303653192 |
| 5-5-5-17-3 | 2-2-8-8-4 | 5 | 0.955072041636 | 0.974544524895 | 39.9926292419 | 1040 | 0.815560006324 |
| 17-5-5-15 | 2-32-4-4 | 5 | 0.957394816479 | 0.975732009669 | 38.3215519667 | 1370 | 0.766045287591 |
| 5-5-15-17 | 16-2-16-2 | 10 | 0.957598868524 | 0.97584299762 | 74.9285351515 | 3640 | 0.418655780155 |
| 85-5-5-3 | 2-8-8-8 | 5 | 0.957234117008 | 0.975635405939 | 39.7052122355 | 1370 | 0.765969444192 |
| 3-17-25-5 | 4-2-32-4 | 6 | 0.957762967408 | 0.975910936853 | 44.5607808828 | 5196 | 0.180486116792 |
| 5-25-17-3 | 2-8-2-32 | 6 | 0.957883719462 | 0.975964421007 | 43.2076938868 | 2040 | 0.663655806285 |
| 5-3-425 | 16-32-2 | 5 | 0.956533162222 | 0.97528506069 | 35.1149625778 | 5130 | 0.190467435382 |
| 5-5-17-15 | 8-2-8-8 | 5 | 0.957336292349 | 0.975704711362 | 37.8021611691 | 1530 | 0.741535580635 |
| 5-5-17-3-5 | 2-2-16-2-8 | 5 | 0.953865627447 | 0.97393028377 | 36.8941368103 | 1690 | 0.71574327521 |
| 5-3-5-17-5 | 2-16-2-4-4 | 9 | 0.957180154853 | 0.975662438109 | 61.6222583055 | 1404 | 0.760787134093 |
| 75-17-5 | 4-8-32 | 4 | 0.956979407238 | 0.975521946218 | 32.7593723059 | 2384 | 0.610714994095 |
| 5-15-17-5 | 2-4-2-64 | 5 | 0.958381089058 | 0.976240300968 | 35.6460392952 | 2120 | 0.65159254598 |
| 5-75-17 | 16-2-32 | 6 | 0.956720093499 | 0.975373070044 | 40.1041374207 | 4644 | 0.26484247596 |
| 5-17-5-5-3 | 2-8-8-2-4 | 8 | 0.957186841992 | 0.97566111013 | 61.1442424059 | 1664 | 0.720994429776 |
| 51-5-5-5 | 8-2-2-32 | 4 | 0.956915722643 | 0.975465775808 | 32.1605279207 | 2352 | 0.615576284875 |
| 5-5-3-85 | 4-4-4-16 | 4 | 0.956675513009 | 0.975354494612 | 30.5898445368 | 5648 | 0.111228661582 |
| 5-3-5-5-17 | 2-2-4-16-4 | 6 | 0.955271290669 | 0.974655384338 | 43.0090959072 | 1104 | 0.805868004838 |
| 17-5-3-25 | 16-16-2-2 | 4 | 0.964698463317 | 0.979512758269 | 33.0335677862 | 1632 | 0.728757492152 |
| 5-17-5-15 | 2-16-16-2 | 4 | 0.957629757425 | 0.975840873462 | 34.2900643587 | 1568 | 0.73582228686 |
| 3-5-5-5-17 | 4-2-2-2-32 | 9 | 0.957558867381 | 0.975841498523 | 55.6796369791 | 5274 | 0.168533567039 |
| 5-5-15-17 | 32-8-2-2 | 5 | 0.957162112054 | 0.975605353465 | 39.3113255262 | 1320 | 0.773597656748 |
| 5-5-3-85 | 2-128-2-2 | 6 | 0.95947589616 | 0.97677175794 | 41.4007131338 | 4956 | 0.217417901885 |
| 5-17-3-25 | 16-2-16-2 | 9 | 0.957489167397 | 0.975753427086 | 63.0167216301 | 1908 | 0.683716166085 |
| 17-5-5-15 | 2-32-4-4 | 8 | 0.957515289509 | 0.975773034507 | 50.3349680185 | 2192 | 0.640260173073 |
| 5-5-3-85 | 2-128-2-2 | 4 | 0.9566552473 | 0.975356868359 | 31.8269915104 | 3304 | 0.469854265526 |
| 5-5-85-3 | 4-32-4-2 | 9 | 0.95920090083 | 0.976663756791 | 87.5468762636 | 4734 | 0.25140474116 |
| 5-85-3-5 | 16-4-4-4 | 9 | 0.957101453457 | 0.975580368072 | 62.7215613365 | 4068 | 0.353045319081 |
| 5-5-3-17-5 | 2-2-16-8-2 | 8 | 0.957479530585 | 0.975745429547 | 69.0740338802 | 1712 | 0.713709951055 |
| 17-5-5-15 | 4-4-4-16 | 10 | 0.957034286315 | 0.975526285417 | 63.2863411427 | 3480 | 0.443003701378 |
| 5-25-3-17 | 8-2-32-2 | 9 | 0.956947600183 | 0.975504433629 | 65.8950073719 | 1980 | 0.672524233067 |
| 3-17-5-5-5 | 2-8-4-8-2 | 6 | 0.958133919146 | 0.976110181205 | 53.5127608538 | 1272 | 0.781347490931 |
| 5-5-3-17-5 | 2-4-4-16-2 | 10 | 0.957799411698 | 0.975916623745 | 85.9863651752 | 3240 | 0.479921351442 |
| 17-5-15-5 | 4-16-2-8 | 10 | 0.95709587778 | 0.975573217467 | 67.3095396042 | 2180 | 0.641965434867 |
| 15-25-17 | 16-4-16 | 6 | 0.957041019579 | 0.975544606818 | 42.2896972418 | 3672 | 0.413630913291 |
| 5-3-25-17 | 2-128-2-2 | 10 | 0.957278324214 | 0.975658843299 | 72.0513047218 | 4780 | 0.24410601648 |
| 5-15-17-5 | 2-32-4-4 | 4 | 0.957135842581 | 0.975572990085 | 33.2117111921 | 2312 | 0.621765185681 |
| 5-3-425 | 32-16-2 | 5 | 0.957814963063 | 0.9759457815 | 34.9466646671 | 5290 | 0.166102144773 |
| 3-5-17-25 | 8-8-8-2 | 9 | 0.957831346494 | 0.975989337096 | 60.5911556721 | 2250 | 0.631522512238 |
| 5-15-17-5 | 2-32-4-4 | 5 | 0.956427773595 | 0.975229483967 | 36.3037537575 | 2890 | 0.533125451235 |
| 25-3-17-5 | 4-8-4-8 | 8 | 0.957277804581 | 0.975670667843 | 48.5023063183 | 1856 | 0.691616587919 |
| 3-17-5-25 | 2-8-4-16 | 7 | 0.9572680492 | 0.975652970377 | 42.4166665077 | 3934 | 0.373579435402 |
| 5-3-5-5-17 | 4-2-16-4-2 | 10 | 0.957656993849 | 0.975861916183 | 69.0779483318 | 1600 | 0.730939709769 |
| 5-3-5-17-5 | 16-4-4-2-2 | 6 | 0.956451179851 | 0.975249945325 | 52.0416093111 | 936 | 0.832060306294 |
| 25-5-3-17 | 4-16-4-4 | 7 | 0.957117734074 | 0.975586584333 | 45.5698857784 | 1820 | 0.69706617908 |
| 5-5-17-3-5 | 8-8-2-2-4 | 4 | 0.954820390094 | 0.974386666035 | 32.8303373098 | 560 | 0.888793484391 |
| 5-17-3-5-5 | 16-2-4-4-2 | 5 | 0.955238349259 | 0.974649759022 | 46.6596817255 | 780 | 0.855398494389 |
| 5-5-17-15 | 2-128-2-2 | 7 | 0.956943309816 | 0.975503014875 | 49.8827967405 | 4998 | 0.210708651213 |
| 85-5-3-5 | 4-4-4-16 | 8 | 0.957050536378 | 0.975547562206 | 51.3164325714 | 3616 | 0.422201682216 |
| 85-5-3-5 | 8-4-4-8 | 7 | 0.957195261033 | 0.975628059672 | 44.6947837353 | 5264 | 0.17002710185 |
| 17-5-5-5-3 | 4-2-2-4-16 | 4 | 0.95453056713 | 0.974306104666 | 30.5344404936 | 624 | 0.878938730656 |
| 3-5-17-5-5 | 4-4-16-2-2 | 5 | 0.956779669248 | 0.97541237739 | 45.0760610104 | 1620 | 0.727542879135 |
| 85-25-3 | 2-16-32 | 4 | 0.957125056464 | 0.975596200691 | 31.4013187647 | 2664 | 0.567911764826 |
| 25-3-5-17 | 4-4-8-8 | 6 | 0.957549545394 | 0.975809006771 | 39.5834788084 | 1728 | 0.711307365406 |
| 17-3-25-5 | 2-2-4-64 | 6 | 0.959952467505 | 0.977033615694 | 38.9700317144 | 2760 | 0.554035532664 |
| 5-5-15-17 | 4-16-2-8 | 9 | 0.957204896387 | 0.975635069064 | 55.2985245466 | 2394 | 0.609255405481 |
| 3-17-5-5-5 | 2-2-8-16-2 | 8 | 0.958767194067 | 0.976407709185 | 67.1488467216 | 1360 | 0.768107397892 |
| 17-3-5-5-5 | 2-2-16-2-8 | 4 | 0.95550521527 | 0.974813932523 | 28.5637253046 | 680 | 0.870833779721 |
| 5-5-5-3-17 | 4-2-8-8-2 | 5 | 0.955847763336 | 0.974942094269 | 36.6220034361 | 640 | 0.877065554609 |
| 5-51-5-5 | 4-16-8-2 | 6 | 0.956733047464 | 0.975388029411 | 50.8272703648 | 5316 | 0.162029164415 |
| 17-5-3-5-5 | 4-16-4-2-2 | 10 | 0.957400297166 | 0.975734668276 | 80.8894527435 | 1800 | 0.700233114881 |
| 3-17-5-5-5 | 8-4-8-2-2 | 6 | 0.955918063477 | 0.974979633674 | 51.478808713 | 912 | 0.835500194315 |
| 5-17-3-5-5 | 16-4-4-2-2 | 8 | 0.956453136268 | 0.975263440639 | 65.7567806244 | 1440 | 0.75496863993 |
| 5-5-3-17-5 | 4-16-4-2-2 | 4 | 0.954173161505 | 0.974079521905 | 37.670627141 | 624 | 0.878734326349 |
| 17-5-3-5-5 | 2-8-2-4-8 | 8 | 0.956983579406 | 0.975549881504 | 49.6763690948 | 1120 | 0.804159157224 |
| 5-3-17-5-5 | 2-4-2-2-32 | 4 | 0.954170897929 | 0.97411123666 | 29.3573829174 | 904 | 0.835978443257 |
| 15-17-5-5 | 2-16-2-16 | 5 | 0.9579142123 | 0.975997143816 | 35.7091556072 | 1960 | 0.67592586509 |
| 5-15-5-17 | 16-8-2-4 | 6 | 0.957091862485 | 0.975577395283 | 40.6438361883 | 1668 | 0.720320439152 |
| 5-17-3-5-5 | 2-2-8-2-16 | 7 | 0.956500549503 | 0.975284247222 | 45.9346917868 | 1106 | 0.806081991939 |
| 85-3-5-5 | 4-8-2-16 | 6 | 0.956923783654 | 0.975513726885 | 39.4239511728 | 2724 | 0.558682449703 |
| 17-3-5-25 | 8-8-4-4 | 8 | 0.957119287312 | 0.975592394634 | 49.0107335329 | 2240 | 0.632796008127 |
| 5-17-3-25 | 2-4-32-4 | 5 | 0.957985860368 | 0.976034270064 | 34.6097535849 | 1370 | 0.766282591634 |
| 17-3-25-5 | 2-2-4-64 | 7 | 0.960619469858 | 0.977330253998 | 42.8311260223 | 3220 | 0.483682659038 |
| 3-5-17-25 | 16-4-2-8 | 8 | 0.956781290213 | 0.975409317075 | 46.9185052156 | 2416 | 0.605748311576 |
| 17-3-5-25 | 2-32-4-4 | 9 | 0.957162949292 | 0.975610252454 | 55.7738198042 | 2250 | 0.631277222176 |
| 5-5-3-5-17 | 2-2-16-2-8 | 6 | 0.955432186946 | 0.974724370751 | 39.7535499334 | 1284 | 0.778403415136 |
| 3-5-5-5-17 | 2-8-8-4-2 | 9 | 0.959164450286 | 0.97664969805 | 61.4016688108 | 1260 | 0.783617757729 |
| 17-5-25-3 | 4-8-2-16 | 6 | 0.958147169567 | 0.976068020343 | 39.4979691982 | 1236 | 0.786825655928 |
| 5-17-15-5 | 64-2-4-2 | 10 | 0.957141608558 | 0.975592741718 | 78.8555567265 | 4240 | 0.326727922128 |
| 5-17-5-3-5 | 4-4-2-8-4 | 8 | 0.956808338904 | 0.975454085508 | 49.9501848221 | 1136 | 0.801631992781 |
| 5-17-5-5-3 | 2-2-32-4-2 | 8 | 0.956400151892 | 0.975243145894 | 71.9140726566 | 1840 | 0.693761202608 |
| 3-5-5-5-17 | 4-8-4-2-4 | 6 | 0.957869521243 | 0.975947404648 | 39.8098610401 | 900 | 0.83816659458 |
| 3-25-5-17 | 16-8-4-2 | 6 | 0.956560245156 | 0.975297907897 | 43.9857035637 | 1812 | 0.698083820194 |
| 5-5-17-5-3 | 2-8-2-4-8 | 9 | 0.957451848083 | 0.975795930419 | 56.6160088778 | 1152 | 0.799463865816 |
| 17-25-5-3 | 2-2-16-16 | 9 | 0.957423259097 | 0.975720353314 | 56.0340750694 | 1908 | 0.683692991099 |
| 5-15-5-17 | 2-8-8-8 | 5 | 0.957786064383 | 0.97592416825 | 34.0413850069 | 1530 | 0.74170236787 |
| 17-5-5-3-5 | 2-2-4-4-16 | 6 | 0.956773898285 | 0.975460441261 | 38.3022504807 | 936 | 0.832239896474 |
| 17-3-5-25 | 4-32-4-2 | 6 | 0.957415848833 | 0.975760290983 | 41.358116436 | 1404 | 0.76086343631 |
| 17-5-3-5-5 | 4-2-16-4-2 | 6 | 0.954933123176 | 0.9744720114 | 50.643827939 | 936 | 0.831396591374 |
| 5-17-5-3-5 | 8-4-4-4-2 | 4 | 0.952460964238 | 0.973317213754 | 37.062496233 | 600 | 0.881710887753 |
| 15-17-5-5 | 8-4-2-16 | 8 | 0.957050774276 | 0.975553090336 | 50.3791299105 | 2224 | 0.635218961253 |
| 3-5-17-25 | 2-16-8-4 | 8 | 0.958223348808 | 0.976164054809 | 49.3439604282 | 2576 | 0.581717214779 |
| 5-17-3-25 | 4-32-4-2 | 9 | 0.956614947059 | 0.975322411403 | 59.3320401907 | 5634 | 0.113366887349 |
| 85-15-5 | 8-32-4 | 5 | 0.957782048113 | 0.975906423195 | 35.9674146652 | 5900 | 0.0727145962381 |
| 5-51-5-5 | 32-4-2-4 | 4 | 0.956533300402 | 0.975296600863 | 32.0585543394 | 1576 | 0.73418798236 |
| 5-25-51 | 8-8-16 | 4 | 0.957245716018 | 0.975647990553 | 29.1713046551 | 4224 | 0.329195110224 |
| 3-5-5-17-5 | 4-2-8-4-4 | 6 | 0.958847514206 | 0.976513992428 | 38.9434542894 | 900 | 0.838653193497 |
| 5-51-5-5 | 4-8-8-4 | 4 | 0.957012285928 | 0.975527168637 | 32.2585339785 | 1952 | 0.676824575197 |
| 17-3-5-5-5 | 2-2-4-4-16 | 10 | 0.958656137147 | 0.976364320721 | 61.6263505459 | 1600 | 0.731316020619 |
| 5-3-5-5-17 | 16-2-2-8-2 | 10 | 0.957310698169 | 0.975687883831 | 65.4320645809 | 1700 | 0.715504448143 |
| 25-17-3-5 | 8-2-16-4 | 5 | 0.956945938189 | 0.97548913641 | 36.4119907856 | 1510 | 0.744432101747 |
| 85-5-3-5 | 2-4-32-4 | 5 | 0.957100138114 | 0.975569720621 | 36.7058913231 | 1530 | 0.741432987672 |
| 15-25-17 | 32-2-16 | 6 | 0.95652398443 | 0.975269907911 | 38.6639251709 | 4812 | 0.239113233893 |
| 5-17-15-5 | 4-8-8-4 | 8 | 0.957464198735 | 0.975733383172 | 51.6345573187 | 2368 | 0.613296261391 |
| 15-17-5-5 | 8-8-2-8 | 10 | 0.957402313152 | 0.975711595602 | 63.4094931841 | 3060 | 0.507370029713 |
| 5-3-85-5 | 4-4-4-16 | 7 | 0.957044778065 | 0.97556075977 | 45.1040241003 | 3164 | 0.491376564646 |
| 5-15-5-17 | 32-8-2-2 | 7 | 0.957241783577 | 0.975633075055 | 48.4891618967 | 2268 | 0.628537261059 |
| 3-17-5-25 | 8-2-4-16 | 7 | 0.957411347825 | 0.975734241936 | 41.3280883312 | 3346 | 0.463607689227 |
| 5-5-3-5-17 | 8-2-4-2-8 | 7 | 0.95582977231 | 0.974896934033 | 47.6965722084 | 1456 | 0.75223812055 |
| 5-5-3-17-5 | 4-4-2-8-4 | 8 | 0.955548846747 | 0.974790297614 | 52.7175949097 | 1616 | 0.727690513936 |
| 15-17-5-5 | 2-32-2-8 | 7 | 0.957047676071 | 0.975539075045 | 43.6309832573 | 4368 | 0.307122654685 |
| 3-5-85-5 | 8-16-4-2 | 10 | 0.957614652761 | 0.975821219752 | 81.8457551479 | 4540 | 0.280883441293 |
| 3-17-5-5-5 | 2-2-4-2-32 | 7 | 0.958784581806 | 0.976412705586 | 45.4219428778 | 1610 | 0.729820634057 |
| 5-5-3-17-5 | 2-2-4-16-4 | 8 | 0.956870257742 | 0.975490504982 | 52.0429392099 | 2592 | 0.578867542015 |
| 15-5-17-5 | 32-2-2-8 | 7 | 0.957047778325 | 0.975552556433 | 47.3576928616 | 3948 | 0.371398596778 |
| 51-25-5 | 8-8-16 | 8 | 0.956785380813 | 0.975405255689 | 52.3826575756 | 5504 | 0.133267133758 |
| 85-5-15 | 2-16-32 | 7 | 0.957129117982 | 0.97561028793 | 43.5663281918 | 5110 | 0.193591688507 |
| 5-5-15-17 | 4-4-4-16 | 4 | 0.957516842629 | 0.975797941538 | 30.4495558739 | 1488 | 0.748035222007 |
| 15-5-5-17 | 4-32-2-4 | 6 | 0.957248440305 | 0.97564462633 | 41.4719964266 | 1788 | 0.702005004074 |
| 15-17-5-5 | 2-4-16-8 | 5 | 0.958154909856 | 0.976107469377 | 35.7002394676 | 1090 | 0.809212231475 |
| 3-5-5-17-5 | 2-8-2-8-4 | 6 | 0.957056687261 | 0.975570979993 | 42.0424299955 | 1272 | 0.780915876221 |
| 5-5-5-17-3 | 4-4-2-8-4 | 10 | 0.957187949274 | 0.975612683139 | 65.8479675055 | 1980 | 0.672598861552 |
| 5-3-5-17-5 | 4-2-2-16-4 | 8 | 0.956850995415 | 0.9754752682 | 51.9702945948 | 2624 | 0.573961997023 |
| 5-3-5-17-5 | 2-8-8-2-4 | 8 | 0.957622800576 | 0.975851136045 | 52.9168979645 | 1024 | 0.819102655526 |
| 25-5-3-17 | 4-2-2-64 | 5 | 0.959677935395 | 0.976850445231 | 32.4654021978 | 6020 | 0.0543971620482 |
| 5-5-51-5 | 8-8-4-4 | 7 | 0.957302577106 | 0.975650239619 | 47.8107170582 | 2128 | 0.649974363555 |
| 5-17-15-5 | 2-8-2-32 | 9 | 0.957242890202 | 0.97565587216 | 58.7139681101 | 3024 | 0.512850639625 |
| 17-3-25-5 | 32-4-2-4 | 4 | 0.956382412529 | 0.975214635131 | 31.8439167023 | 2504 | 0.592165623936 |
| 17-25-5-3 | 32-8-2-2 | 8 | 0.959695997121 | 0.976900874321 | 74.8471570969 | 6080 | 0.0452056090862 |
| 5-5-5-51 | 2-16-4-8 | 6 | 0.957454902077 | 0.975744782624 | 37.5002416611 | 3108 | 0.500040502719 |
| 3-5-5-5-17 | 4-2-16-2-4 | 7 | 0.955938985573 | 0.975023371383 | 48.3962325573 | 1260 | 0.782312869745 |
| 17-5-5-5-3 | 4-2-4-2-16 | 4 | 0.955757807884 | 0.974911574404 | 31.2911016464 | 624 | 0.879484935592 |
| 25-3-5-17 | 16-8-4-2 | 10 | 0.957439521337 | 0.975740643272 | 69.5055123568 | 4780 | 0.244126482513 |
| 5-3-5-85 | 32-4-2-4 | 10 | 0.957459888183 | 0.975752929713 | 60.4515568495 | 5220 | 0.176783471972 |
| 3-5-5-5-17 | 2-2-64-2-2 | 4 | 0.955406253735 | 0.974721736218 | 33.3997086287 | 1520 | 0.742317494798 |
| 5-3-5-17-5 | 4-16-2-2-4 | 9 | 0.958991101203 | 0.976572240947 | 59.287354207 | 1188 | 0.794585131575 |
| 5-3-425 | 32-16-2 | 4 | 0.957045373297 | 0.975540328192 | 30.2188614845 | 4232 | 0.327934576206 |
| 5-51-5-5 | 4-8-8-4 | 6 | 0.957495779 | 0.975774071121 | 41.0473986626 | 2928 | 0.527606780103 |
| 3-5-85-5 | 32-2-2-8 | 7 | 0.95755451077 | 0.97580319163 | 46.3138258696 | 2212 | 0.63721861753 |
| 3-17-5-5-5 | 2-2-4-2-32 | 5 | 0.956265448676 | 0.975192985741 | 33.7526515007 | 1150 | 0.799275819686 |
| 5-3-25-17 | 2-128-2-2 | 10 | 0.957062527238 | 0.975554962505 | 71.3368835211 | 4780 | 0.244080025913 |
| 17-5-3-25 | 4-2-64-2 | 8 | 0.958099551876 | 0.976073857986 | 54.5261834145 | 2560 | 0.584113218544 |
| 5-5-17-5-3 | 2-2-4-16-4 | 8 | 0.957462475882 | 0.975762343837 | 56.277346611 | 1440 | 0.7553548497 |
| 5-51-5-5 | 4-4-16-4 | 9 | 0.956937516844 | 0.975488890024 | 59.6589918375 | 2916 | 0.529288795387 |
| 5-5-51-5 | 4-8-2-16 | 4 | 0.957426520392 | 0.975729138492 | 31.0278436661 | 968 | 0.827571364992 |
| 5-85-3-5 | 16-4-4-4 | 5 | 0.956380357432 | 0.975199306822 | 37.0483379126 | 2260 | 0.629481591776 |
| 5-15-5-17 | 4-16-2-8 | 4 | 0.956823285245 | 0.97543568751 | 31.1181463957 | 1624 | 0.726948227664 |
