| 5-17-5-3-5 | 8-4-4-4-2 | 10 | 0.957113743194 | 0.975594322206 | 85.4940198898 | 1500 | 0.746042716981 |
| 5-5-17-15 | 4-4-4-16 | 5 | 0.957638681387 | 0.97585110122 | 38.8134301901 | 1740 | 0.709501153593 |
| 17-25-5-3 | 4-2-16-8 | 6 | 0.957535102307 | 0.975783318601 | 45.1590919256 | 1332 | 0.771902004032 |
| 17-5-3-25 | 8-16-2-4 | 4 | 0.964472303903 | 0.979377773983 | 32.1272152424 | 1288 | 0.781505056667 |
| 5-5-51-5 | 2-16-4-8 | 5 | 0.957837077069 | 0.975940814918 | 37.4283744574 | 1670 | 0.720282593599 |
| 5-3-25-17 | 2-16-4-8 | 9 | 0.957964025423 | 0.976000192831 | 62.1187602282 | 2646 | 0.57090270103 |
| 3-17-5-5-5 | 2-8-4-8-2 | 4 | 0.95468761743 | 0.974421899911 | 39.5367866039 | 848 | 0.844804680911 |
| 3-17-5-5-5 | 8-2-8-2-4 | 4 | 0.956293979559 | 0.97519211234 | 33.0341016054 | 512 | 0.89687080073 |
| 17-5-5-5-3 | 4-4-2-8-4 | 4 | 0.953541677007 | 0.973779909701 | 34.5283034563 | 600 | 0.882130035847 |
| 3-25-5-17 | 2-4-64-2 | 7 | 0.96020340756 | 0.977096607436 | 53.1458402395 | 3220 | 0.483567026896 |
| 85-5-3-5 | 2-4-32-4 | 9 | 0.957383132405 | 0.975699918265 | 65.0737034798 | 2754 | 0.554197553574 |
| 5-5-5-3-17 | 8-4-2-8-2 | 5 | 0.955317120367 | 0.974680535397 | 40.1316322803 | 640 | 0.876830254196 |
| 5-5-3-17-5 | 8-4-4-4-2 | 7 | 0.956113489598 | 0.975110762394 | 69.315592432 | 1050 | 0.814504283882 |
| 5-17-5-5-3 | 32-2-4-2-2 | 5 | 0.954863243453 | 0.974441364993 | 59.3285156727 | 1150 | 0.798659785425 |
| 5-3-5-5-17 | 4-16-4-2-2 | 9 | 0.958280923894 | 0.976195585938 | 77.1362573147 | 1188 | 0.794278667335 |
| 25-17-3-5 | 32-2-8-2 | 5 | 0.956283268505 | 0.975160017783 | 52.3183651924 | 4340 | 0.311286374304 |
| 5-17-5-5-3 | 8-8-2-2-4 | 4 | 0.953536422028 | 0.973774493686 | 38.1882098675 | 832 | 0.846687375451 |
| 25-5-17-3 | 2-2-2-128 | 8 | 0.95791213796 | 0.97597464213 | 56.6120762587 | 3824 | 0.390542950913 |
| 17-5-25-3 | 2-4-32-4 | 4 | 0.956933275831 | 0.97550943603 | 37.0923100948 | 3464 | 0.445444387182 |
| 15-17-5-5 | 2-64-4-2 | 4 | 0.956991214254 | 0.975540608045 | 44.7416513205 | 4592 | 0.272845318297 |
| 5-5-5-3-17 | 2-2-2-16-8 | 7 | 0.956528760731 | 0.975276214601 | 52.893421936 | 1498 | 0.746105427232 |
| 5-3-17-5-5 | 2-16-4-2-4 | 7 | 0.955251748252 | 0.974687456471 | 58.6273847103 | 1092 | 0.807729228633 |
| 3-17-5-5-5 | 2-2-32-2-4 | 8 | 0.959806550694 | 0.976970544356 | 65.2757274866 | 1840 | 0.694990026456 |
| 3-5-17-25 | 8-4-8-4 | 7 | 0.95778404315 | 0.975930617923 | 53.0613265991 | 1960 | 0.675879792648 |
| 5-17-5-3-5 | 64-2-2-2-2 | 6 | 0.954679384152 | 0.974340536746 | 60.7165979147 | 2280 | 0.625870509486 |
| 17-3-5-5-5 | 4-2-2-16-4 | 4 | 0.955509647937 | 0.974780162395 | 35.2201256275 | 736 | 0.862240836979 |
| 5-17-5-3-5 | 4-2-16-4-2 | 4 | 0.955173718442 | 0.974585632023 | 43.14120543 | 624 | 0.879190897218 |
| 3-5-5-5-17 | 32-4-2-2-2 | 4 | 0.953343437083 | 0.973662615791 | 37.63195467 | 680 | 0.869805270107 |
| 85-5-3-5 | 2-8-8-8 | 9 | 0.957181615041 | 0.975608190421 | 67.5655857563 | 2466 | 0.598219986879 |
| 5-3-25-17 | 2-16-4-8 | 4 | 0.95779850808 | 0.975941547048 | 34.2918970346 | 1176 | 0.795909035781 |
| 15-25-17 | 16-4-16 | 9 | 0.956563936146 | 0.975293513765 | 62.0879085064 | 5508 | 0.132639917872 |
| 5-3-17-25 | 64-2-4-2 | 9 | 0.960743677615 | 0.977429587668 | 69.9717444897 | 3996 | 0.364753723774 |
| 17-25-3-5 | 4-4-4-16 | 9 | 0.957766756304 | 0.975930218062 | 65.348686409 | 2340 | 0.617706420373 |
| 5-15-17-5 | 16-8-2-4 | 4 | 0.957071284043 | 0.97556286106 | 35.5709638357 | 1016 | 0.820084921164 |
| 5-3-5-5-17 | 8-4-4-4-2 | 4 | 0.954821391076 | 0.974414864032 | 36.9518741846 | 504 | 0.897378771252 |
| 5-5-51-5 | 2-16-4-8 | 8 | 0.956871010173 | 0.975454088821 | 56.0721581221 | 2672 | 0.56660493975 |
| 3-17-5-5-5 | 8-16-2-2-2 | 7 | 0.957241042406 | 0.975661110314 | 66.4933955669 | 2282 | 0.626412694042 |
| 17-5-15-5 | 2-32-4-4 | 9 | 0.957227890825 | 0.975635435815 | 67.3160508871 | 2466 | 0.598236693114 |
| 5-5-17-5-3 | 2-32-2-4-2 | 6 | 0.955462376785 | 0.974737697409 | 63.6162369251 | 1380 | 0.763735654676 |
| 3-17-5-5-5 | 8-4-2-4-4 | 10 | 0.957691127099 | 0.97588664918 | 72.9225874901 | 1420 | 0.758512681833 |
| 5-17-3-5-5 | 2-16-8-2-2 | 7 | 0.954929247351 | 0.974476189578 | 65.4208355665 | 2282 | 0.625651928462 |
| 5-17-5-15 | 2-2-4-64 | 5 | 0.958096505435 | 0.976095145329 | 38.1843020201 | 5120 | 0.192156769786 |
| 17-15-5-5 | 4-8-2-16 | 5 | 0.957790376652 | 0.975936856877 | 39.892311883 | 1390 | 0.763144350044 |
| 5-5-17-5-3 | 8-2-2-8-4 | 10 | 0.95731607409 | 0.975675552815 | 73.9184470177 | 1360 | 0.767531434881 |
| 51-5-5-5 | 2-8-32-2 | 10 | 0.957585050143 | 0.975822097338 | 89.7696581841 | 3120 | 0.498243282641 |
| 3-17-5-25 | 2-4-16-8 | 10 | 0.963761507159 | 0.979087714201 | 68.6276368141 | 3540 | 0.435406065845 |
| 3-25-5-17 | 16-2-2-16 | 10 | 0.957690856018 | 0.975899045951 | 69.9563052177 | 3800 | 0.394186673462 |
| 25-5-3-17 | 4-4-8-8 | 7 | 0.957775042417 | 0.975916321848 | 50.5419849157 | 1960 | 0.675869891915 |
| 3-25-85 | 32-8-4 | 9 | 0.957145255311 | 0.975577492846 | 61.1823718786 | 5724 | 0.099623678093 |
| 5-5-17-5-3 | 2-16-4-2-4 | 10 | 0.957979969234 | 0.97601921287 | 76.2595780849 | 1800 | 0.700437317471 |
| 5-3-17-25 | 16-16-2-2 | 4 | 0.958243684026 | 0.976134569274 | 35.7641495943 | 848 | 0.846289531667 |
| 85-5-5-3 | 4-4-4-16 | 7 | 0.956905416145 | 0.975476826997 | 50.9490412235 | 2996 | 0.517040972302 |
| 5-25-3-17 | 32-4-2-4 | 9 | 0.960938033059 | 0.977534333195 | 66.7078013659 | 3006 | 0.516598144084 |
| 25-3-17-5 | 16-8-4-2 | 4 | 0.957268873098 | 0.975658317849 | 43.814965415 | 2008 | 0.668345078282 |
| 5-17-25-3 | 2-64-2-4 | 5 | 0.956413091187 | 0.975228576427 | 42.7014924526 | 5800 | 0.0879617931679 |
| 3-17-5-25 | 4-4-2-32 | 4 | 0.957481214818 | 0.975789868256 | 31.4597792864 | 3560 | 0.430878192806 |
| 5-17-3-5-5 | 2-4-4-4-8 | 8 | 0.957427868236 | 0.97574338017 | 59.7384065151 | 1200 | 0.79207403802 |
| 25-5-3-17 | 4-8-4-8 | 8 | 0.95707619927 | 0.975570536454 | 56.9102158785 | 2304 | 0.622987867279 |
| 5-5-3-17-5 | 2-2-8-8-4 | 6 | 0.955522027775 | 0.974767850348 | 46.5639950037 | 1200 | 0.791282137341 |
| 15-5-17-5 | 8-2-4-16 | 7 | 0.958137029917 | 0.976106161355 | 50.9692766428 | 1946 | 0.678144970768 |
| 3-5-5-5-17 | 2-8-2-2-16 | 5 | 0.957518816026 | 0.975802384892 | 39.2037406921 | 1690 | 0.717119085995 |
| 5-5-5-51 | 4-2-16-8 | 10 | 0.957336658887 | 0.975673120291 | 69.4830788374 | 5180 | 0.182890882941 |
| 3-5-17-5-5 | 2-2-2-32-4 | 8 | 0.958226226307 | 0.976175972452 | 61.6313285351 | 1840 | 0.694424789815 |
| 17-15-5-5 | 2-4-32-4 | 4 | 0.957422882886 | 0.975736397769 | 35.4572083473 | 1096 | 0.807986265698 |
| 5-51-5-5 | 32-4-2-4 | 4 | 0.95656820689 | 0.975306401156 | 34.3959320307 | 1576 | 0.734195359866 |
| 17-5-3-5-5 | 2-2-8-8-4 | 10 | 0.957791219499 | 0.975929853783 | 71.5194289923 | 1280 | 0.779978447847 |
| 17-5-3-5-5 | 8-8-4-2-2 | 4 | 0.952478034629 | 0.973212744552 | 42.9451568365 | 832 | 0.846198940087 |
| 3-17-5-25 | 2-8-4-16 | 5 | 0.958791886198 | 0.976408682811 | 37.5420802355 | 2810 | 0.546023051642 |
| 5-17-15-5 | 2-8-32-2 | 4 | 0.956114147054 | 0.975083149801 | 41.6579854965 | 2544 | 0.585967615198 |
| 5-25-3-17 | 64-2-4-2 | 7 | 0.957162927717 | 0.97560551786 | 55.8256742954 | 2912 | 0.529964220918 |
| 5-5-17-3-5 | 4-8-2-8-2 | 5 | 0.956804536671 | 0.97542406735 | 47.4953188419 | 640 | 0.877499141373 |
| 25-17-15 | 32-8-4 | 4 | 0.958226621377 | 0.976151941072 | 32.6171567917 | 3984 | 0.366114398604 |
| 85-5-15 | 4-16-16 | 5 | 0.956689614602 | 0.975357054252 | 36.4845066071 | 3300 | 0.470466343816 |
| 17-5-25-3 | 4-8-2-16 | 6 | 0.957316550107 | 0.975687890302 | 43.343120718 | 1236 | 0.786519226394 |
| 17-3-5-5-5 | 2-16-8-2-2 | 10 | 0.957522306841 | 0.975794660287 | 92.583657217 | 1420 | 0.758441183015 |
| 85-5-3-5 | 2-4-32-4 | 5 | 0.957607372811 | 0.975832588665 | 41.0049350262 | 1530 | 0.741632767385 |
| 5-5-17-5-3 | 8-4-2-2-8 | 5 | 0.956674918099 | 0.975361283789 | 39.2517337322 | 640 | 0.877442660789 |
| 5-3-85-5 | 2-16-4-8 | 9 | 0.957495738443 | 0.975779226898 | 64.6708776236 | 3942 | 0.372403272007 |
| 3-5-25-17 | 32-4-4-2 | 4 | 0.956498683263 | 0.975265290287 | 36.5614013672 | 1000 | 0.822282499654 |
| 5-3-17-25 | 4-4-16-4 | 9 | 0.957183904606 | 0.975613440286 | 65.4558429718 | 3636 | 0.419169445167 |
| 3-17-25-5 | 8-8-8-2 | 7 | 0.957652612978 | 0.975851771885 | 65.1450638056 | 2590 | 0.579388071621 |
| 5-5-3-17-5 | 2-4-4-16-2 | 9 | 0.957206665977 | 0.975633689223 | 82.0798805714 | 2916 | 0.529367361729 |
| 25-5-17-3 | 16-8-4-2 | 7 | 0.961696597952 | 0.977940838788 | 70.2627296925 | 3598 | 0.4259986995 |
| 5-85-3-5 | 2-2-64-4 | 7 | 0.958135165378 | 0.976105162022 | 50.1929320097 | 2744 | 0.555958877381 |
| 5-17-3-25 | 2-2-16-16 | 5 | 0.957932084838 | 0.975987570942 | 36.129381299 | 2460 | 0.599371190626 |
| 5-5-15-17 | 8-32-2-2 | 9 | 0.956916749935 | 0.975478398662 | 71.2037092924 | 2376 | 0.611911861372 |
| 17-25-3-5 | 2-2-16-16 | 6 | 0.957879447847 | 0.975967438908 | 45.0758680344 | 1272 | 0.781233229921 |
| 17-5-3-5-5 | 4-16-4-2-2 | 5 | 0.953577735901 | 0.973805370154 | 54.1067111731 | 900 | 0.836326964956 |
| 5-5-51-5 | 16-8-2-4 | 10 | 0.956882214339 | 0.975455235256 | 73.165575552 | 2420 | 0.605164777324 |
| 5-51-5-5 | 4-8-8-4 | 7 | 0.957460034861 | 0.975771506271 | 52.1325573683 | 3416 | 0.452911041107 |
| 5-3-5-5-17 | 32-2-2-2-4 | 6 | 0.9546640497 | 0.974321615356 | 44.9241832495 | 1524 | 0.741401436249 |
| 3-5-25-17 | 4-8-16-2 | 9 | 0.95799912384 | 0.976011143912 | 70.8875691175 | 4374 | 0.306352674348 |
| 17-5-15-5 | 4-8-2-16 | 10 | 0.95700409962 | 0.975532488387 | 70.5417804003 | 2180 | 0.641938633535 |
| 5-3-17-5-5 | 2-32-2-4-2 | 7 | 0.956385582044 | 0.975187118854 | 68.9627104759 | 1190 | 0.793152190001 |
| 25-3-17-5 | 16-2-2-16 | 5 | 0.962865603454 | 0.978546420132 | 39.6922740221 | 2600 | 0.579452978196 |
| 25-17-5-3 | 16-8-4-2 | 8 | 0.959221509819 | 0.976661465486 | 80.2450694561 | 4496 | 0.287866179396 |
| 5-3-5-17-5 | 16-2-2-2-8 | 4 | 0.954989018881 | 0.974514756728 | 34.4248703718 | 680 | 0.870566516011 |
| 5-5-15-17 | 4-4-4-16 | 4 | 0.957146781982 | 0.975604204445 | 33.0890401125 | 1488 | 0.747886705431 |
| 3-5-17-25 | 4-4-8-8 | 4 | 0.957847787106 | 0.975952434946 | 31.9975121975 | 1472 | 0.750603104085 |
| 3-5-17-25 | 16-8-4-2 | 4 | 0.95776229972 | 0.975924407886 | 35.7843326807 | 824 | 0.849781394224 |
| 3-17-5-25 | 4-4-32-2 | 4 | 0.958659017807 | 0.976353409082 | 34.8379389763 | 1160 | 0.798695376998 |
| 5-3-17-5-5 | 16-4-2-2-4 | 8 | 0.956714110445 | 0.975386093694 | 62.198791194 | 1248 | 0.784439921941 |
| 17-5-5-15 | 2-16-4-8 | 6 | 0.958145280459 | 0.97613693802 | 45.3631149769 | 1524 | 0.742782790013 |
| 17-5-3-5-5 | 2-8-16-2-2 | 9 | 0.958086474375 | 0.976102912649 | 87.1593802691 | 1278 | 0.780422987572 |
| 25-5-3-17 | 8-4-8-4 | 9 | 0.957354694165 | 0.975679370834 | 66.9968114138 | 2808 | 0.545921304434 |
| 3-5-17-5-5 | 16-2-8-2-2 | 4 | 0.954894536978 | 0.974478429483 | 43.8346009731 | 856 | 0.84363081605 |
| 5-5-17-15 | 8-32-2-2 | 7 | 0.95727199854 | 0.975672749552 | 57.7382544518 | 1848 | 0.692842437211 |
| 5-5-17-3-5 | 2-8-8-2-4 | 10 | 0.955837008492 | 0.974953794398 | 74.7846414089 | 2120 | 0.650733865908 |
| 3-5-5-17-5 | 16-2-4-2-4 | 6 | 0.957742492615 | 0.975918478767 | 47.117219615 | 792 | 0.854674959523 |
| 17-5-15-5 | 8-2-8-8 | 8 | 0.957403470578 | 0.975718817526 | 58.1092998028 | 2448 | 0.601042791596 |
| 5-17-5-3-5 | 2-2-4-16-4 | 8 | 0.958653205244 | 0.976357872396 | 61.7152622938 | 1056 | 0.814627062474 |
| 17-3-5-5-5 | 32-2-4-2-2 | 8 | 0.956096527987 | 0.975082015198 | 78.8546698093 | 4720 | 0.253138938847 |
| 125-17-3 | 2-2-256 | 4 | 0.962505595294 | 0.978156601059 | 31.802652812 | 4208 | 0.332496526195 |
| 25-3-17-5 | 2-16-8-4 | 5 | 0.958105780074 | 0.976112707313 | 40.5160035372 | 1270 | 0.781655744444 |
| 3-5-5-85 | 2-4-64-2 | 7 | 0.957789446178 | 0.975913494393 | 51.40060215 | 3612 | 0.422972389805 |
| 3-17-25-5 | 64-2-2-4 | 6 | 0.95728535507 | 0.975651591115 | 47.3158418179 | 1776 | 0.703846536085 |
| 5-5-17-3-5 | 2-4-32-2-2 | 5 | 0.955026551641 | 0.974529992873 | 51.0998763084 | 2950 | 0.523571015779 |
| 5-85-5-3 | 16-4-4-4 | 9 | 0.957006500595 | 0.975530586737 | 70.8962357283 | 4068 | 0.353027304094 |
| 5-85-5-3 | 16-4-4-4 | 10 | 0.957435989508 | 0.975738602718 | 76.4445962906 | 4520 | 0.283920801262 |
| 425-3-5 | 2-16-32 | 6 | 0.956715588963 | 0.975387061403 | 46.7503787279 | 6348 | 0.00413105108359 |
| 5-5-5-17-3 | 2-8-16-2-2 | 7 | 0.956760957342 | 0.975406844964 | 77.4065006733 | 1190 | 0.793330900571 |
| 5-17-5-5-3 | 2-4-32-2-2 | 10 | 0.956677689792 | 0.975392497311 | 108.174471283 | 2540 | 0.586765525833 |
| 17-5-3-25 | 4-4-16-4 | 8 | 0.957440955063 | 0.975747867749 | 59.2780778408 | 1888 | 0.686773440406 |
| 17-5-5-15 | 8-4-4-8 | 9 | 0.957309200871 | 0.975687958776 | 66.5025807619 | 2664 | 0.567965178826 |
| 5-5-3-5-17 | 8-2-2-2-16 | 6 | 0.955423744692 | 0.974740505038 | 46.0061120749 | 2028 | 0.664658349082 |
| 5-3-85-5 | 4-16-2-8 | 8 | 0.957383131944 | 0.975699489809 | 58.1592871189 | 2224 | 0.635314287404 |
| 15-25-17 | 16-4-16 | 5 | 0.95708014879 | 0.97553870984 | 38.6418363094 | 3060 | 0.507280129117 |
| 17-3-25-5 | 8-2-32-2 | 4 | 0.958667219686 | 0.976415892651 | 41.8523680687 | 3808 | 0.393170132774 |
| 3-5-17-25 | 64-2-2-4 | 10 | 0.957152324635 | 0.975604634323 | 72.3692688465 | 3360 | 0.461403603527 |
| 25-3-85 | 16-16-4 | 6 | 0.956603172037 | 0.975315559258 | 42.0200503826 | 4728 | 0.251975643309 |
| 3-25-5-17 | 8-4-8-4 | 7 | 0.957366842815 | 0.97571513252 | 51.7669090271 | 1624 | 0.727156485428 |
| 17-5-3-5-5 | 4-2-4-2-16 | 5 | 0.954514867915 | 0.974257136392 | 41.3741044998 | 900 | 0.83671495243 |
| 5-5-17-3-5 | 2-8-2-16-2 | 7 | 0.957520248615 | 0.975795509619 | 68.6638771296 | 994 | 0.8236479431 |
| 17-5-5-5-3 | 2-4-2-32-2 | 7 | 0.956599848583 | 0.975322382918 | 76.0868597984 | 1610 | 0.72900567131 |
| 17-5-3-25 | 4-2-64-2 | 9 | 0.957360385281 | 0.97570200275 | 69.7008589983 | 2880 | 0.534914274449 |
| 5-15-5-17 | 4-4-4-16 | 7 | 0.957353572453 | 0.975715321047 | 50.7278673649 | 2604 | 0.577164309909 |
| 5-17-5-3-5 | 2-2-16-8-2 | 9 | 0.957521884522 | 0.975793418581 | 84.1927628517 | 1422 | 0.758134086625 |
| 5-3-5-5-17 | 4-16-4-2-2 | 6 | 0.955766279478 | 0.974920302373 | 49.5812718153 | 792 | 0.853800791866 |
| 5-3-85-5 | 4-16-2-8 | 5 | 0.957573048972 | 0.975820982052 | 39.8591039896 | 1390 | 0.763053740475 |
| 5-3-5-17-5 | 2-2-4-4-16 | 10 | 0.957717303123 | 0.97588182512 | 72.5175294638 | 1840 | 0.694215541478 |
| 17-5-5-15 | 32-8-2-2 | 6 | 0.957867603737 | 0.975966259011 | 50.7143060207 | 3744 | 0.402787016072 |
| 5-17-5-3-5 | 2-8-16-2-2 | 4 | 0.953965254616 | 0.974022000989 | 43.8467586994 | 968 | 0.826123444604 |
| 5-5-85-3 | 4-16-2-8 | 5 | 0.957432347426 | 0.975747943956 | 38.4561771154 | 1470 | 0.750751947467 |
| 3-5-5-5-17 | 16-8-2-2-2 | 9 | 0.95797281743 | 0.97603934367 | 71.1685289145 | 1278 | 0.780372162303 |
| 5-5-5-3-17 | 32-2-4-2-2 | 9 | 0.956575733853 | 0.975306770265 | 71.701923728 | 2070 | 0.658618924861 |
| 5-3-17-25 | 32-4-2-4 | 7 | 0.957049259502 | 0.975540759356 | 51.4852056026 | 2142 | 0.647759064212 |
| 25-3-5-17 | 2-16-8-4 | 6 | 0.957853355763 | 0.97596642308 | 46.3785323143 | 1236 | 0.786743756581 |
| 5-5-5-51 | 4-2-16-8 | 7 | 0.957261007662 | 0.975656956633 | 47.1116270781 | 3626 | 0.420718584123 |
| 3-17-25-5 | 2-8-16-4 | 4 | 0.959133866767 | 0.976575133196 | 34.7139666319 | 2248 | 0.632207933286 |
| 5-5-17-3-5 | 2-2-8-2-16 | 4 | 0.954741291261 | 0.97438236647 | 33.2340137959 | 968 | 0.82642909106 |
| 5-5-85-3 | 4-16-2-8 | 7 | 0.957186277488 | 0.975613511024 | 49.3424276114 | 2058 | 0.660662514054 |
| 3-5-5-5-17 | 2-4-2-16-4 | 8 | 0.957137392074 | 0.975641145341 | 58.3300245285 | 1472 | 0.75036369186 |
| 5-5-15-17 | 8-8-4-4 | 4 | 0.957609600697 | 0.975828730696 | 34.2953801155 | 832 | 0.848473514392 |
| 3-5-17-5-5 | 2-2-8-4-8 | 4 | 0.956371136029 | 0.975235100672 | 32.9722876072 | 848 | 0.845509710026 |
| 5-5-51-5 | 2-8-8-8 | 5 | 0.957946636976 | 0.976023191981 | 38.6703116179 | 2490 | 0.594800015819 |
| 5-3-5-17-5 | 8-8-2-2-4 | 9 | 0.958346223991 | 0.976236232773 | 68.5782078266 | 1152 | 0.799824602945 |
| 5-5-17-3-5 | 4-2-8-8-2 | 6 | 0.954575419178 | 0.974300019799 | 56.5373894215 | 1200 | 0.790902369013 |
| 5-5-3-5-17 | 8-2-2-2-16 | 5 | 0.954984008828 | 0.974515529437 | 39.5787392855 | 1690 | 0.716173373398 |
| 5-3-25-17 | 2-128-2-2 | 4 | 0.957933806543 | 0.976002292543 | 36.2083254576 | 1912 | 0.68327815398 |
| 3-5-17-25 | 2-2-32-8 | 5 | 0.959199031086 | 0.97660108394 | 39.0655273199 | 3800 | 0.394470241748 |
| 17-15-5-5 | 2-32-4-4 | 7 | 0.957185245375 | 0.975610419556 | 53.3440344334 | 3878 | 0.382133210609 |
| 5-3-17-5-5 | 2-4-16-2-4 | 6 | 0.95559985664 | 0.974819288939 | 47.8560578823 | 1944 | 0.677556748123 |
| 3-25-17-5 | 32-2-8-2 | 4 | 0.95695528459 | 0.975502329949 | 42.1800177097 | 1168 | 0.796775001105 |
| 5-3-5-85 | 2-64-2-4 | 10 | 0.9571606792 | 0.97558561642 | 68.980695796 | 5520 | 0.130843247379 |
| 5-5-85-3 | 2-4-2-64 | 6 | 0.957880903974 | 0.975962734264 | 44.3101495266 | 2352 | 0.615889894893 |
| 3-5-17-5-5 | 2-32-2-2-4 | 7 | 0.958359867354 | 0.976248061195 | 55.1225815296 | 1610 | 0.729697570446 |
| 5-5-3-5-17 | 4-2-2-16-4 | 4 | 0.955055444858 | 0.97451113686 | 34.3919373751 | 736 | 0.862002870706 |
| 5-25-17-3 | 4-4-16-4 | 7 | 0.957259744201 | 0.975655941354 | 53.0465009928 | 2828 | 0.542847313566 |
| 5-25-3-17 | 2-8-2-32 | 8 | 0.960986038784 | 0.977578206925 | 53.2189286947 | 6080 | 0.0452369523205 |
| 17-5-15-5 | 2-32-4-4 | 8 | 0.95741362805 | 0.975734146124 | 55.2739283085 | 2192 | 0.640234656194 |
| 25-17-5-3 | 16-2-2-16 | 9 | 0.957602688629 | 0.975833610722 | 66.9841917753 | 4428 | 0.29803106511 |
| 15-5-17-5 | 4-2-8-16 | 6 | 0.957197267772 | 0.975602259811 | 45.6212903023 | 1716 | 0.712993086817 |
| 5-3-17-5-5 | 4-16-4-2-2 | 7 | 0.956657953394 | 0.975345794633 | 69.8265434742 | 1092 | 0.80827479734 |
| 17-5-15-5 | 4-4-4-16 | 10 | 0.957376116344 | 0.975698925331 | 72.4212444782 | 2280 | 0.626743074389 |
| 5-17-5-5-3 | 4-16-2-2-4 | 7 | 0.955678899566 | 0.974855756686 | 58.7282819986 | 2268 | 0.628036485131 |
| 3-5-5-5-17 | 16-8-2-2-2 | 4 | 0.953302569778 | 0.973677379509 | 37.0364143133 | 568 | 0.886924634167 |
| 5-3-17-5-5 | 8-2-2-8-4 | 7 | 0.956017355401 | 0.975046717527 | 55.7780415773 | 980 | 0.825157182911 |
| 17-5-5-15 | 2-8-8-8 | 4 | 0.957582950939 | 0.975816367516 | 34.2670461416 | 936 | 0.832543564379 |
| 17-3-5-25 | 8-32-2-2 | 10 | 0.95727600079 | 0.975660267742 | 77.1312764883 | 2920 | 0.528769603929 |
| 5-15-5-17 | 32-8-2-2 | 8 | 0.957296941305 | 0.975667491941 | 63.4303350925 | 2592 | 0.578972568159 |
| 5-85-5-3 | 4-16-8-2 | 4 | 0.960123908528 | 0.977152331008 | 46.3463112831 | 5704 | 0.102850072801 |
| 17-5-5-5-3 | 64-2-2-2-2 | 4 | 0.954869705173 | 0.9744504072 | 46.9566915751 | 4496 | 0.287214480805 |
| 17-5-5-3-5 | 4-2-2-16-4 | 7 | 0.957883111726 | 0.975975975951 | 56.3473041058 | 1092 | 0.808797032306 |
| 5-3-5-5-17 | 4-16-4-2-2 | 4 | 0.954234129235 | 0.974098068661 | 37.0929584026 | 528 | 0.893419828621 |
| 3-5-17-5-5 | 2-8-8-4-2 | 4 | 0.957398226357 | 0.975711981199 | 43.25771029 | 848 | 0.845923156092 |
| 3-17-5-5-5 | 2-4-8-2-8 | 8 | 0.959240028525 | 0.976668464407 | 58.5513272285 | 1312 | 0.77566626436 |
| 5-5-17-3-5 | 16-2-4-4-2 | 8 | 0.957047681151 | 0.975576257862 | 75.4754250288 | 1440 | 0.755210797263 |
| 17-5-5-5-3 | 4-2-4-2-16 | 4 | 0.956150898961 | 0.975114337599 | 34.3139839172 | 624 | 0.879667851848 |
| 25-17-3-5 | 8-8-8-2 | 10 | 0.957155711783 | 0.975595216764 | 89.5369018078 | 3700 | 0.409367404681 |
| 25-17-5-3 | 8-2-16-4 | 5 | 0.956456021126 | 0.97524844617 | 41.8704379082 | 1630 | 0.725890804247 |
| 5-3-17-5-5 | 8-4-2-2-8 | 5 | 0.955508824791 | 0.97479796075 | 40.7600614071 | 680 | 0.870819511604 |
| 5-5-17-5-3 | 64-2-2-2-2 | 7 | 0.955328699218 | 0.974681586923 | 77.2107249022 | 2660 | 0.567990916928 |
| 25-5-3-17 | 2-16-8-4 | 5 | 0.957398973463 | 0.975727427084 | 39.4423223734 | 1110 | 0.805836063309 |
| 3-5-17-5-5 | 2-16-2-8-2 | 7 | 0.957549703355 | 0.975824771283 | 66.9092590809 | 1190 | 0.793670813977 |
| 5-3-25-17 | 2-8-8-8 | 4 | 0.957617394351 | 0.975849918864 | 32.8934063911 | 1480 | 0.749299663191 |
| 17-25-5-3 | 2-16-4-8 | 10 | 0.957356362957 | 0.975711041456 | 72.0922351837 | 4780 | 0.244119076254 |
| 17-5-5-5-3 | 2-8-16-2-2 | 5 | 0.955612982688 | 0.974837356896 | 54.7657119274 | 850 | 0.844859042643 |
| 25-5-17-3 | 2-2-2-128 | 4 | 0.956624696916 | 0.975324488085 | 32.4569083929 | 1912 | 0.682803637698 |
| 5-15-85 | 8-32-4 | 4 | 0.957178553025 | 0.975626416807 | 31.7938655138 | 3440 | 0.449170750326 |
| 5-5-17-3-5 | 4-2-4-8-4 | 10 | 0.957875964843 | 0.97596978826 | 70.0477700233 | 1420 | 0.758577302091 |
| 5-85-3-5 | 8-2-2-32 | 4 | 0.966410934395 | 0.980294797735 | 34.0060795069 | 1504 | 0.749022111336 |
| 17-3-5-25 | 8-32-2-2 | 5 | 0.957361552857 | 0.97570237525 | 39.7729058027 | 1460 | 0.752247399899 |
| 17-5-5-3-5 | 4-4-2-2-16 | 4 | 0.954876412074 | 0.974478044511 | 33.4458104134 | 736 | 0.861973598901 |
| 5-5-3-17-5 | 2-8-2-4-8 | 6 | 0.955807133004 | 0.974921627538 | 41.9661861658 | 984 | 0.824439606911 |
| 15-5-17-5 | 32-4-4-2 | 5 | 0.956981867118 | 0.975517622006 | 48.7175966978 | 2890 | 0.533282966697 |
| 3-25-5-17 | 2-4-64-2 | 7 | 0.958976665171 | 0.976508481435 | 56.3959448099 | 3220 | 0.483275962185 |
| 25-17-5-3 | 2-2-32-8 | 6 | 0.957603707645 | 0.975826538335 | 45.295507431 | 1608 | 0.72968864443 |
| 3-17-5-5-5 | 2-8-4-8-2 | 10 | 0.958518676732 | 0.976296116751 | 89.2460214853 | 2120 | 0.651629800278 |
| 17-3-5-5-5 | 4-4-2-2-16 | 10 | 0.957800825703 | 0.97593631226 | 68.2090206385 | 1800 | 0.700377824092 |
| 5-5-51-5 | 16-8-2-4 | 7 | 0.956936426704 | 0.975490290693 | 50.3688987017 | 1694 | 0.716277655017 |
| 3-5-5-17-5 | 32-2-2-4-2 | 10 | 0.956697023381 | 0.975370335935 | 88.2132822514 | 1940 | 0.678551755274 |
| 5-17-5-5-3 | 8-2-8-4-2 | 7 | 0.956757227167 | 0.975408237293 | 72.5681105137 | 980 | 0.825463127874 |
| 17-5-15-5 | 16-2-16-2 | 9 | 0.957054577241 | 0.975535411492 | 81.3364237309 | 4788 | 0.242850933025 |
| 3-5-5-17-5 | 2-4-4-2-16 | 8 | 0.959478809274 | 0.976812612719 | 58.1717785597 | 1280 | 0.780683962636 |
| 5-17-25-3 | 64-2-4-2 | 9 | 0.960043504266 | 0.977099822549 | 90.2310850143 | 4140 | 0.342559702494 |
| 25-5-17-3 | 8-2-16-4 | 4 | 0.956846699281 | 0.975445903959 | 35.3066922903 | 1976 | 0.673095926512 |
| 25-3-5-17 | 32-2-8-2 | 7 | 0.96085029287 | 0.977516104752 | 55.6238865376 | 6160 | 0.0329672098073 |
| 3-25-17-5 | 2-32-8-2 | 4 | 0.957150556382 | 0.975575472533 | 41.2309928417 | 3808 | 0.392831723607 |
| 5-5-3-17-5 | 2-2-16-8-2 | 5 | 0.95497092917 | 0.974530434814 | 48.7018260002 | 1070 | 0.810962189284 |
| 17-5-3-25 | 16-16-2-2 | 8 | 0.959185572639 | 0.97662029427 | 56.5312316418 | 3264 | 0.476590703604 |
| 17-5-5-15 | 2-32-4-4 | 9 | 0.957208520615 | 0.975638168362 | 64.664364171 | 2466 | 0.598238368648 |
| 5-5-5-3-17 | 2-4-2-8-8 | 8 | 0.957629305275 | 0.975787914835 | 57.2451629877 | 1600 | 0.730884281308 |
| 15-5-5-17 | 8-2-4-16 | 6 | 0.957566477524 | 0.975793226243 | 43.4134875774 | 2532 | 0.58823111662 |
| 5-5-17-3-5 | 2-16-2-4-4 | 4 | 0.952422239773 | 0.973220261198 | 34.0861835957 | 624 | 0.877959172102 |
| 5-5-5-3-17 | 4-2-8-8-2 | 5 | 0.95638629332 | 0.975229506083 | 42.5866519213 | 640 | 0.877324112531 |
| 5-5-17-15 | 2-16-4-8 | 7 | 0.957799536145 | 0.975923464676 | 50.2036570072 | 1946 | 0.678018043145 |
| 17-3-25-5 | 2-4-8-16 | 9 | 0.957498045853 | 0.975793967811 | 56.9796818972 | 2934 | 0.526699144037 |
| 3-5-17-25 | 4-2-32-4 | 9 | 0.958724479774 | 0.976395424965 | 57.4989826202 | 5994 | 0.0583539853979 |
| 5-3-17-5-5 | 2-2-2-4-32 | 10 | 0.957648474931 | 0.975854550822 | 61.4982109308 | 2300 | 0.623781536408 |
| 3-5-17-25 | 2-8-16-4 | 9 | 0.958203543938 | 0.976105343011 | 57.2062468767 | 3762 | 0.400088354712 |
| 5-5-15-17 | 16-8-2-4 | 9 | 0.957535133389 | 0.975791313165 | 58.3722269297 | 1962 | 0.675477186666 |
| 5-5-17-3-5 | 2-2-16-2-8 | 6 | 0.954567901982 | 0.974308112512 | 36.9848062754 | 2028 | 0.664363508249 |
| 3-17-5-25 | 8-8-2-8 | 6 | 0.957585232345 | 0.975818794332 | 35.0060636044 | 2220 | 0.636004249482 |
| 25-5-17-3 | 4-2-2-64 | 8 | 0.957683566829 | 0.975861730711 | 44.9807956696 | 2688 | 0.564392502138 |
| 85-5-3-5 | 4-2-16-8 | 4 | 0.958833857315 | 0.976487763874 | 27.5289411068 | 1752 | 0.708125950179 |
| 5-17-5-15 | 2-2-64-4 | 7 | 0.957925159978 | 0.975986203682 | 40.1403136969 | 2968 | 0.521597646422 |
| 5-5-17-15 | 2-2-16-16 | 8 | 0.957749609409 | 0.975907872044 | 38.592300272 | 4256 | 0.324384122488 |
