| 1 | 5-15-17-5 | 5-5-5-4 | 1-8-8-8-1 | 0.0 | Adam | 0.8166870 | 0.8166870 | 13.015532 | 1576225.0 |
| 1 | 17-5-5-15 | 5-5-5-4 | 1-8-8-8-1 | 0.0 | Adam | 0.8120535 | 0.8120535 | 12.502455 | 1569985.0 |
| 1 | 5-15-17-5 | 5-5-5-4 | 1-8-8-8-1 | 0.0 | Adagrad | 0.7989765 | 0.7989765 | 11.876237 | 1576225.0 |
| 1 | 17-5-5-15 | 5-5-5-4 | 1-8-8-8-1 | 0.0 | Adagrad | 0.7995959 | 0.7995959 | 12.657429 | 1569985.0 |
| 1 | 5-15-17-5 | 5-5-5-4 | 1-8-8-8-1 | 0.0 | RMSprop | 0.8059288 | 0.8059288 | 12.688585 | 1576225.0 |
| 1 | 17-5-5-15 | 5-5-5-4 | 1-8-8-8-1 | 0.0 | RMSprop | 0.8116563 | 0.8116563 | 11.125254 | 1569985.0 |
| 1 | 5-15-17-5 | 5-5-5-4 | 1-8-8-8-1 | 0.2 | Adam | 0.8025411 | 0.8025412 | 15.014231 | 1576225.0 |
| 1 | 17-5-5-15 | 5-5-5-4 | 1-8-8-8-1 | 0.2 | Adam | 0.8025034 | 0.8025034 | 14.698633 | 1569985.0 |
| 1 | 5-15-17-5 | 5-5-5-4 | 1-8-8-8-1 | 0.2 | Adagrad | 0.7993690 | 0.7993690 | 14.751871 | 1576225.0 |
| 1 | 17-5-5-15 | 5-5-5-4 | 1-8-8-8-1 | 0.2 | Adagrad | 0.7964250 | 0.7964250 | 13.505683 | 1569985.0 |
| 1 | 5-15-17-5 | 5-5-5-4 | 1-8-8-8-1 | 0.2 | RMSprop | 0.7992335 | 0.7992335 | 15.098443 | 1576225.0 |
| 1 | 17-5-5-15 | 5-5-5-4 | 1-8-8-8-1 | 0.2 | RMSprop | 0.8050012 | 0.8050012 | 13.739134 | 1569985.0 |
| 1 | 5-15-17-5 | 5-5-5-4 | 1-8-8-8-1 | 0.4 | Adam | 0.8011287 | 0.8011287 | 17.472735 | 1576225.0 |
| 1 | 17-5-5-15 | 5-5-5-4 | 1-8-8-8-1 | 0.4 | Adam | 0.8044282 | 0.8044282 | 17.342346 | 1569985.0 |
| 1 | 5-15-17-5 | 5-5-5-4 | 1-8-8-8-1 | 0.4 | Adagrad | 0.7953092 | 0.7953092 | 17.275352 | 1576225.0 |
| 1 | 17-5-5-15 | 5-5-5-4 | 1-8-8-8-1 | 0.4 | Adagrad | 0.7990402 | 0.7990402 | 15.626888 | 1569985.0 |
| 1 | 5-15-17-5 | 5-5-5-4 | 1-8-8-8-1 | 0.4 | RMSprop | 0.7885984 | 0.7885984 | 19.414125 | 1576225.0 |
| 1 | 17-5-5-15 | 5-5-5-4 | 1-8-8-8-1 | 0.4 | RMSprop | 0.7941077 | 0.7941077 | 18.166257 | 1569985.0 |
| 1 | 5-15-17-5 | 5-5-5-4 | 1-9-9-9-1 | 0.0 | Adam | 0.8052602 | 0.8052602 | 12.894041 | 1578990.0 |
| 1 | 17-5-5-15 | 5-5-5-4 | 1-9-9-9-1 | 0.0 | Adam | 0.8064025 | 0.8064025 | 13.442645 | 1570980.0 |
| 1 | 5-15-17-5 | 5-5-5-4 | 1-9-9-9-1 | 0.0 | Adagrad | 0.7995870 | 0.7995870 | 15.215833 | 1578990.0 |
| 1 | 17-5-5-15 | 5-5-5-4 | 1-9-9-9-1 | 0.0 | Adagrad | 0.8011600 | 0.8011600 | 12.284646 | 1570980.0 |
| 1 | 5-15-17-5 | 5-5-5-4 | 1-9-9-9-1 | 0.0 | RMSprop | 0.8071341 | 0.8071341 | 12.861299 | 1578990.0 |
| 1 | 17-5-5-15 | 5-5-5-4 | 1-9-9-9-1 | 0.0 | RMSprop | 0.8177628 | 0.8177628 | 10.395315 | 1570980.0 |
| 1 | 5-15-17-5 | 5-5-5-4 | 1-9-9-9-1 | 0.2 | Adam | 0.8057020 | 0.8057020 | 16.203737 | 1578990.0 |
| 1 | 17-5-5-15 | 5-5-5-4 | 1-9-9-9-1 | 0.2 | Adam | 0.8058592 | 0.8058592 | 16.116619 | 1570980.0 |
| 1 | 5-15-17-5 | 5-5-5-4 | 1-9-9-9-1 | 0.2 | Adagrad | nan | nan | 17.523996 | 1578990.0 |
| 1 | 17-5-5-15 | 5-5-5-4 | 1-9-9-9-1 | 0.2 | Adagrad | 0.7967054 | 0.7967054 | 15.048655 | 1570980.0 |
| 1 | 5-15-17-5 | 5-5-5-4 | 1-9-9-9-1 | 0.2 | RMSprop | 0.8008969 | 0.8008969 | 15.183663 | 1578990.0 |
| 1 | 17-5-5-15 | 5-5-5-4 | 1-9-9-9-1 | 0.2 | RMSprop | 0.7939680 | 0.7939680 | 14.294225 | 1570980.0 |
| 1 | 5-15-17-5 | 5-5-5-4 | 1-9-9-9-1 | 0.4 | Adam | 0.7958063 | 0.7958063 | 18.233048 | 1578990.0 |
| 1 | 17-5-5-15 | 5-5-5-4 | 1-9-9-9-1 | 0.4 | Adam | 0.8004878 | 0.8004878 | 16.501910 | 1570980.0 |
| 1 | 5-15-17-5 | 5-5-5-4 | 1-9-9-9-1 | 0.4 | Adagrad | 0.7907137 | 0.7907137 | 18.573740 | 1578990.0 |
| 1 | 17-5-5-15 | 5-5-5-4 | 1-9-9-9-1 | 0.4 | Adagrad | 0.8032891 | 0.8032891 | 15.456786 | 1570980.0 |
| 1 | 5-15-17-5 | 5-5-5-4 | 1-9-9-9-1 | 0.4 | RMSprop | 0.7903791 | 0.7903791 | 19.010368 | 1578990.0 |
| 1 | 17-5-5-15 | 5-5-5-4 | 1-9-9-9-1 | 0.4 | RMSprop | 0.8007834 | 0.8007834 | 16.919126 | 1570980.0 |
| 1 | 5-15-17-5 | 5-5-5-4 | 1-10-10-10-1 | 0.0 | Adam | 0.8053226 | 0.8053225 | 15.097812 | 1582075.0 |
| 1 | 17-5-5-15 | 5-5-5-4 | 1-10-10-10-1 | 0.0 | Adam | 0.8142046 | 0.8142046 | 11.979210 | 1572075.0 |
| 1 | 5-15-17-5 | 5-5-5-4 | 1-10-10-10-1 | 0.0 | Adagrad | 0.8056169 | 0.8056169 | 13.975155 | 1582075.0 |
| 1 | 17-5-5-15 | 5-5-5-4 | 1-10-10-10-1 | 0.0 | Adagrad | 0.8049543 | 0.8049543 | 12.747999 | 1572075.0 |
| 1 | 5-15-17-5 | 5-5-5-4 | 1-10-10-10-1 | 0.0 | RMSprop | 0.8108725 | 0.8108725 | 13.062212 | 1582075.0 |
| 1 | 17-5-5-15 | 5-5-5-4 | 1-10-10-10-1 | 0.0 | RMSprop | 0.8175399 | 0.8175399 | 11.028741 | 1572075.0 |
| 1 | 5-15-17-5 | 5-5-5-4 | 1-10-10-10-1 | 0.2 | Adam | 0.7991383 | 0.7991383 | 16.027069 | 1582075.0 |
| 1 | 17-5-5-15 | 5-5-5-4 | 1-10-10-10-1 | 0.2 | Adam | 0.8009684 | 0.8009684 | 14.330590 | 1572075.0 |
| 1 | 5-15-17-5 | 5-5-5-4 | 1-10-10-10-1 | 0.2 | Adagrad | 0.7976001 | 0.7976001 | 14.449096 | 1582075.0 |
| 1 | 17-5-5-15 | 5-5-5-4 | 1-10-10-10-1 | 0.2 | Adagrad | 0.7977362 | 0.7977362 | 14.260394 | 1572075.0 |
| 1 | 5-15-17-5 | 5-5-5-4 | 1-10-10-10-1 | 0.2 | RMSprop | 0.8007502 | 0.8007502 | 16.082125 | 1582075.0 |
| 1 | 17-5-5-15 | 5-5-5-4 | 1-10-10-10-1 | 0.2 | RMSprop | 0.8040448 | 0.8040448 | 14.449673 | 1572075.0 |
| 1 | 5-15-17-5 | 5-5-5-4 | 1-10-10-10-1 | 0.4 | Adam | 0.7983199 | 0.7983199 | 17.844798 | 1582075.0 |
| 1 | 17-5-5-15 | 5-5-5-4 | 1-10-10-10-1 | 0.4 | Adam | 0.7983366 | 0.7983366 | 18.808312 | 1572075.0 |
| 1 | 5-15-17-5 | 5-5-5-4 | 1-10-10-10-1 | 0.4 | Adagrad | 0.7922355 | 0.7922355 | 17.978913 | 1582075.0 |
| 1 | 17-5-5-15 | 5-5-5-4 | 1-10-10-10-1 | 0.4 | Adagrad | 0.7868639 | 0.7868639 | 17.936906 | 1572075.0 |
| 1 | 5-15-17-5 | 5-5-5-4 | 1-10-10-10-1 | 0.4 | RMSprop | 0.7991062 | 0.7991062 | 17.468241 | 1582075.0 |
| 1 | 17-5-5-15 | 5-5-5-4 | 1-10-10-10-1 | 0.4 | RMSprop | 0.7962762 | 0.7962762 | 18.898962 | 1572075.0 |
| 2 | 5-15-17-5 | 5-5-5-4 | 1-1-1-1-1 | 0.0 | Adam | 0.8368421 | 0.8368421 | 12.528373 | 1315421.0 |
| 2 | 17-5-5-15 | 5-5-5-4 | 1-1-1-1-1 | 0.0 | Adam | 0.8348999 | 0.8348998 | 12.797904 | 1315411.0 |
| 2 | 5-15-17-5 | 5-5-5-4 | 1-1-1-1-1 | 0.0 | Adagrad | nan | nan | 10.823733 | 1315421.0 |
| 2 | 17-5-5-15 | 5-5-5-4 | 1-1-1-1-1 | 0.0 | Adagrad | 0.8274723 | 0.8274724 | 11.193293 | 1315411.0 |
| 2 | 5-15-17-5 | 5-5-5-4 | 1-1-1-1-1 | 0.0 | RMSprop | 0.8289029 | 0.8289029 | 10.733562 | 1315421.0 |
| 2 | 17-5-5-15 | 5-5-5-4 | 1-1-1-1-1 | 0.0 | RMSprop | 0.8303848 | 0.8303848 | 12.366878 | 1315411.0 |
| 2 | 5-15-17-5 | 5-5-5-4 | 1-1-1-1-1 | 0.2 | Adam | 0.8191868 | 0.8191868 | 14.547646 | 1315421.0 |
| 2 | 17-5-5-15 | 5-5-5-4 | 1-1-1-1-1 | 0.2 | Adam | 0.8137516 | 0.8137516 | 15.449645 | 1315411.0 |
| 2 | 5-15-17-5 | 5-5-5-4 | 1-1-1-1-1 | 0.2 | Adagrad | 0.8138757 | 0.8138757 | 12.560970 | 1315421.0 |
| 2 | 17-5-5-15 | 5-5-5-4 | 1-1-1-1-1 | 0.2 | Adagrad | nan | nan | 14.508763 | 1315411.0 |
| 2 | 5-15-17-5 | 5-5-5-4 | 1-1-1-1-1 | 0.2 | RMSprop | 0.8191060 | 0.8191060 | 14.593108 | 1315421.0 |
| 2 | 17-5-5-15 | 5-5-5-4 | 1-1-1-1-1 | 0.2 | RMSprop | 0.8126684 | 0.8126684 | 17.456338 | 1315411.0 |
| 2 | 5-15-17-5 | 5-5-5-4 | 1-1-1-1-1 | 0.4 | Adam | nan | nan | 17.759268 | 1315421.0 |
| 2 | 17-5-5-15 | 5-5-5-4 | 1-1-1-1-1 | 0.4 | Adam | 0.8185793 | 0.8185793 | 17.683773 | 1315411.0 |
| 2 | 5-15-17-5 | 5-5-5-4 | 1-1-1-1-1 | 0.4 | Adagrad | 0.8168255 | 0.8168255 | 15.370507 | 1315421.0 |
| 2 | 17-5-5-15 | 5-5-5-4 | 1-1-1-1-1 | 0.4 | Adagrad | 0.8119950 | 0.8119950 | 15.863152 | 1315411.0 |
| 2 | 5-15-17-5 | 5-5-5-4 | 1-1-1-1-1 | 0.4 | RMSprop | 0.8061333 | 0.8061333 | 17.619147 | 1315421.0 |
| 2 | 17-5-5-15 | 5-5-5-4 | 1-1-1-1-1 | 0.4 | RMSprop | 0.8135903 | 0.8135903 | 17.113755 | 1315411.0 |
