| 3 | 5-15-17-5 | 5-5-5-8 | 1-4-4-4-1 | 0.0 | Adam | nan | nan | 19.375129 | 2132257.0 |
| 3 | 17-5-5-15 | 5-5-5-8 | 1-4-4-4-1 | 0.0 | Adam | 0.8360634 | 0.8360634 | 15.839173 | 2131057.0 |
| 3 | 5-15-17-5 | 5-5-5-8 | 1-4-4-4-1 | 0.0 | Adagrad | 0.8087476 | 0.8087476 | 14.264460 | 2132257.0 |
| 3 | 17-5-5-15 | 5-5-5-8 | 1-4-4-4-1 | 0.0 | Adagrad | nan | nan | 12.769184 | 2131057.0 |
| 3 | 5-15-17-5 | 5-5-5-8 | 1-4-4-4-1 | 0.0 | RMSprop | nan | nan | 15.861210 | 2132257.0 |
| 3 | 17-5-5-15 | 5-5-5-8 | 1-4-4-4-1 | 0.0 | RMSprop | 0.8149814 | 0.8149814 | 15.686247 | 2131057.0 |
| 3 | 5-15-17-5 | 5-5-5-8 | 1-4-4-4-1 | 0.2 | Adam | 0.8035824 | 0.8035824 | 19.939726 | 2132257.0 |
| 3 | 17-5-5-15 | 5-5-5-8 | 1-4-4-4-1 | 0.2 | Adam | nan | nan | 18.960914 | 2131057.0 |
| 3 | 5-15-17-5 | 5-5-5-8 | 1-4-4-4-1 | 0.2 | Adagrad | 0.7946115 | 0.7946115 | 16.539965 | 2132257.0 |
| 3 | 17-5-5-15 | 5-5-5-8 | 1-4-4-4-1 | 0.2 | Adagrad | 0.7968115 | 0.7968115 | 17.894323 | 2131057.0 |
| 3 | 5-15-17-5 | 5-5-5-8 | 1-4-4-4-1 | 0.2 | RMSprop | 0.7952519 | 0.7952519 | 20.771883 | 2132257.0 |
| 3 | 17-5-5-15 | 5-5-5-8 | 1-4-4-4-1 | 0.2 | RMSprop | nan | nan | 19.697173 | 2131057.0 |
| 3 | 5-15-17-5 | 5-5-5-8 | 1-4-4-4-1 | 0.4 | Adam | nan | nan | 23.609030 | 2132257.0 |
| 3 | 17-5-5-15 | 5-5-5-8 | 1-4-4-4-1 | 0.4 | Adam | 0.7892183 | 0.7892183 | 24.209841 | 2131057.0 |
| 3 | 5-15-17-5 | 5-5-5-8 | 1-4-4-4-1 | 0.4 | Adagrad | nan | nan | 23.527200 | 2132257.0 |
| 3 | 17-5-5-15 | 5-5-5-8 | 1-4-4-4-1 | 0.4 | Adagrad | 0.7946974 | 0.7946974 | 24.666371 | 2131057.0 |
| 3 | 5-15-17-5 | 5-5-5-8 | 1-4-4-4-1 | 0.4 | RMSprop | 0.7904532 | 0.7904532 | 25.471056 | 2132257.0 |
| 3 | 17-5-5-15 | 5-5-5-8 | 1-4-4-4-1 | 0.4 | RMSprop | 0.7972243 | 0.7972243 | 24.524843 | 2131057.0 |
| 3 | 5-15-17-5 | 5-5-5-8 | 1-5-5-5-1 | 0.0 | Adam | 0.8265769 | 0.8265769 | 17.797993 | 2134840.0 |
| 3 | 17-5-5-15 | 5-5-5-8 | 1-5-5-5-1 | 0.0 | Adam | 0.8388303 | 0.8388303 | 16.545124 | 2132790.0 |
| 3 | 5-15-17-5 | 5-5-5-8 | 1-5-5-5-1 | 0.0 | Adagrad | 0.8117022 | 0.8117022 | 13.996821 | 2134840.0 |
| 3 | 17-5-5-15 | 5-5-5-8 | 1-5-5-5-1 | 0.0 | Adagrad | 0.8125297 | 0.8125297 | 13.614289 | 2132790.0 |
| 3 | 5-15-17-5 | 5-5-5-8 | 1-5-5-5-1 | 0.0 | RMSprop | nan | nan | 16.474184 | 2134840.0 |
| 3 | 17-5-5-15 | 5-5-5-8 | 1-5-5-5-1 | 0.0 | RMSprop | 0.8127061 | 0.8127061 | 15.171947 | 2132790.0 |
| 3 | 5-15-17-5 | 5-5-5-8 | 1-5-5-5-1 | 0.2 | Adam | nan | nan | 20.166779 | 2134840.0 |
| 3 | 17-5-5-15 | 5-5-5-8 | 1-5-5-5-1 | 0.2 | Adam | 0.8001641 | 0.8001641 | 20.382311 | 2132790.0 |
| 3 | 5-15-17-5 | 5-5-5-8 | 1-5-5-5-1 | 0.2 | Adagrad | 0.7921102 | 0.7921102 | 17.945568 | 2134840.0 |
| 3 | 17-5-5-15 | 5-5-5-8 | 1-5-5-5-1 | 0.2 | Adagrad | 0.7947409 | 0.7947409 | 16.019987 | 2132790.0 |
| 3 | 5-15-17-5 | 5-5-5-8 | 1-5-5-5-1 | 0.2 | RMSprop | 0.7924371 | 0.7924371 | 20.886619 | 2134840.0 |
| 3 | 17-5-5-15 | 5-5-5-8 | 1-5-5-5-1 | 0.2 | RMSprop | 0.7909310 | 0.7909310 | 20.217943 | 2132790.0 |
| 3 | 5-15-17-5 | 5-5-5-8 | 1-5-5-5-1 | 0.4 | Adam | 0.7923043 | 0.7923043 | 23.989728 | 2134840.0 |
| 3 | 17-5-5-15 | 5-5-5-8 | 1-5-5-5-1 | 0.4 | Adam | 0.7885502 | 0.7885502 | 24.744330 | 2132790.0 |
| 3 | 5-15-17-5 | 5-5-5-8 | 1-5-5-5-1 | 0.4 | Adagrad | 0.7880067 | 0.7880067 | 23.489412 | 2134840.0 |
| 3 | 17-5-5-15 | 5-5-5-8 | 1-5-5-5-1 | 0.4 | Adagrad | 0.7932156 | 0.7932156 | 22.536239 | 2132790.0 |
| 3 | 5-15-17-5 | 5-5-5-8 | 1-5-5-5-1 | 0.4 | RMSprop | 0.7917571 | 0.7917571 | 26.142477 | 2134840.0 |
| 3 | 17-5-5-15 | 5-5-5-8 | 1-5-5-5-1 | 0.4 | RMSprop | 0.7919178 | 0.7919178 | 25.976263 | 2132790.0 |
| 3 | 5-15-17-5 | 5-5-5-8 | 1-6-6-6-1 | 0.0 | Adam | 0.8180550 | 0.8180550 | 18.439649 | 2137943.0 |
| 3 | 17-5-5-15 | 5-5-5-8 | 1-6-6-6-1 | 0.0 | Adam | 0.8249178 | 0.8249178 | 16.063923 | 2134823.0 |
| 3 | 5-15-17-5 | 5-5-5-8 | 1-6-6-6-1 | 0.0 | Adagrad | 0.8044142 | 0.8044142 | 15.487787 | 2137943.0 |
| 3 | 17-5-5-15 | 5-5-5-8 | 1-6-6-6-1 | 0.0 | Adagrad | 0.8095950 | 0.8095950 | 13.994213 | 2134823.0 |
| 3 | 5-15-17-5 | 5-5-5-8 | 1-6-6-6-1 | 0.0 | RMSprop | 0.8080416 | 0.8080416 | 18.233474 | 2137943.0 |
| 3 | 17-5-5-15 | 5-5-5-8 | 1-6-6-6-1 | 0.0 | RMSprop | 0.8096761 | 0.8096761 | 16.471410 | 2134823.0 |
| 3 | 5-15-17-5 | 5-5-5-8 | 1-6-6-6-1 | 0.2 | Adam | nan | nan | 20.163687 | 2137943.0 |
| 3 | 17-5-5-15 | 5-5-5-8 | 1-6-6-6-1 | 0.2 | Adam | 0.7992086 | 0.7992086 | 20.280960 | 2134823.0 |
| 3 | 5-15-17-5 | 5-5-5-8 | 1-6-6-6-1 | 0.2 | Adagrad | 0.7866796 | 0.7866796 | 18.806958 | 2137943.0 |
| 3 | 17-5-5-15 | 5-5-5-8 | 1-6-6-6-1 | 0.2 | Adagrad | 0.7962938 | 0.7962938 | 16.993439 | 2134823.0 |
| 3 | 5-15-17-5 | 5-5-5-8 | 1-6-6-6-1 | 0.2 | RMSprop | nan | nan | 22.736997 | 2137943.0 |
| 3 | 17-5-5-15 | 5-5-5-8 | 1-6-6-6-1 | 0.2 | RMSprop | 0.7916360 | 0.7916360 | 21.322941 | 2134823.0 |
| 3 | 5-15-17-5 | 5-5-5-8 | 1-6-6-6-1 | 0.4 | Adam | 0.7923325 | 0.7923325 | 25.773411 | 2137943.0 |
| 3 | 17-5-5-15 | 5-5-5-8 | 1-6-6-6-1 | 0.4 | Adam | 0.7923867 | 0.7923867 | 25.749104 | 2134823.0 |
| 3 | 5-15-17-5 | 5-5-5-8 | 1-6-6-6-1 | 0.4 | Adagrad | 0.7836708 | 0.7836708 | 24.208167 | 2137943.0 |
| 3 | 17-5-5-15 | 5-5-5-8 | 1-6-6-6-1 | 0.4 | Adagrad | 0.7896480 | 0.7896480 | 21.939858 | 2134823.0 |
| 3 | 5-15-17-5 | 5-5-5-8 | 1-6-6-6-1 | 0.4 | RMSprop | 0.7884374 | 0.7884374 | 27.861198 | 2137943.0 |
| 3 | 17-5-5-15 | 5-5-5-8 | 1-6-6-6-1 | 0.4 | RMSprop | 0.7909842 | 0.7909842 | 26.601254 | 2134823.0 |
| 3 | 5-15-17-5 | 5-5-5-8 | 1-7-7-7-1 | 0.0 | Adam | 0.8232058 | 0.8232058 | 19.107256 | 2141566.0 |
| 3 | 17-5-5-15 | 5-5-5-8 | 1-7-7-7-1 | 0.0 | Adam | 0.8277710 | 0.8277710 | 17.173547 | 2137156.0 |
| 3 | 5-15-17-5 | 5-5-5-8 | 1-7-7-7-1 | 0.0 | Adagrad | 0.8009560 | 0.8009560 | 16.285471 | 2141566.0 |
| 3 | 17-5-5-15 | 5-5-5-8 | 1-7-7-7-1 | 0.0 | Adagrad | 0.8080855 | 0.8080855 | 13.588886 | 2137156.0 |
| 3 | 5-15-17-5 | 5-5-5-8 | 1-7-7-7-1 | 0.0 | RMSprop | nan | nan | 18.159182 | 2141566.0 |
| 3 | 17-5-5-15 | 5-5-5-8 | 1-7-7-7-1 | 0.0 | RMSprop | 0.8099614 | 0.8099614 | 16.571429 | 2137156.0 |
| 3 | 5-15-17-5 | 5-5-5-8 | 1-7-7-7-1 | 0.2 | Adam | 0.7995130 | 0.7995130 | 21.600751 | 2141566.0 |
| 3 | 17-5-5-15 | 5-5-5-8 | 1-7-7-7-1 | 0.2 | Adam | 0.7962933 | 0.7962933 | 20.477572 | 2137156.0 |
| 3 | 5-15-17-5 | 5-5-5-8 | 1-7-7-7-1 | 0.2 | Adagrad | 0.7894740 | 0.7894740 | 19.208946 | 2141566.0 |
| 3 | 17-5-5-15 | 5-5-5-8 | 1-7-7-7-1 | 0.2 | Adagrad | 0.7899756 | 0.7899756 | 18.274458 | 2137156.0 |
| 3 | 5-15-17-5 | 5-5-5-8 | 1-7-7-7-1 | 0.2 | RMSprop | 0.7946787 | 0.7946787 | 22.380106 | 2141566.0 |
| 3 | 17-5-5-15 | 5-5-5-8 | 1-7-7-7-1 | 0.2 | RMSprop | 0.7975461 | 0.7975461 | 19.701426 | 2137156.0 |
| 3 | 5-15-17-5 | 5-5-5-8 | 1-7-7-7-1 | 0.4 | Adam | 0.7893229 | 0.7893229 | 27.578664 | 2141566.0 |
| 3 | 17-5-5-15 | 5-5-5-8 | 1-7-7-7-1 | 0.4 | Adam | 0.7882689 | 0.7882689 | 25.269293 | 2137156.0 |
| 3 | 5-15-17-5 | 5-5-5-8 | 1-7-7-7-1 | 0.4 | Adagrad | nan | nan | 22.975053 | 2141566.0 |
| 3 | 17-5-5-15 | 5-5-5-8 | 1-7-7-7-1 | 0.4 | Adagrad | nan | nan | 24.851714 | 2137156.0 |
| 3 | 5-15-17-5 | 5-5-5-8 | 1-7-7-7-1 | 0.4 | RMSprop | 0.7943863 | 0.7943863 | 25.361326 | 2141566.0 |
| 3 | 17-5-5-15 | 5-5-5-8 | 1-7-7-7-1 | 0.4 | RMSprop | 0.7945354 | 0.7945354 | 24.478247 | 2137156.0 |
