| 2 | 5-15-17-5 | 5-5-5-4 | 1-6-6-6-1 | 0.0 | Adam | 0.8026736 | 0.8026736 | 15.749035 | 1323201.0 |
| 2 | 17-5-5-15 | 5-5-5-4 | 1-6-6-6-1 | 0.0 | Adam | 0.8185959 | 0.8185959 | 14.011197 | 1319841.0 |
| 2 | 5-15-17-5 | 5-5-5-4 | 1-6-6-6-1 | 0.0 | Adagrad | 0.8080066 | 0.8080066 | 13.333645 | 1323201.0 |
| 2 | 17-5-5-15 | 5-5-5-4 | 1-6-6-6-1 | 0.0 | Adagrad | 0.8067914 | 0.8067914 | 11.293830 | 1319841.0 |
| 2 | 5-15-17-5 | 5-5-5-4 | 1-6-6-6-1 | 0.0 | RMSprop | 0.8058406 | 0.8058406 | 12.642111 | 1323201.0 |
| 2 | 17-5-5-15 | 5-5-5-4 | 1-6-6-6-1 | 0.0 | RMSprop | 0.8071098 | 0.8071098 | 13.019895 | 1319841.0 |
| 2 | 5-15-17-5 | 5-5-5-4 | 1-6-6-6-1 | 0.2 | Adam | 0.7996692 | 0.7996692 | 17.836741 | 1323201.0 |
| 2 | 17-5-5-15 | 5-5-5-4 | 1-6-6-6-1 | 0.2 | Adam | 0.7998813 | 0.7998813 | 17.284913 | 1319841.0 |
| 2 | 5-15-17-5 | 5-5-5-4 | 1-6-6-6-1 | 0.2 | Adagrad | 0.7867341 | 0.7867341 | 16.993996 | 1323201.0 |
| 2 | 17-5-5-15 | 5-5-5-4 | 1-6-6-6-1 | 0.2 | Adagrad | 0.7950643 | 0.7950643 | 14.500963 | 1319841.0 |
| 2 | 5-15-17-5 | 5-5-5-4 | 1-6-6-6-1 | 0.2 | RMSprop | nan | nan | 16.898922 | 1323201.0 |
| 2 | 17-5-5-15 | 5-5-5-4 | 1-6-6-6-1 | 0.2 | RMSprop | 0.7970329 | 0.7970329 | 15.324637 | 1319841.0 |
| 2 | 5-15-17-5 | 5-5-5-4 | 1-6-6-6-1 | 0.4 | Adam | 0.7939397 | 0.7939397 | 21.753584 | 1323201.0 |
| 2 | 17-5-5-15 | 5-5-5-4 | 1-6-6-6-1 | 0.4 | Adam | 0.7933671 | 0.7933671 | 20.392171 | 1319841.0 |
| 2 | 5-15-17-5 | 5-5-5-4 | 1-6-6-6-1 | 0.4 | Adagrad | 0.7878606 | 0.7878606 | 19.226654 | 1323201.0 |
| 2 | 17-5-5-15 | 5-5-5-4 | 1-6-6-6-1 | 0.4 | Adagrad | nan | nan | 16.694515 | 1319841.0 |
| 2 | 5-15-17-5 | 5-5-5-4 | 1-6-6-6-1 | 0.4 | RMSprop | 0.7939248 | 0.7939248 | 19.765933 | 1323201.0 |
| 2 | 17-5-5-15 | 5-5-5-4 | 1-6-6-6-1 | 0.4 | RMSprop | 0.7950369 | 0.7950369 | 19.540353 | 1319841.0 |
| 2 | 5-15-17-5 | 5-5-5-4 | 1-7-7-7-1 | 0.0 | Adam | 0.8100711 | 0.8100711 | 15.885520 | 1326017.0 |
| 2 | 17-5-5-15 | 5-5-5-4 | 1-7-7-7-1 | 0.0 | Adam | 0.8220804 | 0.8220804 | 13.966615 | 1321327.0 |
| 2 | 5-15-17-5 | 5-5-5-4 | 1-7-7-7-1 | 0.0 | Adagrad | 0.7956253 | 0.7956253 | 13.321797 | 1326017.0 |
| 2 | 17-5-5-15 | 5-5-5-4 | 1-7-7-7-1 | 0.0 | Adagrad | 0.8018059 | 0.8018060 | 12.189432 | 1321327.0 |
| 2 | 5-15-17-5 | 5-5-5-4 | 1-7-7-7-1 | 0.0 | RMSprop | 0.8095276 | 0.8095276 | 14.547351 | 1326017.0 |
| 2 | 17-5-5-15 | 5-5-5-4 | 1-7-7-7-1 | 0.0 | RMSprop | nan | nan | 12.090837 | 1321327.0 |
| 2 | 5-15-17-5 | 5-5-5-4 | 1-7-7-7-1 | 0.2 | Adam | 0.7971777 | 0.7971777 | 18.320917 | 1326017.0 |
| 2 | 17-5-5-15 | 5-5-5-4 | 1-7-7-7-1 | 0.2 | Adam | 0.7944284 | 0.7944284 | 16.064639 | 1321327.0 |
| 2 | 5-15-17-5 | 5-5-5-4 | 1-7-7-7-1 | 0.2 | Adagrad | 0.7900621 | 0.7900621 | 16.290350 | 1326017.0 |
| 2 | 17-5-5-15 | 5-5-5-4 | 1-7-7-7-1 | 0.2 | Adagrad | 0.7972328 | 0.7972328 | 15.194857 | 1321327.0 |
| 2 | 5-15-17-5 | 5-5-5-4 | 1-7-7-7-1 | 0.2 | RMSprop | 0.7886724 | 0.7886724 | 17.941207 | 1326017.0 |
| 2 | 17-5-5-15 | 5-5-5-4 | 1-7-7-7-1 | 0.2 | RMSprop | 0.7964033 | 0.7964033 | 17.016282 | 1321327.0 |
| 2 | 5-15-17-5 | 5-5-5-4 | 1-7-7-7-1 | 0.4 | Adam | 0.7944473 | 0.7944473 | 21.767126 | 1326017.0 |
| 2 | 17-5-5-15 | 5-5-5-4 | 1-7-7-7-1 | 0.4 | Adam | 0.7903239 | 0.7903239 | 20.715922 | 1321327.0 |
| 2 | 5-15-17-5 | 5-5-5-4 | 1-7-7-7-1 | 0.4 | Adagrad | 0.7910348 | 0.7910348 | 19.866531 | 1326017.0 |
| 2 | 17-5-5-15 | 5-5-5-4 | 1-7-7-7-1 | 0.4 | Adagrad | 0.7922235 | 0.7922235 | 17.284837 | 1321327.0 |
| 2 | 5-15-17-5 | 5-5-5-4 | 1-7-7-7-1 | 0.4 | RMSprop | 0.7881664 | 0.7881664 | 20.692577 | 1326017.0 |
| 2 | 17-5-5-15 | 5-5-5-4 | 1-7-7-7-1 | 0.4 | RMSprop | 0.7935598 | 0.7935598 | 17.675131 | 1321327.0 |
| 2 | 5-15-17-5 | 5-5-5-4 | 1-8-8-8-1 | 0.0 | Adam | nan | nan | 13.963871 | 1329253.0 |
| 2 | 17-5-5-15 | 5-5-5-4 | 1-8-8-8-1 | 0.0 | Adam | 0.8168866 | 0.8168866 | 13.003621 | 1323013.0 |
| 2 | 5-15-17-5 | 5-5-5-4 | 1-8-8-8-1 | 0.0 | Adagrad | 0.7973549 | 0.7973549 | 13.942731 | 1329253.0 |
| 2 | 17-5-5-15 | 5-5-5-4 | 1-8-8-8-1 | 0.0 | Adagrad | 0.7956478 | 0.7956478 | 12.180313 | 1323013.0 |
| 2 | 5-15-17-5 | 5-5-5-4 | 1-8-8-8-1 | 0.0 | RMSprop | 0.8007655 | 0.8007655 | 14.179105 | 1329253.0 |
| 2 | 17-5-5-15 | 5-5-5-4 | 1-8-8-8-1 | 0.0 | RMSprop | 0.8081362 | 0.8081362 | 12.983956 | 1323013.0 |
| 2 | 5-15-17-5 | 5-5-5-4 | 1-8-8-8-1 | 0.2 | Adam | 0.7916953 | 0.7916953 | 18.223266 | 1329253.0 |
| 2 | 17-5-5-15 | 5-5-5-4 | 1-8-8-8-1 | 0.2 | Adam | 0.7981888 | 0.7981888 | 15.856160 | 1323013.0 |
| 2 | 5-15-17-5 | 5-5-5-4 | 1-8-8-8-1 | 0.2 | Adagrad | 0.7931199 | 0.7931199 | 14.406507 | 1329253.0 |
| 2 | 17-5-5-15 | 5-5-5-4 | 1-8-8-8-1 | 0.2 | Adagrad | 0.7960089 | 0.7960089 | 14.826826 | 1323013.0 |
| 2 | 5-15-17-5 | 5-5-5-4 | 1-8-8-8-1 | 0.2 | RMSprop | 0.7916349 | 0.7916349 | 17.755206 | 1329253.0 |
| 2 | 17-5-5-15 | 5-5-5-4 | 1-8-8-8-1 | 0.2 | RMSprop | 0.7978543 | 0.7978543 | 15.924874 | 1323013.0 |
| 2 | 5-15-17-5 | 5-5-5-4 | 1-8-8-8-1 | 0.4 | Adam | nan | nan | 19.071927 | 1329253.0 |
| 2 | 17-5-5-15 | 5-5-5-4 | 1-8-8-8-1 | 0.4 | Adam | nan | nan | 18.457970 | 1323013.0 |
| 2 | 5-15-17-5 | 5-5-5-4 | 1-8-8-8-1 | 0.4 | Adagrad | 0.7889911 | 0.7889911 | 18.517550 | 1329253.0 |
| 2 | 17-5-5-15 | 5-5-5-4 | 1-8-8-8-1 | 0.4 | Adagrad | 0.7872634 | 0.7872634 | 18.208325 | 1323013.0 |
| 2 | 5-15-17-5 | 5-5-5-4 | 1-8-8-8-1 | 0.4 | RMSprop | 0.7887533 | 0.7887533 | 20.365452 | 1329253.0 |
| 2 | 17-5-5-15 | 5-5-5-4 | 1-8-8-8-1 | 0.4 | RMSprop | 0.7921545 | 0.7921545 | 17.964790 | 1323013.0 |
| 2 | 5-15-17-5 | 5-5-5-4 | 1-9-9-9-1 | 0.0 | Adam | 0.8065051 | 0.8065051 | 15.708468 | 1332909.0 |
| 2 | 17-5-5-15 | 5-5-5-4 | 1-9-9-9-1 | 0.0 | Adam | 0.8102277 | 0.8102277 | 13.030612 | 1324899.0 |
| 2 | 5-15-17-5 | 5-5-5-4 | 1-9-9-9-1 | 0.0 | Adagrad | 0.7944053 | 0.7944053 | 13.681322 | 1332909.0 |
| 2 | 17-5-5-15 | 5-5-5-4 | 1-9-9-9-1 | 0.0 | Adagrad | 0.7985469 | 0.7985469 | 11.973743 | 1324899.0 |
| 2 | 5-15-17-5 | 5-5-5-4 | 1-9-9-9-1 | 0.0 | RMSprop | 0.8035876 | 0.8035876 | 15.040133 | 1332909.0 |
| 2 | 17-5-5-15 | 5-5-5-4 | 1-9-9-9-1 | 0.0 | RMSprop | 0.8141040 | 0.8141040 | 12.843229 | 1324899.0 |
| 2 | 5-15-17-5 | 5-5-5-4 | 1-9-9-9-1 | 0.2 | Adam | 0.7967706 | 0.7967706 | 18.217596 | 1332909.0 |
| 2 | 17-5-5-15 | 5-5-5-4 | 1-9-9-9-1 | 0.2 | Adam | 0.7996231 | 0.7996231 | 16.159380 | 1324899.0 |
| 2 | 5-15-17-5 | 5-5-5-4 | 1-9-9-9-1 | 0.2 | Adagrad | 0.7955349 | 0.7955350 | 16.247182 | 1332909.0 |
| 2 | 17-5-5-15 | 5-5-5-4 | 1-9-9-9-1 | 0.2 | Adagrad | 0.7943023 | 0.7943023 | 15.595518 | 1324899.0 |
| 2 | 5-15-17-5 | 5-5-5-4 | 1-9-9-9-1 | 0.2 | RMSprop | 0.8013679 | 0.8013679 | 17.341662 | 1332909.0 |
| 2 | 17-5-5-15 | 5-5-5-4 | 1-9-9-9-1 | 0.2 | RMSprop | 0.7994281 | 0.7994281 | 15.993700 | 1324899.0 |
| 2 | 5-15-17-5 | 5-5-5-4 | 1-9-9-9-1 | 0.4 | Adam | 0.7916342 | 0.7916342 | 19.819382 | 1332909.0 |
| 2 | 17-5-5-15 | 5-5-5-4 | 1-9-9-9-1 | 0.4 | Adam | 0.7945859 | 0.7945859 | 16.712161 | 1324899.0 |
| 2 | 5-15-17-5 | 5-5-5-4 | 1-9-9-9-1 | 0.4 | Adagrad | 0.7969999 | 0.7969999 | 14.687975 | 1332909.0 |
| 2 | 17-5-5-15 | 5-5-5-4 | 1-9-9-9-1 | 0.4 | Adagrad | 0.7888086 | 0.7888086 | 16.393908 | 1324899.0 |
| 2 | 5-15-17-5 | 5-5-5-4 | 1-9-9-9-1 | 0.4 | RMSprop | 0.7901549 | 0.7901549 | 17.536566 | 1332909.0 |
| 2 | 17-5-5-15 | 5-5-5-4 | 1-9-9-9-1 | 0.4 | RMSprop | 0.7947874 | 0.7947874 | 15.639852 | 1324899.0 |
