2 5-7-8-9 5-5-5-8 1-8-8-8-1 0.2 Adam 1000
2 5-7-8-9 5-5-5-8 1-9-9-9-1 0.2 Adam 1000
2 5-7-8-9 5-5-5-8 1-10-10-10-1 0.2 Adam 1000
2 7-8-5-9 5-5-5-8 1-1-1-1-1 0.2 Adam 1000
2 7-8-5-9 5-5-5-8 1-2-2-2-1 0.2 Adam 1000
2 7-8-5-9 5-5-5-8 1-3-3-3-1 0.2 Adam 1000
2 7-8-5-9 5-5-5-8 1-4-4-4-1 0.2 Adam 1000
2 7-8-5-9 5-5-5-8 1-5-5-5-1 0.2 Adam 1000
2 7-8-5-9 5-5-5-8 1-6-6-6-1 0.2 Adam 1000
2 7-8-5-9 5-5-5-8 1-7-7-7-1 0.2 Adam 1000
2 7-8-5-9 5-5-5-8 1-8-8-8-1 0.2 Adam 1000
2 7-8-5-9 5-5-5-8 1-9-9-9-1 0.2 Adam 1000
2 7-8-5-9 5-5-5-8 1-10-10-10-1 0.2 Adam 1000
2 5-7-8-9 5-5-5-8 1-1-1-1-1 0.2 Adagrad 1000
2 5-7-8-9 5-5-5-8 1-2-2-2-1 0.2 Adagrad 1000
2 5-7-8-9 5-5-5-8 1-3-3-3-1 0.2 Adagrad 1000
2 5-7-8-9 5-5-5-8 1-4-4-4-1 0.2 Adagrad 1000
2 5-7-8-9 5-5-5-8 1-5-5-5-1 0.2 Adagrad 1000
2 5-7-8-9 5-5-5-8 1-6-6-6-1 0.2 Adagrad 1000
2 5-7-8-9 5-5-5-8 1-7-7-7-1 0.2 Adagrad 1000
2 5-7-8-9 5-5-5-8 1-8-8-8-1 0.2 Adagrad 1000
2 5-7-8-9 5-5-5-8 1-9-9-9-1 0.2 Adagrad 1000
2 5-7-8-9 5-5-5-8 1-10-10-10-1 0.2 Adagrad 1000
2 7-8-5-9 5-5-5-8 1-1-1-1-1 0.2 Adagrad 1000
2 7-8-5-9 5-5-5-8 1-2-2-2-1 0.2 Adagrad 1000
2 7-8-5-9 5-5-5-8 1-3-3-3-1 0.2 Adagrad 1000
2 7-8-5-9 5-5-5-8 1-4-4-4-1 0.2 Adagrad 1000
2 7-8-5-9 5-5-5-8 1-5-5-5-1 0.2 Adagrad 1000
2 7-8-5-9 5-5-5-8 1-6-6-6-1 0.2 Adagrad 1000
2 7-8-5-9 5-5-5-8 1-7-7-7-1 0.2 Adagrad 1000
2 7-8-5-9 5-5-5-8 1-8-8-8-1 0.2 Adagrad 1000
2 7-8-5-9 5-5-5-8 1-9-9-9-1 0.2 Adagrad 1000
2 7-8-5-9 5-5-5-8 1-10-10-10-1 0.2 Adagrad 1000
2 5-7-8-9 5-5-5-8 1-1-1-1-1 0.2 RMSprop 1000
2 5-7-8-9 5-5-5-8 1-2-2-2-1 0.2 RMSprop 1000
2 5-7-8-9 5-5-5-8 1-3-3-3-1 0.2 RMSprop 1000
2 5-7-8-9 5-5-5-8 1-4-4-4-1 0.2 RMSprop 1000
2 5-7-8-9 5-5-5-8 1-5-5-5-1 0.2 RMSprop 1000
2 5-7-8-9 5-5-5-8 1-6-6-6-1 0.2 RMSprop 1000
2 5-7-8-9 5-5-5-8 1-7-7-7-1 0.2 RMSprop 1000
2 5-7-8-9 5-5-5-8 1-8-8-8-1 0.2 RMSprop 1000
2 5-7-8-9 5-5-5-8 1-9-9-9-1 0.2 RMSprop 1000
2 5-7-8-9 5-5-5-8 1-10-10-10-1 0.2 RMSprop 1000
2 7-8-5-9 5-5-5-8 1-1-1-1-1 0.2 RMSprop 1000
2 7-8-5-9 5-5-5-8 1-2-2-2-1 0.2 RMSprop 1000
2 7-8-5-9 5-5-5-8 1-3-3-3-1 0.2 RMSprop 1000
2 7-8-5-9 5-5-5-8 1-4-4-4-1 0.2 RMSprop 1000
2 7-8-5-9 5-5-5-8 1-5-5-5-1 0.2 RMSprop 1000
2 7-8-5-9 5-5-5-8 1-6-6-6-1 0.2 RMSprop 1000
2 7-8-5-9 5-5-5-8 1-7-7-7-1 0.2 RMSprop 1000
2 7-8-5-9 5-5-5-8 1-8-8-8-1 0.2 RMSprop 1000
2 7-8-5-9 5-5-5-8 1-9-9-9-1 0.2 RMSprop 1000
2 7-8-5-9 5-5-5-8 1-10-10-10-1 0.2 RMSprop 1000
2 5-7-8-9 5-5-5-8 1-1-1-1-1 0.4 Adam 1000
2 5-7-8-9 5-5-5-8 1-2-2-2-1 0.4 Adam 1000
2 5-7-8-9 5-5-5-8 1-3-3-3-1 0.4 Adam 1000
2 5-7-8-9 5-5-5-8 1-4-4-4-1 0.4 Adam 1000
2 5-7-8-9 5-5-5-8 1-5-5-5-1 0.4 Adam 1000
2 5-7-8-9 5-5-5-8 1-6-6-6-1 0.4 Adam 1000
2 5-7-8-9 5-5-5-8 1-7-7-7-1 0.4 Adam 1000
2 5-7-8-9 5-5-5-8 1-8-8-8-1 0.4 Adam 1000
2 5-7-8-9 5-5-5-8 1-9-9-9-1 0.4 Adam 1000
2 5-7-8-9 5-5-5-8 1-10-10-10-1 0.4 Adam 1000
2 7-8-5-9 5-5-5-8 1-1-1-1-1 0.4 Adam 1000
