3 5-7-8-9 5-5-5-4 1-4-4-4-1 0.4 Adagrad 500
3 5-7-8-9 5-5-5-4 1-5-5-5-1 0.4 Adagrad 500
3 5-7-8-9 5-5-5-4 1-6-6-6-1 0.4 Adagrad 500
3 5-7-8-9 5-5-5-4 1-7-7-7-1 0.4 Adagrad 500
3 5-7-8-9 5-5-5-4 1-8-8-8-1 0.4 Adagrad 500
3 5-7-8-9 5-5-5-4 1-9-9-9-1 0.4 Adagrad 500
3 5-7-8-9 5-5-5-4 1-10-10-10-1 0.4 Adagrad 500
3 7-8-5-9 5-5-5-4 1-1-1-1-1 0.4 Adagrad 500
3 7-8-5-9 5-5-5-4 1-2-2-2-1 0.4 Adagrad 500
3 7-8-5-9 5-5-5-4 1-3-3-3-1 0.4 Adagrad 500
3 7-8-5-9 5-5-5-4 1-4-4-4-1 0.4 Adagrad 500
3 7-8-5-9 5-5-5-4 1-5-5-5-1 0.4 Adagrad 500
3 7-8-5-9 5-5-5-4 1-6-6-6-1 0.4 Adagrad 500
3 7-8-5-9 5-5-5-4 1-7-7-7-1 0.4 Adagrad 500
3 7-8-5-9 5-5-5-4 1-8-8-8-1 0.4 Adagrad 500
3 7-8-5-9 5-5-5-4 1-9-9-9-1 0.4 Adagrad 500
3 7-8-5-9 5-5-5-4 1-10-10-10-1 0.4 Adagrad 500
3 5-7-8-9 5-5-5-4 1-1-1-1-1 0.4 RMSprop 500
3 5-7-8-9 5-5-5-4 1-2-2-2-1 0.4 RMSprop 500
3 5-7-8-9 5-5-5-4 1-3-3-3-1 0.4 RMSprop 500
3 5-7-8-9 5-5-5-4 1-4-4-4-1 0.4 RMSprop 500
3 5-7-8-9 5-5-5-4 1-5-5-5-1 0.4 RMSprop 500
3 5-7-8-9 5-5-5-4 1-6-6-6-1 0.4 RMSprop 500
3 5-7-8-9 5-5-5-4 1-7-7-7-1 0.4 RMSprop 500
3 5-7-8-9 5-5-5-4 1-8-8-8-1 0.4 RMSprop 500
3 5-7-8-9 5-5-5-4 1-9-9-9-1 0.4 RMSprop 500
3 5-7-8-9 5-5-5-4 1-10-10-10-1 0.4 RMSprop 500
3 7-8-5-9 5-5-5-4 1-1-1-1-1 0.4 RMSprop 500
3 7-8-5-9 5-5-5-4 1-2-2-2-1 0.4 RMSprop 500
3 7-8-5-9 5-5-5-4 1-3-3-3-1 0.4 RMSprop 500
3 7-8-5-9 5-5-5-4 1-4-4-4-1 0.4 RMSprop 500
3 7-8-5-9 5-5-5-4 1-5-5-5-1 0.4 RMSprop 500
3 7-8-5-9 5-5-5-4 1-6-6-6-1 0.4 RMSprop 500
3 7-8-5-9 5-5-5-4 1-7-7-7-1 0.4 RMSprop 500
3 7-8-5-9 5-5-5-4 1-8-8-8-1 0.4 RMSprop 500
3 7-8-5-9 5-5-5-4 1-9-9-9-1 0.4 RMSprop 500
3 7-8-5-9 5-5-5-4 1-10-10-10-1 0.4 RMSprop 500
4 0-0-0-0 5-5-5-4 1-1-1-1-1 0 Adam 500
4 0-0-0-0 5-5-5-4 1-2-2-2-1 0 Adam 500
4 0-0-0-0 5-5-5-4 1-3-3-3-1 0 Adam 500
4 0-0-0-0 5-5-5-4 1-4-4-4-1 0 Adam 500
4 0-0-0-0 5-5-5-4 1-5-5-5-1 0 Adam 500
4 0-0-0-0 5-5-5-4 1-6-6-6-1 0 Adam 500
4 0-0-0-0 5-5-5-4 1-7-7-7-1 0 Adam 500
4 0-0-0-0 5-5-5-4 1-8-8-8-1 0 Adam 500
4 0-0-0-0 5-5-5-4 1-9-9-9-1 0 Adam 500
4 0-0-0-0 5-5-5-4 1-10-10-10-1 0 Adam 500
4 0-0-0-0 5-5-5-4 1-1-1-1-1 0 Adagrad 500
4 0-0-0-0 5-5-5-4 1-2-2-2-1 0 Adagrad 500
4 0-0-0-0 5-5-5-4 1-3-3-3-1 0 Adagrad 500
4 0-0-0-0 5-5-5-4 1-4-4-4-1 0 Adagrad 500
4 0-0-0-0 5-5-5-4 1-5-5-5-1 0 Adagrad 500
4 0-0-0-0 5-5-5-4 1-6-6-6-1 0 Adagrad 500
4 0-0-0-0 5-5-5-4 1-7-7-7-1 0 Adagrad 500
4 0-0-0-0 5-5-5-4 1-8-8-8-1 0 Adagrad 500
4 0-0-0-0 5-5-5-4 1-9-9-9-1 0 Adagrad 500
4 0-0-0-0 5-5-5-4 1-10-10-10-1 0 Adagrad 500
4 0-0-0-0 5-5-5-4 1-1-1-1-1 0 RMSprop 500
4 0-0-0-0 5-5-5-4 1-2-2-2-1 0 RMSprop 500
4 0-0-0-0 5-5-5-4 1-3-3-3-1 0 RMSprop 500
4 0-0-0-0 5-5-5-4 1-4-4-4-1 0 RMSprop 500
4 0-0-0-0 5-5-5-4 1-5-5-5-1 0 RMSprop 500
4 0-0-0-0 5-5-5-4 1-6-6-6-1 0 RMSprop 500
4 0-0-0-0 5-5-5-4 1-7-7-7-1 0 RMSprop 500
