## 50 Meilleurs loss
| Input shape | Output shape | Rank | Loss | Accuracy | Time | Nb param | Val |
|:-----------:|:------------:|:----:|:----:|:--------:|:----:|:--------:|:---:|
| 2-2-14-14 | 5-5-8-4 | 1-7-7-9-1 | 0.071515 | 97.9 | 119.3717 | 8120 | 0.966325 |
| 2-2-14-14 | 5-5-8-4 | 1-7-6-8-1 | 0.072417 | 97.9 | 111.5925 | 6314 | 0.969144 |
| 2-2-14-14 | 5-5-8-4 | 1-5-8-7-1 | 0.073837 | 97.79 | 105.8268 | 7114 | 0.966808 |
| 2-2-14-14 | 5-5-8-4 | 1-9-6-7-1 | 0.074478 | 97.78 | 115.4489 | 5726 | 0.968873 |
| 2-2-14-14 | 5-5-8-4 | 1-4-6-5-1 | 0.074725 | 97.66 | 94.58430 | 3920 | 0.970496 |
| 2-2-14-14 | 5-5-8-4 | 1-8-6-8-1 | 0.075686 | 97.78 | 115.9567 | 6384 | 0.967847 |
| 2-2-14-14 | 5-5-8-4 | 1-9-5-9-1 | 0.076481 | 97.63 | 118.7839 | 6084 | 0.966829 |
| 2-2-14-14 | 5-5-8-4 | 1-4-8-4-1 | 0.076621 | 97.51 | 94.79554 | 4168 | 0.968620 |
| 2-2-14-14 | 5-5-8-4 | 1-3-9-5-1 | 0.076727 | 97.67 | 100.2192 | 5620 | 0.967948 |
| 2-2-14-14 | 5-5-8-4 | 1-5-5-5-1 | 0.076811 | 97.55 | 95.61848 | 3380 | 0.970243 |
| 2-2-14-14 | 5-5-8-4 | 1-4-9-7-1 | 0.076823 | 97.62 | 106.5150 | 7848 | 0.963985 |
| 2-2-14-14 | 5-5-8-4 | 1-9-2-4-1 | 0.078523 | 97.62 | 99.21117 | 1390 | 0.974036 |
| 2-2-14-14 | 5-5-8-4 | 1-3-4-2-1 | 0.078554 | 97.48 | 83.85366 | 1158 | 0.973000 |
| 2-2-14-14 | 5-5-8-4 | 1-5-6-6-1 | 0.078613 | 97.59 | 100.4598 | 4718 | 0.968558 |
| 2-2-14-14 | 5-5-8-4 | 1-2-9-3-1 | 0.078710 | 97.82 | 91.53331 | 3392 | 0.972909 |
| 2-2-14-14 | 5-5-8-4 | 1-3-8-4-1 | 0.078730 | 97.57 | 94.09309 | 4078 | 0.969356 |
| 2-2-14-14 | 5-5-8-4 | 1-7-3-5-1 | 0.078997 | 97.63 | 100.3792 | 2240 | 0.972813 |
| 2-2-14-14 | 5-5-8-4 | 1-8-8-9-1 | 0.079031 | 97.68 | 124.2844 | 9288 | 0.962334 |
| 2-2-14-14 | 5-5-8-4 | 1-9-4-8-1 | 0.079286 | 97.57 | 110.5852 | 4482 | 0.968727 |
| 2-2-14-14 | 5-5-8-4 | 1-3-7-4-1 | 0.079651 | 97.52 | 92.80996 | 3600 | 0.969602 |
| 2-2-14-14 | 5-5-8-4 | 1-7-8-7-1 | 0.079706 | 97.64 | 114.8391 | 7294 | 0.965044 |
| 2-2-14-14 | 5-5-8-4 | 1-8-4-6-1 | 0.080070 | 97.59 | 105.9551 | 3424 | 0.970572 |
| 2-2-14-14 | 5-5-8-4 | 1-9-6-8-1 | 0.080360 | 97.7 | 116.5175 | 6454 | 0.966946 |
| 2-2-14-14 | 5-5-8-4 | 1-8-7-9-1 | 0.080372 | 97.7 | 121.6164 | 8200 | 0.964226 |
| 2-2-14-14 | 5-5-8-4 | 1-5-7-5-1 | 0.080525 | 97.52 | 98.98304 | 4600 | 0.968047 |

## 50 Meilleurs accuracy
| Input shape | Output shape | Rank | Loss | Accuracy | Time | Nb param | Val |
|:-----------:|:------------:|:----:|:----:|:--------:|:----:|:--------:|:---:|
| 2-2-14-14 | 5-5-8-4 | 1-7-6-8-1 | 0.072417 | 97.9 | 111.5925 | 6314 | 0.969144 |
| 2-2-14-14 | 5-5-8-4 | 1-7-7-9-1 | 0.071515 | 97.9 | 119.3717 | 8120 | 0.966325 |
| 2-2-14-14 | 5-5-8-4 | 1-2-9-3-1 | 0.078710 | 97.82 | 91.53331 | 3392 | 0.972909 |
| 2-2-14-14 | 5-5-8-4 | 1-5-8-7-1 | 0.073837 | 97.79 | 105.8268 | 7114 | 0.966808 |
| 2-2-14-14 | 5-5-8-4 | 1-6-7-6-1 | 0.083958 | 97.78 | 106.8515 | 5520 | 0.969194 |
| 2-2-14-14 | 5-5-8-4 | 1-8-6-8-1 | 0.075686 | 97.78 | 115.9567 | 6384 | 0.967847 |
| 2-2-14-14 | 5-5-8-4 | 1-9-6-7-1 | 0.074478 | 97.78 | 115.4489 | 5726 | 0.968873 |
| 2-2-14-14 | 5-5-8-4 | 1-4-7-5-1 | 0.086649 | 97.75 | 96.48956 | 4520 | 0.970455 |
| 2-2-14-14 | 5-5-8-4 | 1-6-9-7-1 | 0.081868 | 97.73 | 112.4758 | 8048 | 0.964759 |
| 2-2-14-14 | 5-5-8-4 | 1-7-5-7-1 | 0.081411 | 97.7 | 108.5774 | 4732 | 0.969628 |
| 2-2-14-14 | 5-5-8-4 | 1-8-7-9-1 | 0.080372 | 97.7 | 121.6164 | 8200 | 0.964226 |
| 2-2-14-14 | 5-5-8-4 | 1-9-6-8-1 | 0.080360 | 97.7 | 116.5175 | 6454 | 0.966946 |
| 2-2-14-14 | 5-5-8-4 | 1-8-8-9-1 | 0.079031 | 97.68 | 124.2844 | 9288 | 0.962334 |
| 2-2-14-14 | 5-5-8-4 | 1-3-9-5-1 | 0.076727 | 97.67 | 100.2192 | 5620 | 0.967948 |
| 2-2-14-14 | 5-5-8-4 | 1-6-3-4-1 | 0.083759 | 97.67 | 91.00216 | 1808 | 0.973884 |
| 2-2-14-14 | 5-5-8-4 | 1-4-6-5-1 | 0.074725 | 97.66 | 94.58430 | 3920 | 0.970496 |
| 2-2-14-14 | 5-5-8-4 | 1-5-9-7-1 | 0.080959 | 97.66 | 109.0000 | 7948 | 0.964224 |
| 2-2-14-14 | 5-5-8-4 | 1-7-8-7-1 | 0.079706 | 97.64 | 114.8391 | 7294 | 0.965044 |
| 2-2-14-14 | 5-5-8-4 | 1-4-6-4-1 | 0.081582 | 97.63 | 91.30666 | 3192 | 0.971331 |
| 2-2-14-14 | 5-5-8-4 | 1-7-3-5-1 | 0.078997 | 97.63 | 100.3792 | 2240 | 0.972813 |
| 2-2-14-14 | 5-5-8-4 | 1-9-5-9-1 | 0.076481 | 97.63 | 118.7839 | 6084 | 0.966829 |
| 2-2-14-14 | 5-5-8-4 | 1-4-9-7-1 | 0.076823 | 97.62 | 106.5150 | 7848 | 0.963985 |
| 2-2-14-14 | 5-5-8-4 | 1-8-4-7-1 | 0.082309 | 97.62 | 107.9269 | 3928 | 0.970086 |
| 2-2-14-14 | 5-5-8-4 | 1-9-2-4-1 | 0.078523 | 97.62 | 99.21117 | 1390 | 0.974036 |
| 2-2-14-14 | 5-5-8-4 | 1-7-8-8-1 | 0.082894 | 97.6 | 128.7151 | 8246 | 0.963168 |

## 50 Meilleurs time
| Input shape | Output shape | Rank | Loss | Accuracy | Time | Nb param | Val |
|:-----------:|:------------:|:----:|:----:|:--------:|:----:|:--------:|:---:|
| 2-2-14-14 | 5-5-8-4 | 1-1-3-1-1 | 0.337737 | 90.18 | 73.70353 | 432 | 0.901178 |
| 2-2-14-14 | 5-5-8-4 | 1-1-1-1-1 | 0.115802 | 96.4 | 73.86394 | 188 | 0.963711 |
| 2-2-14-14 | 5-5-8-4 | 1-1-2-1-1 | 10000 | 9.8 | 74.13737 | 310 | 0.097951 |
| 2-2-14-14 | 5-5-8-4 | 1-2-1-1-1 | 10000 | 9.8 | 75.10465 | 208 | 0.097967 |
| 2-2-14-14 | 5-5-8-4 | 1-1-1-2-1 | 10000 | 9.8 | 75.42180 | 356 | 0.097944 |
| 2-2-14-14 | 5-5-8-4 | 1-1-4-1-1 | 10000 | 9.8 | 75.79711 | 554 | 0.097913 |
| 2-2-14-14 | 5-5-8-4 | 1-2-1-2-1 | 0.172291 | 94.79 | 75.84177 | 376 | 0.947331 |
| 2-2-14-14 | 5-5-8-4 | 1-2-2-2-1 | 0.141959 | 95.69 | 76.31325 | 620 | 0.955954 |
| 2-2-14-14 | 5-5-8-4 | 1-2-2-1-1 | 0.090808 | 97.36 | 76.48862 | 340 | 0.973072 |
| 2-2-14-14 | 5-5-8-4 | 1-1-3-2-1 | 10000 | 9.8 | 76.60470 | 824 | 0.097871 |
| 2-2-14-14 | 5-5-8-4 | 1-1-2-2-1 | 0.136731 | 95.84 | 77.42654 | 590 | 0.957498 |
| 2-2-14-14 | 5-5-8-4 | 1-1-1-3-1 | 0.125090 | 96.38 | 77.71944 | 524 | 0.962994 |
| 2-2-14-14 | 5-5-8-4 | 1-1-2-3-1 | 10000 | 9.8 | 77.76966 | 870 | 0.097864 |
| 2-2-14-14 | 5-5-8-4 | 1-1-5-1-1 | 0.090697 | 97.28 | 77.79543 | 676 | 0.971751 |
| 2-2-14-14 | 5-5-8-4 | 1-2-3-1-1 | 0.130385 | 96.18 | 78.15532 | 472 | 0.961076 |
| 2-2-14-14 | 5-5-8-4 | 1-2-1-3-1 | 10000 | 9.8 | 78.40120 | 544 | 0.097915 |
| 2-2-14-14 | 5-5-8-4 | 1-2-3-2-1 | 10000 | 9.8 | 78.57673 | 864 | 0.097865 |
| 2-2-14-14 | 5-5-8-4 | 1-1-4-2-1 | 0.163373 | 95.06 | 78.58605 | 1058 | 0.948996 |
| 2-2-14-14 | 5-5-8-4 | 1-1-6-1-1 | 10000 | 9.8 | 78.73180 | 798 | 0.097875 |
| 2-2-14-14 | 5-5-8-4 | 1-3-1-1-1 | 0.094368 | 96.99 | 78.73425 | 228 | 0.969547 |
| 2-2-14-14 | 5-5-8-4 | 1-3-1-2-1 | 0.164254 | 95.04 | 78.74925 | 396 | 0.949799 |
| 2-2-14-14 | 5-5-8-4 | 1-1-7-1-1 | 0.093270 | 97.19 | 79.21202 | 920 | 0.970474 |
| 2-2-14-14 | 5-5-8-4 | 1-1-5-2-1 | 10000 | 9.8 | 79.22811 | 1292 | 0.097798 |
| 2-2-14-14 | 5-5-8-4 | 1-2-5-1-1 | 0.174845 | 94.68 | 79.27543 | 736 | 0.945688 |
| 2-2-14-14 | 5-5-8-4 | 1-2-6-1-1 | 10000 | 9.8 | 79.28356 | 868 | 0.097864 |

## 50 Meilleurs val
| Input shape | Output shape | Rank | Loss | Accuracy | Time | Nb param | Val |
|:-----------:|:------------:|:----:|:----:|:--------:|:----:|:--------:|:---:|
| 2-2-14-14 | 5-5-8-4 | 1-9-2-4-1 | 0.078523 | 97.62 | 99.21117 | 1390 | 0.974036 |
| 2-2-14-14 | 5-5-8-4 | 1-6-3-4-1 | 0.083759 | 97.67 | 91.00216 | 1808 | 0.973884 |
| 2-2-14-14 | 5-5-8-4 | 1-3-3-2-1 | 0.093932 | 97.49 | 82.60859 | 904 | 0.973494 |
| 2-2-14-14 | 5-5-8-4 | 1-5-2-2-1 | 0.084383 | 97.44 | 84.60976 | 710 | 0.973296 |
| 2-2-14-14 | 5-5-8-4 | 1-2-2-1-1 | 0.090808 | 97.36 | 76.48862 | 340 | 0.973072 |
| 2-2-14-14 | 5-5-8-4 | 1-3-4-2-1 | 0.078554 | 97.48 | 83.85366 | 1158 | 0.973000 |
| 2-2-14-14 | 5-5-8-4 | 1-2-9-3-1 | 0.078710 | 97.82 | 91.53331 | 3392 | 0.972909 |
| 2-2-14-14 | 5-5-8-4 | 1-7-3-5-1 | 0.078997 | 97.63 | 100.3792 | 2240 | 0.972813 |
| 2-2-14-14 | 5-5-8-4 | 1-6-1-2-1 | 0.089268 | 97.33 | 85.02591 | 456 | 0.972592 |
| 2-2-14-14 | 5-5-8-4 | 1-4-4-3-1 | 0.085333 | 97.51 | 86.28842 | 1712 | 0.972438 |
| 2-2-14-14 | 5-5-8-4 | 1-6-2-3-1 | 0.082555 | 97.4 | 88.38639 | 1020 | 0.972416 |
| 2-2-14-14 | 5-5-8-4 | 1-6-4-4-1 | 0.084644 | 97.59 | 95.81627 | 2316 | 0.972296 |
| 2-2-14-14 | 5-5-8-4 | 1-2-6-2-1 | 0.081112 | 97.47 | 82.46145 | 1596 | 0.972219 |
| 2-2-14-14 | 5-5-8-4 | 1-5-4-3-1 | 0.088454 | 97.46 | 89.53795 | 1762 | 0.971862 |
| 2-2-14-14 | 5-5-8-4 | 1-2-7-2-1 | 0.086162 | 97.47 | 84.84274 | 1840 | 0.971840 |
| 2-2-14-14 | 5-5-8-4 | 1-7-3-4-1 | 0.082784 | 97.47 | 98.70353 | 1848 | 0.971828 |
| 2-2-14-14 | 5-5-8-4 | 1-8-2-4-1 | 0.087327 | 97.39 | 99.30292 | 1360 | 0.971788 |
| 2-2-14-14 | 5-5-8-4 | 1-1-5-1-1 | 0.090697 | 97.28 | 77.79543 | 676 | 0.971751 |
| 2-2-14-14 | 5-5-8-4 | 1-6-3-3-1 | 0.085307 | 97.38 | 89.96908 | 1416 | 0.971601 |
| 2-2-14-14 | 5-5-8-4 | 1-4-6-4-1 | 0.081582 | 97.63 | 91.30666 | 3192 | 0.971331 |
| 2-2-14-14 | 5-5-8-4 | 1-2-5-2-1 | 0.088422 | 97.34 | 82.08715 | 1352 | 0.971301 |
| 2-2-14-14 | 5-5-8-4 | 1-4-5-4-1 | 0.082737 | 97.54 | 91.81799 | 2704 | 0.971194 |
| 2-2-14-14 | 5-5-8-4 | 1-9-1-3-1 | 0.092512 | 97.21 | 97.65044 | 684 | 0.971039 |
| 2-2-14-14 | 5-5-8-4 | 1-9-3-6-1 | 0.085941 | 97.52 | 107.8550 | 2712 | 0.970983 |
| 2-2-14-14 | 5-5-8-4 | 1-3-7-3-1 | 0.087162 | 97.52 | 90.13290 | 2760 | 0.970908 |

## 50 Pires loss
| Input shape | Output shape | Rank | Loss | Accuracy | Time | Nb param | Val |
|:-----------:|:------------:|:----:|:----:|:--------:|:----:|:--------:|:---:|
| 2-2-14-14 | 5-5-8-4 | 1-1-7-3-1 | 1.698222 | 10.1 | 82.00298 | 2600 | 0.100581 |
| 2-2-14-14 | 5-5-8-4 | 1-4-1-8-1 | 4.745422 | 10.09 | 89.99714 | 1424 | 0.100670 |
| 2-2-14-14 | 5-5-8-4 | 1-6-3-7-1 | 4.675477 | 10.32 | 98.02278 | 2984 | 0.102709 |
| 2-2-14-14 | 5-5-8-4 | 1-1-1-2-1 | 10000 | 9.8 | 75.42180 | 356 | 0.097944 |
| 2-2-14-14 | 5-5-8-4 | 1-1-1-9-1 | 10000 | 9.8 | 87.84044 | 1532 | 0.097760 |
| 2-2-14-14 | 5-5-8-4 | 1-1-2-1-1 | 10000 | 9.8 | 74.13737 | 310 | 0.097951 |
| 2-2-14-14 | 5-5-8-4 | 1-1-2-3-1 | 10000 | 9.8 | 77.76966 | 870 | 0.097864 |
| 2-2-14-14 | 5-5-8-4 | 1-1-3-2-1 | 10000 | 9.8 | 76.60470 | 824 | 0.097871 |
| 2-2-14-14 | 5-5-8-4 | 1-1-3-4-1 | 10000 | 9.8 | 80.92392 | 1608 | 0.097748 |
| 2-2-14-14 | 5-5-8-4 | 1-1-3-8-1 | 10000 | 9.8 | 89.54393 | 3176 | 0.097503 |
| 2-2-14-14 | 5-5-8-4 | 1-1-4-1-1 | 10000 | 9.8 | 75.79711 | 554 | 0.097913 |
| 2-2-14-14 | 5-5-8-4 | 1-1-4-3-1 | 10000 | 9.8 | 80.14104 | 1562 | 0.097755 |
| 2-2-14-14 | 5-5-8-4 | 1-1-4-5-1 | 10000 | 9.8 | 84.80940 | 2570 | 0.097598 |
| 2-2-14-14 | 5-5-8-4 | 1-1-4-6-1 | 10000 | 9.8 | 87.27590 | 3074 | 0.097519 |
| 2-2-14-14 | 5-5-8-4 | 1-1-5-2-1 | 10000 | 9.8 | 79.22811 | 1292 | 0.097798 |
| 2-2-14-14 | 5-5-8-4 | 1-1-5-3-1 | 10000 | 9.8 | 81.68606 | 1908 | 0.097701 |
| 2-2-14-14 | 5-5-8-4 | 1-1-5-4-1 | 10000 | 9.8 | 83.76091 | 2524 | 0.097605 |
| 2-2-14-14 | 5-5-8-4 | 1-1-5-6-1 | 10000 | 9.8 | 88.16210 | 3756 | 0.097413 |
| 2-2-14-14 | 5-5-8-4 | 1-1-5-8-1 | 10000 | 9.8 | 93.31540 | 4988 | 0.097220 |
| 2-2-14-14 | 5-5-8-4 | 1-1-6-1-1 | 10000 | 9.8 | 78.73180 | 798 | 0.097875 |
| 2-2-14-14 | 5-5-8-4 | 1-1-6-3-1 | 10000 | 9.8 | 82.23933 | 2254 | 0.097647 |
| 2-2-14-14 | 5-5-8-4 | 1-1-6-4-1 | 10000 | 9.8 | 84.67300 | 2982 | 0.097534 |
| 2-2-14-14 | 5-5-8-4 | 1-1-6-5-1 | 10000 | 9.8 | 87.38537 | 3710 | 0.097420 |
| 2-2-14-14 | 5-5-8-4 | 1-1-6-7-1 | 10000 | 9.8 | 92.43825 | 5166 | 0.097192 |
| 2-2-14-14 | 5-5-8-4 | 1-1-7-2-1 | 10000 | 9.8 | 81.17357 | 1760 | 0.097725 |

## 50 Pires accuracy
| Input shape | Output shape | Rank | Loss | Accuracy | Time | Nb param | Val |
|:-----------:|:------------:|:----:|:----:|:--------:|:----:|:--------:|:---:|
| 2-2-14-14 | 5-5-8-4 | 1-1-1-2-1 | 10000 | 9.8 | 75.42180 | 356 | 0.097944 |
| 2-2-14-14 | 5-5-8-4 | 1-1-1-9-1 | 10000 | 9.8 | 87.84044 | 1532 | 0.097760 |
| 2-2-14-14 | 5-5-8-4 | 1-1-2-1-1 | 10000 | 9.8 | 74.13737 | 310 | 0.097951 |
| 2-2-14-14 | 5-5-8-4 | 1-1-2-3-1 | 10000 | 9.8 | 77.76966 | 870 | 0.097864 |
| 2-2-14-14 | 5-5-8-4 | 1-1-3-2-1 | 10000 | 9.8 | 76.60470 | 824 | 0.097871 |
| 2-2-14-14 | 5-5-8-4 | 1-1-3-4-1 | 10000 | 9.8 | 80.92392 | 1608 | 0.097748 |
| 2-2-14-14 | 5-5-8-4 | 1-1-3-8-1 | 10000 | 9.8 | 89.54393 | 3176 | 0.097503 |
| 2-2-14-14 | 5-5-8-4 | 1-1-4-1-1 | 10000 | 9.8 | 75.79711 | 554 | 0.097913 |
| 2-2-14-14 | 5-5-8-4 | 1-1-4-3-1 | 10000 | 9.8 | 80.14104 | 1562 | 0.097755 |
| 2-2-14-14 | 5-5-8-4 | 1-1-4-5-1 | 10000 | 9.8 | 84.80940 | 2570 | 0.097598 |
| 2-2-14-14 | 5-5-8-4 | 1-1-4-6-1 | 10000 | 9.8 | 87.27590 | 3074 | 0.097519 |
| 2-2-14-14 | 5-5-8-4 | 1-1-5-2-1 | 10000 | 9.8 | 79.22811 | 1292 | 0.097798 |
| 2-2-14-14 | 5-5-8-4 | 1-1-5-3-1 | 10000 | 9.8 | 81.68606 | 1908 | 0.097701 |
| 2-2-14-14 | 5-5-8-4 | 1-1-5-4-1 | 10000 | 9.8 | 83.76091 | 2524 | 0.097605 |
| 2-2-14-14 | 5-5-8-4 | 1-1-5-6-1 | 10000 | 9.8 | 88.16210 | 3756 | 0.097413 |
| 2-2-14-14 | 5-5-8-4 | 1-1-5-8-1 | 10000 | 9.8 | 93.31540 | 4988 | 0.097220 |
| 2-2-14-14 | 5-5-8-4 | 1-1-6-1-1 | 10000 | 9.8 | 78.73180 | 798 | 0.097875 |
| 2-2-14-14 | 5-5-8-4 | 1-1-6-3-1 | 10000 | 9.8 | 82.23933 | 2254 | 0.097647 |
| 2-2-14-14 | 5-5-8-4 | 1-1-6-4-1 | 10000 | 9.8 | 84.67300 | 2982 | 0.097534 |
| 2-2-14-14 | 5-5-8-4 | 1-1-6-5-1 | 10000 | 9.8 | 87.38537 | 3710 | 0.097420 |
| 2-2-14-14 | 5-5-8-4 | 1-1-6-7-1 | 10000 | 9.8 | 92.43825 | 5166 | 0.097192 |
| 2-2-14-14 | 5-5-8-4 | 1-1-7-2-1 | 10000 | 9.8 | 81.17357 | 1760 | 0.097725 |
| 2-2-14-14 | 5-5-8-4 | 1-1-7-5-1 | 10000 | 9.8 | 89.88055 | 4280 | 0.097331 |
| 2-2-14-14 | 5-5-8-4 | 1-1-7-6-1 | 10000 | 9.8 | 92.07964 | 5120 | 0.0972 |
| 2-2-14-14 | 5-5-8-4 | 1-1-7-7-1 | 10000 | 9.8 | 94.88186 | 5960 | 0.097068 |

## 50 Pires time
| Input shape | Output shape | Rank | Loss | Accuracy | Time | Nb param | Val |
|:-----------:|:------------:|:----:|:----:|:--------:|:----:|:--------:|:---:|
| 2-2-14-14 | 5-5-8-4 | 1-9-7-9-1 | 0.085950 | 97.53 | 135.3487 | 8280 | 0.962424 |
| 2-2-14-14 | 5-5-8-4 | 1-9-9-9-1 | 10000 | 9.8 | 132.2961 | 10476 | 0.096363 |
| 2-2-14-14 | 5-5-8-4 | 1-8-6-9-1 | 0.080672 | 97.5 | 130.1863 | 7112 | 0.963944 |
| 2-2-14-14 | 5-5-8-4 | 1-9-8-9-1 | 10000 | 9.8 | 128.7495 | 9378 | 0.096534 |
| 2-2-14-14 | 5-5-8-4 | 1-7-8-8-1 | 0.082894 | 97.6 | 128.7151 | 8246 | 0.963168 |
| 2-2-14-14 | 5-5-8-4 | 1-8-7-8-1 | 10000 | 9.8 | 127.2850 | 7360 | 0.09685 |
| 2-2-14-14 | 5-5-8-4 | 1-9-9-7-1 | 0.180261 | 94.42 | 127.2809 | 8348 | 0.931632 |
| 2-2-14-14 | 5-5-8-4 | 1-8-9-9-1 | 10000 | 9.8 | 125.6060 | 10376 | 0.096378 |
| 2-2-14-14 | 5-5-8-4 | 1-8-8-9-1 | 0.079031 | 97.68 | 124.2844 | 9288 | 0.962334 |
| 2-2-14-14 | 5-5-8-4 | 1-7-9-9-1 | 0.083681 | 97.48 | 123.2749 | 10276 | 0.958828 |
| 2-2-14-14 | 5-5-8-4 | 1-9-9-8-1 | 10000 | 9.8 | 122.5113 | 9412 | 0.096529 |
| 2-2-14-14 | 5-5-8-4 | 1-8-9-8-1 | 0.085745 | 97.51 | 122.3744 | 9312 | 0.960622 |
| 2-2-14-14 | 5-5-8-4 | 1-8-7-9-1 | 0.080372 | 97.7 | 121.6164 | 8200 | 0.964226 |
| 2-2-14-14 | 5-5-8-4 | 1-8-9-7-1 | 0.158471 | 95.34 | 120.7910 | 8248 | 0.940862 |
| 2-2-14-14 | 5-5-8-4 | 1-8-8-8-1 | 0.085979 | 97.58 | 120.7215 | 8336 | 0.962830 |
| 2-2-14-14 | 5-5-8-4 | 1-7-8-9-1 | 0.090338 | 97.18 | 120.5282 | 9198 | 0.957548 |
| 2-2-14-14 | 5-5-8-4 | 1-9-8-8-1 | 10000 | 9.8 | 120.2618 | 8426 | 0.096683 |
| 2-2-14-14 | 5-5-8-4 | 1-7-9-8-1 | 10000 | 9.8 | 120.0422 | 9212 | 0.096560 |
| 2-2-14-14 | 5-5-8-4 | 1-9-7-8-1 | 10000 | 9.8 | 119.9022 | 7440 | 0.096837 |
| 2-2-14-14 | 5-5-8-4 | 1-7-7-9-1 | 0.071515 | 97.9 | 119.3717 | 8120 | 0.966325 |
| 2-2-14-14 | 5-5-8-4 | 1-9-6-9-1 | 10000 | 9.8 | 119.2451 | 7182 | 0.096877 |
| 2-2-14-14 | 5-5-8-4 | 1-6-9-9-1 | 0.090707 | 97.33 | 119.0854 | 10176 | 0.957508 |
| 2-2-14-14 | 5-5-8-4 | 1-9-5-9-1 | 0.076481 | 97.63 | 118.7839 | 6084 | 0.966829 |
| 2-2-14-14 | 5-5-8-4 | 1-9-8-7-1 | 0.161836 | 94.92 | 118.1311 | 7474 | 0.937888 |
| 2-2-14-14 | 5-5-8-4 | 1-8-8-7-1 | 0.166942 | 94.93 | 117.8960 | 7384 | 0.938123 |

## 50 Pires val
| Input shape | Output shape | Rank | Loss | Accuracy | Time | Nb param | Val |
|:-----------:|:------------:|:----:|:----:|:--------:|:----:|:--------:|:---:|
| 2-2-14-14 | 5-5-8-4 | 1-9-9-9-1 | 10000 | 9.8 | 132.2961 | 10476 | 0.096363 |
| 2-2-14-14 | 5-5-8-4 | 1-8-9-9-1 | 10000 | 9.8 | 125.6060 | 10376 | 0.096378 |
| 2-2-14-14 | 5-5-8-4 | 1-5-9-9-1 | 10000 | 9.8 | 113.6087 | 10076 | 0.096425 |
| 2-2-14-14 | 5-5-8-4 | 1-4-9-9-1 | 10000 | 9.8 | 111.4390 | 9976 | 0.096441 |
| 2-2-14-14 | 5-5-8-4 | 1-3-9-9-1 | 10000 | 9.8 | 110.4168 | 9876 | 0.096456 |
| 2-2-14-14 | 5-5-8-4 | 1-2-9-9-1 | 10000 | 9.8 | 106.9678 | 9776 | 0.096472 |
| 2-2-14-14 | 5-5-8-4 | 1-9-9-8-1 | 10000 | 9.8 | 122.5113 | 9412 | 0.096529 |
| 2-2-14-14 | 5-5-8-4 | 1-9-8-9-1 | 10000 | 9.8 | 128.7495 | 9378 | 0.096534 |
| 2-2-14-14 | 5-5-8-4 | 1-7-9-8-1 | 10000 | 9.8 | 120.0422 | 9212 | 0.096560 |
| 2-2-14-14 | 5-5-8-4 | 1-6-8-9-1 | 10000 | 9.8 | 115.2419 | 9108 | 0.096576 |
| 2-2-14-14 | 5-5-8-4 | 1-5-8-9-1 | 10000 | 9.8 | 110.5680 | 9018 | 0.096590 |
| 2-2-14-14 | 5-5-8-4 | 1-4-8-9-1 | 10000 | 9.8 | 108.0529 | 8928 | 0.096605 |
| 2-2-14-14 | 5-5-8-4 | 1-4-9-8-1 | 10000 | 9.8 | 107.3990 | 8912 | 0.096607 |
| 2-2-14-14 | 5-5-8-4 | 1-3-8-9-1 | 10000 | 9.8 | 107.7682 | 8838 | 0.096619 |
| 2-2-14-14 | 5-5-8-4 | 1-3-9-8-1 | 10000 | 9.8 | 107.2080 | 8812 | 0.096623 |
| 2-2-14-14 | 5-5-8-4 | 1-2-8-9-1 | 10000 | 9.8 | 104.5514 | 8748 | 0.096633 |
| 2-2-14-14 | 5-5-8-4 | 1-2-9-8-1 | 10000 | 9.8 | 104.4905 | 8712 | 0.096638 |
| 2-2-14-14 | 5-5-8-4 | 1-1-8-9-1 | 10000 | 9.8 | 102.5368 | 8658 | 0.096647 |
| 2-2-14-14 | 5-5-8-4 | 1-9-8-8-1 | 10000 | 9.8 | 120.2618 | 8426 | 0.096683 |
| 2-2-14-14 | 5-5-8-4 | 1-6-7-9-1 | 10000 | 9.8 | 113.4618 | 8040 | 0.096743 |
| 2-2-14-14 | 5-5-8-4 | 1-4-8-8-1 | 10000 | 9.8 | 105.3104 | 7976 | 0.096753 |
| 2-2-14-14 | 5-5-8-4 | 1-5-7-9-1 | 10000 | 9.8 | 108.6105 | 7960 | 0.096756 |
| 2-2-14-14 | 5-5-8-4 | 1-3-8-8-1 | 10000 | 9.8 | 104.3238 | 7886 | 0.096767 |
| 2-2-14-14 | 5-5-8-4 | 1-4-7-9-1 | 10000 | 9.8 | 105.6866 | 7880 | 0.096768 |
| 2-2-14-14 | 5-5-8-4 | 1-3-7-9-1 | 10000 | 9.8 | 106.3428 | 7800 | 0.096781 |
