Using Theano backend.
INFO (theano.gof.compilelock): Waiting for existing lock by process '8768' (I am process '8883')
INFO (theano.gof.compilelock): To manually release the lock, delete /tmp/pierre-antoine.martrice/theano.NOBACKUP/compiledir_Linux-3.10-el7.x86_64-x86_64-with-centos-7.3.1611-Core-x86_64-2.7.13-64/lock_dir
INFO (theano.gof.compilelock): Waiting for existing lock by process '8768' (I am process '8883')
INFO (theano.gof.compilelock): To manually release the lock, delete /tmp/pierre-antoine.martrice/theano.NOBACKUP/compiledir_Linux-3.10-el7.x86_64-x86_64-with-centos-7.3.1611-Core-x86_64-2.7.13-64/lock_dir
INFO (theano.gof.compilelock): Waiting for existing lock by process '8935' (I am process '8883')
INFO (theano.gof.compilelock): To manually release the lock, delete /tmp/pierre-antoine.martrice/theano.NOBACKUP/compiledir_Linux-3.10-el7.x86_64-x86_64-with-centos-7.3.1611-Core-x86_64-2.7.13-64/lock_dir
INFO (theano.gof.compilelock): Waiting for existing lock by process '8768' (I am process '8883')
INFO (theano.gof.compilelock): To manually release the lock, delete /tmp/pierre-antoine.martrice/theano.NOBACKUP/compiledir_Linux-3.10-el7.x86_64-x86_64-with-centos-7.3.1611-Core-x86_64-2.7.13-64/lock_dir
INFO (theano.gof.compilelock): Waiting for existing lock by process '8768' (I am process '8883')
INFO (theano.gof.compilelock): To manually release the lock, delete /tmp/pierre-antoine.martrice/theano.NOBACKUP/compiledir_Linux-3.10-el7.x86_64-x86_64-with-centos-7.3.1611-Core-x86_64-2.7.13-64/lock_dir
INFO (theano.gof.compilelock): Waiting for existing lock by unknown process (I am process '8883')
INFO (theano.gof.compilelock): To manually release the lock, delete /tmp/pierre-antoine.martrice/theano.NOBACKUP/compiledir_Linux-3.10-el7.x86_64-x86_64-with-centos-7.3.1611-Core-x86_64-2.7.13-64/lock_dir
INFO (theano.gof.compilelock): Waiting for existing lock by process '8771' (I am process '8883')
INFO (theano.gof.compilelock): To manually release the lock, delete /tmp/pierre-antoine.martrice/theano.NOBACKUP/compiledir_Linux-3.10-el7.x86_64-x86_64-with-centos-7.3.1611-Core-x86_64-2.7.13-64/lock_dir
INFO (theano.gof.compilelock): Waiting for existing lock by process '8771' (I am process '8883')
INFO (theano.gof.compilelock): To manually release the lock, delete /tmp/pierre-antoine.martrice/theano.NOBACKUP/compiledir_Linux-3.10-el7.x86_64-x86_64-with-centos-7.3.1611-Core-x86_64-2.7.13-64/lock_dir
INFO (theano.gof.compilelock): Waiting for existing lock by process '8832' (I am process '8883')
INFO (theano.gof.compilelock): To manually release the lock, delete /tmp/pierre-antoine.martrice/theano.NOBACKUP/compiledir_Linux-3.10-el7.x86_64-x86_64-with-centos-7.3.1611-Core-x86_64-2.7.13-64/lock_dir
