Dans l'ordre : 
- 3 première expes sont CNN sans data_augmentation et avec strides de (1,1)
- 3 suivante sont CNN avec strides = taille des filtres


denseLayer - FILE N° 0
x_train shape: (50000, 32, 32, 3)
50000 train samples
10000 test samples
_________________________________________________________________
Layer (type)                 Output Shape              Param #   
=================================================================
conv2d_1 (Conv2D)            (None, 32, 32, 32)        896       
_________________________________________________________________
conv2d_2 (Conv2D)            (None, 30, 30, 32)        9248      
_________________________________________________________________
max_pooling2d_1 (MaxPooling2 (None, 15, 15, 32)        0         
_________________________________________________________________
dropout_1 (Dropout)          (None, 15, 15, 32)        0         
_________________________________________________________________
conv2d_3 (Conv2D)            (None, 15, 15, 64)        18496     
_________________________________________________________________
conv2d_4 (Conv2D)            (None, 13, 13, 64)        36928     
_________________________________________________________________
max_pooling2d_2 (MaxPooling2 (None, 6, 6, 64)          0         
_________________________________________________________________
dropout_2 (Dropout)          (None, 6, 6, 64)          0         
_________________________________________________________________
flatten_1 (Flatten)          (None, 2304)              0         
_________________________________________________________________
dense_1 (Dense)              (None, 512)               1180160   
_________________________________________________________________
activation_1 (Activation)    (None, 512)               0         
_________________________________________________________________
dropout_3 (Dropout)          (None, 512)               0         
_________________________________________________________________
dense_2 (Dense)              (None, 10)                5130      
_________________________________________________________________
activation_2 (Activation)    (None, 10)                0         
=================================================================
Total params: 1,250,858
Trainable params: 1,250,858
Non-trainable params: 0
_________________________________________________________________
Using real-time data augmentation.
Epoch 1/100
1562/1562 [==============================] - 559s - loss: 1.8671 - acc: 0.3144 - val_loss: 1.5313 - val_acc: 0.4541
Epoch 2/100
1562/1562 [==============================] - 579s - loss: 1.5586 - acc: 0.4314 - val_loss: 1.3687 - val_acc: 0.5147
Epoch 3/100
1562/1562 [==============================] - 580s - loss: 1.4318 - acc: 0.4827 - val_loss: 1.2411 - val_acc: 0.5643
Epoch 4/100
1562/1562 [==============================] - 582s - loss: 1.3427 - acc: 0.5178 - val_loss: 1.1815 - val_acc: 0.5801
Epoch 5/100
1562/1562 [==============================] - 582s - loss: 1.2702 - acc: 0.5486 - val_loss: 1.1380 - val_acc: 0.5954
Epoch 6/100
1562/1562 [==============================] - 582s - loss: 1.2124 - acc: 0.5659 - val_loss: 1.0313 - val_acc: 0.6395
Epoch 7/100
1562/1562 [==============================] - 584s - loss: 1.1611 - acc: 0.5882 - val_loss: 1.0091 - val_acc: 0.6479
Epoch 8/100
1562/1562 [==============================] - 582s - loss: 1.1195 - acc: 0.6026 - val_loss: 0.9529 - val_acc: 0.6667
Epoch 9/100
1562/1562 [==============================] - 584s - loss: 1.0773 - acc: 0.6219 - val_loss: 0.9639 - val_acc: 0.6666
Epoch 10/100
1562/1562 [==============================] - 582s - loss: 1.0434 - acc: 0.6297 - val_loss: 0.9424 - val_acc: 0.6720
Epoch 11/100
1562/1562 [==============================] - 583s - loss: 1.0155 - acc: 0.6419 - val_loss: 0.8866 - val_acc: 0.6957
Epoch 12/100
1562/1562 [==============================] - 582s - loss: 0.9843 - acc: 0.6548 - val_loss: 0.8366 - val_acc: 0.7124
Epoch 13/100
1562/1562 [==============================] - 574s - loss: 0.9642 - acc: 0.6620 - val_loss: 0.8921 - val_acc: 0.6980
Epoch 14/100
1562/1562 [==============================] - 575s - loss: 0.9451 - acc: 0.6701 - val_loss: 0.7983 - val_acc: 0.7245
Epoch 15/100
1562/1562 [==============================] - 577s - loss: 0.9238 - acc: 0.6752 - val_loss: 0.7866 - val_acc: 0.7270
Epoch 16/100
1562/1562 [==============================] - 577s - loss: 0.9087 - acc: 0.6825 - val_loss: 0.7704 - val_acc: 0.7355
Epoch 17/100
1562/1562 [==============================] - 578s - loss: 0.8959 - acc: 0.6883 - val_loss: 0.7558 - val_acc: 0.7397
Epoch 18/100
1562/1562 [==============================] - 596s - loss: 0.8805 - acc: 0.6929 - val_loss: 0.8079 - val_acc: 0.7200
Epoch 19/100
1562/1562 [==============================] - 597s - loss: 0.8708 - acc: 0.6959 - val_loss: 0.7485 - val_acc: 0.7403
Epoch 20/100
1562/1562 [==============================] - 597s - loss: 0.8586 - acc: 0.7007 - val_loss: 0.7249 - val_acc: 0.7496
Epoch 21/100
1562/1562 [==============================] - 597s - loss: 0.8506 - acc: 0.7037 - val_loss: 0.7231 - val_acc: 0.7528
Epoch 22/100
1562/1562 [==============================] - 597s - loss: 0.8458 - acc: 0.7061 - val_loss: 0.7248 - val_acc: 0.7505
Epoch 23/100
1562/1562 [==============================] - 599s - loss: 0.8380 - acc: 0.7103 - val_loss: 0.7529 - val_acc: 0.7426
Epoch 24/100
1562/1562 [==============================] - 597s - loss: 0.8322 - acc: 0.7116 - val_loss: 0.7372 - val_acc: 0.7503
Epoch 25/100
1562/1562 [==============================] - 597s - loss: 0.8263 - acc: 0.7118 - val_loss: 0.7081 - val_acc: 0.7559
Epoch 26/100
1562/1562 [==============================] - 598s - loss: 0.8214 - acc: 0.7178 - val_loss: 0.6958 - val_acc: 0.7611
Epoch 27/100
1562/1562 [==============================] - 596s - loss: 0.8153 - acc: 0.7200 - val_loss: 0.6806 - val_acc: 0.7711
Epoch 28/100
1562/1562 [==============================] - 598s - loss: 0.8066 - acc: 0.7234 - val_loss: 0.7003 - val_acc: 0.7624
Epoch 29/100
1562/1562 [==============================] - 597s - loss: 0.8065 - acc: 0.7235 - val_loss: 0.6900 - val_acc: 0.7750
Epoch 30/100
1562/1562 [==============================] - 597s - loss: 0.8030 - acc: 0.7241 - val_loss: 0.6696 - val_acc: 0.7695
Epoch 31/100
1562/1562 [==============================] - 599s - loss: 0.8018 - acc: 0.7255 - val_loss: 0.7104 - val_acc: 0.7530
Epoch 32/100
1562/1562 [==============================] - 590s - loss: 0.7908 - acc: 0.7283 - val_loss: 0.6781 - val_acc: 0.7731
Epoch 33/100
1562/1562 [==============================] - 583s - loss: 0.7969 - acc: 0.7287 - val_loss: 0.6893 - val_acc: 0.7699
Epoch 34/100
1562/1562 [==============================] - 598s - loss: 0.7890 - acc: 0.7304 - val_loss: 0.7050 - val_acc: 0.7621
Epoch 35/100
1562/1562 [==============================] - 600s - loss: 0.7916 - acc: 0.7286 - val_loss: 0.6748 - val_acc: 0.7731
Epoch 36/100
1562/1562 [==============================] - 602s - loss: 0.7809 - acc: 0.7330 - val_loss: 0.7224 - val_acc: 0.7595
Epoch 37/100
1562/1562 [==============================] - 603s - loss: 0.7786 - acc: 0.7351 - val_loss: 0.6619 - val_acc: 0.7818
Epoch 38/100
1562/1562 [==============================] - 600s - loss: 0.7818 - acc: 0.7338 - val_loss: 0.6672 - val_acc: 0.7746
Epoch 39/100
1562/1562 [==============================] - 603s - loss: 0.7740 - acc: 0.7378 - val_loss: 0.6591 - val_acc: 0.7773
Epoch 40/100
1562/1562 [==============================] - 600s - loss: 0.7748 - acc: 0.7358 - val_loss: 0.6905 - val_acc: 0.7705
Epoch 41/100
1562/1562 [==============================] - 600s - loss: 0.7712 - acc: 0.7367 - val_loss: 0.7006 - val_acc: 0.7680
Epoch 42/100
1562/1562 [==============================] - 602s - loss: 0.7697 - acc: 0.7379 - val_loss: 0.6576 - val_acc: 0.7800
Epoch 43/100
1562/1562 [==============================] - 602s - loss: 0.7661 - acc: 0.7402 - val_loss: 0.6994 - val_acc: 0.7628
Epoch 44/100
1562/1562 [==============================] - 588s - loss: 0.7737 - acc: 0.7375 - val_loss: 0.6559 - val_acc: 0.7844
Epoch 45/100
1562/1562 [==============================] - 579s - loss: 0.7668 - acc: 0.7389 - val_loss: 0.6372 - val_acc: 0.7848
Epoch 46/100
1562/1562 [==============================] - 579s - loss: 0.7638 - acc: 0.7411 - val_loss: 0.6387 - val_acc: 0.7877
Epoch 47/100
1562/1562 [==============================] - 580s - loss: 0.7611 - acc: 0.7417 - val_loss: 0.6538 - val_acc: 0.7812
Epoch 48/100
1562/1562 [==============================] - 582s - loss: 0.7656 - acc: 0.7427 - val_loss: 0.6531 - val_acc: 0.7785
Epoch 49/100
1562/1562 [==============================] - 581s - loss: 0.7564 - acc: 0.7433 - val_loss: 0.6503 - val_acc: 0.7859
Epoch 50/100
1562/1562 [==============================] - 580s - loss: 0.7589 - acc: 0.7436 - val_loss: 0.6686 - val_acc: 0.7847
Epoch 51/100
1562/1562 [==============================] - 581s - loss: 0.7607 - acc: 0.7434 - val_loss: 0.6360 - val_acc: 0.7898
Epoch 52/100
1562/1562 [==============================] - 581s - loss: 0.7553 - acc: 0.7451 - val_loss: 0.6544 - val_acc: 0.7745
Epoch 53/100
1562/1562 [==============================] - 583s - loss: 0.7576 - acc: 0.7432 - val_loss: 0.6312 - val_acc: 0.7866
Epoch 54/100
1562/1562 [==============================] - 580s - loss: 0.7547 - acc: 0.7447 - val_loss: 0.6613 - val_acc: 0.7862
Epoch 55/100
1562/1562 [==============================] - 575s - loss: 0.7540 - acc: 0.7468 - val_loss: 0.6490 - val_acc: 0.7861
Epoch 56/100
1562/1562 [==============================] - 563s - loss: 0.7541 - acc: 0.7441 - val_loss: 0.7115 - val_acc: 0.7668
Epoch 57/100
1562/1562 [==============================] - 561s - loss: 0.7563 - acc: 0.7461 - val_loss: 0.6235 - val_acc: 0.7887
Epoch 58/100
1562/1562 [==============================] - 561s - loss: 0.7482 - acc: 0.7470 - val_loss: 0.6867 - val_acc: 0.7843
Epoch 59/100
1562/1562 [==============================] - 562s - loss: 0.7459 - acc: 0.7481 - val_loss: 0.6379 - val_acc: 0.7904
Epoch 60/100
1562/1562 [==============================] - 561s - loss: 0.7467 - acc: 0.7495 - val_loss: 0.6221 - val_acc: 0.7910
Epoch 61/100
1562/1562 [==============================] - 562s - loss: 0.7448 - acc: 0.7497 - val_loss: 0.6397 - val_acc: 0.7894
Epoch 62/100
1562/1562 [==============================] - 562s - loss: 0.7459 - acc: 0.7508 - val_loss: 0.6347 - val_acc: 0.7955
Epoch 63/100
1562/1562 [==============================] - 560s - loss: 0.7501 - acc: 0.7492 - val_loss: 0.6687 - val_acc: 0.7866
Epoch 64/100
1562/1562 [==============================] - 561s - loss: 0.7508 - acc: 0.7476 - val_loss: 0.6566 - val_acc: 0.7850
Epoch 65/100
1562/1562 [==============================] - 561s - loss: 0.7481 - acc: 0.7502 - val_loss: 0.6313 - val_acc: 0.7884
Epoch 66/100
1562/1562 [==============================] - 560s - loss: 0.7443 - acc: 0.7492 - val_loss: 0.6718 - val_acc: 0.7755
Epoch 67/100
1562/1562 [==============================] - 560s - loss: 0.7505 - acc: 0.7484 - val_loss: 0.6685 - val_acc: 0.7910
Epoch 68/100
1562/1562 [==============================] - 561s - loss: 0.7458 - acc: 0.7523 - val_loss: 0.6255 - val_acc: 0.7909
Epoch 69/100
1562/1562 [==============================] - 562s - loss: 0.7431 - acc: 0.7511 - val_loss: 0.6366 - val_acc: 0.7908
Epoch 70/100
1562/1562 [==============================] - 562s - loss: 0.7459 - acc: 0.7516 - val_loss: 0.6107 - val_acc: 0.7953
Epoch 71/100
1562/1562 [==============================] - 582s - loss: 0.7478 - acc: 0.7521 - val_loss: 0.6381 - val_acc: 0.7888
Epoch 72/100
1562/1562 [==============================] - 584s - loss: 0.7487 - acc: 0.7479 - val_loss: 0.6340 - val_acc: 0.7857
Epoch 73/100
1562/1562 [==============================] - 586s - loss: 0.7399 - acc: 0.7532 - val_loss: 0.6320 - val_acc: 0.7920
Epoch 74/100
1562/1562 [==============================] - 586s - loss: 0.7472 - acc: 0.7500 - val_loss: 0.6236 - val_acc: 0.7942
Epoch 75/100
1562/1562 [==============================] - 584s - loss: 0.7474 - acc: 0.7503 - val_loss: 0.6724 - val_acc: 0.7818
Epoch 76/100
1562/1562 [==============================] - 585s - loss: 0.7513 - acc: 0.7497 - val_loss: 0.6598 - val_acc: 0.7921
Epoch 77/100
1562/1562 [==============================] - 584s - loss: 0.7486 - acc: 0.7511 - val_loss: 0.6668 - val_acc: 0.7915
Epoch 78/100
1562/1562 [==============================] - 582s - loss: 0.7491 - acc: 0.7510 - val_loss: 0.6741 - val_acc: 0.7867
Epoch 79/100
1562/1562 [==============================] - 585s - loss: 0.7528 - acc: 0.7505 - val_loss: 0.6566 - val_acc: 0.7799
Epoch 80/100
1562/1562 [==============================] - 585s - loss: 0.7493 - acc: 0.7503 - val_loss: 0.6443 - val_acc: 0.7829
Epoch 81/100
1562/1562 [==============================] - 585s - loss: 0.7506 - acc: 0.7510 - val_loss: 0.7185 - val_acc: 0.7739
Epoch 82/100
1562/1562 [==============================] - 583s - loss: 0.7471 - acc: 0.7519 - val_loss: 0.7086 - val_acc: 0.7671
Epoch 83/100
1562/1562 [==============================] - 585s - loss: 0.7464 - acc: 0.7501 - val_loss: 0.6775 - val_acc: 0.7912
Epoch 84/100
1562/1562 [==============================] - 585s - loss: 0.7478 - acc: 0.7501 - val_loss: 0.6949 - val_acc: 0.7801
Epoch 85/100
1562/1562 [==============================] - 584s - loss: 0.7500 - acc: 0.7509 - val_loss: 0.6642 - val_acc: 0.7855
Epoch 86/100
1562/1562 [==============================] - 585s - loss: 0.7521 - acc: 0.7497 - val_loss: 0.7091 - val_acc: 0.7812
Epoch 87/100
 643/1562 [===========>..................] - ETA: 327s - loss: 0.7382 - acc: 0.7527

denseLayer - FILE N° 1
x_train shape: (50000, 32, 32, 3)
50000 train samples
10000 test samples
_________________________________________________________________
Layer (type)                 Output Shape              Param #   
=================================================================
conv2d_1 (Conv2D)            (None, 32, 32, 32)        896       
_________________________________________________________________
conv2d_2 (Conv2D)            (None, 30, 30, 32)        9248      
_________________________________________________________________
max_pooling2d_1 (MaxPooling2 (None, 15, 15, 32)        0         
_________________________________________________________________
dropout_1 (Dropout)          (None, 15, 15, 32)        0         
_________________________________________________________________
conv2d_3 (Conv2D)            (None, 15, 15, 64)        18496     
_________________________________________________________________
conv2d_4 (Conv2D)            (None, 13, 13, 64)        36928     
_________________________________________________________________
max_pooling2d_2 (MaxPooling2 (None, 6, 6, 64)          0         
_________________________________________________________________
dropout_2 (Dropout)          (None, 6, 6, 64)          0         
_________________________________________________________________
flatten_1 (Flatten)          (None, 2304)              0         
_________________________________________________________________
dense_1 (Dense)              (None, 512)               1180160   
_________________________________________________________________
activation_1 (Activation)    (None, 512)               0         
_________________________________________________________________
dropout_3 (Dropout)          (None, 512)               0         
_________________________________________________________________
dense_2 (Dense)              (None, 10)                5130      
_________________________________________________________________
activation_2 (Activation)    (None, 10)                0         
=================================================================
Total params: 1,250,858
Trainable params: 1,250,858
Non-trainable params: 0
_________________________________________________________________
Using real-time data augmentation.
Epoch 1/100
1562/1562 [==============================] - 561s - loss: 1.8418 - acc: 0.3189 - val_loss: 1.5660 - val_acc: 0.4221
Epoch 2/100
1562/1562 [==============================] - 579s - loss: 1.5611 - acc: 0.4292 - val_loss: 1.4081 - val_acc: 0.4940
Epoch 3/100
1562/1562 [==============================] - 580s - loss: 1.4447 - acc: 0.4790 - val_loss: 1.3009 - val_acc: 0.5450
Epoch 4/100
1562/1562 [==============================] - 582s - loss: 1.3711 - acc: 0.5067 - val_loss: 1.2350 - val_acc: 0.5588
Epoch 5/100
1562/1562 [==============================] - 582s - loss: 1.3139 - acc: 0.5314 - val_loss: 1.1461 - val_acc: 0.5963
Epoch 6/100
1562/1562 [==============================] - 583s - loss: 1.2528 - acc: 0.5549 - val_loss: 1.1092 - val_acc: 0.6102
Epoch 7/100
1562/1562 [==============================] - 584s - loss: 1.1967 - acc: 0.5741 - val_loss: 1.0472 - val_acc: 0.6282
Epoch 8/100
1562/1562 [==============================] - 581s - loss: 1.1472 - acc: 0.5950 - val_loss: 0.9947 - val_acc: 0.6497
Epoch 9/100
1562/1562 [==============================] - 584s - loss: 1.1063 - acc: 0.6084 - val_loss: 0.9826 - val_acc: 0.6526
Epoch 10/100
1562/1562 [==============================] - 582s - loss: 1.0761 - acc: 0.6194 - val_loss: 0.9322 - val_acc: 0.6676
Epoch 11/100
1562/1562 [==============================] - 582s - loss: 1.0485 - acc: 0.6294 - val_loss: 0.9166 - val_acc: 0.6815
Epoch 12/100
1562/1562 [==============================] - 583s - loss: 1.0235 - acc: 0.6397 - val_loss: 0.8805 - val_acc: 0.6899
Epoch 13/100
1562/1562 [==============================] - 582s - loss: 0.9976 - acc: 0.6481 - val_loss: 0.8714 - val_acc: 0.6902
Epoch 14/100
1562/1562 [==============================] - 582s - loss: 0.9772 - acc: 0.6573 - val_loss: 0.8645 - val_acc: 0.6985
Epoch 15/100
1562/1562 [==============================] - 582s - loss: 0.9599 - acc: 0.6628 - val_loss: 0.8243 - val_acc: 0.7119
Epoch 16/100
1562/1562 [==============================] - 573s - loss: 0.9414 - acc: 0.6686 - val_loss: 0.8086 - val_acc: 0.7174
Epoch 17/100
1562/1562 [==============================] - 575s - loss: 0.9235 - acc: 0.6778 - val_loss: 0.7941 - val_acc: 0.7208
Epoch 18/100
1562/1562 [==============================] - 596s - loss: 0.9116 - acc: 0.6795 - val_loss: 0.7726 - val_acc: 0.7296
Epoch 19/100
1562/1562 [==============================] - 597s - loss: 0.8972 - acc: 0.6864 - val_loss: 0.7634 - val_acc: 0.7332
Epoch 20/100
1562/1562 [==============================] - 597s - loss: 0.8864 - acc: 0.6891 - val_loss: 0.7580 - val_acc: 0.7350
Epoch 21/100
1562/1562 [==============================] - 597s - loss: 0.8750 - acc: 0.6944 - val_loss: 0.7755 - val_acc: 0.7369
Epoch 22/100
1562/1562 [==============================] - 597s - loss: 0.8667 - acc: 0.7000 - val_loss: 0.7615 - val_acc: 0.7317
Epoch 23/100
1562/1562 [==============================] - 599s - loss: 0.8563 - acc: 0.7016 - val_loss: 0.7394 - val_acc: 0.7405
Epoch 24/100
1562/1562 [==============================] - 597s - loss: 0.8468 - acc: 0.7049 - val_loss: 0.7384 - val_acc: 0.7464
Epoch 25/100
1562/1562 [==============================] - 597s - loss: 0.8394 - acc: 0.7085 - val_loss: 0.7174 - val_acc: 0.7496
Epoch 26/100
1562/1562 [==============================] - 598s - loss: 0.8310 - acc: 0.7121 - val_loss: 0.7255 - val_acc: 0.7483
Epoch 27/100
1562/1562 [==============================] - 596s - loss: 0.8293 - acc: 0.7122 - val_loss: 0.7087 - val_acc: 0.7555
Epoch 28/100
1562/1562 [==============================] - 598s - loss: 0.8204 - acc: 0.7158 - val_loss: 0.7130 - val_acc: 0.7543
Epoch 29/100
1562/1562 [==============================] - 597s - loss: 0.8136 - acc: 0.7173 - val_loss: 0.7246 - val_acc: 0.7506
Epoch 30/100
1562/1562 [==============================] - 597s - loss: 0.8059 - acc: 0.7211 - val_loss: 0.7293 - val_acc: 0.7558
Epoch 31/100
1562/1562 [==============================] - 599s - loss: 0.8066 - acc: 0.7211 - val_loss: 0.6733 - val_acc: 0.7687
Epoch 32/100
1562/1562 [==============================] - 589s - loss: 0.8024 - acc: 0.7246 - val_loss: 0.6775 - val_acc: 0.7687
Epoch 33/100
1562/1562 [==============================] - 583s - loss: 0.8039 - acc: 0.7236 - val_loss: 0.6791 - val_acc: 0.7707
Epoch 34/100
1562/1562 [==============================] - 599s - loss: 0.7925 - acc: 0.7264 - val_loss: 0.6771 - val_acc: 0.7661
Epoch 35/100
1562/1562 [==============================] - 600s - loss: 0.7912 - acc: 0.7276 - val_loss: 0.6942 - val_acc: 0.7610
Epoch 36/100
1562/1562 [==============================] - 602s - loss: 0.7879 - acc: 0.7297 - val_loss: 0.6898 - val_acc: 0.7712
Epoch 37/100
1562/1562 [==============================] - 603s - loss: 0.7859 - acc: 0.7306 - val_loss: 0.7015 - val_acc: 0.7609
Epoch 38/100
1562/1562 [==============================] - 600s - loss: 0.7785 - acc: 0.7337 - val_loss: 0.6641 - val_acc: 0.7763
Epoch 39/100
1562/1562 [==============================] - 603s - loss: 0.7811 - acc: 0.7306 - val_loss: 0.6593 - val_acc: 0.7815
Epoch 40/100
1562/1562 [==============================] - 600s - loss: 0.7750 - acc: 0.7357 - val_loss: 0.6434 - val_acc: 0.7821
Epoch 41/100
1562/1562 [==============================] - 600s - loss: 0.7800 - acc: 0.7344 - val_loss: 0.6666 - val_acc: 0.7787
Epoch 42/100
1562/1562 [==============================] - 602s - loss: 0.7767 - acc: 0.7357 - val_loss: 0.6796 - val_acc: 0.7723
Epoch 43/100
1562/1562 [==============================] - 599s - loss: 0.7761 - acc: 0.7372 - val_loss: 0.6456 - val_acc: 0.7837
Epoch 44/100
1562/1562 [==============================] - 580s - loss: 0.7700 - acc: 0.7387 - val_loss: 0.7005 - val_acc: 0.7703
Epoch 45/100
1562/1562 [==============================] - 575s - loss: 0.7712 - acc: 0.7369 - val_loss: 0.6711 - val_acc: 0.7709
Epoch 46/100
1562/1562 [==============================] - 577s - loss: 0.7689 - acc: 0.7394 - val_loss: 0.6897 - val_acc: 0.7800
Epoch 47/100
1562/1562 [==============================] - 580s - loss: 0.7712 - acc: 0.7371 - val_loss: 0.6741 - val_acc: 0.7769
Epoch 48/100
1562/1562 [==============================] - 582s - loss: 0.7719 - acc: 0.7366 - val_loss: 0.6464 - val_acc: 0.7851
Epoch 49/100
1562/1562 [==============================] - 581s - loss: 0.7625 - acc: 0.7420 - val_loss: 0.6683 - val_acc: 0.7785
Epoch 50/100
1562/1562 [==============================] - 580s - loss: 0.7651 - acc: 0.7423 - val_loss: 0.6916 - val_acc: 0.7791
Epoch 51/100
1562/1562 [==============================] - 581s - loss: 0.7667 - acc: 0.7392 - val_loss: 0.6683 - val_acc: 0.7830
Epoch 52/100
1562/1562 [==============================] - 581s - loss: 0.7627 - acc: 0.7423 - val_loss: 0.6383 - val_acc: 0.7838
Epoch 53/100
1562/1562 [==============================] - 583s - loss: 0.7651 - acc: 0.7408 - val_loss: 0.6483 - val_acc: 0.7846
Epoch 54/100
1562/1562 [==============================] - 581s - loss: 0.7628 - acc: 0.7415 - val_loss: 0.6233 - val_acc: 0.7954
Epoch 55/100
1562/1562 [==============================] - 575s - loss: 0.7623 - acc: 0.7415 - val_loss: 0.7094 - val_acc: 0.7875
Epoch 56/100
1562/1562 [==============================] - 563s - loss: 0.7657 - acc: 0.7406 - val_loss: 0.6830 - val_acc: 0.7810
Epoch 57/100
1562/1562 [==============================] - 561s - loss: 0.7601 - acc: 0.7438 - val_loss: 0.6364 - val_acc: 0.7863
Epoch 58/100
1562/1562 [==============================] - 561s - loss: 0.7634 - acc: 0.7428 - val_loss: 0.6428 - val_acc: 0.7917
Epoch 59/100
1562/1562 [==============================] - 562s - loss: 0.7666 - acc: 0.7438 - val_loss: 0.6462 - val_acc: 0.7909
Epoch 60/100
1562/1562 [==============================] - 562s - loss: 0.7611 - acc: 0.7433 - val_loss: 0.6268 - val_acc: 0.7936
Epoch 61/100
1562/1562 [==============================] - 562s - loss: 0.7636 - acc: 0.7444 - val_loss: 0.6691 - val_acc: 0.7796
Epoch 62/100
1562/1562 [==============================] - 562s - loss: 0.7694 - acc: 0.7419 - val_loss: 0.6210 - val_acc: 0.7926
Epoch 63/100
1562/1562 [==============================] - 560s - loss: 0.7607 - acc: 0.7433 - val_loss: 0.6737 - val_acc: 0.7775
Epoch 64/100
1562/1562 [==============================] - 561s - loss: 0.7680 - acc: 0.7450 - val_loss: 0.6836 - val_acc: 0.7750
Epoch 65/100
1562/1562 [==============================] - 561s - loss: 0.7650 - acc: 0.7446 - val_loss: 0.6408 - val_acc: 0.7931
Epoch 66/100
1562/1562 [==============================] - 560s - loss: 0.7653 - acc: 0.7449 - val_loss: 0.6448 - val_acc: 0.7921
Epoch 67/100
1562/1562 [==============================] - 560s - loss: 0.7660 - acc: 0.7406 - val_loss: 0.6748 - val_acc: 0.7885
Epoch 68/100
1562/1562 [==============================] - 561s - loss: 0.7637 - acc: 0.7441 - val_loss: 0.6363 - val_acc: 0.7903
Epoch 69/100
1562/1562 [==============================] - 562s - loss: 0.7642 - acc: 0.7473 - val_loss: 0.6806 - val_acc: 0.7881
Epoch 70/100
1562/1562 [==============================] - 562s - loss: 0.7669 - acc: 0.7431 - val_loss: 0.6167 - val_acc: 0.7952
Epoch 71/100
1562/1562 [==============================] - 582s - loss: 0.7689 - acc: 0.7418 - val_loss: 0.6950 - val_acc: 0.7653
Epoch 72/100
1562/1562 [==============================] - 584s - loss: 0.7652 - acc: 0.7465 - val_loss: 0.6562 - val_acc: 0.7954
Epoch 73/100
1562/1562 [==============================] - 586s - loss: 0.7710 - acc: 0.7431 - val_loss: 0.6729 - val_acc: 0.7792
Epoch 74/100
1562/1562 [==============================] - 586s - loss: 0.7629 - acc: 0.7452 - val_loss: 0.6803 - val_acc: 0.7811
Epoch 75/100
1562/1562 [==============================] - 584s - loss: 0.7724 - acc: 0.7445 - val_loss: 0.6921 - val_acc: 0.7816
Epoch 76/100
1562/1562 [==============================] - 585s - loss: 0.7670 - acc: 0.7458 - val_loss: 0.6426 - val_acc: 0.7886
Epoch 77/100
1562/1562 [==============================] - 584s - loss: 0.7748 - acc: 0.7415 - val_loss: 0.6367 - val_acc: 0.7978
Epoch 78/100
1562/1562 [==============================] - 584s - loss: 0.7748 - acc: 0.7436 - val_loss: 0.7184 - val_acc: 0.7655
Epoch 79/100
1562/1562 [==============================] - 585s - loss: 0.7754 - acc: 0.7430 - val_loss: 0.6812 - val_acc: 0.7817
Epoch 80/100
1562/1562 [==============================] - 585s - loss: 0.7736 - acc: 0.7424 - val_loss: 0.6708 - val_acc: 0.7795
Epoch 81/100
1562/1562 [==============================] - 580s - loss: 0.7752 - acc: 0.7419 - val_loss: 0.6171 - val_acc: 0.7962
Epoch 82/100
1562/1562 [==============================] - 581s - loss: 0.7828 - acc: 0.7408 - val_loss: 0.6948 - val_acc: 0.7801
Epoch 83/100
1562/1562 [==============================] - 584s - loss: 0.7783 - acc: 0.7436 - val_loss: 0.6459 - val_acc: 0.7860
Epoch 84/100
1562/1562 [==============================] - 585s - loss: 0.7830 - acc: 0.7406 - val_loss: 0.7651 - val_acc: 0.7473
Epoch 85/100
1562/1562 [==============================] - 584s - loss: 0.7868 - acc: 0.7421 - val_loss: 0.7136 - val_acc: 0.7707
Epoch 86/100
1562/1562 [==============================] - 585s - loss: 0.7862 - acc: 0.7394 - val_loss: 0.6435 - val_acc: 0.7910
Epoch 87/100
 680/1562 [============>.................] - ETA: 313s - loss: 0.7848 - acc: 0.7382

denseLayer - FILE N° 2
x_train shape: (50000, 32, 32, 3)
50000 train samples
10000 test samples
_________________________________________________________________
Layer (type)                 Output Shape              Param #   
=================================================================
conv2d_1 (Conv2D)            (None, 32, 32, 32)        896       
_________________________________________________________________
conv2d_2 (Conv2D)            (None, 30, 30, 32)        9248      
_________________________________________________________________
max_pooling2d_1 (MaxPooling2 (None, 15, 15, 32)        0         
_________________________________________________________________
dropout_1 (Dropout)          (None, 15, 15, 32)        0         
_________________________________________________________________
conv2d_3 (Conv2D)            (None, 15, 15, 64)        18496     
_________________________________________________________________
conv2d_4 (Conv2D)            (None, 13, 13, 64)        36928     
_________________________________________________________________
max_pooling2d_2 (MaxPooling2 (None, 6, 6, 64)          0         
_________________________________________________________________
dropout_2 (Dropout)          (None, 6, 6, 64)          0         
_________________________________________________________________
flatten_1 (Flatten)          (None, 2304)              0         
_________________________________________________________________
dense_1 (Dense)              (None, 512)               1180160   
_________________________________________________________________
activation_1 (Activation)    (None, 512)               0         
_________________________________________________________________
dropout_3 (Dropout)          (None, 512)               0         
_________________________________________________________________
dense_2 (Dense)              (None, 10)                5130      
_________________________________________________________________
activation_2 (Activation)    (None, 10)                0         
=================================================================
Total params: 1,250,858
Trainable params: 1,250,858
Non-trainable params: 0
_________________________________________________________________
Using real-time data augmentation.
Epoch 1/100
1562/1562 [==============================] - 561s - loss: 1.8640 - acc: 0.3132 - val_loss: 1.5300 - val_acc: 0.4455
Epoch 2/100
1562/1562 [==============================] - 579s - loss: 1.5556 - acc: 0.4329 - val_loss: 1.3583 - val_acc: 0.5102
Epoch 3/100
1562/1562 [==============================] - 580s - loss: 1.4297 - acc: 0.4827 - val_loss: 1.2608 - val_acc: 0.5507
Epoch 4/100
1562/1562 [==============================] - 582s - loss: 1.3436 - acc: 0.5200 - val_loss: 1.1870 - val_acc: 0.5801
Epoch 5/100
1562/1562 [==============================] - 582s - loss: 1.2698 - acc: 0.5466 - val_loss: 1.1235 - val_acc: 0.6057
Epoch 6/100
1562/1562 [==============================] - 582s - loss: 1.2074 - acc: 0.5714 - val_loss: 1.0380 - val_acc: 0.6365
Epoch 7/100
1562/1562 [==============================] - 584s - loss: 1.1637 - acc: 0.5886 - val_loss: 1.0521 - val_acc: 0.6272
Epoch 8/100
1562/1562 [==============================] - 581s - loss: 1.1160 - acc: 0.6056 - val_loss: 0.9708 - val_acc: 0.6581
Epoch 9/100
1562/1562 [==============================] - 584s - loss: 1.0854 - acc: 0.6153 - val_loss: 0.9125 - val_acc: 0.6774
Epoch 10/100
1562/1562 [==============================] - 581s - loss: 1.0502 - acc: 0.6303 - val_loss: 0.9043 - val_acc: 0.6844
Epoch 11/100
1562/1562 [==============================] - 583s - loss: 1.0225 - acc: 0.6410 - val_loss: 0.8639 - val_acc: 0.6970
Epoch 12/100
1562/1562 [==============================] - 583s - loss: 0.9976 - acc: 0.6482 - val_loss: 0.8532 - val_acc: 0.7059
Epoch 13/100
1562/1562 [==============================] - 582s - loss: 0.9721 - acc: 0.6598 - val_loss: 0.8608 - val_acc: 0.7046
Epoch 14/100
1562/1562 [==============================] - 580s - loss: 0.9469 - acc: 0.6657 - val_loss: 0.7983 - val_acc: 0.7213
Epoch 15/100
1562/1562 [==============================] - 577s - loss: 0.9311 - acc: 0.6734 - val_loss: 0.7942 - val_acc: 0.7256
Epoch 16/100
1562/1562 [==============================] - 577s - loss: 0.9154 - acc: 0.6788 - val_loss: 0.7837 - val_acc: 0.7257
Epoch 17/100
1562/1562 [==============================] - 579s - loss: 0.9017 - acc: 0.6868 - val_loss: 0.7471 - val_acc: 0.7401
Epoch 18/100
1562/1562 [==============================] - 597s - loss: 0.8815 - acc: 0.6914 - val_loss: 0.7477 - val_acc: 0.7421
Epoch 19/100
1562/1562 [==============================] - 598s - loss: 0.8714 - acc: 0.6966 - val_loss: 0.7272 - val_acc: 0.7472
Epoch 20/100
1562/1562 [==============================] - 598s - loss: 0.8588 - acc: 0.7002 - val_loss: 0.7472 - val_acc: 0.7459
Epoch 21/100
1562/1562 [==============================] - 598s - loss: 0.8504 - acc: 0.7044 - val_loss: 0.7449 - val_acc: 0.7402
Epoch 22/100
1562/1562 [==============================] - 597s - loss: 0.8474 - acc: 0.7066 - val_loss: 0.7547 - val_acc: 0.7366
Epoch 23/100
1562/1562 [==============================] - 599s - loss: 0.8391 - acc: 0.7089 - val_loss: 0.7111 - val_acc: 0.7551
Epoch 24/100
1562/1562 [==============================] - 596s - loss: 0.8290 - acc: 0.7134 - val_loss: 0.7427 - val_acc: 0.7512
Epoch 25/100
1562/1562 [==============================] - 597s - loss: 0.8249 - acc: 0.7157 - val_loss: 0.7007 - val_acc: 0.7571
Epoch 26/100
1562/1562 [==============================] - 598s - loss: 0.8202 - acc: 0.7185 - val_loss: 0.6821 - val_acc: 0.7651
Epoch 27/100
1562/1562 [==============================] - 596s - loss: 0.8156 - acc: 0.7204 - val_loss: 0.6857 - val_acc: 0.7662
Epoch 28/100
1562/1562 [==============================] - 598s - loss: 0.8095 - acc: 0.7214 - val_loss: 0.6839 - val_acc: 0.7650
Epoch 29/100
1562/1562 [==============================] - 597s - loss: 0.8026 - acc: 0.7243 - val_loss: 0.6981 - val_acc: 0.7653
Epoch 30/100
1562/1562 [==============================] - 597s - loss: 0.8013 - acc: 0.7263 - val_loss: 0.6558 - val_acc: 0.7765
Epoch 31/100
1562/1562 [==============================] - 599s - loss: 0.8017 - acc: 0.7234 - val_loss: 0.6874 - val_acc: 0.7642
Epoch 32/100
1562/1562 [==============================] - 594s - loss: 0.7925 - acc: 0.7281 - val_loss: 0.6873 - val_acc: 0.7669
Epoch 33/100
1562/1562 [==============================] - 585s - loss: 0.7931 - acc: 0.7275 - val_loss: 0.6909 - val_acc: 0.7620
Epoch 34/100
1562/1562 [==============================] - 602s - loss: 0.7837 - acc: 0.7325 - val_loss: 0.7090 - val_acc: 0.7624
Epoch 35/100
1562/1562 [==============================] - 603s - loss: 0.7825 - acc: 0.7328 - val_loss: 0.6492 - val_acc: 0.7818
Epoch 36/100
1562/1562 [==============================] - 603s - loss: 0.7837 - acc: 0.7329 - val_loss: 0.6776 - val_acc: 0.7640
Epoch 37/100
1562/1562 [==============================] - 604s - loss: 0.7789 - acc: 0.7354 - val_loss: 0.6519 - val_acc: 0.7814
Epoch 38/100
1562/1562 [==============================] - 603s - loss: 0.7758 - acc: 0.7342 - val_loss: 0.6623 - val_acc: 0.7774
Epoch 39/100
1562/1562 [==============================] - 604s - loss: 0.7722 - acc: 0.7356 - val_loss: 0.6817 - val_acc: 0.7790
Epoch 40/100
1562/1562 [==============================] - 603s - loss: 0.7760 - acc: 0.7356 - val_loss: 0.6479 - val_acc: 0.7802
Epoch 41/100
1562/1562 [==============================] - 602s - loss: 0.7701 - acc: 0.7376 - val_loss: 0.6470 - val_acc: 0.7784
Epoch 42/100
1562/1562 [==============================] - 598s - loss: 0.7675 - acc: 0.7393 - val_loss: 0.6475 - val_acc: 0.7815
Epoch 43/100
1562/1562 [==============================] - 601s - loss: 0.7692 - acc: 0.7377 - val_loss: 0.6642 - val_acc: 0.7779
Epoch 44/100
1562/1562 [==============================] - 587s - loss: 0.7642 - acc: 0.7400 - val_loss: 0.6444 - val_acc: 0.7841
Epoch 45/100
1562/1562 [==============================] - 580s - loss: 0.7663 - acc: 0.7408 - val_loss: 0.6606 - val_acc: 0.7833
Epoch 46/100
1562/1562 [==============================] - 581s - loss: 0.7606 - acc: 0.7421 - val_loss: 0.6435 - val_acc: 0.7853
Epoch 47/100
1562/1562 [==============================] - 580s - loss: 0.7565 - acc: 0.7435 - val_loss: 0.6717 - val_acc: 0.7848
Epoch 48/100
1562/1562 [==============================] - 582s - loss: 0.7635 - acc: 0.7426 - val_loss: 0.6534 - val_acc: 0.7820
Epoch 49/100
1562/1562 [==============================] - 582s - loss: 0.7508 - acc: 0.7467 - val_loss: 0.6475 - val_acc: 0.7802
Epoch 50/100
1562/1562 [==============================] - 582s - loss: 0.7588 - acc: 0.7439 - val_loss: 0.6651 - val_acc: 0.7779
Epoch 51/100
1562/1562 [==============================] - 581s - loss: 0.7577 - acc: 0.7444 - val_loss: 0.6480 - val_acc: 0.7868
Epoch 52/100
1562/1562 [==============================] - 581s - loss: 0.7561 - acc: 0.7436 - val_loss: 0.6253 - val_acc: 0.7872
Epoch 53/100
1562/1562 [==============================] - 583s - loss: 0.7579 - acc: 0.7438 - val_loss: 0.6347 - val_acc: 0.7893
Epoch 54/100
1562/1562 [==============================] - 581s - loss: 0.7554 - acc: 0.7470 - val_loss: 0.6320 - val_acc: 0.7950
Epoch 55/100
1562/1562 [==============================] - 574s - loss: 0.7553 - acc: 0.7459 - val_loss: 0.6653 - val_acc: 0.7832
Epoch 56/100
1562/1562 [==============================] - 563s - loss: 0.7504 - acc: 0.7488 - val_loss: 0.6577 - val_acc: 0.7939
Epoch 57/100
1562/1562 [==============================] - 562s - loss: 0.7584 - acc: 0.7475 - val_loss: 0.6487 - val_acc: 0.7870
Epoch 58/100
1562/1562 [==============================] - 562s - loss: 0.7562 - acc: 0.7445 - val_loss: 0.6900 - val_acc: 0.7802
Epoch 59/100
1562/1562 [==============================] - 562s - loss: 0.7549 - acc: 0.7479 - val_loss: 0.6395 - val_acc: 0.7854
Epoch 60/100
1562/1562 [==============================] - 563s - loss: 0.7506 - acc: 0.7485 - val_loss: 0.6244 - val_acc: 0.7923
Epoch 61/100
1562/1562 [==============================] - 562s - loss: 0.7477 - acc: 0.7490 - val_loss: 0.6957 - val_acc: 0.7889
Epoch 62/100
1562/1562 [==============================] - 562s - loss: 0.7496 - acc: 0.7480 - val_loss: 0.6191 - val_acc: 0.7928
Epoch 63/100
1562/1562 [==============================] - 562s - loss: 0.7480 - acc: 0.7480 - val_loss: 0.6684 - val_acc: 0.7851
Epoch 64/100
1562/1562 [==============================] - 563s - loss: 0.7501 - acc: 0.7513 - val_loss: 0.6317 - val_acc: 0.7917
Epoch 65/100
1562/1562 [==============================] - 562s - loss: 0.7506 - acc: 0.7506 - val_loss: 0.6296 - val_acc: 0.7879
Epoch 66/100
1562/1562 [==============================] - 562s - loss: 0.7549 - acc: 0.7455 - val_loss: 0.6930 - val_acc: 0.7818
Epoch 67/100
1562/1562 [==============================] - 562s - loss: 0.7539 - acc: 0.7475 - val_loss: 0.6443 - val_acc: 0.7841
Epoch 68/100
1562/1562 [==============================] - 562s - loss: 0.7500 - acc: 0.7482 - val_loss: 0.6401 - val_acc: 0.7952
Epoch 69/100
1562/1562 [==============================] - 563s - loss: 0.7573 - acc: 0.7472 - val_loss: 0.6191 - val_acc: 0.7942
Epoch 70/100
1562/1562 [==============================] - 563s - loss: 0.7434 - acc: 0.7505 - val_loss: 0.6764 - val_acc: 0.7828
Epoch 71/100
1562/1562 [==============================] - 585s - loss: 0.7506 - acc: 0.7483 - val_loss: 0.6350 - val_acc: 0.7885
Epoch 72/100
1562/1562 [==============================] - 584s - loss: 0.7543 - acc: 0.7493 - val_loss: 0.6693 - val_acc: 0.7814
Epoch 73/100
1562/1562 [==============================] - 586s - loss: 0.7566 - acc: 0.7474 - val_loss: 0.7284 - val_acc: 0.7740
Epoch 74/100
1562/1562 [==============================] - 586s - loss: 0.7479 - acc: 0.7512 - val_loss: 0.6476 - val_acc: 0.7955
Epoch 75/100
1562/1562 [==============================] - 584s - loss: 0.7460 - acc: 0.7513 - val_loss: 0.6234 - val_acc: 0.7907
Epoch 76/100
1562/1562 [==============================] - 586s - loss: 0.7472 - acc: 0.7499 - val_loss: 0.6386 - val_acc: 0.7885
Epoch 77/100
1562/1562 [==============================] - 586s - loss: 0.7556 - acc: 0.7476 - val_loss: 0.6506 - val_acc: 0.7922
Epoch 78/100
1562/1562 [==============================] - 586s - loss: 0.7488 - acc: 0.7473 - val_loss: 0.6098 - val_acc: 0.7959
Epoch 79/100
1562/1562 [==============================] - 585s - loss: 0.7528 - acc: 0.7488 - val_loss: 0.6423 - val_acc: 0.7864
Epoch 80/100
1562/1562 [==============================] - 585s - loss: 0.7496 - acc: 0.7501 - val_loss: 0.6626 - val_acc: 0.7824
Epoch 81/100
1562/1562 [==============================] - 586s - loss: 0.7448 - acc: 0.7518 - val_loss: 0.6415 - val_acc: 0.7894
Epoch 82/100
1562/1562 [==============================] - 586s - loss: 0.7496 - acc: 0.7506 - val_loss: 0.6881 - val_acc: 0.7857
Epoch 83/100
1562/1562 [==============================] - 585s - loss: 0.7478 - acc: 0.7527 - val_loss: 0.6638 - val_acc: 0.7822
Epoch 84/100
1562/1562 [==============================] - 585s - loss: 0.7588 - acc: 0.7473 - val_loss: 0.7018 - val_acc: 0.7662
Epoch 85/100
1562/1562 [==============================] - 584s - loss: 0.7599 - acc: 0.7484 - val_loss: 0.6892 - val_acc: 0.7787
Epoch 86/100
1562/1562 [==============================] - 585s - loss: 0.7510 - acc: 0.7512 - val_loss: 0.6968 - val_acc: 0.7739
Epoch 87/100
 456/1562 [=======>......................] - ETA: 393s - loss: 0.7444 - acc: 0.7471

denseLayer - FILE N° 3
x_train shape: (50000, 32, 32, 3)
50000 train samples
10000 test samples
_________________________________________________________________
Layer (type)                 Output Shape              Param #   
=================================================================
conv2d_1 (Conv2D)            (None, 32, 32, 32)        896       
_________________________________________________________________
conv2d_2 (Conv2D)            (None, 30, 30, 32)        9248      
_________________________________________________________________
max_pooling2d_1 (MaxPooling2 (None, 15, 15, 32)        0         
_________________________________________________________________
dropout_1 (Dropout)          (None, 15, 15, 32)        0         
_________________________________________________________________
conv2d_3 (Conv2D)            (None, 15, 15, 64)        18496     
_________________________________________________________________
conv2d_4 (Conv2D)            (None, 13, 13, 64)        36928     
_________________________________________________________________
max_pooling2d_2 (MaxPooling2 (None, 6, 6, 64)          0         
_________________________________________________________________
dropout_2 (Dropout)          (None, 6, 6, 64)          0         
_________________________________________________________________
flatten_1 (Flatten)          (None, 2304)              0         
_________________________________________________________________
dense_1 (Dense)              (None, 512)               1180160   
_________________________________________________________________
activation_1 (Activation)    (None, 512)               0         
_________________________________________________________________
dropout_3 (Dropout)          (None, 512)               0         
_________________________________________________________________
dense_2 (Dense)              (None, 10)                5130      
_________________________________________________________________
activation_2 (Activation)    (None, 10)                0         
=================================================================
Total params: 1,250,858
Trainable params: 1,250,858
Non-trainable params: 0
_________________________________________________________________
Not using data augmentation.
Train on 50000 samples, validate on 10000 samples
Epoch 1/100
0000/50000 [==============================] - 565s - loss: 1.8360 - acc: 0.3282 - val_loss: 1.5397 - val_acc: 0.4448
Epoch 2/100
0000/50000 [==============================] - 565s - loss: 1.5129 - acc: 0.4494 - val_loss: 1.4083 - val_acc: 0.4966
Epoch 3/100
0000/50000 [==============================] - 566s - loss: 1.3729 - acc: 0.5097 - val_loss: 1.2472 - val_acc: 0.5599
Epoch 4/100
0000/50000 [==============================] - 568s - loss: 1.2667 - acc: 0.5504 - val_loss: 1.1562 - val_acc: 0.5977
Epoch 5/100
0000/50000 [==============================] - 570s - loss: 1.1855 - acc: 0.5815 - val_loss: 1.0753 - val_acc: 0.6226
Epoch 6/100
0000/50000 [==============================] - 569s - loss: 1.1166 - acc: 0.6075 - val_loss: 1.0281 - val_acc: 0.6433
Epoch 7/100
0000/50000 [==============================] - 568s - loss: 1.0558 - acc: 0.6307 - val_loss: 0.9721 - val_acc: 0.6598
Epoch 8/100
0000/50000 [==============================] - 569s - loss: 1.0141 - acc: 0.6445 - val_loss: 0.9308 - val_acc: 0.6749
Epoch 9/100
0000/50000 [==============================] - 568s - loss: 0.9721 - acc: 0.6612 - val_loss: 0.9227 - val_acc: 0.6812
Epoch 10/100
0000/50000 [==============================] - 568s - loss: 0.9347 - acc: 0.6726 - val_loss: 0.8843 - val_acc: 0.6945
Epoch 11/100
0000/50000 [==============================] - 568s - loss: 0.9015 - acc: 0.6849 - val_loss: 0.8980 - val_acc: 0.6929
Epoch 12/100
0000/50000 [==============================] - 570s - loss: 0.8753 - acc: 0.6980 - val_loss: 0.8491 - val_acc: 0.7060
Epoch 13/100
0000/50000 [==============================] - 568s - loss: 0.8518 - acc: 0.7042 - val_loss: 0.8413 - val_acc: 0.7099
Epoch 14/100
0000/50000 [==============================] - 567s - loss: 0.8293 - acc: 0.7118 - val_loss: 0.8142 - val_acc: 0.7238
Epoch 15/100
0000/50000 [==============================] - 568s - loss: 0.8135 - acc: 0.7184 - val_loss: 0.7854 - val_acc: 0.7314
Epoch 16/100
0000/50000 [==============================] - 568s - loss: 0.7987 - acc: 0.7243 - val_loss: 0.7786 - val_acc: 0.7340
Epoch 17/100
0000/50000 [==============================] - 564s - loss: 0.7849 - acc: 0.7282 - val_loss: 0.7854 - val_acc: 0.7331
Epoch 18/100
0000/50000 [==============================] - 579s - loss: 0.7723 - acc: 0.7345 - val_loss: 0.7693 - val_acc: 0.7389
Epoch 19/100
0000/50000 [==============================] - 581s - loss: 0.7624 - acc: 0.7378 - val_loss: 0.8043 - val_acc: 0.7185
Epoch 20/100
0000/50000 [==============================] - 581s - loss: 0.7542 - acc: 0.7418 - val_loss: 0.7446 - val_acc: 0.7437
Epoch 21/100
0000/50000 [==============================] - 582s - loss: 0.7480 - acc: 0.7444 - val_loss: 0.7399 - val_acc: 0.7495
Epoch 22/100
0000/50000 [==============================] - 582s - loss: 0.7373 - acc: 0.7480 - val_loss: 0.7300 - val_acc: 0.7490
Epoch 23/100
0000/50000 [==============================] - 579s - loss: 0.7274 - acc: 0.7505 - val_loss: 0.7186 - val_acc: 0.7544
Epoch 24/100
0000/50000 [==============================] - 582s - loss: 0.7237 - acc: 0.7533 - val_loss: 0.7377 - val_acc: 0.7442
Epoch 25/100
0000/50000 [==============================] - 582s - loss: 0.7232 - acc: 0.7519 - val_loss: 0.7013 - val_acc: 0.7624
Epoch 26/100
0000/50000 [==============================] - 581s - loss: 0.7144 - acc: 0.7577 - val_loss: 0.7346 - val_acc: 0.7552
Epoch 27/100
0000/50000 [==============================] - 580s - loss: 0.7066 - acc: 0.7596 - val_loss: 0.6928 - val_acc: 0.7658
Epoch 28/100
0000/50000 [==============================] - 581s - loss: 0.7056 - acc: 0.7603 - val_loss: 0.6887 - val_acc: 0.7661
Epoch 29/100
0000/50000 [==============================] - 580s - loss: 0.6986 - acc: 0.7636 - val_loss: 0.7137 - val_acc: 0.7602
Epoch 30/100
0000/50000 [==============================] - 580s - loss: 0.7008 - acc: 0.7641 - val_loss: 0.7172 - val_acc: 0.7621
Epoch 31/100
0000/50000 [==============================] - 580s - loss: 0.6947 - acc: 0.7631 - val_loss: 0.7095 - val_acc: 0.7587
Epoch 32/100
0000/50000 [==============================] - 580s - loss: 0.6854 - acc: 0.7678 - val_loss: 0.6817 - val_acc: 0.7690
Epoch 33/100
0000/50000 [==============================] - 563s - loss: 0.6845 - acc: 0.7684 - val_loss: 0.6944 - val_acc: 0.7690
Epoch 34/100
0000/50000 [==============================] - 568s - loss: 0.6848 - acc: 0.7671 - val_loss: 0.6898 - val_acc: 0.7645
Epoch 35/100
0000/50000 [==============================] - 581s - loss: 0.6831 - acc: 0.7688 - val_loss: 0.6807 - val_acc: 0.7753
Epoch 36/100
0000/50000 [==============================] - 582s - loss: 0.6767 - acc: 0.7718 - val_loss: 0.6689 - val_acc: 0.7731
Epoch 37/100
0000/50000 [==============================] - 579s - loss: 0.6735 - acc: 0.7756 - val_loss: 0.6874 - val_acc: 0.7710
Epoch 38/100
0000/50000 [==============================] - 581s - loss: 0.6677 - acc: 0.7743 - val_loss: 0.7009 - val_acc: 0.7672
Epoch 39/100
0000/50000 [==============================] - 578s - loss: 0.6728 - acc: 0.7741 - val_loss: 0.6864 - val_acc: 0.7726
Epoch 40/100
0000/50000 [==============================] - 581s - loss: 0.6631 - acc: 0.7782 - val_loss: 0.6885 - val_acc: 0.7651
Epoch 41/100
0000/50000 [==============================] - 579s - loss: 0.6603 - acc: 0.7776 - val_loss: 0.7223 - val_acc: 0.7752
Epoch 42/100
0000/50000 [==============================] - 579s - loss: 0.6592 - acc: 0.7788 - val_loss: 0.6706 - val_acc: 0.7735
Epoch 43/100
0000/50000 [==============================] - 580s - loss: 0.6591 - acc: 0.7790 - val_loss: 0.6974 - val_acc: 0.7645
Epoch 44/100
0000/50000 [==============================] - 578s - loss: 0.6558 - acc: 0.7787 - val_loss: 0.6630 - val_acc: 0.7809
Epoch 45/100
0000/50000 [==============================] - 564s - loss: 0.6493 - acc: 0.7824 - val_loss: 0.6702 - val_acc: 0.7838
Epoch 46/100
0000/50000 [==============================] - 556s - loss: 0.6491 - acc: 0.7844 - val_loss: 0.6771 - val_acc: 0.7699
Epoch 47/100
0000/50000 [==============================] - 560s - loss: 0.6494 - acc: 0.7832 - val_loss: 0.6733 - val_acc: 0.7789
Epoch 48/100
0000/50000 [==============================] - 560s - loss: 0.6482 - acc: 0.7833 - val_loss: 0.7344 - val_acc: 0.7795
Epoch 49/100
0000/50000 [==============================] - 560s - loss: 0.6488 - acc: 0.7828 - val_loss: 0.6959 - val_acc: 0.7664
Epoch 50/100
0000/50000 [==============================] - 562s - loss: 0.6473 - acc: 0.7842 - val_loss: 0.6877 - val_acc: 0.7821
Epoch 51/100
0000/50000 [==============================] - 557s - loss: 0.6432 - acc: 0.7853 - val_loss: 0.6721 - val_acc: 0.7738
Epoch 52/100
0000/50000 [==============================] - 557s - loss: 0.6462 - acc: 0.7851 - val_loss: 0.6641 - val_acc: 0.7852
Epoch 53/100
0000/50000 [==============================] - 558s - loss: 0.6404 - acc: 0.7865 - val_loss: 0.6908 - val_acc: 0.7775
Epoch 54/100
0000/50000 [==============================] - 557s - loss: 0.6437 - acc: 0.7868 - val_loss: 0.6742 - val_acc: 0.7762
Epoch 55/100
0000/50000 [==============================] - 558s - loss: 0.6379 - acc: 0.7886 - val_loss: 0.6529 - val_acc: 0.7843
Epoch 56/100
0000/50000 [==============================] - 558s - loss: 0.6330 - acc: 0.7885 - val_loss: 0.6701 - val_acc: 0.7811
Epoch 57/100
0000/50000 [==============================] - 543s - loss: 0.6390 - acc: 0.7886 - val_loss: 0.6709 - val_acc: 0.7777
Epoch 58/100
0000/50000 [==============================] - 542s - loss: 0.6324 - acc: 0.7883 - val_loss: 0.7541 - val_acc: 0.7711
Epoch 59/100
0000/50000 [==============================] - 542s - loss: 0.6326 - acc: 0.7902 - val_loss: 0.6834 - val_acc: 0.7788
Epoch 60/100
0000/50000 [==============================] - 541s - loss: 0.6362 - acc: 0.7884 - val_loss: 0.6609 - val_acc: 0.7801
Epoch 61/100
0000/50000 [==============================] - 543s - loss: 0.6331 - acc: 0.7897 - val_loss: 0.6671 - val_acc: 0.7848
Epoch 62/100
0000/50000 [==============================] - 543s - loss: 0.6320 - acc: 0.7895 - val_loss: 0.6653 - val_acc: 0.7811
Epoch 63/100
0000/50000 [==============================] - 545s - loss: 0.6299 - acc: 0.7881 - val_loss: 0.7017 - val_acc: 0.7750
Epoch 64/100
0000/50000 [==============================] - 542s - loss: 0.6304 - acc: 0.7901 - val_loss: 0.6748 - val_acc: 0.7814
Epoch 65/100
0000/50000 [==============================] - 546s - loss: 0.6312 - acc: 0.7908 - val_loss: 0.7059 - val_acc: 0.7752
Epoch 66/100
0000/50000 [==============================] - 543s - loss: 0.6290 - acc: 0.7939 - val_loss: 0.6954 - val_acc: 0.7749
Epoch 67/100
0000/50000 [==============================] - 542s - loss: 0.6310 - acc: 0.7903 - val_loss: 0.6967 - val_acc: 0.7768
Epoch 68/100
0000/50000 [==============================] - 543s - loss: 0.6268 - acc: 0.7908 - val_loss: 0.7159 - val_acc: 0.7662
Epoch 69/100
0000/50000 [==============================] - 542s - loss: 0.6317 - acc: 0.7913 - val_loss: 0.6520 - val_acc: 0.7824
Epoch 70/100
0000/50000 [==============================] - 542s - loss: 0.6258 - acc: 0.7916 - val_loss: 0.7164 - val_acc: 0.7843
Epoch 71/100
0000/50000 [==============================] - 542s - loss: 0.6288 - acc: 0.7922 - val_loss: 0.6380 - val_acc: 0.7889
Epoch 72/100
0000/50000 [==============================] - 543s - loss: 0.6274 - acc: 0.7923 - val_loss: 0.6639 - val_acc: 0.7811
Epoch 73/100
0000/50000 [==============================] - 567s - loss: 0.6309 - acc: 0.7908 - val_loss: 0.6718 - val_acc: 0.7761
Epoch 74/100
0000/50000 [==============================] - 566s - loss: 0.6290 - acc: 0.7916 - val_loss: 0.6730 - val_acc: 0.7743
Epoch 75/100
0000/50000 [==============================] - 564s - loss: 0.6243 - acc: 0.7935 - val_loss: 0.6658 - val_acc: 0.7783
Epoch 76/100
0000/50000 [==============================] - 566s - loss: 0.6288 - acc: 0.7937 - val_loss: 0.6919 - val_acc: 0.7714
Epoch 77/100
0000/50000 [==============================] - 567s - loss: 0.6301 - acc: 0.7914 - val_loss: 0.7056 - val_acc: 0.7683
Epoch 78/100
0000/50000 [==============================] - 567s - loss: 0.6262 - acc: 0.7942 - val_loss: 0.6821 - val_acc: 0.7776
Epoch 79/100
0000/50000 [==============================] - 566s - loss: 0.6257 - acc: 0.7935 - val_loss: 0.6687 - val_acc: 0.7830
Epoch 80/100
0000/50000 [==============================] - 564s - loss: 0.6227 - acc: 0.7958 - val_loss: 0.6695 - val_acc: 0.7892
Epoch 81/100
0000/50000 [==============================] - 565s - loss: 0.6247 - acc: 0.7944 - val_loss: 0.6736 - val_acc: 0.7750
Epoch 82/100
0000/50000 [==============================] - 565s - loss: 0.6267 - acc: 0.7925 - val_loss: 0.6628 - val_acc: 0.7869
Epoch 83/100
0000/50000 [==============================] - 564s - loss: 0.6248 - acc: 0.7922 - val_loss: 0.7054 - val_acc: 0.7746
Epoch 84/100
0000/50000 [==============================] - 564s - loss: 0.6244 - acc: 0.7951 - val_loss: 0.6948 - val_acc: 0.7794
Epoch 85/100
0000/50000 [==============================] - 556s - loss: 0.6291 - acc: 0.7923 - val_loss: 0.6774 - val_acc: 0.7848
Epoch 86/100
0000/50000 [==============================] - 557s - loss: 0.6264 - acc: 0.7922 - val_loss: 0.7007 - val_acc: 0.7657
Epoch 87/100
0000/50000 [==============================] - 558s - loss: 0.6195 - acc: 0.7951 - val_loss: 0.6974 - val_acc: 0.7705
Epoch 88/100
0000/50000 [==============================] - 563s - loss: 0.6289 - acc: 0.7924 - val_loss: 0.6784 - val_acc: 0.7777
Epoch 89/100
0000/50000 [==============================] - 552s - loss: 0.6292 - acc: 0.7924 - val_loss: 0.7600 - val_acc: 0.7525
Epoch 90/100
12000/50000 [======>.......................] - ETA: 365s - loss: 0.6161 - acc: 0.7970

denseLayer - FILE N° 4
x_train shape: (50000, 32, 32, 3)
50000 train samples
10000 test samples
_________________________________________________________________
Layer (type)                 Output Shape              Param #   
=================================================================
conv2d_1 (Conv2D)            (None, 32, 32, 32)        896       
_________________________________________________________________
conv2d_2 (Conv2D)            (None, 30, 30, 32)        9248      
_________________________________________________________________
max_pooling2d_1 (MaxPooling2 (None, 15, 15, 32)        0         
_________________________________________________________________
dropout_1 (Dropout)          (None, 15, 15, 32)        0         
_________________________________________________________________
conv2d_3 (Conv2D)            (None, 15, 15, 64)        18496     
_________________________________________________________________
conv2d_4 (Conv2D)            (None, 13, 13, 64)        36928     
_________________________________________________________________
max_pooling2d_2 (MaxPooling2 (None, 6, 6, 64)          0         
_________________________________________________________________
dropout_2 (Dropout)          (None, 6, 6, 64)          0         
_________________________________________________________________
flatten_1 (Flatten)          (None, 2304)              0         
_________________________________________________________________
dense_1 (Dense)              (None, 512)               1180160   
_________________________________________________________________
activation_1 (Activation)    (None, 512)               0         
_________________________________________________________________
dropout_3 (Dropout)          (None, 512)               0         
_________________________________________________________________
dense_2 (Dense)              (None, 10)                5130      
_________________________________________________________________
activation_2 (Activation)    (None, 10)                0         
=================================================================
Total params: 1,250,858
Trainable params: 1,250,858
Non-trainable params: 0
_________________________________________________________________
Not using data augmentation.
Train on 50000 samples, validate on 10000 samples
Epoch 1/100
0000/50000 [==============================] - 566s - loss: 1.8167 - acc: 0.3313 - val_loss: 1.5247 - val_acc: 0.4476
Epoch 2/100
0000/50000 [==============================] - 565s - loss: 1.5030 - acc: 0.4528 - val_loss: 1.3597 - val_acc: 0.5116
Epoch 3/100
0000/50000 [==============================] - 566s - loss: 1.3601 - acc: 0.5125 - val_loss: 1.2642 - val_acc: 0.5527
Epoch 4/100
0000/50000 [==============================] - 568s - loss: 1.2634 - acc: 0.5516 - val_loss: 1.1640 - val_acc: 0.5900
Epoch 5/100
0000/50000 [==============================] - 569s - loss: 1.1892 - acc: 0.5795 - val_loss: 1.0835 - val_acc: 0.6219
Epoch 6/100
0000/50000 [==============================] - 568s - loss: 1.1258 - acc: 0.6019 - val_loss: 1.2214 - val_acc: 0.5671
Epoch 7/100
0000/50000 [==============================] - 568s - loss: 1.0735 - acc: 0.6224 - val_loss: 1.0093 - val_acc: 0.6493
Epoch 8/100
0000/50000 [==============================] - 568s - loss: 1.0238 - acc: 0.6400 - val_loss: 0.9610 - val_acc: 0.6608
Epoch 9/100
0000/50000 [==============================] - 568s - loss: 0.9873 - acc: 0.6528 - val_loss: 0.9866 - val_acc: 0.6530
Epoch 10/100
0000/50000 [==============================] - 567s - loss: 0.9515 - acc: 0.6652 - val_loss: 0.9207 - val_acc: 0.6782
Epoch 11/100
0000/50000 [==============================] - 567s - loss: 0.9234 - acc: 0.6756 - val_loss: 0.8840 - val_acc: 0.6957
Epoch 12/100
0000/50000 [==============================] - 569s - loss: 0.8945 - acc: 0.6871 - val_loss: 1.0018 - val_acc: 0.6565
Epoch 13/100
0000/50000 [==============================] - 568s - loss: 0.8700 - acc: 0.6968 - val_loss: 0.8269 - val_acc: 0.7144
Epoch 14/100
0000/50000 [==============================] - 566s - loss: 0.8434 - acc: 0.7045 - val_loss: 0.8984 - val_acc: 0.6832
Epoch 15/100
0000/50000 [==============================] - 568s - loss: 0.8289 - acc: 0.7102 - val_loss: 0.8095 - val_acc: 0.7205
Epoch 16/100
0000/50000 [==============================] - 567s - loss: 0.8087 - acc: 0.7187 - val_loss: 0.7834 - val_acc: 0.7275
Epoch 17/100
0000/50000 [==============================] - 567s - loss: 0.7933 - acc: 0.7264 - val_loss: 0.7759 - val_acc: 0.7356
Epoch 18/100
0000/50000 [==============================] - 586s - loss: 0.7809 - acc: 0.7288 - val_loss: 0.7986 - val_acc: 0.7246
Epoch 19/100
0000/50000 [==============================] - 586s - loss: 0.7633 - acc: 0.7353 - val_loss: 0.7511 - val_acc: 0.7449
Epoch 20/100
0000/50000 [==============================] - 577s - loss: 0.7570 - acc: 0.7397 - val_loss: 0.7461 - val_acc: 0.7411
Epoch 21/100
0000/50000 [==============================] - 580s - loss: 0.7454 - acc: 0.7423 - val_loss: 0.7225 - val_acc: 0.7504
Epoch 22/100
0000/50000 [==============================] - 579s - loss: 0.7338 - acc: 0.7431 - val_loss: 0.7254 - val_acc: 0.7509
Epoch 23/100
0000/50000 [==============================] - 579s - loss: 0.7243 - acc: 0.7480 - val_loss: 0.7529 - val_acc: 0.7491
Epoch 24/100
0000/50000 [==============================] - 582s - loss: 0.7190 - acc: 0.7515 - val_loss: 0.7278 - val_acc: 0.7508
Epoch 25/100
0000/50000 [==============================] - 582s - loss: 0.7113 - acc: 0.7556 - val_loss: 0.7267 - val_acc: 0.7592
Epoch 26/100
0000/50000 [==============================] - 581s - loss: 0.7053 - acc: 0.7593 - val_loss: 0.7017 - val_acc: 0.7622
Epoch 27/100
0000/50000 [==============================] - 580s - loss: 0.7000 - acc: 0.7585 - val_loss: 0.6997 - val_acc: 0.7616
Epoch 28/100
0000/50000 [==============================] - 580s - loss: 0.6988 - acc: 0.7595 - val_loss: 0.6820 - val_acc: 0.7691
Epoch 29/100
0000/50000 [==============================] - 579s - loss: 0.6919 - acc: 0.7616 - val_loss: 0.6854 - val_acc: 0.7685
Epoch 30/100
0000/50000 [==============================] - 580s - loss: 0.6880 - acc: 0.7658 - val_loss: 0.6791 - val_acc: 0.7660
Epoch 31/100
0000/50000 [==============================] - 580s - loss: 0.6872 - acc: 0.7666 - val_loss: 0.7009 - val_acc: 0.7638
Epoch 32/100
0000/50000 [==============================] - 579s - loss: 0.6771 - acc: 0.7691 - val_loss: 0.6981 - val_acc: 0.7680
Epoch 33/100
0000/50000 [==============================] - 562s - loss: 0.6783 - acc: 0.7697 - val_loss: 0.7595 - val_acc: 0.7505
Epoch 34/100
0000/50000 [==============================] - 568s - loss: 0.6742 - acc: 0.7724 - val_loss: 0.6592 - val_acc: 0.7740
Epoch 35/100
0000/50000 [==============================] - 581s - loss: 0.6687 - acc: 0.7736 - val_loss: 0.6944 - val_acc: 0.7624
Epoch 36/100
0000/50000 [==============================] - 582s - loss: 0.6711 - acc: 0.7710 - val_loss: 0.6676 - val_acc: 0.7731
Epoch 37/100
0000/50000 [==============================] - 579s - loss: 0.6648 - acc: 0.7754 - val_loss: 0.6941 - val_acc: 0.7687
Epoch 38/100
0000/50000 [==============================] - 581s - loss: 0.6663 - acc: 0.7737 - val_loss: 0.6789 - val_acc: 0.7719
Epoch 39/100
0000/50000 [==============================] - 578s - loss: 0.6648 - acc: 0.7739 - val_loss: 0.6523 - val_acc: 0.7812
Epoch 40/100
0000/50000 [==============================] - 581s - loss: 0.6577 - acc: 0.7762 - val_loss: 0.6994 - val_acc: 0.7706
Epoch 41/100
0000/50000 [==============================] - 579s - loss: 0.6619 - acc: 0.7758 - val_loss: 0.6443 - val_acc: 0.7830
Epoch 42/100
0000/50000 [==============================] - 579s - loss: 0.6558 - acc: 0.7795 - val_loss: 0.7162 - val_acc: 0.7671
Epoch 43/100
0000/50000 [==============================] - 580s - loss: 0.6560 - acc: 0.7805 - val_loss: 0.6794 - val_acc: 0.7716
Epoch 44/100
0000/50000 [==============================] - 578s - loss: 0.6551 - acc: 0.7787 - val_loss: 0.6630 - val_acc: 0.7806
Epoch 45/100
0000/50000 [==============================] - 564s - loss: 0.6573 - acc: 0.7790 - val_loss: 0.6715 - val_acc: 0.7761
Epoch 46/100
0000/50000 [==============================] - 560s - loss: 0.6552 - acc: 0.7803 - val_loss: 0.6654 - val_acc: 0.7818
Epoch 47/100
0000/50000 [==============================] - 560s - loss: 0.6469 - acc: 0.7838 - val_loss: 0.6590 - val_acc: 0.7804
Epoch 48/100
0000/50000 [==============================] - 557s - loss: 0.6501 - acc: 0.7805 - val_loss: 0.6721 - val_acc: 0.7776
Epoch 49/100
0000/50000 [==============================] - 560s - loss: 0.6481 - acc: 0.7832 - val_loss: 0.7025 - val_acc: 0.7784
Epoch 50/100
0000/50000 [==============================] - 562s - loss: 0.6525 - acc: 0.7824 - val_loss: 0.6407 - val_acc: 0.7882
Epoch 51/100
0000/50000 [==============================] - 557s - loss: 0.6446 - acc: 0.7835 - val_loss: 0.6739 - val_acc: 0.7736
Epoch 52/100
0000/50000 [==============================] - 557s - loss: 0.6472 - acc: 0.7829 - val_loss: 0.6486 - val_acc: 0.7834
Epoch 53/100
0000/50000 [==============================] - 558s - loss: 0.6441 - acc: 0.7846 - val_loss: 0.6384 - val_acc: 0.7870
Epoch 54/100
0000/50000 [==============================] - 557s - loss: 0.6449 - acc: 0.7843 - val_loss: 0.7369 - val_acc: 0.7836
Epoch 55/100
0000/50000 [==============================] - 558s - loss: 0.6448 - acc: 0.7851 - val_loss: 0.6771 - val_acc: 0.7825
Epoch 56/100
0000/50000 [==============================] - 558s - loss: 0.6404 - acc: 0.7867 - val_loss: 0.6373 - val_acc: 0.7900
Epoch 57/100
0000/50000 [==============================] - 542s - loss: 0.6365 - acc: 0.7871 - val_loss: 0.6677 - val_acc: 0.7836
Epoch 58/100
0000/50000 [==============================] - 542s - loss: 0.6386 - acc: 0.7876 - val_loss: 0.8021 - val_acc: 0.7454
Epoch 59/100
0000/50000 [==============================] - 542s - loss: 0.6410 - acc: 0.7873 - val_loss: 0.7267 - val_acc: 0.7663
Epoch 60/100
0000/50000 [==============================] - 541s - loss: 0.6392 - acc: 0.7865 - val_loss: 0.6597 - val_acc: 0.7826
Epoch 61/100
0000/50000 [==============================] - 543s - loss: 0.6388 - acc: 0.7870 - val_loss: 0.6601 - val_acc: 0.7795
Epoch 62/100
0000/50000 [==============================] - 543s - loss: 0.6445 - acc: 0.7865 - val_loss: 0.6592 - val_acc: 0.7807
Epoch 63/100
0000/50000 [==============================] - 545s - loss: 0.6394 - acc: 0.7863 - val_loss: 0.7354 - val_acc: 0.7787
Epoch 64/100
0000/50000 [==============================] - 542s - loss: 0.6397 - acc: 0.7900 - val_loss: 0.6906 - val_acc: 0.7757
Epoch 65/100
0000/50000 [==============================] - 546s - loss: 0.6359 - acc: 0.7877 - val_loss: 0.6538 - val_acc: 0.7899
Epoch 66/100
0000/50000 [==============================] - 543s - loss: 0.6412 - acc: 0.7881 - val_loss: 0.6907 - val_acc: 0.7837
Epoch 67/100
0000/50000 [==============================] - 542s - loss: 0.6390 - acc: 0.7888 - val_loss: 0.6795 - val_acc: 0.7787
Epoch 68/100
0000/50000 [==============================] - 543s - loss: 0.6349 - acc: 0.7895 - val_loss: 0.7558 - val_acc: 0.7763
Epoch 69/100
0000/50000 [==============================] - 542s - loss: 0.6356 - acc: 0.7874 - val_loss: 0.6659 - val_acc: 0.7814
Epoch 70/100
0000/50000 [==============================] - 542s - loss: 0.6385 - acc: 0.7891 - val_loss: 0.6729 - val_acc: 0.7820
Epoch 71/100
0000/50000 [==============================] - 542s - loss: 0.6384 - acc: 0.7881 - val_loss: 0.7077 - val_acc: 0.7737
Epoch 72/100
0000/50000 [==============================] - 544s - loss: 0.6420 - acc: 0.7863 - val_loss: 0.6792 - val_acc: 0.7920
Epoch 73/100
0000/50000 [==============================] - 567s - loss: 0.6387 - acc: 0.7867 - val_loss: 0.7059 - val_acc: 0.7706
Epoch 74/100
0000/50000 [==============================] - 566s - loss: 0.6388 - acc: 0.7891 - val_loss: 0.7432 - val_acc: 0.7642
Epoch 75/100
0000/50000 [==============================] - 564s - loss: 0.6424 - acc: 0.7864 - val_loss: 0.6756 - val_acc: 0.7793
Epoch 76/100
0000/50000 [==============================] - 566s - loss: 0.6371 - acc: 0.7886 - val_loss: 0.7072 - val_acc: 0.7715
Epoch 77/100
0000/50000 [==============================] - 567s - loss: 0.6363 - acc: 0.7884 - val_loss: 0.7042 - val_acc: 0.7684
Epoch 78/100
0000/50000 [==============================] - 567s - loss: 0.6385 - acc: 0.7889 - val_loss: 0.6409 - val_acc: 0.7867
Epoch 79/100
0000/50000 [==============================] - 566s - loss: 0.6395 - acc: 0.7885 - val_loss: 0.7983 - val_acc: 0.7566
Epoch 80/100
0000/50000 [==============================] - 564s - loss: 0.6432 - acc: 0.7874 - val_loss: 0.7288 - val_acc: 0.7698
Epoch 81/100
0000/50000 [==============================] - 565s - loss: 0.6476 - acc: 0.7866 - val_loss: 0.6972 - val_acc: 0.7739
Epoch 82/100
0000/50000 [==============================] - 565s - loss: 0.6419 - acc: 0.7869 - val_loss: 0.7786 - val_acc: 0.7745
Epoch 83/100
0000/50000 [==============================] - 564s - loss: 0.6499 - acc: 0.7852 - val_loss: 0.8417 - val_acc: 0.7496
Epoch 84/100
0000/50000 [==============================] - 564s - loss: 0.6459 - acc: 0.7858 - val_loss: 0.7667 - val_acc: 0.7626
Epoch 85/100
0000/50000 [==============================] - 564s - loss: 0.6424 - acc: 0.7877 - val_loss: 0.7453 - val_acc: 0.7620
Epoch 86/100
0000/50000 [==============================] - 564s - loss: 0.6447 - acc: 0.7886 - val_loss: 0.6976 - val_acc: 0.7653
Epoch 87/100
0000/50000 [==============================] - 561s - loss: 0.6461 - acc: 0.7860 - val_loss: 0.6476 - val_acc: 0.7853
Epoch 88/100
0000/50000 [==============================] - 561s - loss: 0.6449 - acc: 0.7859 - val_loss: 0.7132 - val_acc: 0.7586
Epoch 89/100
0000/50000 [==============================] - 550s - loss: 0.6525 - acc: 0.7837 - val_loss: 0.6596 - val_acc: 0.7872
Epoch 90/100
11584/50000 [=====>........................] - ETA: 366s - loss: 0.6438 - acc: 0.7902

denseLayer - FILE N° 5
x_train shape: (50000, 32, 32, 3)
50000 train samples
10000 test samples
_________________________________________________________________
Layer (type)                 Output Shape              Param #   
=================================================================
conv2d_1 (Conv2D)            (None, 32, 32, 32)        896       
_________________________________________________________________
conv2d_2 (Conv2D)            (None, 30, 30, 32)        9248      
_________________________________________________________________
max_pooling2d_1 (MaxPooling2 (None, 15, 15, 32)        0         
_________________________________________________________________
dropout_1 (Dropout)          (None, 15, 15, 32)        0         
_________________________________________________________________
conv2d_3 (Conv2D)            (None, 15, 15, 64)        18496     
_________________________________________________________________
conv2d_4 (Conv2D)            (None, 13, 13, 64)        36928     
_________________________________________________________________
max_pooling2d_2 (MaxPooling2 (None, 6, 6, 64)          0         
_________________________________________________________________
dropout_2 (Dropout)          (None, 6, 6, 64)          0         
_________________________________________________________________
flatten_1 (Flatten)          (None, 2304)              0         
_________________________________________________________________
dense_1 (Dense)              (None, 512)               1180160   
_________________________________________________________________
activation_1 (Activation)    (None, 512)               0         
_________________________________________________________________
dropout_3 (Dropout)          (None, 512)               0         
_________________________________________________________________
dense_2 (Dense)              (None, 10)                5130      
_________________________________________________________________
activation_2 (Activation)    (None, 10)                0         
=================================================================
Total params: 1,250,858
Trainable params: 1,250,858
Non-trainable params: 0
_________________________________________________________________
Not using data augmentation.
Train on 50000 samples, validate on 10000 samples
Epoch 1/100
0000/50000 [==============================] - 498s - loss: 1.8094 - acc: 0.3376 - val_loss: 1.4936 - val_acc: 0.4558
Epoch 2/100
0000/50000 [==============================] - 500s - loss: 1.4698 - acc: 0.4687 - val_loss: 1.3621 - val_acc: 0.5158
Epoch 3/100
0000/50000 [==============================] - 500s - loss: 1.3357 - acc: 0.5212 - val_loss: 1.2942 - val_acc: 0.5414
Epoch 4/100
0000/50000 [==============================] - 499s - loss: 1.2477 - acc: 0.5574 - val_loss: 1.1412 - val_acc: 0.5952
Epoch 5/100
0000/50000 [==============================] - 500s - loss: 1.1689 - acc: 0.5870 - val_loss: 1.1952 - val_acc: 0.5767
Epoch 6/100
0000/50000 [==============================] - 500s - loss: 1.1105 - acc: 0.6094 - val_loss: 1.0376 - val_acc: 0.6361
Epoch 7/100
0000/50000 [==============================] - 500s - loss: 1.0548 - acc: 0.6286 - val_loss: 1.0113 - val_acc: 0.6433
Epoch 8/100
0000/50000 [==============================] - 500s - loss: 1.0061 - acc: 0.6483 - val_loss: 0.9334 - val_acc: 0.6741
Epoch 9/100
0000/50000 [==============================] - 499s - loss: 0.9666 - acc: 0.6617 - val_loss: 0.9066 - val_acc: 0.6857
Epoch 10/100
0000/50000 [==============================] - 499s - loss: 0.9323 - acc: 0.6737 - val_loss: 0.9001 - val_acc: 0.6877
Epoch 11/100
0000/50000 [==============================] - 498s - loss: 0.9074 - acc: 0.6811 - val_loss: 0.8680 - val_acc: 0.6983
Epoch 12/100
0000/50000 [==============================] - 500s - loss: 0.8782 - acc: 0.6931 - val_loss: 0.8609 - val_acc: 0.7041
Epoch 13/100
0000/50000 [==============================] - 500s - loss: 0.8488 - acc: 0.7066 - val_loss: 0.8443 - val_acc: 0.7051
Epoch 14/100
0000/50000 [==============================] - 498s - loss: 0.8295 - acc: 0.7101 - val_loss: 0.7939 - val_acc: 0.7235
Epoch 15/100
0000/50000 [==============================] - 500s - loss: 0.8128 - acc: 0.7167 - val_loss: 0.7747 - val_acc: 0.7314
Epoch 16/100
0000/50000 [==============================] - 499s - loss: 0.7903 - acc: 0.7279 - val_loss: 0.7635 - val_acc: 0.7362
Epoch 17/100
0000/50000 [==============================] - 499s - loss: 0.7784 - acc: 0.7281 - val_loss: 0.7671 - val_acc: 0.7349
Epoch 18/100
0000/50000 [==============================] - 499s - loss: 0.7643 - acc: 0.7342 - val_loss: 0.7725 - val_acc: 0.7341
Epoch 19/100
0000/50000 [==============================] - 499s - loss: 0.7493 - acc: 0.7403 - val_loss: 0.7818 - val_acc: 0.7304
Epoch 20/100
0000/50000 [==============================] - 488s - loss: 0.7373 - acc: 0.7438 - val_loss: 0.8016 - val_acc: 0.7254
Epoch 21/100
0000/50000 [==============================] - 474s - loss: 0.7283 - acc: 0.7483 - val_loss: 0.7218 - val_acc: 0.7536
Epoch 22/100
0000/50000 [==============================] - 475s - loss: 0.7200 - acc: 0.7512 - val_loss: 0.7244 - val_acc: 0.7575
Epoch 23/100
0000/50000 [==============================] - 474s - loss: 0.7151 - acc: 0.7540 - val_loss: 0.7163 - val_acc: 0.7551
Epoch 24/100
0000/50000 [==============================] - 475s - loss: 0.7072 - acc: 0.7567 - val_loss: 0.7172 - val_acc: 0.7539
Epoch 25/100
0000/50000 [==============================] - 475s - loss: 0.6961 - acc: 0.7611 - val_loss: 0.7215 - val_acc: 0.7538
Epoch 26/100
0000/50000 [==============================] - 475s - loss: 0.6930 - acc: 0.7618 - val_loss: 0.6806 - val_acc: 0.7674
Epoch 27/100
0000/50000 [==============================] - 484s - loss: 0.6894 - acc: 0.7654 - val_loss: 0.6922 - val_acc: 0.7623
Epoch 28/100
0000/50000 [==============================] - 513s - loss: 0.6861 - acc: 0.7669 - val_loss: 0.7227 - val_acc: 0.7541
Epoch 29/100
0000/50000 [==============================] - 521s - loss: 0.6764 - acc: 0.7678 - val_loss: 0.7135 - val_acc: 0.7629
Epoch 30/100
0000/50000 [==============================] - 541s - loss: 0.6788 - acc: 0.7692 - val_loss: 0.6857 - val_acc: 0.7648
Epoch 31/100
0000/50000 [==============================] - 543s - loss: 0.6729 - acc: 0.7716 - val_loss: 0.6910 - val_acc: 0.7626
Epoch 32/100
0000/50000 [==============================] - 545s - loss: 0.6679 - acc: 0.7752 - val_loss: 0.7030 - val_acc: 0.7656
Epoch 33/100
0000/50000 [==============================] - 550s - loss: 0.6653 - acc: 0.7748 - val_loss: 0.6755 - val_acc: 0.7712
Epoch 34/100
0000/50000 [==============================] - 551s - loss: 0.6641 - acc: 0.7777 - val_loss: 0.6844 - val_acc: 0.7692
Epoch 35/100
0000/50000 [==============================] - 549s - loss: 0.6630 - acc: 0.7758 - val_loss: 0.6819 - val_acc: 0.7708
Epoch 36/100
0000/50000 [==============================] - 551s - loss: 0.6591 - acc: 0.7771 - val_loss: 0.6761 - val_acc: 0.7733
Epoch 37/100
0000/50000 [==============================] - 549s - loss: 0.6574 - acc: 0.7786 - val_loss: 0.6567 - val_acc: 0.7799
Epoch 38/100
0000/50000 [==============================] - 550s - loss: 0.6528 - acc: 0.7798 - val_loss: 0.6745 - val_acc: 0.7777
Epoch 39/100
0000/50000 [==============================] - 551s - loss: 0.6519 - acc: 0.7802 - val_loss: 0.7075 - val_acc: 0.7669
Epoch 40/100
0000/50000 [==============================] - 551s - loss: 0.6526 - acc: 0.7803 - val_loss: 0.6670 - val_acc: 0.7823
Epoch 41/100
0000/50000 [==============================] - 550s - loss: 0.6433 - acc: 0.7819 - val_loss: 0.6839 - val_acc: 0.7789
Epoch 42/100
0000/50000 [==============================] - 550s - loss: 0.6410 - acc: 0.7846 - val_loss: 0.6539 - val_acc: 0.7795
Epoch 43/100
0000/50000 [==============================] - 550s - loss: 0.6386 - acc: 0.7864 - val_loss: 0.6888 - val_acc: 0.7830
Epoch 44/100
0000/50000 [==============================] - 550s - loss: 0.6410 - acc: 0.7852 - val_loss: 0.6797 - val_acc: 0.7744
Epoch 45/100
0000/50000 [==============================] - 552s - loss: 0.6335 - acc: 0.7882 - val_loss: 0.6437 - val_acc: 0.7895
Epoch 46/100
0000/50000 [==============================] - 552s - loss: 0.6337 - acc: 0.7878 - val_loss: 0.6819 - val_acc: 0.7750
Epoch 47/100
0000/50000 [==============================] - 552s - loss: 0.6351 - acc: 0.7895 - val_loss: 0.6907 - val_acc: 0.7709
Epoch 48/100
0000/50000 [==============================] - 552s - loss: 0.6356 - acc: 0.7859 - val_loss: 0.6677 - val_acc: 0.7851
Epoch 49/100
0000/50000 [==============================] - 551s - loss: 0.6257 - acc: 0.7912 - val_loss: 0.6621 - val_acc: 0.7785
Epoch 50/100
0000/50000 [==============================] - 552s - loss: 0.6278 - acc: 0.7882 - val_loss: 0.6470 - val_acc: 0.7840
Epoch 51/100
0000/50000 [==============================] - 547s - loss: 0.6248 - acc: 0.7905 - val_loss: 0.6512 - val_acc: 0.7836
Epoch 52/100
0000/50000 [==============================] - 542s - loss: 0.6228 - acc: 0.7925 - val_loss: 0.7012 - val_acc: 0.7748
Epoch 53/100
0000/50000 [==============================] - 546s - loss: 0.6214 - acc: 0.7907 - val_loss: 0.6623 - val_acc: 0.7845
Epoch 54/100
0000/50000 [==============================] - 547s - loss: 0.6236 - acc: 0.7929 - val_loss: 0.6455 - val_acc: 0.7867
Epoch 55/100
0000/50000 [==============================] - 545s - loss: 0.6214 - acc: 0.7913 - val_loss: 0.6453 - val_acc: 0.7876
Epoch 56/100
0000/50000 [==============================] - 549s - loss: 0.6184 - acc: 0.7944 - val_loss: 0.6575 - val_acc: 0.7865
Epoch 57/100
0000/50000 [==============================] - 549s - loss: 0.6189 - acc: 0.7927 - val_loss: 0.6845 - val_acc: 0.7801
Epoch 58/100
0000/50000 [==============================] - 549s - loss: 0.6146 - acc: 0.7929 - val_loss: 0.6690 - val_acc: 0.7830
Epoch 59/100
0000/50000 [==============================] - 549s - loss: 0.6166 - acc: 0.7945 - val_loss: 0.6442 - val_acc: 0.7872
Epoch 60/100
0000/50000 [==============================] - 548s - loss: 0.6143 - acc: 0.7972 - val_loss: 0.6595 - val_acc: 0.7848
Epoch 61/100
0000/50000 [==============================] - 550s - loss: 0.6119 - acc: 0.7972 - val_loss: 0.7248 - val_acc: 0.7687
Epoch 62/100
0000/50000 [==============================] - 550s - loss: 0.6110 - acc: 0.7961 - val_loss: 0.6654 - val_acc: 0.7826
Epoch 63/100
0000/50000 [==============================] - 551s - loss: 0.6108 - acc: 0.7982 - val_loss: 0.6851 - val_acc: 0.7806
Epoch 64/100
0000/50000 [==============================] - 549s - loss: 0.6028 - acc: 0.7988 - val_loss: 0.6507 - val_acc: 0.7890
Epoch 65/100
0000/50000 [==============================] - 550s - loss: 0.6045 - acc: 0.7967 - val_loss: 0.6590 - val_acc: 0.7876
Epoch 66/100
0000/50000 [==============================] - 549s - loss: 0.6092 - acc: 0.7969 - val_loss: 0.6699 - val_acc: 0.7846
Epoch 67/100
0000/50000 [==============================] - 549s - loss: 0.6056 - acc: 0.7975 - val_loss: 0.6942 - val_acc: 0.7780
Epoch 68/100
0000/50000 [==============================] - 548s - loss: 0.6071 - acc: 0.7972 - val_loss: 0.6370 - val_acc: 0.7915
Epoch 69/100
0000/50000 [==============================] - 548s - loss: 0.6014 - acc: 0.7985 - val_loss: 0.6595 - val_acc: 0.7897
Epoch 70/100
0000/50000 [==============================] - 547s - loss: 0.6055 - acc: 0.7964 - val_loss: 0.6526 - val_acc: 0.7863
Epoch 71/100
0000/50000 [==============================] - 548s - loss: 0.6034 - acc: 0.7975 - val_loss: 0.6416 - val_acc: 0.7852
Epoch 72/100
0000/50000 [==============================] - 549s - loss: 0.6027 - acc: 0.7990 - val_loss: 0.6673 - val_acc: 0.7876
Epoch 73/100
0000/50000 [==============================] - 549s - loss: 0.6058 - acc: 0.7982 - val_loss: 0.6615 - val_acc: 0.7808
Epoch 74/100
0000/50000 [==============================] - 549s - loss: 0.6049 - acc: 0.7960 - val_loss: 0.6261 - val_acc: 0.7896
Epoch 75/100
0000/50000 [==============================] - 549s - loss: 0.6035 - acc: 0.7999 - val_loss: 0.6482 - val_acc: 0.7848
Epoch 76/100
0000/50000 [==============================] - 549s - loss: 0.6051 - acc: 0.7977 - val_loss: 0.6847 - val_acc: 0.7730
Epoch 77/100
0000/50000 [==============================] - 550s - loss: 0.6049 - acc: 0.7986 - val_loss: 0.7448 - val_acc: 0.7620
Epoch 78/100
0000/50000 [==============================] - 549s - loss: 0.6035 - acc: 0.7982 - val_loss: 0.7114 - val_acc: 0.7800
Epoch 79/100
0000/50000 [==============================] - 548s - loss: 0.5988 - acc: 0.7995 - val_loss: 0.6705 - val_acc: 0.7809
Epoch 80/100
0000/50000 [==============================] - 534s - loss: 0.6005 - acc: 0.8001 - val_loss: 0.6806 - val_acc: 0.7828
Epoch 81/100
0000/50000 [==============================] - 532s - loss: 0.6059 - acc: 0.8005 - val_loss: 0.6518 - val_acc: 0.7904
Epoch 82/100
0000/50000 [==============================] - 532s - loss: 0.6035 - acc: 0.7983 - val_loss: 0.6949 - val_acc: 0.7724
Epoch 83/100
0000/50000 [==============================] - 521s - loss: 0.6028 - acc: 0.8004 - val_loss: 0.6588 - val_acc: 0.7828
Epoch 84/100
0000/50000 [==============================] - 513s - loss: 0.6036 - acc: 0.8000 - val_loss: 0.6413 - val_acc: 0.7919
Epoch 85/100
0000/50000 [==============================] - 513s - loss: 0.6022 - acc: 0.8004 - val_loss: 0.6670 - val_acc: 0.7811
Epoch 86/100
0000/50000 [==============================] - 513s - loss: 0.5988 - acc: 0.8001 - val_loss: 0.6402 - val_acc: 0.7981
Epoch 87/100
0000/50000 [==============================] - 513s - loss: 0.5976 - acc: 0.8006 - val_loss: 0.6658 - val_acc: 0.7929
Epoch 88/100
0000/50000 [==============================] - 514s - loss: 0.6006 - acc: 0.7984 - val_loss: 0.6850 - val_acc: 0.7815
Epoch 89/100
0000/50000 [==============================] - 513s - loss: 0.6023 - acc: 0.8011 - val_loss: 0.6743 - val_acc: 0.7790
Epoch 90/100
0000/50000 [==============================] - 480s - loss: 0.6013 - acc: 0.8001 - val_loss: 0.6540 - val_acc: 0.7874
Epoch 91/100
0000/50000 [==============================] - 470s - loss: 0.6007 - acc: 0.8005 - val_loss: 0.7559 - val_acc: 0.7557
Epoch 92/100
0000/50000 [==============================] - 465s - loss: 0.6020 - acc: 0.8001 - val_loss: 0.7654 - val_acc: 0.7782
Epoch 93/100
0000/50000 [==============================] - 465s - loss: 0.5991 - acc: 0.8004 - val_loss: 0.7361 - val_acc: 0.7616
Epoch 94/100
0000/50000 [==============================] - 464s - loss: 0.5952 - acc: 0.7996 - val_loss: 0.6526 - val_acc: 0.7889
Epoch 95/100
0000/50000 [==============================] - 465s - loss: 0.6028 - acc: 0.8011 - val_loss: 0.6507 - val_acc: 0.7845
Epoch 96/100
0000/50000 [==============================] - 465s - loss: 0.6049 - acc: 0.7988 - val_loss: 0.6930 - val_acc: 0.7815
Epoch 97/100
12064/50000 [======>.......................] - ETA: 336s - loss: 0.5876 - acc: 0.8017
