| 2 | 5-7-8-9 | 5-5-5-4 | 1-4-4-4-1 | 0.0 | Adam | 0.1240109 | 0.1240109 | 67.215676 | 673748.0 |
| 2 | 5-7-8-9 | 5-5-5-4 | 1-5-5-5-1 | 0.0 | Adam | 0.1237468 | 0.1237468 | 68.486678 | 674975.0 |
| 2 | 5-7-8-9 | 5-5-5-4 | 1-6-6-6-1 | 0.0 | Adam | 0.1237124 | 0.1237124 | 68.789971 | 676452.0 |
| 2 | 5-7-8-9 | 5-5-5-4 | 1-7-7-7-1 | 0.0 | Adam | 0.1234954 | 0.1234954 | 69.246393 | 678179.0 |
| 2 | 5-7-8-9 | 5-5-5-4 | 1-8-8-8-1 | 0.0 | Adam | nan | nan | 67.919406 | 680156.0 |
| 2 | 5-7-8-9 | 5-5-5-4 | 1-9-9-9-1 | 0.0 | Adam | 0.1235749 | 0.1235749 | 72.558452 | 682383.0 |
| 2 | 5-7-8-9 | 5-5-5-4 | 1-10-10-10-1 | 0.0 | Adam | 0.1235287 | 0.1235287 | 73.079892 | 684860.0 |
| 2 | 7-8-5-9 | 5-5-5-4 | 1-1-1-1-1 | 0.0 | Adam | 0.1248803 | 0.1248803 | 62.295342 | 671567.0 |
| 2 | 7-8-5-9 | 5-5-5-4 | 1-2-2-2-1 | 0.0 | Adam | 0.1242013 | 0.1242013 | 65.319798 | 672024.0 |
| 2 | 7-8-5-9 | 5-5-5-4 | 1-3-3-3-1 | 0.0 | Adam | 0.1241082 | 0.1241082 | 65.535002 | 672711.0 |
| 2 | 7-8-5-9 | 5-5-5-4 | 1-4-4-4-1 | 0.0 | Adam | 0.1238244 | 0.1238244 | 67.232591 | 673628.0 |
| 2 | 7-8-5-9 | 5-5-5-4 | 1-5-5-5-1 | 0.0 | Adam | 0.1237420 | 0.1237420 | 68.554524 | 674775.0 |
| 2 | 7-8-5-9 | 5-5-5-4 | 1-6-6-6-1 | 0.0 | Adam | 0.1236408 | 0.1236408 | 69.982649 | 676152.0 |
| 2 | 7-8-5-9 | 5-5-5-4 | 1-7-7-7-1 | 0.0 | Adam | 0.1237486 | 0.1237486 | 71.073356 | 677759.0 |
| 2 | 7-8-5-9 | 5-5-5-4 | 1-8-8-8-1 | 0.0 | Adam | 0.1236559 | 0.1236559 | 71.057783 | 679596.0 |
| 2 | 7-8-5-9 | 5-5-5-4 | 1-9-9-9-1 | 0.0 | Adam | 0.1235723 | 0.1235723 | 72.025153 | 681663.0 |
| 2 | 7-8-5-9 | 5-5-5-4 | 1-10-10-10-1 | 0.0 | Adam | 0.1234988 | 0.1234988 | 73.753181 | 683960.0 |
| 2 | 5-7-8-9 | 5-5-5-4 | 1-1-1-1-1 | 0.0 | Adagrad | 0.1261979 | 0.1261979 | 37.011628 | 671567.0 |
| 2 | 5-7-8-9 | 5-5-5-4 | 1-2-2-2-1 | 0.0 | Adagrad | nan | nan | 37.545661 | 672044.0 |
| 2 | 5-7-8-9 | 5-5-5-4 | 1-3-3-3-1 | 0.0 | Adagrad | 0.1244649 | 0.1244649 | 37.919719 | 672771.0 |
| 2 | 5-7-8-9 | 5-5-5-4 | 1-4-4-4-1 | 0.0 | Adagrad | 0.1241232 | 0.1241232 | 38.235436 | 673748.0 |
| 2 | 5-7-8-9 | 5-5-5-4 | 1-5-5-5-1 | 0.0 | Adagrad | 0.1243076 | 0.1243076 | 38.573255 | 674975.0 |
| 2 | 5-7-8-9 | 5-5-5-4 | 1-6-6-6-1 | 0.0 | Adagrad | 0.1236762 | 0.1236762 | 39.454391 | 676452.0 |
| 2 | 5-7-8-9 | 5-5-5-4 | 1-7-7-7-1 | 0.0 | Adagrad | 0.1238488 | 0.1238488 | 39.612398 | 678179.0 |
| 2 | 5-7-8-9 | 5-5-5-4 | 1-8-8-8-1 | 0.0 | Adagrad | 0.1237269 | 0.1237269 | 38.987513 | 680156.0 |
| 2 | 5-7-8-9 | 5-5-5-4 | 1-9-9-9-1 | 0.0 | Adagrad | 0.1235731 | 0.1235731 | 39.601567 | 682383.0 |
| 2 | 5-7-8-9 | 5-5-5-4 | 1-10-10-10-1 | 0.0 | Adagrad | 0.1235843 | 0.1235843 | 40.448286 | 684860.0 |
| 2 | 7-8-5-9 | 5-5-5-4 | 1-1-1-1-1 | 0.0 | Adagrad | nan | nan | 35.934808 | 671567.0 |
| 2 | 7-8-5-9 | 5-5-5-4 | 1-2-2-2-1 | 0.0 | Adagrad | 0.1250517 | 0.1250517 | 36.958373 | 672024.0 |
| 2 | 7-8-5-9 | 5-5-5-4 | 1-3-3-3-1 | 0.0 | Adagrad | nan | nan | 37.742286 | 672711.0 |
| 2 | 7-8-5-9 | 5-5-5-4 | 1-4-4-4-1 | 0.0 | Adagrad | 0.1241325 | 0.1241325 | 38.273219 | 673628.0 |
| 2 | 7-8-5-9 | 5-5-5-4 | 1-5-5-5-1 | 0.0 | Adagrad | 0.1239780 | 0.1239780 | 37.673949 | 674775.0 |
| 2 | 7-8-5-9 | 5-5-5-4 | 1-6-6-6-1 | 0.0 | Adagrad | 0.1238130 | 0.1238130 | 37.971347 | 676152.0 |
| 2 | 7-8-5-9 | 5-5-5-4 | 1-7-7-7-1 | 0.0 | Adagrad | nan | nan | 38.847212 | 677759.0 |
| 2 | 7-8-5-9 | 5-5-5-4 | 1-8-8-8-1 | 0.0 | Adagrad | nan | nan | 38.922120 | 679596.0 |
| 2 | 7-8-5-9 | 5-5-5-4 | 1-9-9-9-1 | 0.0 | Adagrad | 0.1235910 | 0.1235910 | 40.000036 | 681663.0 |
| 2 | 7-8-5-9 | 5-5-5-4 | 1-10-10-10-1 | 0.0 | Adagrad | 0.1235078 | 0.1235078 | 40.787969 | 683960.0 |
| 2 | 5-7-8-9 | 5-5-5-4 | 1-1-1-1-1 | 0.0 | RMSprop | 0.1287295 | 0.1287295 | 65.059280 | 671567.0 |
| 2 | 5-7-8-9 | 5-5-5-4 | 1-2-2-2-1 | 0.0 | RMSprop | 0.1267407 | 0.1267407 | 60.508051 | 672044.0 |
| 2 | 5-7-8-9 | 5-5-5-4 | 1-3-3-3-1 | 0.0 | RMSprop | 0.1262067 | 0.1262067 | 57.972924 | 672771.0 |
| 2 | 5-7-8-9 | 5-5-5-4 | 1-4-4-4-1 | 0.0 | RMSprop | 0.1259230 | 0.1259230 | 56.221831 | 673748.0 |
| 2 | 5-7-8-9 | 5-5-5-4 | 1-5-5-5-1 | 0.0 | RMSprop | 0.1254715 | 0.1254715 | 56.754693 | 674975.0 |
| 2 | 5-7-8-9 | 5-5-5-4 | 1-6-6-6-1 | 0.0 | RMSprop | 0.1253633 | 0.1253633 | 56.751432 | 676452.0 |
| 2 | 5-7-8-9 | 5-5-5-4 | 1-7-7-7-1 | 0.0 | RMSprop | 0.1253060 | 0.1253060 | 58.040614 | 678179.0 |
| 2 | 5-7-8-9 | 5-5-5-4 | 1-8-8-8-1 | 0.0 | RMSprop | 0.1250908 | 0.1250908 | 57.609524 | 680156.0 |
| 2 | 5-7-8-9 | 5-5-5-4 | 1-9-9-9-1 | 0.0 | RMSprop | 0.1251760 | 0.1251760 | 59.055122 | 682383.0 |
| 2 | 5-7-8-9 | 5-5-5-4 | 1-10-10-10-1 | 0.0 | RMSprop | 0.1249341 | 0.1249341 | 59.385619 | 684860.0 |
| 2 | 7-8-5-9 | 5-5-5-4 | 1-1-1-1-1 | 0.0 | RMSprop | nan | nan | 60.245037 | 671567.0 |
| 2 | 7-8-5-9 | 5-5-5-4 | 1-2-2-2-1 | 0.0 | RMSprop | 0.1264593 | 0.1264593 | 55.798144 | 672024.0 |
| 2 | 7-8-5-9 | 5-5-5-4 | 1-3-3-3-1 | 0.0 | RMSprop | nan | nan | 54.489748 | 672711.0 |
| 2 | 7-8-5-9 | 5-5-5-4 | 1-4-4-4-1 | 0.0 | RMSprop | nan | nan | 54.469220 | 673628.0 |
| 2 | 7-8-5-9 | 5-5-5-4 | 1-5-5-5-1 | 0.0 | RMSprop | nan | nan | 56.017328 | 674775.0 |
| 2 | 7-8-5-9 | 5-5-5-4 | 1-6-6-6-1 | 0.0 | RMSprop | 0.1254172 | 0.1254172 | 57.109210 | 676152.0 |
| 2 | 7-8-5-9 | 5-5-5-4 | 1-7-7-7-1 | 0.0 | RMSprop | nan | nan | 57.124174 | 677759.0 |
| 2 | 7-8-5-9 | 5-5-5-4 | 1-8-8-8-1 | 0.0 | RMSprop | 0.1251063 | 0.1251063 | 58.526072 | 679596.0 |
| 2 | 7-8-5-9 | 5-5-5-4 | 1-9-9-9-1 | 0.0 | RMSprop | 0.1251595 | 0.1251595 | 60.104984 | 681663.0 |
| 2 | 7-8-5-9 | 5-5-5-4 | 1-10-10-10-1 | 0.0 | RMSprop | 0.1250540 | 0.1250540 | 60.352659 | 683960.0 |
| 2 | 5-7-8-9 | 5-5-5-4 | 1-1-1-1-1 | 0.2 | Adam | 0.1249208 | 0.1249208 | 62.227731 | 671567.0 |
| 2 | 5-7-8-9 | 5-5-5-4 | 1-2-2-2-1 | 0.2 | Adam | nan | nan | 60.508697 | 672044.0 |
| 2 | 5-7-8-9 | 5-5-5-4 | 1-3-3-3-1 | 0.2 | Adam | 0.1236060 | 0.1236060 | 63.501453 | 672771.0 |
| 2 | 5-7-8-9 | 5-5-5-4 | 1-4-4-4-1 | 0.2 | Adam | 0.1236724 | 0.1236724 | 62.541874 | 673748.0 |
| 2 | 5-7-8-9 | 5-5-5-4 | 1-5-5-5-1 | 0.2 | Adam | nan | nan | 60.686389 | 674975.0 |
| 2 | 5-7-8-9 | 5-5-5-4 | 1-6-6-6-1 | 0.2 | Adam | 0.1233884 | 0.1233884 | 63.380842 | 676452.0 |
| 2 | 5-7-8-9 | 5-5-5-4 | 1-7-7-7-1 | 0.2 | Adam | 0.1234710 | 0.1234710 | 63.835018 | 678179.0 |
