| 3 | 7-8-5-9 | 5-5-5-8 | 1-10-10-10-1 | 0.2 | Adam | 0.1236266 | 0.1236266 | 74.331296 | 860190.0 |
| 3 | 5-7-8-9 | 5-5-5-8 | 1-1-1-1-1 | 0.2 | Adagrad | 0.1278809 | 0.1278809 | 54.425794 | 841290.0 |
| 3 | 5-7-8-9 | 5-5-5-8 | 1-2-2-2-1 | 0.2 | Adagrad | 0.1266585 | 0.1266585 | 55.536045 | 842090.0 |
| 3 | 5-7-8-9 | 5-5-5-8 | 1-3-3-3-1 | 0.2 | Adagrad | nan | nan | 54.987600 | 843240.0 |
| 3 | 5-7-8-9 | 5-5-5-8 | 1-4-4-4-1 | 0.2 | Adagrad | 0.1256170 | 0.1256170 | 57.151553 | 844740.0 |
| 3 | 5-7-8-9 | 5-5-5-8 | 1-5-5-5-1 | 0.2 | Adagrad | nan | nan | 56.829684 | 846590.0 |
| 3 | 5-7-8-9 | 5-5-5-8 | 1-6-6-6-1 | 0.2 | Adagrad | 0.1250743 | 0.1250744 | 60.316514 | 848790.0 |
| 3 | 5-7-8-9 | 5-5-5-8 | 1-7-7-7-1 | 0.2 | Adagrad | nan | nan | 59.670608 | 851340.0 |
| 3 | 5-7-8-9 | 5-5-5-8 | 1-8-8-8-1 | 0.2 | Adagrad | 0.1252631 | 0.1252631 | 61.805238 | 854240.0 |
| 3 | 5-7-8-9 | 5-5-5-8 | 1-9-9-9-1 | 0.2 | Adagrad | 0.1247987 | 0.1247987 | 64.254452 | 857490.0 |
| 3 | 5-7-8-9 | 5-5-5-8 | 1-10-10-10-1 | 0.2 | Adagrad | nan | nan | 65.313749 | 861090.0 |
| 3 | 7-8-5-9 | 5-5-5-8 | 1-1-1-1-1 | 0.2 | Adagrad | nan | nan | 54.245934 | 841290.0 |
| 3 | 7-8-5-9 | 5-5-5-8 | 1-2-2-2-1 | 0.2 | Adagrad | nan | nan | 55.463367 | 842070.0 |
| 3 | 7-8-5-9 | 5-5-5-8 | 1-3-3-3-1 | 0.2 | Adagrad | 0.1259781 | 0.1259781 | 57.120041 | 843180.0 |
| 3 | 7-8-5-9 | 5-5-5-8 | 1-4-4-4-1 | 0.2 | Adagrad | 0.1254697 | 0.1254697 | 57.310004 | 844620.0 |
| 3 | 7-8-5-9 | 5-5-5-8 | 1-5-5-5-1 | 0.2 | Adagrad | nan | nan | 58.831008 | 846390.0 |
| 3 | 7-8-5-9 | 5-5-5-8 | 1-6-6-6-1 | 0.2 | Adagrad | 0.1252087 | 0.1252087 | 60.319281 | 848490.0 |
| 3 | 7-8-5-9 | 5-5-5-8 | 1-7-7-7-1 | 0.2 | Adagrad | nan | nan | 61.916492 | 850920.0 |
| 3 | 7-8-5-9 | 5-5-5-8 | 1-8-8-8-1 | 0.2 | Adagrad | 0.1257096 | 0.1257096 | 62.412360 | 853680.0 |
| 3 | 7-8-5-9 | 5-5-5-8 | 1-9-9-9-1 | 0.2 | Adagrad | nan | nan | 64.935460 | 856770.0 |
| 3 | 7-8-5-9 | 5-5-5-8 | 1-10-10-10-1 | 0.2 | Adagrad | 0.1250330 | 0.1250330 | 65.842479 | 860190.0 |
| 3 | 5-7-8-9 | 5-5-5-8 | 1-1-1-1-1 | 0.2 | RMSprop | nan | nan | 56.660873 | 841290.0 |
| 3 | 5-7-8-9 | 5-5-5-8 | 1-2-2-2-1 | 0.2 | RMSprop | nan | nan | 73.237923 | 842090.0 |
| 3 | 5-7-8-9 | 5-5-5-8 | 1-3-3-3-1 | 0.2 | RMSprop | nan | nan | 76.704053 | 843240.0 |
| 3 | 5-7-8-9 | 5-5-5-8 | 1-4-4-4-1 | 0.2 | RMSprop | 0.1283300 | 0.1283300 | 77.338197 | 844740.0 |
| 3 | 5-7-8-9 | 5-5-5-8 | 1-5-5-5-1 | 0.2 | RMSprop | 0.1280561 | 0.1280561 | 73.573915 | 846590.0 |
| 3 | 5-7-8-9 | 5-5-5-8 | 1-6-6-6-1 | 0.2 | RMSprop | nan | nan | 65.894644 | 848790.0 |
| 3 | 5-7-8-9 | 5-5-5-8 | 1-7-7-7-1 | 0.2 | RMSprop | 0.1277126 | 0.1277126 | 68.497323 | 851340.0 |
| 3 | 5-7-8-9 | 5-5-5-8 | 1-8-8-8-1 | 0.2 | RMSprop | 0.1275548 | 0.1275548 | 81.438841 | 854240.0 |
| 3 | 5-7-8-9 | 5-5-5-8 | 1-9-9-9-1 | 0.2 | RMSprop | 0.1276372 | 0.1276372 | 70.737899 | 857490.0 |
| 3 | 5-7-8-9 | 5-5-5-8 | 1-10-10-10-1 | 0.2 | RMSprop | nan | nan | 68.616791 | 861090.0 |
| 3 | 7-8-5-9 | 5-5-5-8 | 1-1-1-1-1 | 0.2 | RMSprop | 0.1293648 | 0.1293648 | 58.143372 | 841290.0 |
| 3 | 7-8-5-9 | 5-5-5-8 | 1-2-2-2-1 | 0.2 | RMSprop | 0.1291483 | 0.1291483 | 62.997319 | 842070.0 |
| 3 | 7-8-5-9 | 5-5-5-8 | 1-3-3-3-1 | 0.2 | RMSprop | nan | nan | 72.405451 | 843180.0 |
| 3 | 7-8-5-9 | 5-5-5-8 | 1-4-4-4-1 | 0.2 | RMSprop | 0.1284746 | 0.1284746 | 78.629918 | 844620.0 |
| 3 | 7-8-5-9 | 5-5-5-8 | 1-5-5-5-1 | 0.2 | RMSprop | 0.1281407 | 0.1281407 | 86.600325 | 846390.0 |
| 3 | 7-8-5-9 | 5-5-5-8 | 1-6-6-6-1 | 0.2 | RMSprop | 0.1279706 | 0.1279706 | 66.359858 | 848490.0 |
| 3 | 7-8-5-9 | 5-5-5-8 | 1-7-7-7-1 | 0.2 | RMSprop | 0.1279072 | 0.1279072 | 65.419636 | 850920.0 |
| 3 | 7-8-5-9 | 5-5-5-8 | 1-8-8-8-1 | 0.2 | RMSprop | 0.1276467 | 0.1276467 | 69.151450 | 853680.0 |
| 3 | 7-8-5-9 | 5-5-5-8 | 1-9-9-9-1 | 0.2 | RMSprop | nan | nan | 76.170444 | 856770.0 |
| 3 | 7-8-5-9 | 5-5-5-8 | 1-10-10-10-1 | 0.2 | RMSprop | nan | nan | 68.875507 | 860190.0 |
| 3 | 5-7-8-9 | 5-5-5-8 | 1-1-1-1-1 | 0.4 | Adam | nan | nan | 61.068158 | 841290.0 |
| 3 | 5-7-8-9 | 5-5-5-8 | 1-2-2-2-1 | 0.4 | Adam | 0.1254119 | 0.1254119 | 62.321598 | 842090.0 |
| 3 | 5-7-8-9 | 5-5-5-8 | 1-3-3-3-1 | 0.4 | Adam | nan | nan | 62.025813 | 843240.0 |
| 3 | 5-7-8-9 | 5-5-5-8 | 1-4-4-4-1 | 0.4 | Adam | 0.1242536 | 0.1242536 | 64.504474 | 844740.0 |
| 3 | 5-7-8-9 | 5-5-5-8 | 1-5-5-5-1 | 0.4 | Adam | nan | nan | 66.030094 | 846590.0 |
| 3 | 5-7-8-9 | 5-5-5-8 | 1-6-6-6-1 | 0.4 | Adam | 0.1239652 | 0.1239652 | 67.828118 | 848790.0 |
| 3 | 5-7-8-9 | 5-5-5-8 | 1-7-7-7-1 | 0.4 | Adam | 0.1236121 | 0.1236121 | 69.276382 | 851340.0 |
| 3 | 5-7-8-9 | 5-5-5-8 | 1-8-8-8-1 | 0.4 | Adam | 0.1236402 | 0.1236402 | 69.454920 | 854240.0 |
| 3 | 5-7-8-9 | 5-5-5-8 | 1-9-9-9-1 | 0.4 | Adam | nan | nan | 71.741912 | 857490.0 |
| 3 | 5-7-8-9 | 5-5-5-8 | 1-10-10-10-1 | 0.4 | Adam | 0.1235454 | 0.1235454 | 73.718553 | 861090.0 |
| 3 | 7-8-5-9 | 5-5-5-8 | 1-1-1-1-1 | 0.4 | Adam | nan | nan | 60.323116 | 841290.0 |
| 3 | 7-8-5-9 | 5-5-5-8 | 1-2-2-2-1 | 0.4 | Adam | nan | nan | 62.789388 | 842070.0 |
| 3 | 7-8-5-9 | 5-5-5-8 | 1-3-3-3-1 | 0.4 | Adam | 0.1250818 | 0.1250818 | 64.546761 | 843180.0 |
| 3 | 7-8-5-9 | 5-5-5-8 | 1-4-4-4-1 | 0.4 | Adam | 0.1245564 | 0.1245564 | 65.570962 | 844620.0 |
| 3 | 7-8-5-9 | 5-5-5-8 | 1-5-5-5-1 | 0.4 | Adam | nan | nan | 63.612070 | 846390.0 |
| 3 | 7-8-5-9 | 5-5-5-8 | 1-6-6-6-1 | 0.4 | Adam | 0.1239862 | 0.1239862 | 68.707106 | 848490.0 |
| 3 | 7-8-5-9 | 5-5-5-8 | 1-7-7-7-1 | 0.4 | Adam | 0.1237444 | 0.1237444 | 70.432139 | 850920.0 |
| 3 | 7-8-5-9 | 5-5-5-8 | 1-8-8-8-1 | 0.4 | Adam | nan | nan | 70.355988 | 853680.0 |
| 3 | 7-8-5-9 | 5-5-5-8 | 1-9-9-9-1 | 0.4 | Adam | 0.1236204 | 0.1236204 | 73.330276 | 856770.0 |
| 3 | 7-8-5-9 | 5-5-5-8 | 1-10-10-10-1 | 0.4 | Adam | 0.1234944 | 0.1234944 | 74.516655 | 860190.0 |
| 3 | 5-7-8-9 | 5-5-5-8 | 1-1-1-1-1 | 0.4 | Adagrad | 0.1288772 | 0.1288772 | 53.391097 | 841290.0 |
| 3 | 5-7-8-9 | 5-5-5-8 | 1-2-2-2-1 | 0.4 | Adagrad | nan | nan | 54.196110 | 842090.0 |
| 3 | 5-7-8-9 | 5-5-5-8 | 1-3-3-3-1 | 0.4 | Adagrad | nan | nan | 54.993530 | 843240.0 |
