| 2 | 5-7-8-9 | 5-5-5-4 | 1-8-8-8-1 | 0.2 | Adam | 0.1233410 | 0.1233410 | 71.271554 | 680156.0 |
| 2 | 5-7-8-9 | 5-5-5-4 | 1-9-9-9-1 | 0.2 | Adam | 0.1232720 | 0.1232720 | 72.593145 | 682383.0 |
| 2 | 5-7-8-9 | 5-5-5-4 | 1-10-10-10-1 | 0.2 | Adam | 0.1232371 | 0.1232371 | 72.608241 | 684860.0 |
| 2 | 7-8-5-9 | 5-5-5-4 | 1-1-1-1-1 | 0.2 | Adam | 0.1252185 | 0.1252185 | 67.361980 | 671567.0 |
| 2 | 7-8-5-9 | 5-5-5-4 | 1-2-2-2-1 | 0.2 | Adam | nan | nan | 64.568039 | 672024.0 |
| 2 | 7-8-5-9 | 5-5-5-4 | 1-3-3-3-1 | 0.2 | Adam | nan | nan | 65.809889 | 672711.0 |
| 2 | 7-8-5-9 | 5-5-5-4 | 1-4-4-4-1 | 0.2 | Adam | 0.1236602 | 0.1236602 | 69.141580 | 673628.0 |
| 2 | 7-8-5-9 | 5-5-5-4 | 1-5-5-5-1 | 0.2 | Adam | nan | nan | 66.169233 | 674775.0 |
| 2 | 7-8-5-9 | 5-5-5-4 | 1-6-6-6-1 | 0.2 | Adam | 0.1233993 | 0.1233993 | 69.828129 | 676152.0 |
| 2 | 7-8-5-9 | 5-5-5-4 | 1-7-7-7-1 | 0.2 | Adam | 0.1233969 | 0.1233969 | 71.666798 | 677759.0 |
| 2 | 7-8-5-9 | 5-5-5-4 | 1-8-8-8-1 | 0.2 | Adam | nan | nan | 69.892890 | 679596.0 |
| 2 | 7-8-5-9 | 5-5-5-4 | 1-9-9-9-1 | 0.2 | Adam | 0.1233084 | 0.1233084 | 73.355410 | 681663.0 |
| 2 | 7-8-5-9 | 5-5-5-4 | 1-10-10-10-1 | 0.2 | Adam | nan | nan | 73.718294 | 683960.0 |
| 2 | 5-7-8-9 | 5-5-5-4 | 1-1-1-1-1 | 0.2 | Adagrad | nan | nan | 37.915691 | 671567.0 |
| 2 | 5-7-8-9 | 5-5-5-4 | 1-2-2-2-1 | 0.2 | Adagrad | 0.1265336 | 0.1265336 | 37.603914 | 672044.0 |
| 2 | 5-7-8-9 | 5-5-5-4 | 1-3-3-3-1 | 0.2 | Adagrad | 0.1259189 | 0.1259189 | 37.886798 | 672771.0 |
| 2 | 5-7-8-9 | 5-5-5-4 | 1-4-4-4-1 | 0.2 | Adagrad | 0.1256837 | 0.1256837 | 37.587446 | 673748.0 |
| 2 | 5-7-8-9 | 5-5-5-4 | 1-5-5-5-1 | 0.2 | Adagrad | 0.1255324 | 0.1255324 | 38.818355 | 674975.0 |
| 2 | 5-7-8-9 | 5-5-5-4 | 1-6-6-6-1 | 0.2 | Adagrad | 0.1254962 | 0.1254962 | 40.397183 | 676452.0 |
| 2 | 5-7-8-9 | 5-5-5-4 | 1-7-7-7-1 | 0.2 | Adagrad | 0.1247916 | 0.1247916 | 40.203637 | 678179.0 |
| 2 | 5-7-8-9 | 5-5-5-4 | 1-8-8-8-1 | 0.2 | Adagrad | 0.1248609 | 0.1248609 | 41.531551 | 680156.0 |
| 2 | 5-7-8-9 | 5-5-5-4 | 1-9-9-9-1 | 0.2 | Adagrad | 0.1246726 | 0.1246726 | 42.539824 | 682383.0 |
| 2 | 5-7-8-9 | 5-5-5-4 | 1-10-10-10-1 | 0.2 | Adagrad | 0.1246612 | 0.1246612 | 42.689370 | 684860.0 |
| 2 | 7-8-5-9 | 5-5-5-4 | 1-1-1-1-1 | 0.2 | Adagrad | 0.1274344 | 0.1274344 | 39.076359 | 671567.0 |
| 2 | 7-8-5-9 | 5-5-5-4 | 1-2-2-2-1 | 0.2 | Adagrad | 0.1263994 | 0.1263994 | 39.430277 | 672024.0 |
| 2 | 7-8-5-9 | 5-5-5-4 | 1-3-3-3-1 | 0.2 | Adagrad | nan | nan | 39.639860 | 672711.0 |
| 2 | 7-8-5-9 | 5-5-5-4 | 1-4-4-4-1 | 0.2 | Adagrad | 0.1254478 | 0.1254478 | 39.071747 | 673628.0 |
| 2 | 7-8-5-9 | 5-5-5-4 | 1-5-5-5-1 | 0.2 | Adagrad | 0.1255597 | 0.1255597 | 39.495707 | 674775.0 |
| 2 | 7-8-5-9 | 5-5-5-4 | 1-6-6-6-1 | 0.2 | Adagrad | 0.1253326 | 0.1253326 | 40.394654 | 676152.0 |
| 2 | 7-8-5-9 | 5-5-5-4 | 1-7-7-7-1 | 0.2 | Adagrad | 0.1254593 | 0.1254593 | 40.782441 | 677759.0 |
| 2 | 7-8-5-9 | 5-5-5-4 | 1-8-8-8-1 | 0.2 | Adagrad | 0.1251061 | 0.1251061 | 41.149924 | 679596.0 |
| 2 | 7-8-5-9 | 5-5-5-4 | 1-9-9-9-1 | 0.2 | Adagrad | 0.1248015 | 0.1248015 | 42.656142 | 681663.0 |
| 2 | 7-8-5-9 | 5-5-5-4 | 1-10-10-10-1 | 0.2 | Adagrad | 0.1246043 | 0.1246043 | 43.396315 | 683960.0 |
| 2 | 5-7-8-9 | 5-5-5-4 | 1-1-1-1-1 | 0.2 | RMSprop | 0.1291313 | 0.1291313 | 77.652333 | 671567.0 |
| 2 | 5-7-8-9 | 5-5-5-4 | 1-2-2-2-1 | 0.2 | RMSprop | nan | nan | 72.677888 | 672044.0 |
| 2 | 5-7-8-9 | 5-5-5-4 | 1-3-3-3-1 | 0.2 | RMSprop | 0.1282166 | 0.1282166 | 70.661593 | 672771.0 |
| 2 | 5-7-8-9 | 5-5-5-4 | 1-4-4-4-1 | 0.2 | RMSprop | 0.1282115 | 0.1282115 | 70.402618 | 673748.0 |
| 2 | 5-7-8-9 | 5-5-5-4 | 1-5-5-5-1 | 0.2 | RMSprop | 0.1275211 | 0.1275211 | 65.866157 | 674975.0 |
| 2 | 5-7-8-9 | 5-5-5-4 | 1-6-6-6-1 | 0.2 | RMSprop | 0.1274176 | 0.1274176 | 62.998615 | 676452.0 |
| 2 | 5-7-8-9 | 5-5-5-4 | 1-7-7-7-1 | 0.2 | RMSprop | 0.1273963 | 0.1273963 | 62.916940 | 678179.0 |
| 2 | 5-7-8-9 | 5-5-5-4 | 1-8-8-8-1 | 0.2 | RMSprop | nan | nan | 60.657601 | 680156.0 |
| 2 | 5-7-8-9 | 5-5-5-4 | 1-9-9-9-1 | 0.2 | RMSprop | 0.1270476 | 0.1270476 | 62.567320 | 682383.0 |
| 2 | 5-7-8-9 | 5-5-5-4 | 1-10-10-10-1 | 0.2 | RMSprop | 0.1270719 | 0.1270719 | 63.052136 | 684860.0 |
| 2 | 7-8-5-9 | 5-5-5-4 | 1-1-1-1-1 | 0.2 | RMSprop | 0.1293707 | 0.1293707 | 73.911281 | 671567.0 |
| 2 | 7-8-5-9 | 5-5-5-4 | 1-2-2-2-1 | 0.2 | RMSprop | nan | nan | 62.344560 | 672024.0 |
| 2 | 7-8-5-9 | 5-5-5-4 | 1-3-3-3-1 | 0.2 | RMSprop | 0.1284550 | 0.1284550 | 66.088784 | 672711.0 |
| 2 | 7-8-5-9 | 5-5-5-4 | 1-4-4-4-1 | 0.2 | RMSprop | 0.1280454 | 0.1280454 | 63.950970 | 673628.0 |
| 2 | 7-8-5-9 | 5-5-5-4 | 1-5-5-5-1 | 0.2 | RMSprop | 0.1278667 | 0.1278667 | 63.363794 | 674775.0 |
| 2 | 7-8-5-9 | 5-5-5-4 | 1-6-6-6-1 | 0.2 | RMSprop | 0.1275711 | 0.1275711 | 62.986873 | 676152.0 |
| 2 | 7-8-5-9 | 5-5-5-4 | 1-7-7-7-1 | 0.2 | RMSprop | 0.1275577 | 0.1275577 | 63.601374 | 677759.0 |
| 2 | 7-8-5-9 | 5-5-5-4 | 1-8-8-8-1 | 0.2 | RMSprop | 0.1271883 | 0.1271883 | 63.079201 | 679596.0 |
| 2 | 7-8-5-9 | 5-5-5-4 | 1-9-9-9-1 | 0.2 | RMSprop | 0.1271119 | 0.1271119 | 63.705880 | 681663.0 |
| 2 | 7-8-5-9 | 5-5-5-4 | 1-10-10-10-1 | 0.2 | RMSprop | 0.1269605 | 0.1269605 | 64.300899 | 683960.0 |
| 2 | 5-7-8-9 | 5-5-5-4 | 1-1-1-1-1 | 0.4 | Adam | nan | nan | 63.254193 | 671567.0 |
| 2 | 5-7-8-9 | 5-5-5-4 | 1-2-2-2-1 | 0.4 | Adam | nan | nan | 65.302743 | 672044.0 |
| 2 | 5-7-8-9 | 5-5-5-4 | 1-3-3-3-1 | 0.4 | Adam | nan | nan | 60.007443 | 672771.0 |
| 2 | 5-7-8-9 | 5-5-5-4 | 1-4-4-4-1 | 0.4 | Adam | 0.1252855 | 0.1252855 | 64.777325 | 673748.0 |
| 2 | 5-7-8-9 | 5-5-5-4 | 1-5-5-5-1 | 0.4 | Adam | nan | nan | 62.469295 | 674975.0 |
| 2 | 5-7-8-9 | 5-5-5-4 | 1-6-6-6-1 | 0.4 | Adam | 0.1249562 | 0.1249562 | 63.708993 | 676452.0 |
| 2 | 5-7-8-9 | 5-5-5-4 | 1-7-7-7-1 | 0.4 | Adam | 0.1247376 | 0.1247376 | 63.369584 | 678179.0 |
| 2 | 5-7-8-9 | 5-5-5-4 | 1-8-8-8-1 | 0.4 | Adam | 0.1251245 | 0.1251245 | 64.344716 | 680156.0 |
| 2 | 5-7-8-9 | 5-5-5-4 | 1-9-9-9-1 | 0.4 | Adam | 0.1250214 | 0.1250214 | 61.245733 | 682383.0 |
| 2 | 5-7-8-9 | 5-5-5-4 | 1-10-10-10-1 | 0.4 | Adam | 0.1247651 | 0.1247651 | 60.440616 | 684860.0 |
| 2 | 7-8-5-9 | 5-5-5-4 | 1-1-1-1-1 | 0.4 | Adam | nan | nan | 57.651007 | 671567.0 |
