| 2 | 7-8-5-9 | 5-5-5-8 | 1-2-2-2-1 | 0.4 | Adam | 0.1249492 | 0.1249492 | 283.39329 | 1842692.0 |
| 2 | 7-8-5-9 | 5-5-5-8 | 1-3-3-3-1 | 0.4 | Adam | nan | nan | 267.83015 | 1843463.0 |
| 2 | 7-8-5-9 | 5-5-5-8 | 1-4-4-4-1 | 0.4 | Adam | nan | nan | 265.67126 | 1844464.0 |
| 2 | 7-8-5-9 | 5-5-5-8 | 1-5-5-5-1 | 0.4 | Adam | 0.1245705 | 0.1245705 | 282.00956 | 1845695.0 |
| 2 | 7-8-5-9 | 5-5-5-8 | 1-6-6-6-1 | 0.4 | Adam | nan | nan | 271.26679 | 1847156.0 |
| 2 | 7-8-5-9 | 5-5-5-8 | 1-7-7-7-1 | 0.4 | Adam | nan | nan | 271.14914 | 1848847.0 |
| 2 | 7-8-5-9 | 5-5-5-8 | 1-8-8-8-1 | 0.4 | Adam | 0.1240047 | 0.1240047 | 283.51318 | 1850768.0 |
| 2 | 7-8-5-9 | 5-5-5-8 | 1-9-9-9-1 | 0.4 | Adam | 0.1241626 | 0.1241626 | 285.23840 | 1852919.0 |
| 2 | 7-8-5-9 | 5-5-5-8 | 1-10-10-10-1 | 0.4 | Adam | 0.1239832 | 0.1239832 | 285.43182 | 1855300.0 |
| 2 | 5-7-8-9 | 5-5-5-8 | 1-1-1-1-1 | 0.4 | Adagrad | nan | nan | 93.406244 | 1842151.0 |
| 2 | 5-7-8-9 | 5-5-5-8 | 1-2-2-2-1 | 0.4 | Adagrad | 0.1275028 | 0.1275028 | 96.020807 | 1842712.0 |
| 2 | 5-7-8-9 | 5-5-5-8 | 1-3-3-3-1 | 0.4 | Adagrad | 0.1269833 | 0.1269833 | 97.338162 | 1843523.0 |
| 2 | 5-7-8-9 | 5-5-5-8 | 1-4-4-4-1 | 0.4 | Adagrad | 0.1263989 | 0.1263989 | 97.496683 | 1844584.0 |
| 2 | 5-7-8-9 | 5-5-5-8 | 1-5-5-5-1 | 0.4 | Adagrad | 0.1264614 | 0.1264614 | 99.349685 | 1845895.0 |
| 2 | 5-7-8-9 | 5-5-5-8 | 1-6-6-6-1 | 0.4 | Adagrad | nan | nan | 99.569493 | 1847456.0 |
| 2 | 5-7-8-9 | 5-5-5-8 | 1-7-7-7-1 | 0.4 | Adagrad | 0.1261652 | 0.1261652 | 101.53285 | 1849267.0 |
| 2 | 5-7-8-9 | 5-5-5-8 | 1-8-8-8-1 | 0.4 | Adagrad | 0.1260249 | 0.1260249 | 101.78544 | 1851328.0 |
| 2 | 5-7-8-9 | 5-5-5-8 | 1-9-9-9-1 | 0.4 | Adagrad | 0.1260773 | 0.1260773 | 103.46843 | 1853639.0 |
| 2 | 5-7-8-9 | 5-5-5-8 | 1-10-10-10-1 | 0.4 | Adagrad | 0.1260946 | 0.1260946 | 104.98281 | 1856200.0 |
| 2 | 7-8-5-9 | 5-5-5-8 | 1-1-1-1-1 | 0.4 | Adagrad | nan | nan | 96.616191 | 1842151.0 |
| 2 | 7-8-5-9 | 5-5-5-8 | 1-2-2-2-1 | 0.4 | Adagrad | 0.1274891 | 0.1274891 | 97.035297 | 1842692.0 |
| 2 | 7-8-5-9 | 5-5-5-8 | 1-3-3-3-1 | 0.4 | Adagrad | 0.1267487 | 0.1267487 | 98.781718 | 1843463.0 |
| 2 | 7-8-5-9 | 5-5-5-8 | 1-4-4-4-1 | 0.4 | Adagrad | 0.1265785 | 0.1265785 | 98.748639 | 1844464.0 |
| 2 | 7-8-5-9 | 5-5-5-8 | 1-5-5-5-1 | 0.4 | Adagrad | 0.1268676 | 0.1268676 | 100.16097 | 1845695.0 |
| 2 | 7-8-5-9 | 5-5-5-8 | 1-6-6-6-1 | 0.4 | Adagrad | nan | nan | 98.324557 | 1847156.0 |
| 2 | 7-8-5-9 | 5-5-5-8 | 1-7-7-7-1 | 0.4 | Adagrad | nan | nan | 100.47610 | 1848847.0 |
| 2 | 7-8-5-9 | 5-5-5-8 | 1-8-8-8-1 | 0.4 | Adagrad | 0.1261955 | 0.1261955 | 98.610850 | 1850768.0 |
| 2 | 7-8-5-9 | 5-5-5-8 | 1-9-9-9-1 | 0.4 | Adagrad | 0.1261510 | 0.1261510 | 99.174901 | 1852919.0 |
| 2 | 7-8-5-9 | 5-5-5-8 | 1-10-10-10-1 | 0.4 | Adagrad | nan | nan | 99.444033 | 1855300.0 |
| 2 | 5-7-8-9 | 5-5-5-8 | 1-1-1-1-1 | 0.4 | RMSprop | nan | nan | 298.77815 | 1842151.0 |
| 2 | 5-7-8-9 | 5-5-5-8 | 1-2-2-2-1 | 0.4 | RMSprop | 0.1293002 | 0.1293002 | 300.15796 | 1842712.0 |
| 2 | 5-7-8-9 | 5-5-5-8 | 1-3-3-3-1 | 0.4 | RMSprop | 0.1292042 | 0.1292042 | 298.62018 | 1843523.0 |
| 2 | 5-7-8-9 | 5-5-5-8 | 1-4-4-4-1 | 0.4 | RMSprop | 0.1287807 | 0.1287807 | 281.69870 | 1844584.0 |
| 2 | 5-7-8-9 | 5-5-5-8 | 1-5-5-5-1 | 0.4 | RMSprop | 0.1286818 | 0.1286818 | 280.57528 | 1845895.0 |
| 2 | 5-7-8-9 | 5-5-5-8 | 1-6-6-6-1 | 0.4 | RMSprop | nan | nan | 260.70786 | 1847456.0 |
| 2 | 5-7-8-9 | 5-5-5-8 | 1-7-7-7-1 | 0.4 | RMSprop | 0.1285611 | 0.1285611 | 276.88842 | 1849267.0 |
| 2 | 5-7-8-9 | 5-5-5-8 | 1-8-8-8-1 | 0.4 | RMSprop | 0.1284733 | 0.1284733 | 258.70937 | 1851328.0 |
| 2 | 5-7-8-9 | 5-5-5-8 | 1-9-9-9-1 | 0.4 | RMSprop | 0.1284441 | 0.1284441 | 259.21304 | 1853639.0 |
| 2 | 5-7-8-9 | 5-5-5-8 | 1-10-10-10-1 | 0.4 | RMSprop | 0.1282705 | 0.1282705 | 255.15558 | 1856200.0 |
| 2 | 7-8-5-9 | 5-5-5-8 | 1-1-1-1-1 | 0.4 | RMSprop | 0.1295513 | 0.1295513 | 298.03326 | 1842151.0 |
| 2 | 7-8-5-9 | 5-5-5-8 | 1-2-2-2-1 | 0.4 | RMSprop | nan | nan | 267.69866 | 1842692.0 |
| 2 | 7-8-5-9 | 5-5-5-8 | 1-3-3-3-1 | 0.4 | RMSprop | 0.1288740 | 0.1288740 | 267.39912 | 1843463.0 |
| 2 | 7-8-5-9 | 5-5-5-8 | 1-4-4-4-1 | 0.4 | RMSprop | 0.1288446 | 0.1288446 | 268.73442 | 1844464.0 |
| 2 | 7-8-5-9 | 5-5-5-8 | 1-5-5-5-1 | 0.4 | RMSprop | 0.1286983 | 0.1286983 | 262.85438 | 1845695.0 |
| 2 | 7-8-5-9 | 5-5-5-8 | 1-6-6-6-1 | 0.4 | RMSprop | 0.1286186 | 0.1286186 | 261.41138 | 1847156.0 |
| 2 | 7-8-5-9 | 5-5-5-8 | 1-7-7-7-1 | 0.4 | RMSprop | 0.1285274 | 0.1285274 | 260.63155 | 1848847.0 |
| 2 | 7-8-5-9 | 5-5-5-8 | 1-8-8-8-1 | 0.4 | RMSprop | 0.1284654 | 0.1284654 | 258.64772 | 1850768.0 |
| 2 | 7-8-5-9 | 5-5-5-8 | 1-9-9-9-1 | 0.4 | RMSprop | 0.1284952 | 0.1284952 | 260.72435 | 1852919.0 |
| 2 | 7-8-5-9 | 5-5-5-8 | 1-10-10-10-1 | 0.4 | RMSprop | nan | nan | 254.98167 | 1855300.0 |
| 3 | 5-7-8-9 | 5-5-5-8 | 1-1-1-1-1 | 0.0 | Adam | 0.1284489 | 0.1284489 | 50.863180 | 841290.0 |
| 3 | 5-7-8-9 | 5-5-5-8 | 1-2-2-2-1 | 0.0 | Adam | nan | nan | 51.282736 | 842090.0 |
| 3 | 5-7-8-9 | 5-5-5-8 | 1-3-3-3-1 | 0.0 | Adam | 0.1279843 | 0.1279843 | 53.118946 | 843240.0 |
| 3 | 5-7-8-9 | 5-5-5-8 | 1-4-4-4-1 | 0.0 | Adam | 0.1288341 | 0.1288341 | 53.451019 | 844740.0 |
| 3 | 5-7-8-9 | 5-5-5-8 | 1-5-5-5-1 | 0.0 | Adam | 0.1286465 | 0.1286465 | 54.615035 | 846590.0 |
| 3 | 5-7-8-9 | 5-5-5-8 | 1-6-6-6-1 | 0.0 | Adam | nan | nan | 56.098323 | 848790.0 |
| 3 | 5-7-8-9 | 5-5-5-8 | 1-7-7-7-1 | 0.0 | Adam | 0.1286347 | 0.1286347 | 57.593157 | 851340.0 |
| 3 | 5-7-8-9 | 5-5-5-8 | 1-8-8-8-1 | 0.0 | Adam | nan | nan | 56.404275 | 854240.0 |
| 3 | 5-7-8-9 | 5-5-5-8 | 1-9-9-9-1 | 0.0 | Adam | 0.1276099 | 0.1276099 | 59.913529 | 857490.0 |
| 3 | 5-7-8-9 | 5-5-5-8 | 1-10-10-10-1 | 0.0 | Adam | 0.1278949 | 0.1278949 | 61.241309 | 861090.0 |
| 3 | 7-8-5-9 | 5-5-5-8 | 1-1-1-1-1 | 0.0 | Adam | nan | nan | 50.425847 | 841290.0 |
| 3 | 7-8-5-9 | 5-5-5-8 | 1-2-2-2-1 | 0.0 | Adam | nan | nan | 51.576944 | 842070.0 |
| 3 | 7-8-5-9 | 5-5-5-8 | 1-3-3-3-1 | 0.0 | Adam | nan | nan | 53.351817 | 843180.0 |
| 3 | 7-8-5-9 | 5-5-5-8 | 1-4-4-4-1 | 0.0 | Adam | 0.1279326 | 0.1279326 | 53.794524 | 844620.0 |
| 3 | 7-8-5-9 | 5-5-5-8 | 1-5-5-5-1 | 0.0 | Adam | 0.1287986 | 0.1287986 | 55.042762 | 846390.0 |
