| 2 | 5-7-8-9 | 5-5-5-8 | 1-4-4-4-1 | 0.0 | Adam | 0.1241764 | 0.1241764 | 283.39895 | 1844584.0 |
| 2 | 5-7-8-9 | 5-5-5-8 | 1-5-5-5-1 | 0.0 | Adam | 0.1239806 | 0.1239806 | 282.31764 | 1845895.0 |
| 2 | 5-7-8-9 | 5-5-5-8 | 1-6-6-6-1 | 0.0 | Adam | nan | nan | 286.00554 | 1847456.0 |
| 2 | 5-7-8-9 | 5-5-5-8 | 1-7-7-7-1 | 0.0 | Adam | 0.1237956 | 0.1237956 | 289.71356 | 1849267.0 |
| 2 | 5-7-8-9 | 5-5-5-8 | 1-8-8-8-1 | 0.0 | Adam | 0.1238974 | 0.1238974 | 289.82719 | 1851328.0 |
| 2 | 5-7-8-9 | 5-5-5-8 | 1-9-9-9-1 | 0.0 | Adam | 0.1235616 | 0.1235616 | 294.15081 | 1853639.0 |
| 2 | 5-7-8-9 | 5-5-5-8 | 1-10-10-10-1 | 0.0 | Adam | nan | nan | 295.11219 | 1856200.0 |
| 2 | 7-8-5-9 | 5-5-5-8 | 1-1-1-1-1 | 0.0 | Adam | 0.1247432 | 0.1247432 | 266.32098 | 1842151.0 |
| 2 | 7-8-5-9 | 5-5-5-8 | 1-2-2-2-1 | 0.0 | Adam | nan | nan | 259.38294 | 1842692.0 |
| 2 | 7-8-5-9 | 5-5-5-8 | 1-3-3-3-1 | 0.0 | Adam | 0.1244131 | 0.1244131 | 275.02931 | 1843463.0 |
| 2 | 7-8-5-9 | 5-5-5-8 | 1-4-4-4-1 | 0.0 | Adam | 0.1241890 | 0.1241890 | 278.05830 | 1844464.0 |
| 2 | 7-8-5-9 | 5-5-5-8 | 1-5-5-5-1 | 0.0 | Adam | 0.1241096 | 0.1241096 | 282.04898 | 1845695.0 |
| 2 | 7-8-5-9 | 5-5-5-8 | 1-6-6-6-1 | 0.0 | Adam | 0.1239566 | 0.1239566 | 286.75113 | 1847156.0 |
| 2 | 7-8-5-9 | 5-5-5-8 | 1-7-7-7-1 | 0.0 | Adam | 0.1238723 | 0.1238723 | 289.10334 | 1848847.0 |
| 2 | 7-8-5-9 | 5-5-5-8 | 1-8-8-8-1 | 0.0 | Adam | 0.1235939 | 0.1235939 | 292.21406 | 1850768.0 |
| 2 | 7-8-5-9 | 5-5-5-8 | 1-9-9-9-1 | 0.0 | Adam | 0.1237068 | 0.1237068 | 295.73835 | 1852919.0 |
| 2 | 7-8-5-9 | 5-5-5-8 | 1-10-10-10-1 | 0.0 | Adam | nan | nan | 294.62621 | 1855300.0 |
| 2 | 5-7-8-9 | 5-5-5-8 | 1-1-1-1-1 | 0.0 | Adagrad | nan | nan | 97.448434 | 1842151.0 |
| 2 | 5-7-8-9 | 5-5-5-8 | 1-2-2-2-1 | 0.0 | Adagrad | nan | nan | 96.520410 | 1842712.0 |
| 2 | 5-7-8-9 | 5-5-5-8 | 1-3-3-3-1 | 0.0 | Adagrad | 0.1236115 | 0.1236115 | 100.00488 | 1843523.0 |
| 2 | 5-7-8-9 | 5-5-5-8 | 1-4-4-4-1 | 0.0 | Adagrad | 0.1235199 | 0.1235199 | 99.881243 | 1844584.0 |
| 2 | 5-7-8-9 | 5-5-5-8 | 1-5-5-5-1 | 0.0 | Adagrad | 0.1234323 | 0.1234323 | 101.30974 | 1845895.0 |
| 2 | 5-7-8-9 | 5-5-5-8 | 1-6-6-6-1 | 0.0 | Adagrad | 0.1233080 | 0.1233080 | 102.21758 | 1847456.0 |
| 2 | 5-7-8-9 | 5-5-5-8 | 1-7-7-7-1 | 0.0 | Adagrad | 0.1233096 | 0.1233096 | 103.30725 | 1849267.0 |
| 2 | 5-7-8-9 | 5-5-5-8 | 1-8-8-8-1 | 0.0 | Adagrad | 0.1233225 | 0.1233225 | 103.67371 | 1851328.0 |
| 2 | 5-7-8-9 | 5-5-5-8 | 1-9-9-9-1 | 0.0 | Adagrad | nan | nan | 105.54908 | 1853639.0 |
| 2 | 5-7-8-9 | 5-5-5-8 | 1-10-10-10-1 | 0.0 | Adagrad | 0.1232310 | 0.1232310 | 105.99403 | 1856200.0 |
| 2 | 7-8-5-9 | 5-5-5-8 | 1-1-1-1-1 | 0.0 | Adagrad | nan | nan | 96.587326 | 1842151.0 |
| 2 | 7-8-5-9 | 5-5-5-8 | 1-2-2-2-1 | 0.0 | Adagrad | nan | nan | 97.809392 | 1842692.0 |
| 2 | 7-8-5-9 | 5-5-5-8 | 1-3-3-3-1 | 0.0 | Adagrad | nan | nan | 96.225030 | 1843463.0 |
| 2 | 7-8-5-9 | 5-5-5-8 | 1-4-4-4-1 | 0.0 | Adagrad | nan | nan | 99.473945 | 1844464.0 |
| 2 | 7-8-5-9 | 5-5-5-8 | 1-5-5-5-1 | 0.0 | Adagrad | nan | nan | 100.17918 | 1845695.0 |
| 2 | 7-8-5-9 | 5-5-5-8 | 1-6-6-6-1 | 0.0 | Adagrad | 0.1235448 | 0.1235448 | 101.26249 | 1847156.0 |
| 2 | 7-8-5-9 | 5-5-5-8 | 1-7-7-7-1 | 0.0 | Adagrad | 0.1232956 | 0.1232956 | 102.49694 | 1848847.0 |
| 2 | 7-8-5-9 | 5-5-5-8 | 1-8-8-8-1 | 0.0 | Adagrad | 0.1232548 | 0.1232548 | 102.51276 | 1850768.0 |
| 2 | 7-8-5-9 | 5-5-5-8 | 1-9-9-9-1 | 0.0 | Adagrad | 0.1232840 | 0.1232840 | 104.33811 | 1852919.0 |
| 2 | 7-8-5-9 | 5-5-5-8 | 1-10-10-10-1 | 0.0 | Adagrad | 0.1233343 | 0.1233343 | 104.97156 | 1855300.0 |
| 2 | 5-7-8-9 | 5-5-5-8 | 1-1-1-1-1 | 0.0 | RMSprop | nan | nan | 246.07378 | 1842151.0 |
| 2 | 5-7-8-9 | 5-5-5-8 | 1-2-2-2-1 | 0.0 | RMSprop | 0.1257431 | 0.1257431 | 258.59005 | 1842712.0 |
| 2 | 5-7-8-9 | 5-5-5-8 | 1-3-3-3-1 | 0.0 | RMSprop | 0.1253517 | 0.1253517 | 255.14011 | 1843523.0 |
| 2 | 5-7-8-9 | 5-5-5-8 | 1-4-4-4-1 | 0.0 | RMSprop | 0.1252309 | 0.1252309 | 257.70385 | 1844584.0 |
| 2 | 5-7-8-9 | 5-5-5-8 | 1-5-5-5-1 | 0.0 | RMSprop | nan | nan | 247.05262 | 1845895.0 |
| 2 | 5-7-8-9 | 5-5-5-8 | 1-6-6-6-1 | 0.0 | RMSprop | nan | nan | 258.66899 | 1847456.0 |
| 2 | 5-7-8-9 | 5-5-5-8 | 1-7-7-7-1 | 0.0 | RMSprop | 0.1249596 | 0.1249596 | 271.96852 | 1849267.0 |
| 2 | 5-7-8-9 | 5-5-5-8 | 1-8-8-8-1 | 0.0 | RMSprop | 0.1247789 | 0.1247789 | 272.39427 | 1851328.0 |
| 2 | 5-7-8-9 | 5-5-5-8 | 1-9-9-9-1 | 0.0 | RMSprop | 0.1247880 | 0.1247880 | 273.10119 | 1853639.0 |
| 2 | 5-7-8-9 | 5-5-5-8 | 1-10-10-10-1 | 0.0 | RMSprop | 0.1247586 | 0.1247586 | 275.73745 | 1856200.0 |
| 2 | 7-8-5-9 | 5-5-5-8 | 1-1-1-1-1 | 0.0 | RMSprop | 0.1271218 | 0.1271218 | 260.78092 | 1842151.0 |
| 2 | 7-8-5-9 | 5-5-5-8 | 1-2-2-2-1 | 0.0 | RMSprop | nan | nan | 247.59148 | 1842692.0 |
| 2 | 7-8-5-9 | 5-5-5-8 | 1-3-3-3-1 | 0.0 | RMSprop | 0.1254856 | 0.1254856 | 260.03273 | 1843463.0 |
| 2 | 7-8-5-9 | 5-5-5-8 | 1-4-4-4-1 | 0.0 | RMSprop | nan | nan | 229.89974 | 1844464.0 |
| 2 | 7-8-5-9 | 5-5-5-8 | 1-5-5-5-1 | 0.0 | RMSprop | 0.1252322 | 0.1252322 | 252.32821 | 1845695.0 |
| 2 | 7-8-5-9 | 5-5-5-8 | 1-6-6-6-1 | 0.0 | RMSprop | 0.1250189 | 0.1250189 | 256.07913 | 1847156.0 |
| 2 | 7-8-5-9 | 5-5-5-8 | 1-7-7-7-1 | 0.0 | RMSprop | 0.1249097 | 0.1249097 | 262.04771 | 1848847.0 |
| 2 | 7-8-5-9 | 5-5-5-8 | 1-8-8-8-1 | 0.0 | RMSprop | 0.1247701 | 0.1247701 | 260.55058 | 1850768.0 |
| 2 | 7-8-5-9 | 5-5-5-8 | 1-9-9-9-1 | 0.0 | RMSprop | nan | nan | 242.78912 | 1852919.0 |
| 2 | 7-8-5-9 | 5-5-5-8 | 1-10-10-10-1 | 0.0 | RMSprop | 0.1247326 | 0.1247326 | 264.51886 | 1855300.0 |
| 2 | 5-7-8-9 | 5-5-5-8 | 1-1-1-1-1 | 0.2 | Adam | 0.1242803 | 0.1242803 | 263.82637 | 1842151.0 |
| 2 | 5-7-8-9 | 5-5-5-8 | 1-2-2-2-1 | 0.2 | Adam | nan | nan | 243.17575 | 1842712.0 |
| 2 | 5-7-8-9 | 5-5-5-8 | 1-3-3-3-1 | 0.2 | Adam | 0.1235171 | 0.1235171 | 269.56723 | 1843523.0 |
| 2 | 5-7-8-9 | 5-5-5-8 | 1-4-4-4-1 | 0.2 | Adam | 0.1232059 | 0.1232059 | 269.34483 | 1844584.0 |
| 2 | 5-7-8-9 | 5-5-5-8 | 1-5-5-5-1 | 0.2 | Adam | nan | nan | 264.79487 | 1845895.0 |
| 2 | 5-7-8-9 | 5-5-5-8 | 1-6-6-6-1 | 0.2 | Adam | 0.1232556 | 0.1232556 | 273.62188 | 1847456.0 |
| 2 | 5-7-8-9 | 5-5-5-8 | 1-7-7-7-1 | 0.2 | Adam | 0.1232135 | 0.1232135 | 275.16524 | 1849267.0 |
