| 3 | 5-7-8-9 | 5-5-5-4 | 1-4-4-4-1 | 0.4 | Adagrad | nan | nan | 28.292855 | 424212.0 |
| 3 | 5-7-8-9 | 5-5-5-4 | 1-5-5-5-1 | 0.4 | Adagrad | nan | nan | 28.923870 | 425930.0 |
| 3 | 5-7-8-9 | 5-5-5-4 | 1-6-6-6-1 | 0.4 | Adagrad | nan | nan | 29.966261 | 427998.0 |
| 3 | 5-7-8-9 | 5-5-5-4 | 1-7-7-7-1 | 0.4 | Adagrad | 0.1274684 | 0.1274684 | 30.602320 | 430416.0 |
| 3 | 5-7-8-9 | 5-5-5-4 | 1-8-8-8-1 | 0.4 | Adagrad | 0.1273924 | 0.1273924 | 31.541034 | 433184.0 |
| 3 | 5-7-8-9 | 5-5-5-4 | 1-9-9-9-1 | 0.4 | Adagrad | 0.1271811 | 0.1271811 | 32.161215 | 436302.0 |
| 3 | 5-7-8-9 | 5-5-5-4 | 1-10-10-10-1 | 0.4 | Adagrad | 0.1271480 | 0.1271480 | 32.778569 | 439770.0 |
| 3 | 7-8-5-9 | 5-5-5-4 | 1-1-1-1-1 | 0.4 | Adagrad | 0.1290953 | 0.1290953 | 27.627939 | 421158.0 |
| 3 | 7-8-5-9 | 5-5-5-4 | 1-2-2-2-1 | 0.4 | Adagrad | 0.1286627 | 0.1286627 | 28.164958 | 421806.0 |
| 3 | 7-8-5-9 | 5-5-5-4 | 1-3-3-3-1 | 0.4 | Adagrad | nan | nan | 28.508578 | 422784.0 |
| 3 | 7-8-5-9 | 5-5-5-4 | 1-4-4-4-1 | 0.4 | Adagrad | 0.1280895 | 0.1280895 | 29.410899 | 424092.0 |
| 3 | 7-8-5-9 | 5-5-5-4 | 1-5-5-5-1 | 0.4 | Adagrad | nan | nan | 29.808302 | 425730.0 |
| 3 | 7-8-5-9 | 5-5-5-4 | 1-6-6-6-1 | 0.4 | Adagrad | nan | nan | 30.683953 | 427698.0 |
| 3 | 7-8-5-9 | 5-5-5-4 | 1-7-7-7-1 | 0.4 | Adagrad | nan | nan | 31.542842 | 429996.0 |
| 3 | 7-8-5-9 | 5-5-5-4 | 1-8-8-8-1 | 0.4 | Adagrad | 0.1276529 | 0.1276529 | 31.331055 | 432624.0 |
| 3 | 7-8-5-9 | 5-5-5-4 | 1-9-9-9-1 | 0.4 | Adagrad | nan | nan | 33.033308 | 435582.0 |
| 3 | 7-8-5-9 | 5-5-5-4 | 1-10-10-10-1 | 0.4 | Adagrad | 0.1272586 | 0.1272586 | 33.285235 | 438870.0 |
| 3 | 5-7-8-9 | 5-5-5-4 | 1-1-1-1-1 | 0.4 | RMSprop | 0.1298274 | 0.1298274 | 31.380927 | 421158.0 |
| 3 | 5-7-8-9 | 5-5-5-4 | 1-2-2-2-1 | 0.4 | RMSprop | nan | nan | 36.225905 | 421826.0 |
| 3 | 5-7-8-9 | 5-5-5-4 | 1-3-3-3-1 | 0.4 | RMSprop | 0.1291275 | 0.1291275 | 48.723429 | 422844.0 |
| 3 | 5-7-8-9 | 5-5-5-4 | 1-4-4-4-1 | 0.4 | RMSprop | nan | nan | 40.600532 | 424212.0 |
| 3 | 5-7-8-9 | 5-5-5-4 | 1-5-5-5-1 | 0.4 | RMSprop | nan | nan | 41.193310 | 425930.0 |
| 3 | 5-7-8-9 | 5-5-5-4 | 1-6-6-6-1 | 0.4 | RMSprop | 0.1287812 | 0.1287812 | 45.795519 | 427998.0 |
| 3 | 5-7-8-9 | 5-5-5-4 | 1-7-7-7-1 | 0.4 | RMSprop | 0.1287131 | 0.1287131 | 36.747558 | 430416.0 |
| 3 | 5-7-8-9 | 5-5-5-4 | 1-8-8-8-1 | 0.4 | RMSprop | nan | nan | 39.662424 | 433184.0 |
| 3 | 5-7-8-9 | 5-5-5-4 | 1-9-9-9-1 | 0.4 | RMSprop | nan | nan | 33.758613 | 436302.0 |
| 3 | 5-7-8-9 | 5-5-5-4 | 1-10-10-10-1 | 0.4 | RMSprop | 0.1285856 | 0.1285856 | 36.525695 | 439770.0 |
| 3 | 7-8-5-9 | 5-5-5-4 | 1-1-1-1-1 | 0.4 | RMSprop | nan | nan | 33.371663 | 421158.0 |
| 3 | 7-8-5-9 | 5-5-5-4 | 1-2-2-2-1 | 0.4 | RMSprop | 0.1296611 | 0.1296611 | 53.431758 | 421806.0 |
| 3 | 7-8-5-9 | 5-5-5-4 | 1-3-3-3-1 | 0.4 | RMSprop | 0.1293231 | 0.1293231 | 56.115678 | 422784.0 |
| 3 | 7-8-5-9 | 5-5-5-4 | 1-4-4-4-1 | 0.4 | RMSprop | 0.1291481 | 0.1291481 | 49.041153 | 424092.0 |
| 3 | 7-8-5-9 | 5-5-5-4 | 1-5-5-5-1 | 0.4 | RMSprop | nan | nan | 45.978129 | 425730.0 |
| 3 | 7-8-5-9 | 5-5-5-4 | 1-6-6-6-1 | 0.4 | RMSprop | nan | nan | 36.636768 | 427698.0 |
| 3 | 7-8-5-9 | 5-5-5-4 | 1-7-7-7-1 | 0.4 | RMSprop | nan | nan | 44.469032 | 429996.0 |
| 3 | 7-8-5-9 | 5-5-5-4 | 1-8-8-8-1 | 0.4 | RMSprop | nan | nan | 44.374094 | 432624.0 |
| 3 | 7-8-5-9 | 5-5-5-4 | 1-9-9-9-1 | 0.4 | RMSprop | 0.1286213 | 0.1286213 | 40.006087 | 435582.0 |
| 3 | 7-8-5-9 | 5-5-5-4 | 1-10-10-10-1 | 0.4 | RMSprop | 0.1285842 | 0.1285842 | 39.976111 | 438870.0 |
| 4 | 0-0-0-0 | 5-5-5-4 | 1-1-1-1-1 | 0.0 | Adam | 0.1236026 | 0.1236026 | 127.46813 | 1931931.0 |
| 4 | 0-0-0-0 | 5-5-5-4 | 1-2-2-2-1 | 0.0 | Adam | 0.1235980 | 0.1235980 | 127.08313 | 1932122.0 |
| 4 | 0-0-0-0 | 5-5-5-4 | 1-3-3-3-1 | 0.0 | Adam | 0.1238499 | 0.1238499 | 126.79909 | 1932413.0 |
| 4 | 0-0-0-0 | 5-5-5-4 | 1-4-4-4-1 | 0.0 | Adam | 0.1238633 | 0.1238633 | 124.12264 | 1932804.0 |
| 4 | 0-0-0-0 | 5-5-5-4 | 1-5-5-5-1 | 0.0 | Adam | 0.1237289 | 0.1237289 | 123.68414 | 1933295.0 |
| 4 | 0-0-0-0 | 5-5-5-4 | 1-6-6-6-1 | 0.0 | Adam | 0.1238293 | 0.1238293 | 118.71016 | 1933886.0 |
| 4 | 0-0-0-0 | 5-5-5-4 | 1-7-7-7-1 | 0.0 | Adam | 0.1237248 | 0.1237248 | 110.99174 | 1934577.0 |
| 4 | 0-0-0-0 | 5-5-5-4 | 1-8-8-8-1 | 0.0 | Adam | 0.1236915 | 0.1236915 | 110.88358 | 1935368.0 |
| 4 | 0-0-0-0 | 5-5-5-4 | 1-9-9-9-1 | 0.0 | Adam | 0.1236135 | 0.1236135 | 111.01982 | 1936259.0 |
| 4 | 0-0-0-0 | 5-5-5-4 | 1-10-10-10-1 | 0.0 | Adam | 0.1236734 | 0.1236734 | 110.55999 | 1937250.0 |
| 4 | 0-0-0-0 | 5-5-5-4 | 1-1-1-1-1 | 0.0 | Adagrad | 0.1228779 | 0.1228779 | 77.501699 | 1931931.0 |
| 4 | 0-0-0-0 | 5-5-5-4 | 1-2-2-2-1 | 0.0 | Adagrad | nan | nan | 77.796832 | 1932122.0 |
| 4 | 0-0-0-0 | 5-5-5-4 | 1-3-3-3-1 | 0.0 | Adagrad | 0.1229808 | 0.1229808 | 78.127782 | 1932413.0 |
| 4 | 0-0-0-0 | 5-5-5-4 | 1-4-4-4-1 | 0.0 | Adagrad | 0.1229487 | 0.1229487 | 78.082613 | 1932804.0 |
| 4 | 0-0-0-0 | 5-5-5-4 | 1-5-5-5-1 | 0.0 | Adagrad | 0.1230413 | 0.1230413 | 78.910465 | 1933295.0 |
| 4 | 0-0-0-0 | 5-5-5-4 | 1-6-6-6-1 | 0.0 | Adagrad | nan | nan | 77.084690 | 1933886.0 |
| 4 | 0-0-0-0 | 5-5-5-4 | 1-7-7-7-1 | 0.0 | Adagrad | 0.1230466 | 0.1230466 | 79.581969 | 1934577.0 |
| 4 | 0-0-0-0 | 5-5-5-4 | 1-8-8-8-1 | 0.0 | Adagrad | 0.1229911 | 0.1229911 | 79.388569 | 1935368.0 |
| 4 | 0-0-0-0 | 5-5-5-4 | 1-9-9-9-1 | 0.0 | Adagrad | nan | nan | 79.285798 | 1936259.0 |
| 4 | 0-0-0-0 | 5-5-5-4 | 1-10-10-10-1 | 0.0 | Adagrad | 0.1230138 | 0.1230138 | 79.159448 | 1937250.0 |
| 4 | 0-0-0-0 | 5-5-5-4 | 1-1-1-1-1 | 0.0 | RMSprop | 0.1241727 | 0.1241727 | 107.63233 | 1931931.0 |
| 4 | 0-0-0-0 | 5-5-5-4 | 1-2-2-2-1 | 0.0 | RMSprop | 0.1239688 | 0.1239688 | 106.87494 | 1932122.0 |
| 4 | 0-0-0-0 | 5-5-5-4 | 1-3-3-3-1 | 0.0 | RMSprop | 0.1239520 | 0.1239520 | 100.08233 | 1932413.0 |
| 4 | 0-0-0-0 | 5-5-5-4 | 1-4-4-4-1 | 0.0 | RMSprop | nan | nan | 94.904596 | 1932804.0 |
| 4 | 0-0-0-0 | 5-5-5-4 | 1-5-5-5-1 | 0.0 | RMSprop | 0.1237907 | 0.1237907 | 98.695414 | 1933295.0 |
| 4 | 0-0-0-0 | 5-5-5-4 | 1-6-6-6-1 | 0.0 | RMSprop | 0.1238791 | 0.1238791 | 98.997912 | 1933886.0 |
| 4 | 0-0-0-0 | 5-5-5-4 | 1-7-7-7-1 | 0.0 | RMSprop | 0.1240663 | 0.1240663 | 98.294092 | 1934577.0 |
