| 1 | 7-8-5-9 | 5-5-5-4 | 1-6-6-6-1 | 0.0 | RMSprop | 0.1248008 | 0.1248008 | 123.46119 | 924606.0 |
| 1 | 7-8-5-9 | 5-5-5-4 | 1-7-7-7-1 | 0.0 | RMSprop | 0.1247419 | 0.1247419 | 123.78682 | 925522.0 |
| 1 | 7-8-5-9 | 5-5-5-4 | 1-8-8-8-1 | 0.0 | RMSprop | 0.1247367 | 0.1247367 | 123.57910 | 926568.0 |
| 1 | 7-8-5-9 | 5-5-5-4 | 1-9-9-9-1 | 0.0 | RMSprop | 0.1247068 | 0.1247068 | 124.69160 | 927744.0 |
| 1 | 7-8-5-9 | 5-5-5-4 | 1-10-10-10-1 | 0.0 | RMSprop | 0.1245883 | 0.1245883 | 124.43221 | 929050.0 |
| 1 | 5-7-8-9 | 5-5-5-4 | 1-1-1-1-1 | 0.2 | Adam | 0.1234465 | 0.1234465 | 113.88466 | 921976.0 |
| 1 | 5-7-8-9 | 5-5-5-4 | 1-2-2-2-1 | 0.2 | Adam | 0.1233503 | 0.1233503 | 115.10056 | 922262.0 |
| 1 | 5-7-8-9 | 5-5-5-4 | 1-3-3-3-1 | 0.2 | Adam | 0.1233492 | 0.1233492 | 116.14748 | 922698.0 |
| 1 | 5-7-8-9 | 5-5-5-4 | 1-4-4-4-1 | 0.2 | Adam | 0.1231323 | 0.1231323 | 118.02489 | 923284.0 |
| 1 | 5-7-8-9 | 5-5-5-4 | 1-5-5-5-1 | 0.2 | Adam | 0.1231754 | 0.1231754 | 116.92980 | 924020.0 |
| 1 | 5-7-8-9 | 5-5-5-4 | 1-6-6-6-1 | 0.2 | Adam | 0.1231857 | 0.1231857 | 118.91938 | 924906.0 |
| 1 | 5-7-8-9 | 5-5-5-4 | 1-7-7-7-1 | 0.2 | Adam | 0.1232564 | 0.1232564 | 119.01425 | 925942.0 |
| 1 | 5-7-8-9 | 5-5-5-4 | 1-8-8-8-1 | 0.2 | Adam | 0.1231898 | 0.1231898 | 119.50732 | 927128.0 |
| 1 | 5-7-8-9 | 5-5-5-4 | 1-9-9-9-1 | 0.2 | Adam | 0.1231523 | 0.1231523 | 120.77334 | 928464.0 |
| 1 | 5-7-8-9 | 5-5-5-4 | 1-10-10-10-1 | 0.2 | Adam | 0.1231542 | 0.1231542 | 123.26384 | 929950.0 |
| 1 | 7-8-5-9 | 5-5-5-4 | 1-1-1-1-1 | 0.2 | Adam | 0.1236396 | 0.1236396 | 112.50781 | 921976.0 |
| 1 | 7-8-5-9 | 5-5-5-4 | 1-2-2-2-1 | 0.2 | Adam | 0.1233027 | 0.1233027 | 114.58638 | 922242.0 |
| 1 | 7-8-5-9 | 5-5-5-4 | 1-3-3-3-1 | 0.2 | Adam | 0.1232271 | 0.1232271 | 114.92993 | 922638.0 |
| 1 | 7-8-5-9 | 5-5-5-4 | 1-4-4-4-1 | 0.2 | Adam | 0.1231106 | 0.1231106 | 115.28234 | 923164.0 |
| 1 | 7-8-5-9 | 5-5-5-4 | 1-5-5-5-1 | 0.2 | Adam | nan | nan | 109.66675 | 923820.0 |
| 1 | 7-8-5-9 | 5-5-5-4 | 1-6-6-6-1 | 0.2 | Adam | 0.1230789 | 0.1230789 | 117.92430 | 924606.0 |
| 1 | 7-8-5-9 | 5-5-5-4 | 1-7-7-7-1 | 0.2 | Adam | 0.1231546 | 0.1231546 | 119.44894 | 925522.0 |
| 1 | 7-8-5-9 | 5-5-5-4 | 1-8-8-8-1 | 0.2 | Adam | 0.1230367 | 0.1230367 | 119.69290 | 926568.0 |
| 1 | 7-8-5-9 | 5-5-5-4 | 1-9-9-9-1 | 0.2 | Adam | 0.1230825 | 0.1230825 | 121.07010 | 927744.0 |
| 1 | 7-8-5-9 | 5-5-5-4 | 1-10-10-10-1 | 0.2 | Adam | 0.1231548 | 0.1231548 | 122.05354 | 929050.0 |
| 1 | 5-7-8-9 | 5-5-5-4 | 1-1-1-1-1 | 0.2 | Adagrad | 0.1241209 | 0.1241209 | 54.565779 | 921976.0 |
| 1 | 5-7-8-9 | 5-5-5-4 | 1-2-2-2-1 | 0.2 | Adagrad | 0.1236074 | 0.1236074 | 55.017213 | 922262.0 |
| 1 | 5-7-8-9 | 5-5-5-4 | 1-3-3-3-1 | 0.2 | Adagrad | 0.1234623 | 0.1234623 | 55.222888 | 922698.0 |
| 1 | 5-7-8-9 | 5-5-5-4 | 1-4-4-4-1 | 0.2 | Adagrad | 0.1233619 | 0.1233619 | 55.274349 | 923284.0 |
| 1 | 5-7-8-9 | 5-5-5-4 | 1-5-5-5-1 | 0.2 | Adagrad | 0.1233998 | 0.1233998 | 55.696646 | 924020.0 |
| 1 | 5-7-8-9 | 5-5-5-4 | 1-6-6-6-1 | 0.2 | Adagrad | 0.1232570 | 0.1232570 | 55.994823 | 924906.0 |
| 1 | 5-7-8-9 | 5-5-5-4 | 1-7-7-7-1 | 0.2 | Adagrad | 0.1232150 | 0.1232150 | 56.264054 | 925942.0 |
| 1 | 5-7-8-9 | 5-5-5-4 | 1-8-8-8-1 | 0.2 | Adagrad | 0.1233191 | 0.1233191 | 56.753537 | 927128.0 |
| 1 | 5-7-8-9 | 5-5-5-4 | 1-9-9-9-1 | 0.2 | Adagrad | 0.1231652 | 0.1231652 | 57.262039 | 928464.0 |
| 1 | 5-7-8-9 | 5-5-5-4 | 1-10-10-10-1 | 0.2 | Adagrad | 0.1230919 | 0.1230919 | 57.741614 | 929950.0 |
| 1 | 7-8-5-9 | 5-5-5-4 | 1-1-1-1-1 | 0.2 | Adagrad | 0.1240890 | 0.1240890 | 54.969699 | 921976.0 |
| 1 | 7-8-5-9 | 5-5-5-4 | 1-2-2-2-1 | 0.2 | Adagrad | 0.1236585 | 0.1236585 | 55.243036 | 922242.0 |
| 1 | 7-8-5-9 | 5-5-5-4 | 1-3-3-3-1 | 0.2 | Adagrad | nan | nan | 54.059425 | 922638.0 |
| 1 | 7-8-5-9 | 5-5-5-4 | 1-4-4-4-1 | 0.2 | Adagrad | nan | nan | 55.363224 | 923164.0 |
| 1 | 7-8-5-9 | 5-5-5-4 | 1-5-5-5-1 | 0.2 | Adagrad | 0.1233209 | 0.1233209 | 55.966287 | 923820.0 |
| 1 | 7-8-5-9 | 5-5-5-4 | 1-6-6-6-1 | 0.2 | Adagrad | nan | nan | 55.253274 | 924606.0 |
| 1 | 7-8-5-9 | 5-5-5-4 | 1-7-7-7-1 | 0.2 | Adagrad | nan | nan | 56.614774 | 925522.0 |
| 1 | 7-8-5-9 | 5-5-5-4 | 1-8-8-8-1 | 0.2 | Adagrad | 0.1231188 | 0.1231188 | 57.093877 | 926568.0 |
| 1 | 7-8-5-9 | 5-5-5-4 | 1-9-9-9-1 | 0.2 | Adagrad | 0.1232265 | 0.1232265 | 57.816701 | 927744.0 |
| 1 | 7-8-5-9 | 5-5-5-4 | 1-10-10-10-1 | 0.2 | Adagrad | 0.1230556 | 0.1230556 | 57.595578 | 929050.0 |
| 1 | 5-7-8-9 | 5-5-5-4 | 1-1-1-1-1 | 0.2 | RMSprop | 0.1277301 | 0.1277301 | 126.52666 | 921976.0 |
| 1 | 5-7-8-9 | 5-5-5-4 | 1-2-2-2-1 | 0.2 | RMSprop | 0.1273230 | 0.1273230 | 120.81428 | 922262.0 |
| 1 | 5-7-8-9 | 5-5-5-4 | 1-3-3-3-1 | 0.2 | RMSprop | 0.1269711 | 0.1269711 | 120.21500 | 922698.0 |
| 1 | 5-7-8-9 | 5-5-5-4 | 1-4-4-4-1 | 0.2 | RMSprop | nan | nan | 117.02138 | 923284.0 |
| 1 | 5-7-8-9 | 5-5-5-4 | 1-5-5-5-1 | 0.2 | RMSprop | 0.1266333 | 0.1266333 | 119.99613 | 924020.0 |
| 1 | 5-7-8-9 | 5-5-5-4 | 1-6-6-6-1 | 0.2 | RMSprop | 0.1268390 | 0.1268390 | 120.93497 | 924906.0 |
| 1 | 5-7-8-9 | 5-5-5-4 | 1-7-7-7-1 | 0.2 | RMSprop | 0.1266257 | 0.1266257 | 120.77012 | 925942.0 |
| 1 | 5-7-8-9 | 5-5-5-4 | 1-8-8-8-1 | 0.2 | RMSprop | 0.1266324 | 0.1266324 | 120.68068 | 927128.0 |
| 1 | 5-7-8-9 | 5-5-5-4 | 1-9-9-9-1 | 0.2 | RMSprop | nan | nan | 116.74244 | 928464.0 |
| 1 | 5-7-8-9 | 5-5-5-4 | 1-10-10-10-1 | 0.2 | RMSprop | 0.1264274 | 0.1264274 | 120.81167 | 929950.0 |
| 1 | 7-8-5-9 | 5-5-5-4 | 1-1-1-1-1 | 0.2 | RMSprop | 0.1279721 | 0.1279721 | 124.47510 | 921976.0 |
| 1 | 7-8-5-9 | 5-5-5-4 | 1-2-2-2-1 | 0.2 | RMSprop | 0.1272258 | 0.1272258 | 121.47010 | 922242.0 |
| 1 | 7-8-5-9 | 5-5-5-4 | 1-3-3-3-1 | 0.2 | RMSprop | nan | nan | 121.75099 | 922638.0 |
| 1 | 7-8-5-9 | 5-5-5-4 | 1-4-4-4-1 | 0.2 | RMSprop | 0.1271344 | 0.1271344 | 122.01272 | 923164.0 |
| 1 | 7-8-5-9 | 5-5-5-4 | 1-5-5-5-1 | 0.2 | RMSprop | 0.1267886 | 0.1267886 | 120.67345 | 923820.0 |
| 1 | 7-8-5-9 | 5-5-5-4 | 1-6-6-6-1 | 0.2 | RMSprop | 0.1265443 | 0.1265443 | 119.75811 | 924606.0 |
| 1 | 7-8-5-9 | 5-5-5-4 | 1-7-7-7-1 | 0.2 | RMSprop | 0.1268122 | 0.1268122 | 121.21390 | 925522.0 |
| 1 | 7-8-5-9 | 5-5-5-4 | 1-8-8-8-1 | 0.2 | RMSprop | 0.1265785 | 0.1265785 | 120.52337 | 926568.0 |
| 1 | 7-8-5-9 | 5-5-5-4 | 1-9-9-9-1 | 0.2 | RMSprop | 0.1266255 | 0.1266255 | 121.63711 | 927744.0 |
