3 5-15-17-5 5-5-5-8 1-4-4-4-1 0 Adam 1000
3 17-5-5-15 5-5-5-8 1-4-4-4-1 0 Adam 1000
3 5-15-17-5 5-5-5-8 1-4-4-4-1 0 Adagrad 1000
3 17-5-5-15 5-5-5-8 1-4-4-4-1 0 Adagrad 1000
3 5-15-17-5 5-5-5-8 1-4-4-4-1 0 RMSprop 1000
3 17-5-5-15 5-5-5-8 1-4-4-4-1 0 RMSprop 1000
3 5-15-17-5 5-5-5-8 1-4-4-4-1 0.2 Adam 1000
3 17-5-5-15 5-5-5-8 1-4-4-4-1 0.2 Adam 1000
3 5-15-17-5 5-5-5-8 1-4-4-4-1 0.2 Adagrad 1000
3 17-5-5-15 5-5-5-8 1-4-4-4-1 0.2 Adagrad 1000
3 5-15-17-5 5-5-5-8 1-4-4-4-1 0.2 RMSprop 1000
3 17-5-5-15 5-5-5-8 1-4-4-4-1 0.2 RMSprop 1000
3 5-15-17-5 5-5-5-8 1-4-4-4-1 0.4 Adam 1000
3 17-5-5-15 5-5-5-8 1-4-4-4-1 0.4 Adam 1000
3 5-15-17-5 5-5-5-8 1-4-4-4-1 0.4 Adagrad 1000
3 17-5-5-15 5-5-5-8 1-4-4-4-1 0.4 Adagrad 1000
3 5-15-17-5 5-5-5-8 1-4-4-4-1 0.4 RMSprop 1000
3 17-5-5-15 5-5-5-8 1-4-4-4-1 0.4 RMSprop 1000
3 5-15-17-5 5-5-5-8 1-5-5-5-1 0 Adam 1000
3 17-5-5-15 5-5-5-8 1-5-5-5-1 0 Adam 1000
3 5-15-17-5 5-5-5-8 1-5-5-5-1 0 Adagrad 1000
3 17-5-5-15 5-5-5-8 1-5-5-5-1 0 Adagrad 1000
3 5-15-17-5 5-5-5-8 1-5-5-5-1 0 RMSprop 1000
3 17-5-5-15 5-5-5-8 1-5-5-5-1 0 RMSprop 1000
3 5-15-17-5 5-5-5-8 1-5-5-5-1 0.2 Adam 1000
3 17-5-5-15 5-5-5-8 1-5-5-5-1 0.2 Adam 1000
3 5-15-17-5 5-5-5-8 1-5-5-5-1 0.2 Adagrad 1000
3 17-5-5-15 5-5-5-8 1-5-5-5-1 0.2 Adagrad 1000
3 5-15-17-5 5-5-5-8 1-5-5-5-1 0.2 RMSprop 1000
3 17-5-5-15 5-5-5-8 1-5-5-5-1 0.2 RMSprop 1000
3 5-15-17-5 5-5-5-8 1-5-5-5-1 0.4 Adam 1000
3 17-5-5-15 5-5-5-8 1-5-5-5-1 0.4 Adam 1000
3 5-15-17-5 5-5-5-8 1-5-5-5-1 0.4 Adagrad 1000
3 17-5-5-15 5-5-5-8 1-5-5-5-1 0.4 Adagrad 1000
3 5-15-17-5 5-5-5-8 1-5-5-5-1 0.4 RMSprop 1000
3 17-5-5-15 5-5-5-8 1-5-5-5-1 0.4 RMSprop 1000
3 5-15-17-5 5-5-5-8 1-6-6-6-1 0 Adam 1000
3 17-5-5-15 5-5-5-8 1-6-6-6-1 0 Adam 1000
3 5-15-17-5 5-5-5-8 1-6-6-6-1 0 Adagrad 1000
3 17-5-5-15 5-5-5-8 1-6-6-6-1 0 Adagrad 1000
3 5-15-17-5 5-5-5-8 1-6-6-6-1 0 RMSprop 1000
3 17-5-5-15 5-5-5-8 1-6-6-6-1 0 RMSprop 1000
3 5-15-17-5 5-5-5-8 1-6-6-6-1 0.2 Adam 1000
3 17-5-5-15 5-5-5-8 1-6-6-6-1 0.2 Adam 1000
3 5-15-17-5 5-5-5-8 1-6-6-6-1 0.2 Adagrad 1000
3 17-5-5-15 5-5-5-8 1-6-6-6-1 0.2 Adagrad 1000
3 5-15-17-5 5-5-5-8 1-6-6-6-1 0.2 RMSprop 1000
3 17-5-5-15 5-5-5-8 1-6-6-6-1 0.2 RMSprop 1000
3 5-15-17-5 5-5-5-8 1-6-6-6-1 0.4 Adam 1000
3 17-5-5-15 5-5-5-8 1-6-6-6-1 0.4 Adam 1000
3 5-15-17-5 5-5-5-8 1-6-6-6-1 0.4 Adagrad 1000
3 17-5-5-15 5-5-5-8 1-6-6-6-1 0.4 Adagrad 1000
3 5-15-17-5 5-5-5-8 1-6-6-6-1 0.4 RMSprop 1000
3 17-5-5-15 5-5-5-8 1-6-6-6-1 0.4 RMSprop 1000
3 5-15-17-5 5-5-5-8 1-7-7-7-1 0 Adam 1000
3 17-5-5-15 5-5-5-8 1-7-7-7-1 0 Adam 1000
3 5-15-17-5 5-5-5-8 1-7-7-7-1 0 Adagrad 1000
3 17-5-5-15 5-5-5-8 1-7-7-7-1 0 Adagrad 1000
3 5-15-17-5 5-5-5-8 1-7-7-7-1 0 RMSprop 1000
3 17-5-5-15 5-5-5-8 1-7-7-7-1 0 RMSprop 1000
3 5-15-17-5 5-5-5-8 1-7-7-7-1 0.2 Adam 1000
3 17-5-5-15 5-5-5-8 1-7-7-7-1 0.2 Adam 1000
3 5-15-17-5 5-5-5-8 1-7-7-7-1 0.2 Adagrad 1000
3 17-5-5-15 5-5-5-8 1-7-7-7-1 0.2 Adagrad 1000
3 5-15-17-5 5-5-5-8 1-7-7-7-1 0.2 RMSprop 1000
3 17-5-5-15 5-5-5-8 1-7-7-7-1 0.2 RMSprop 1000
3 5-15-17-5 5-5-5-8 1-7-7-7-1 0.4 Adam 1000
3 17-5-5-15 5-5-5-8 1-7-7-7-1 0.4 Adam 1000
3 5-15-17-5 5-5-5-8 1-7-7-7-1 0.4 Adagrad 1000
3 17-5-5-15 5-5-5-8 1-7-7-7-1 0.4 Adagrad 1000
3 5-15-17-5 5-5-5-8 1-7-7-7-1 0.4 RMSprop 1000
3 17-5-5-15 5-5-5-8 1-7-7-7-1 0.4 RMSprop 1000
