0 0-0-0-0 0-0-0-0 1-3-3-3-1 0.2 Adagrad 500
1 17-5-5-15 5-5-5-4 1-4-4-4-1 0.4 Adam 500
2 5-15-17-5 5-5-5-4 1-6-6-6-1 0.4 RMSprop 500
3 5-15-17-5 5-5-5-4 1-4-4-4-1 0.4 Adagrad 500
4 0-0-0-0 5-5-5-4 1-3-3-3-1 0.4 RMSprop 500