0 0-0-0-0 0-0-0-0 1-1-1-1-1 0 Adam 1000
0 0-0-0-0 0-0-0-0 1-1-1-1-1 0 Adagrad 1000
0 0-0-0-0 0-0-0-0 1-1-1-1-1 0 RMSprop 1000
0 0-0-0-0 0-0-0-0 1-1-1-1-1 0.2 Adam 1000
0 0-0-0-0 0-0-0-0 1-1-1-1-1 0.2 Adagrad 1000
0 0-0-0-0 0-0-0-0 1-1-1-1-1 0.2 RMSprop 1000
0 0-0-0-0 0-0-0-0 1-1-1-1-1 0.4 Adam 1000
0 0-0-0-0 0-0-0-0 1-1-1-1-1 0.4 Adagrad 1000
0 0-0-0-0 0-0-0-0 1-1-1-1-1 0.4 RMSprop 1000
0 0-0-0-0 0-0-0-0 1-2-2-2-1 0 Adam 1000
0 0-0-0-0 0-0-0-0 1-2-2-2-1 0 Adagrad 1000
0 0-0-0-0 0-0-0-0 1-2-2-2-1 0 RMSprop 1000
0 0-0-0-0 0-0-0-0 1-2-2-2-1 0.2 Adam 1000
0 0-0-0-0 0-0-0-0 1-2-2-2-1 0.2 Adagrad 1000
0 0-0-0-0 0-0-0-0 1-2-2-2-1 0.2 RMSprop 1000
0 0-0-0-0 0-0-0-0 1-2-2-2-1 0.4 Adam 1000
0 0-0-0-0 0-0-0-0 1-2-2-2-1 0.4 Adagrad 1000
0 0-0-0-0 0-0-0-0 1-2-2-2-1 0.4 RMSprop 1000
0 0-0-0-0 0-0-0-0 1-3-3-3-1 0 Adam 1000
0 0-0-0-0 0-0-0-0 1-3-3-3-1 0 Adagrad 1000
0 0-0-0-0 0-0-0-0 1-3-3-3-1 0 RMSprop 1000
0 0-0-0-0 0-0-0-0 1-3-3-3-1 0.2 Adam 1000
0 0-0-0-0 0-0-0-0 1-3-3-3-1 0.2 Adagrad 1000
0 0-0-0-0 0-0-0-0 1-3-3-3-1 0.2 RMSprop 1000
0 0-0-0-0 0-0-0-0 1-3-3-3-1 0.4 Adam 1000
0 0-0-0-0 0-0-0-0 1-3-3-3-1 0.4 Adagrad 1000
0 0-0-0-0 0-0-0-0 1-3-3-3-1 0.4 RMSprop 1000
0 0-0-0-0 0-0-0-0 1-4-4-4-1 0 Adam 1000
0 0-0-0-0 0-0-0-0 1-4-4-4-1 0 Adagrad 1000
0 0-0-0-0 0-0-0-0 1-4-4-4-1 0 RMSprop 1000
0 0-0-0-0 0-0-0-0 1-4-4-4-1 0.2 Adam 1000
0 0-0-0-0 0-0-0-0 1-4-4-4-1 0.2 Adagrad 1000
0 0-0-0-0 0-0-0-0 1-4-4-4-1 0.2 RMSprop 1000
0 0-0-0-0 0-0-0-0 1-4-4-4-1 0.4 Adam 1000
0 0-0-0-0 0-0-0-0 1-4-4-4-1 0.4 Adagrad 1000
0 0-0-0-0 0-0-0-0 1-4-4-4-1 0.4 RMSprop 1000
0 0-0-0-0 0-0-0-0 1-5-5-5-1 0 Adam 1000
0 0-0-0-0 0-0-0-0 1-5-5-5-1 0 Adagrad 1000
0 0-0-0-0 0-0-0-0 1-5-5-5-1 0 RMSprop 1000
0 0-0-0-0 0-0-0-0 1-5-5-5-1 0.2 Adam 1000
0 0-0-0-0 0-0-0-0 1-5-5-5-1 0.2 Adagrad 1000
0 0-0-0-0 0-0-0-0 1-5-5-5-1 0.2 RMSprop 1000
0 0-0-0-0 0-0-0-0 1-5-5-5-1 0.4 Adam 1000
0 0-0-0-0 0-0-0-0 1-5-5-5-1 0.4 Adagrad 1000
0 0-0-0-0 0-0-0-0 1-5-5-5-1 0.4 RMSprop 1000
0 0-0-0-0 0-0-0-0 1-6-6-6-1 0 Adam 1000
0 0-0-0-0 0-0-0-0 1-6-6-6-1 0 Adagrad 1000
0 0-0-0-0 0-0-0-0 1-6-6-6-1 0 RMSprop 1000
0 0-0-0-0 0-0-0-0 1-6-6-6-1 0.2 Adam 1000
0 0-0-0-0 0-0-0-0 1-6-6-6-1 0.2 Adagrad 1000
0 0-0-0-0 0-0-0-0 1-6-6-6-1 0.2 RMSprop 1000
0 0-0-0-0 0-0-0-0 1-6-6-6-1 0.4 Adam 1000
0 0-0-0-0 0-0-0-0 1-6-6-6-1 0.4 Adagrad 1000
0 0-0-0-0 0-0-0-0 1-6-6-6-1 0.4 RMSprop 1000
0 0-0-0-0 0-0-0-0 1-7-7-7-1 0 Adam 1000
0 0-0-0-0 0-0-0-0 1-7-7-7-1 0 Adagrad 1000
0 0-0-0-0 0-0-0-0 1-7-7-7-1 0 RMSprop 1000
0 0-0-0-0 0-0-0-0 1-7-7-7-1 0.2 Adam 1000
0 0-0-0-0 0-0-0-0 1-7-7-7-1 0.2 Adagrad 1000
0 0-0-0-0 0-0-0-0 1-7-7-7-1 0.2 RMSprop 1000
0 0-0-0-0 0-0-0-0 1-7-7-7-1 0.4 Adam 1000
0 0-0-0-0 0-0-0-0 1-7-7-7-1 0.4 Adagrad 1000
0 0-0-0-0 0-0-0-0 1-7-7-7-1 0.4 RMSprop 1000
0 0-0-0-0 0-0-0-0 1-8-8-8-1 0 Adam 1000
0 0-0-0-0 0-0-0-0 1-8-8-8-1 0 Adagrad 1000
0 0-0-0-0 0-0-0-0 1-8-8-8-1 0 RMSprop 1000
0 0-0-0-0 0-0-0-0 1-8-8-8-1 0.2 Adam 1000
0 0-0-0-0 0-0-0-0 1-8-8-8-1 0.2 Adagrad 1000
0 0-0-0-0 0-0-0-0 1-8-8-8-1 0.2 RMSprop 1000
0 0-0-0-0 0-0-0-0 1-8-8-8-1 0.4 Adam 1000
0 0-0-0-0 0-0-0-0 1-8-8-8-1 0.4 Adagrad 1000
0 0-0-0-0 0-0-0-0 1-8-8-8-1 0.4 RMSprop 1000
