| 0 | 0-0 | 0-0 | 0-0 | 0-0 | 5 | 0.0 | Adagrad | 0.8102265 | 43.16 | 4753625 | 500 |
| 0 | 0-0 | 0-0 | 0-0 | 0-0 | 8 | 0.0 | Adagrad | 0.8112055 | 43.81 | 4753625 | 500 |
| 0 | 0-0 | 0-0 | 0-0 | 0-0 | 6 | 0.0 | Adagrad | 0.8141616 | 48.4 | 4753625 | 500 |
| 0 | 0-0 | 0-0 | 0-0 | 0-0 | 2 | 0.0 | Adagrad | 0.8144351 | 38.98 | 4753625 | 500 |
| 0 | 0-0 | 0-0 | 0-0 | 0-0 | 4 | 0.0 | Adagrad | 0.8151281 | 50.75 | 4753625 | 500 |
| 0 | 0-0 | 0-0 | 0-0 | 0-0 | 9 | 0.0 | Adagrad | 0.8158385 | 43.41 | 4753625 | 500 |
| 0 | 0-0 | 0-0 | 0-0 | 0-0 | 1 | 0.0 | Adagrad | 0.8162119 | 42.71 | 4753625 | 500 |
| 0 | 0-0 | 0-0 | 0-0 | 0-0 | 3 | 0.0 | Adagrad | 0.8188165 | 41.53 | 4753625 | 500 |
| 0 | 0-0 | 0-0 | 0-0 | 0-0 | 7 | 0.0 | Adagrad | 0.8198045 | 49.06 | 4753625 | 500 |
| 0 | 0-0 | 0-0 | 0-0 | 0-0 | 2 | 0.2 | Adagrad | 0.8243042 | 94.49 | 10505125 | 1000 |
| 0 | 0-0 | 0-0 | 0-0 | 0-0 | 1 | 0.0 | Adam | 0.8256763 | 64.94 | 10505125 | 1000 |
| 0 | 0-0 | 0-0 | 0-0 | 0-0 | 5 | 0.0 | Adagrad | 0.8258623 | 52.31 | 10505125 | 1000 |
| 0 | 0-0 | 0-0 | 0-0 | 0-0 | 5 | 0.2 | Adagrad | 0.8261485 | 75.35 | 10505125 | 1000 |
| 0 | 0-0 | 0-0 | 0-0 | 0-0 | 7 | 0.0 | Adagrad | 0.8262417 | 48.89 | 10505125 | 1000 |
| 0 | 0-0 | 0-0 | 0-0 | 0-0 | 1 | 0.2 | Adagrad | 0.8264278 | 79.98 | 10505125 | 1000 |
| 0 | 0-0 | 0-0 | 0-0 | 0-0 | 6 | 0.2 | Adagrad | 0.8265648 | 74.82 | 10505125 | 1000 |
| 0 | 0-0 | 0-0 | 0-0 | 0-0 | 10 | 0.0 | Adagrad | 0.8266266 | 40.42 | 4753625 | 500 |
| 0 | 0-0 | 0-0 | 0-0 | 0-0 | 2 | 0.0 | Adagrad | 0.8267471 | 55.23 | 10505125 | 1000 |
| 0 | 0-0 | 0-0 | 0-0 | 0-0 | 4 | 0.0 | Adagrad | 0.8272455 | 57.62 | 10505125 | 1000 |
| 0 | 0-0 | 0-0 | 0-0 | 0-0 | 6 | 0.0 | Adagrad | 0.8277177 | 49.88 | 10505125 | 1000 |
| 0 | 0-0 | 0-0 | 0-0 | 0-0 | 8 | 0.0 | Adagrad | 0.8278282 | 53.48 | 10505125 | 1000 |
| 0 | 0-0 | 0-0 | 0-0 | 0-0 | 9 | 0.0 | Adagrad | 0.8282404 | 56.93 | 10505125 | 1000 |
| 0 | 0-0 | 0-0 | 0-0 | 0-0 | 10 | 0.0 | Adagrad | 0.8284835 | 57.18 | 10505125 | 1000 |
| 0 | 0-0 | 0-0 | 0-0 | 0-0 | 3 | 0.2 | Adagrad | 0.8286733 | 75.78 | 10505125 | 1000 |
| 0 | 0-0 | 0-0 | 0-0 | 0-0 | 9 | 0.2 | Adagrad | 0.8293757 | 82.32 | 10505125 | 1000 |
| 0 | 0-0 | 0-0 | 0-0 | 0-0 | 1 | 0.0 | Adagrad | 0.8294104 | 57.02 | 10505125 | 1000 |
| 0 | 0-0 | 0-0 | 0-0 | 0-0 | 4 | 0.0 | Adam | 0.8312776 | 65.39 | 10505125 | 1000 |
| 0 | 0-0 | 0-0 | 0-0 | 0-0 | 4 | 0.2 | Adagrad | 0.831354 | 72.59 | 10505125 | 1000 |
| 0 | 0-0 | 0-0 | 0-0 | 0-0 | 5 | 0.0 | Adam | 0.8313668 | 43.81 | 4753625 | 500 |
| 0 | 0-0 | 0-0 | 0-0 | 0-0 | 3 | 0.0 | Adagrad | 0.8315033 | 55.83 | 10505125 | 1000 |
| 0 | 0-0 | 0-0 | 0-0 | 0-0 | 8 | 0.2 | Adagrad | 0.831539 | 78.83 | 10505125 | 1000 |
| 0 | 0-0 | 0-0 | 0-0 | 0-0 | 8 | 0.0 | Adam | 0.8330709 | 56.52 | 10505125 | 1000 |
| 0 | 0-0 | 0-0 | 0-0 | 0-0 | 9 | 0.0 | Adam | 0.833233 | 41.18 | 4753625 | 500 |
| 0 | 0-0 | 0-0 | 0-0 | 0-0 | 7 | 0.2 | Adagrad | 0.8334627 | 64.88 | 10505125 | 1000 |
| 0 | 0-0 | 0-0 | 0-0 | 0-0 | 7 | 0.0 | Adam | 0.8334942 | 39.1 | 4753625 | 500 |
| 0 | 0-0 | 0-0 | 0-0 | 0-0 | 8 | 0.0 | Adam | 0.8335983 | 54.55 | 4753625 | 500 |
| 0 | 0-0 | 0-0 | 0-0 | 0-0 | 5 | 0.0 | Adam | 0.8338931 | 56.8 | 10505125 | 1000 |
| 0 | 0-0 | 0-0 | 0-0 | 0-0 | 10 | 0.0 | Adam | 0.8340048 | 40.74 | 4753625 | 500 |
| 0 | 0-0 | 0-0 | 0-0 | 0-0 | 8 | 0.2 | Adam | 0.8349224 | 62.75 | 4753625 | 500 |
| 0 | 0-0 | 0-0 | 0-0 | 0-0 | 2 | 0.0 | Adam | 0.8350031 | 43.47 | 4753625 | 500 |
| 0 | 0-0 | 0-0 | 0-0 | 0-0 | 10 | 0.2 | Adagrad | 0.8350974 | 79.05 | 10505125 | 1000 |
| 0 | 0-0 | 0-0 | 0-0 | 0-0 | 4 | 0.0 | RMSprop | 0.8355621 | 44.22 | 4753625 | 500 |
| 0 | 0-0 | 0-0 | 0-0 | 0-0 | 5 | 0.0 | RMSprop | 0.8359285 | 42.59 | 4753625 | 500 |
| 0 | 0-0 | 0-0 | 0-0 | 0-0 | 9 | 0.0 | RMSprop | 0.8360364 | 40.27 | 4753625 | 500 |
| 0 | 0-0 | 0-0 | 0-0 | 0-0 | 9 | 0.0 | Adam | 0.8362747 | 61.92 | 10505125 | 1000 |
| 0 | 0-0 | 0-0 | 0-0 | 0-0 | 1 | 0.0 | Adam | 0.8369601 | 31.68 | 4753625 | 500 |
| 0 | 0-0 | 0-0 | 0-0 | 0-0 | 9 | 0.2 | Adam | 0.837081 | 51.19 | 4753625 | 500 |
| 0 | 0-0 | 0-0 | 0-0 | 0-0 | 3 | 0.2 | Adam | 0.8373399 | 57.76 | 4753625 | 500 |
| 0 | 0-0 | 0-0 | 0-0 | 0-0 | 2 | 0.2 | Adam | 0.8378576 | 58.35 | 4753625 | 500 |
| 0 | 0-0 | 0-0 | 0-0 | 0-0 | 8 | 0.2 | Adam | 0.8382636 | 76.5 | 10505125 | 1000 |
| 0 | 0-0 | 0-0 | 0-0 | 0-0 | 3 | 0.0 | Adam | 0.8383264 | 39.69 | 4753625 | 500 |
| 0 | 0-0 | 0-0 | 0-0 | 0-0 | 6 | 0.0 | Adam | 0.8385639 | 40.21 | 4753625 | 500 |
| 0 | 0-0 | 0-0 | 0-0 | 0-0 | 3 | 0.0 | Adam | 0.8391985 | 64.06 | 10505125 | 1000 |
| 0 | 0-0 | 0-0 | 0-0 | 0-0 | 1 | 0.0 | RMSprop | 0.8392262 | 40.64 | 4753625 | 500 |
| 0 | 0-0 | 0-0 | 0-0 | 0-0 | 10 | 0.0 | Adam | 0.8395512 | 67.51 | 10505125 | 1000 |
| 0 | 0-0 | 0-0 | 0-0 | 0-0 | 2 | 0.0 | RMSprop | 0.8395671 | 33.59 | 4753625 | 500 |
| 0 | 0-0 | 0-0 | 0-0 | 0-0 | 6 | 0.0 | Adam | 0.839677 | 58.59 | 10505125 | 1000 |
| 0 | 0-0 | 0-0 | 0-0 | 0-0 | 2 | 0.0 | Adam | 0.8398137 | 55.43 | 10505125 | 1000 |
| 0 | 0-0 | 0-0 | 0-0 | 0-0 | 4 | 0.0 | Adam | 0.8398266 | 39.6 | 4753625 | 500 |
| 0 | 0-0 | 0-0 | 0-0 | 0-0 | 5 | 0.2 | Adagrad | 0.8402714 | 61.98 | 4753625 | 500 |
| 0 | 0-0 | 0-0 | 0-0 | 0-0 | 8 | 0.2 | Adagrad | 0.8406029 | 54.32 | 4753625 | 500 |
| 0 | 0-0 | 0-0 | 0-0 | 0-0 | 6 | 0.0 | RMSprop | 0.8412983 | 43.32 | 4753625 | 500 |
| 0 | 0-0 | 0-0 | 0-0 | 0-0 | 7 | 0.2 | Adam | 0.8418219 | 76.31 | 10505125 | 1000 |
| 0 | 0-0 | 0-0 | 0-0 | 0-0 | 7 | 0.2 | Adagrad | 0.841979 | 57.98 | 4753625 | 500 |
| 0 | 0-0 | 0-0 | 0-0 | 0-0 | 4 | 0.2 | Adagrad | 0.8425632 | 54.2 | 4753625 | 500 |
| 0 | 0-0 | 0-0 | 0-0 | 0-0 | 7 | 0.0 | RMSprop | 0.8428169 | 39.52 | 4753625 | 500 |
| 0 | 0-0 | 0-0 | 0-0 | 0-0 | 6 | 0.2 | Adam | 0.8429953 | 46.38 | 4753625 | 500 |
| 0 | 0-0 | 0-0 | 0-0 | 0-0 | 6 | 0.0 | RMSprop | 0.8433721 | 61.78 | 10505125 | 1000 |
| 0 | 0-0 | 0-0 | 0-0 | 0-0 | 10 | 0.2 | Adam | 0.843633 | 49.75 | 4753625 | 500 |
| 0 | 0-0 | 0-0 | 0-0 | 0-0 | 9 | 0.2 | Adagrad | 0.8437494 | 56.59 | 4753625 | 500 |
| 0 | 0-0 | 0-0 | 0-0 | 0-0 | 7 | 0.2 | RMSprop | 0.843917 | 49.44 | 4753625 | 500 |
| 0 | 0-0 | 0-0 | 0-0 | 0-0 | 10 | 0.0 | RMSprop | 0.8446169 | 40.77 | 4753625 | 500 |
| 0 | 0-0 | 0-0 | 0-0 | 0-0 | 3 | 0.0 | RMSprop | 0.8446849 | 54.77 | 10505125 | 1000 |
| 0 | 0-0 | 0-0 | 0-0 | 0-0 | 3 | 0.0 | RMSprop | 0.844889 | 43.65 | 4753625 | 500 |
| 0 | 0-0 | 0-0 | 0-0 | 0-0 | 1 | 0.2 | Adagrad | 0.8450557 | 52.08 | 4753625 | 500 |
| 0 | 0-0 | 0-0 | 0-0 | 0-0 | 6 | 0.2 | Adagrad | 0.8456498 | 47.23 | 4753625 | 500 |
| 0 | 0-0 | 0-0 | 0-0 | 0-0 | 3 | 0.2 | Adagrad | 0.8458192 | 48.89 | 4753625 | 500 |
| 0 | 0-0 | 0-0 | 0-0 | 0-0 | 1 | 0.2 | Adam | 0.8469777 | 55.21 | 4753625 | 500 |
| 0 | 0-0 | 0-0 | 0-0 | 0-0 | 2 | 0.2 | Adagrad | 0.8470167 | 48.91 | 4753625 | 500 |
| 0 | 0-0 | 0-0 | 0-0 | 0-0 | 9 | 0.2 | Adam | 0.8470736 | 80.22 | 10505125 | 1000 |
| 0 | 0-0 | 0-0 | 0-0 | 0-0 | 10 | 0.0 | RMSprop | 0.8471421 | 57.26 | 10505125 | 1000 |
| 0 | 0-0 | 0-0 | 0-0 | 0-0 | 4 | 0.2 | Adam | 0.8472243 | 47.34 | 4753625 | 500 |
| 0 | 0-0 | 0-0 | 0-0 | 0-0 | 7 | 0.2 | Adam | 0.8477006 | 54.5 | 4753625 | 500 |
| 0 | 0-0 | 0-0 | 0-0 | 0-0 | 8 | 0.0 | RMSprop | 0.8480226 | 42.74 | 4753625 | 500 |
| 0 | 0-0 | 0-0 | 0-0 | 0-0 | 5 | 0.0 | RMSprop | 0.8482724 | 56.92 | 10505125 | 1000 |
| 0 | 0-0 | 0-0 | 0-0 | 0-0 | 5 | 0.2 | Adam | 0.8488282 | 53.97 | 4753625 | 500 |
| 0 | 0-0 | 0-0 | 0-0 | 0-0 | 10 | 0.2 | RMSprop | 0.8491707 | 49.95 | 4753625 | 500 |
| 0 | 0-0 | 0-0 | 0-0 | 0-0 | 5 | 0.2 | RMSprop | 0.8494037 | 53.87 | 4753625 | 500 |
| 0 | 0-0 | 0-0 | 0-0 | 0-0 | 7 | 0.0 | Adam | 0.8494182 | 62.35 | 10505125 | 1000 |
| 0 | 0-0 | 0-0 | 0-0 | 0-0 | 2 | 0.0 | RMSprop | 0.8496154 | 60.18 | 10505125 | 1000 |
| 0 | 0-0 | 0-0 | 0-0 | 0-0 | 9 | 0.2 | RMSprop | 0.8497596 | 47.52 | 4753625 | 500 |
| 0 | 0-0 | 0-0 | 0-0 | 0-0 | 10 | 0.2 | Adam | 0.8503256 | 72.98 | 10505125 | 1000 |
| 0 | 0-0 | 0-0 | 0-0 | 0-0 | 10 | 0.2 | Adagrad | 0.8526445 | 55.19 | 4753625 | 500 |
| 0 | 0-0 | 0-0 | 0-0 | 0-0 | 4 | 0.2 | Adam | 0.8534581 | 69.93 | 10505125 | 1000 |
| 0 | 0-0 | 0-0 | 0-0 | 0-0 | 8 | 0.0 | RMSprop | 0.8535663 | 54.21 | 10505125 | 1000 |
| 0 | 0-0 | 0-0 | 0-0 | 0-0 | 1 | 0.0 | RMSprop | 0.8536796 | 58.67 | 10505125 | 1000 |
| 0 | 0-0 | 0-0 | 0-0 | 0-0 | 1 | 0.2 | Adam | 0.8542968 | 69.51 | 10505125 | 1000 |
| 0 | 0-0 | 0-0 | 0-0 | 0-0 | 7 | 0.0 | RMSprop | 0.8543727 | 51.52 | 10505125 | 1000 |
| 0 | 0-0 | 0-0 | 0-0 | 0-0 | 4 | 0.2 | RMSprop | 0.8544408 | 49.89 | 4753625 | 500 |
| 0 | 0-0 | 0-0 | 0-0 | 0-0 | 3 | 0.2 | Adam | 0.8545906 | 64.88 | 10505125 | 1000 |
| 0 | 0-0 | 0-0 | 0-0 | 0-0 | 6 | 0.2 | Adam | 0.8547562 | 69.14 | 10505125 | 1000 |
| 0 | 0-0 | 0-0 | 0-0 | 0-0 | 8 | 0.2 | RMSprop | 0.8548209 | 56.46 | 4753625 | 500 |
| 0 | 0-0 | 0-0 | 0-0 | 0-0 | 4 | 0.0 | RMSprop | 0.8552704 | 51.99 | 10505125 | 1000 |
| 0 | 0-0 | 0-0 | 0-0 | 0-0 | 2 | 0.2 | RMSprop | 0.8558858 | 46.03 | 4753625 | 500 |
| 0 | 0-0 | 0-0 | 0-0 | 0-0 | 5 | 0.2 | Adam | 0.8563016 | 57.99 | 10505125 | 1000 |
| 0 | 0-0 | 0-0 | 0-0 | 0-0 | 9 | 0.0 | RMSprop | 0.8563822 | 54.77 | 10505125 | 1000 |
| 0 | 0-0 | 0-0 | 0-0 | 0-0 | 2 | 0.2 | Adam | 0.8574145 | 66.41 | 10505125 | 1000 |
| 0 | 0-0 | 0-0 | 0-0 | 0-0 | 3 | 0.2 | RMSprop | 0.8601096 | 45.21 | 4753625 | 500 |
| 0 | 0-0 | 0-0 | 0-0 | 0-0 | 1 | 0.2 | RMSprop | 0.8605424 | 44.59 | 4753625 | 500 |
| 0 | 0-0 | 0-0 | 0-0 | 0-0 | 7 | 0.2 | RMSprop | 0.8630962 | 57.31 | 10505125 | 1000 |
| 0 | 0-0 | 0-0 | 0-0 | 0-0 | 6 | 0.2 | RMSprop | 0.8633494 | 42.45 | 4753625 | 500 |
| 0 | 0-0 | 0-0 | 0-0 | 0-0 | 10 | 0.2 | RMSprop | 0.8712025 | 62.49 | 10505125 | 1000 |
| 0 | 0-0 | 0-0 | 0-0 | 0-0 | 3 | 0.2 | RMSprop | 0.8715569 | 68.28 | 10505125 | 1000 |
| 0 | 0-0 | 0-0 | 0-0 | 0-0 | 1 | 0.2 | RMSprop | 0.873009 | 70.39 | 10505125 | 1000 |
| 0 | 0-0 | 0-0 | 0-0 | 0-0 | 8 | 0.2 | RMSprop | 0.876813 | 69.28 | 10505125 | 1000 |
| 0 | 0-0 | 0-0 | 0-0 | 0-0 | 9 | 0.4 | Adam | 0.8768715 | 54.43 | 4753625 | 500 |
| 0 | 0-0 | 0-0 | 0-0 | 0-0 | 5 | 0.4 | Adam | 0.878818 | 50.18 | 4753625 | 500 |
| 0 | 0-0 | 0-0 | 0-0 | 0-0 | 5 | 0.2 | RMSprop | 0.8794517 | 54.62 | 10505125 | 1000 |
| 0 | 0-0 | 0-0 | 0-0 | 0-0 | 4 | 0.2 | RMSprop | 0.8797411 | 51.7 | 10505125 | 1000 |
| 0 | 0-0 | 0-0 | 0-0 | 0-0 | 9 | 0.2 | RMSprop | 0.8813495 | 62.68 | 10505125 | 1000 |
| 0 | 0-0 | 0-0 | 0-0 | 0-0 | 6 | 0.2 | RMSprop | 0.8813849 | 54.27 | 10505125 | 1000 |
| 0 | 0-0 | 0-0 | 0-0 | 0-0 | 1 | 0.4 | Adam | 0.8832248 | 49.99 | 4753625 | 500 |
| 0 | 0-0 | 0-0 | 0-0 | 0-0 | 3 | 0.4 | Adam | 0.8843767 | 51.07 | 4753625 | 500 |
| 0 | 0-0 | 0-0 | 0-0 | 0-0 | 2 | 0.4 | Adam | 0.8857476 | 53.94 | 4753625 | 500 |
| 0 | 0-0 | 0-0 | 0-0 | 0-0 | 6 | 0.4 | Adam | 0.8878049 | 47.62 | 4753625 | 500 |
| 0 | 0-0 | 0-0 | 0-0 | 0-0 | 2 | 0.2 | RMSprop | 0.8892059 | 63.13 | 10505125 | 1000 |
| 0 | 0-0 | 0-0 | 0-0 | 0-0 | 4 | 0.4 | Adam | 0.8936219 | 46.48 | 4753625 | 500 |
| 0 | 0-0 | 0-0 | 0-0 | 0-0 | 7 | 0.4 | Adam | 0.8947115 | 46.38 | 4753625 | 500 |
| 0 | 0-0 | 0-0 | 0-0 | 0-0 | 10 | 0.4 | Adam | 0.8970667 | 51.09 | 4753625 | 500 |
| 0 | 0-0 | 0-0 | 0-0 | 0-0 | 8 | 0.4 | Adam | 0.8975146 | 44.46 | 4753625 | 500 |
| 0 | 0-0 | 0-0 | 0-0 | 0-0 | 6 | 0.4 | RMSprop | 0.8984 | 50.44 | 4753625 | 500 |
| 0 | 0-0 | 0-0 | 0-0 | 0-0 | 10 | 0.4 | RMSprop | 0.9008664 | 48.82 | 4753625 | 500 |
| 0 | 0-0 | 0-0 | 0-0 | 0-0 | 8 | 0.4 | RMSprop | 0.9023597 | 47.64 | 4753625 | 500 |
| 0 | 0-0 | 0-0 | 0-0 | 0-0 | 1 | 0.4 | RMSprop | 0.9033781 | 42.49 | 4753625 | 500 |
| 0 | 0-0 | 0-0 | 0-0 | 0-0 | 2 | 0.4 | RMSprop | 0.9037919 | 45.66 | 4753625 | 500 |
| 0 | 0-0 | 0-0 | 0-0 | 0-0 | 9 | 0.4 | RMSprop | 0.9042775 | 40.43 | 4753625 | 500 |
| 0 | 0-0 | 0-0 | 0-0 | 0-0 | 9 | 0.4 | Adam | 0.9048959 | 67.85 | 10505125 | 1000 |
| 0 | 0-0 | 0-0 | 0-0 | 0-0 | 4 | 0.4 | RMSprop | 0.9069912 | 44.35 | 4753625 | 500 |
| 0 | 0-0 | 0-0 | 0-0 | 0-0 | 3 | 0.4 | RMSprop | 0.9078277 | 49.21 | 4753625 | 500 |
| 0 | 0-0 | 0-0 | 0-0 | 0-0 | 5 | 0.4 | RMSprop | 0.9101504 | 42.83 | 4753625 | 500 |
| 0 | 0-0 | 0-0 | 0-0 | 0-0 | 7 | 0.4 | RMSprop | 0.910975 | 42.9 | 4753625 | 500 |
| 0 | 0-0 | 0-0 | 0-0 | 0-0 | 7 | 0.4 | Adam | 0.9137404 | 58.4 | 10505125 | 1000 |
| 0 | 0-0 | 0-0 | 0-0 | 0-0 | 8 | 0.4 | Adam | 0.9160887 | 55.48 | 10505125 | 1000 |
| 0 | 0-0 | 0-0 | 0-0 | 0-0 | 10 | 0.4 | Adam | 0.9179381 | 68.36 | 10505125 | 1000 |
| 0 | 0-0 | 0-0 | 0-0 | 0-0 | 1 | 0.4 | Adam | 0.9188218 | 61.61 | 10505125 | 1000 |
| 0 | 0-0 | 0-0 | 0-0 | 0-0 | 6 | 0.4 | Adam | 0.9200504 | 52.73 | 10505125 | 1000 |
| 0 | 0-0 | 0-0 | 0-0 | 0-0 | 5 | 0.4 | Adam | 0.9260347 | 57.77 | 10505125 | 1000 |
| 0 | 0-0 | 0-0 | 0-0 | 0-0 | 4 | 0.4 | Adam | 0.9264827 | 53.02 | 10505125 | 1000 |
| 0 | 0-0 | 0-0 | 0-0 | 0-0 | 3 | 0.4 | Adam | 0.9272914 | 52.95 | 10505125 | 1000 |
| 0 | 0-0 | 0-0 | 0-0 | 0-0 | 2 | 0.4 | Adam | 0.9345135 | 50.75 | 10505125 | 1000 |
| 0 | 0-0 | 0-0 | 0-0 | 0-0 | 7 | 0.4 | RMSprop | 0.9419738 | 52.12 | 10505125 | 1000 |
| 0 | 0-0 | 0-0 | 0-0 | 0-0 | 8 | 0.4 | RMSprop | 0.9444313 | 48.31 | 10505125 | 1000 |
| 0 | 0-0 | 0-0 | 0-0 | 0-0 | 2 | 0.4 | RMSprop | 0.9478718 | 49.21 | 10505125 | 1000 |
| 0 | 0-0 | 0-0 | 0-0 | 0-0 | 9 | 0.4 | RMSprop | 0.9485443 | 56.44 | 10505125 | 1000 |
| 0 | 0-0 | 0-0 | 0-0 | 0-0 | 4 | 0.4 | RMSprop | 0.9488753 | 55.71 | 10505125 | 1000 |
| 0 | 0-0 | 0-0 | 0-0 | 0-0 | 3 | 0.4 | RMSprop | 0.9499401 | 45.94 | 10505125 | 1000 |
| 0 | 0-0 | 0-0 | 0-0 | 0-0 | 1 | 0.4 | RMSprop | 0.9500071 | 50.4 | 10505125 | 1000 |
| 0 | 0-0 | 0-0 | 0-0 | 0-0 | 2 | 0.4 | Adagrad | 0.9502059 | 32.63 | 4753625 | 500 |
| 0 | 0-0 | 0-0 | 0-0 | 0-0 | 10 | 0.4 | RMSprop | 0.9510511 | 52.12 | 10505125 | 1000 |
| 0 | 0-0 | 0-0 | 0-0 | 0-0 | 5 | 0.4 | RMSprop | 0.952892 | 39.13 | 10505125 | 1000 |
| 0 | 0-0 | 0-0 | 0-0 | 0-0 | 7 | 0.4 | Adagrad | 0.9563083 | 29.46 | 4753625 | 500 |
| 0 | 0-0 | 0-0 | 0-0 | 0-0 | 10 | 0.4 | Adagrad | 0.957133 | 41.98 | 10505125 | 1000 |
| 0 | 0-0 | 0-0 | 0-0 | 0-0 | 6 | 0.4 | RMSprop | 0.9604978 | 41.32 | 10505125 | 1000 |
| 0 | 0-0 | 0-0 | 0-0 | 0-0 | 5 | 0.4 | Adagrad | 0.9609389 | 33.22 | 4753625 | 500 |
| 0 | 0-0 | 0-0 | 0-0 | 0-0 | 4 | 0.4 | Adagrad | 0.9616363 | 38.47 | 10505125 | 1000 |
| 0 | 0-0 | 0-0 | 0-0 | 0-0 | 7 | 0.4 | Adagrad | 0.9630932 | 38.88 | 10505125 | 1000 |
| 0 | 0-0 | 0-0 | 0-0 | 0-0 | 9 | 0.4 | Adagrad | 0.9637197 | 39.66 | 10505125 | 1000 |
| 0 | 0-0 | 0-0 | 0-0 | 0-0 | 6 | 0.4 | Adagrad | 0.9639238 | 35.8 | 10505125 | 1000 |
| 0 | 0-0 | 0-0 | 0-0 | 0-0 | 3 | 0.4 | Adagrad | 0.964403 | 27.35 | 4753625 | 500 |
| 0 | 0-0 | 0-0 | 0-0 | 0-0 | 2 | 0.4 | Adagrad | 0.9682826 | 33.1 | 10505125 | 1000 |
| 0 | 0-0 | 0-0 | 0-0 | 0-0 | 1 | 0.4 | Adagrad | 0.9691423 | 33.2 | 10505125 | 1000 |
| 0 | 0-0 | 0-0 | 0-0 | 0-0 | 5 | 0.4 | Adagrad | 0.969831 | 31.97 | 10505125 | 1000 |
| 0 | 0-0 | 0-0 | 0-0 | 0-0 | 8 | 0.4 | Adagrad | 0.9701248 | 23.87 | 4753625 | 500 |
| 0 | 0-0 | 0-0 | 0-0 | 0-0 | 10 | 0.4 | Adagrad | 0.9734858 | 22.31 | 4753625 | 500 |
| 0 | 0-0 | 0-0 | 0-0 | 0-0 | 4 | 0.4 | Adagrad | 0.9737076 | 22.69 | 4753625 | 500 |
| 0 | 0-0 | 0-0 | 0-0 | 0-0 | 9 | 0.4 | Adagrad | 0.9755012 | 21.6 | 4753625 | 500 |
| 0 | 0-0 | 0-0 | 0-0 | 0-0 | 3 | 0.4 | Adagrad | 0.9774087 | 26.82 | 10505125 | 1000 |
| 0 | 0-0 | 0-0 | 0-0 | 0-0 | 8 | 0.4 | Adagrad | 0.9776923 | 24.13 | 10505125 | 1000 |
| 0 | 0-0 | 0-0 | 0-0 | 0-0 | 1 | 0.4 | Adagrad | 0.9777893 | 19.53 | 4753625 | 500 |
| 0 | 0-0 | 0-0 | 0-0 | 0-0 | 6 | 0.4 | Adagrad | 0.9777947 | 18.75 | 4753625 | 500 |
