kro False False 0 128 0 16 16
kro False False 0 128 0 32 32
kro False False 0 128 0 64 64
kro False False 0 128 0 128 128
kro False False 0 128 0 256 256
kro False False 0 128 0.25 16 16
kro False False 0 128 0.25 32 32
kro False False 0 128 0.25 64 64
kro False False 0 128 0.25 128 128
kro False False 0 128 0.25 256 256
kro False False 0 128 0.5 16 16
kro False False 0 128 0.5 32 32
kro False False 0 128 0.5 64 64
kro False False 0 128 0.5 128 128
kro False False 0 128 0.5 256 256
kro False False 0 256 0 16 16
kro False False 0 256 0 32 32
kro False False 0 256 0 64 64
kro False False 0 256 0 128 128
kro False False 0 256 0 256 256
kro False False 0 256 0.25 16 16
kro False False 0 256 0.25 32 32
kro False False 0 256 0.25 64 64
kro False False 0 256 0.25 128 128
kro False False 0 256 0.25 256 256
kro False False 0 256 0.5 16 16
kro False False 0 256 0.5 32 32
kro False False 0 256 0.5 64 64
kro False False 0 256 0.5 128 128
kro False False 0 256 0.5 256 256
kro False False 1 128 0 16 16
kro False False 1 128 0 32 32
kro False False 1 128 0 64 64
kro False False 1 128 0 128 128
kro False False 1 128 0 256 256
kro False False 1 128 0.25 16 16
kro False False 1 128 0.25 32 32
kro False False 1 128 0.25 64 64
kro False False 1 128 0.25 128 128
kro False False 1 128 0.25 256 256
kro False False 1 128 0.5 16 16
kro False False 1 128 0.5 32 32
kro False False 1 128 0.5 64 64
kro False False 1 128 0.5 128 128
kro False False 1 128 0.5 256 256
kro False False 1 256 0 16 16
kro False False 1 256 0 32 32
kro False False 1 256 0 64 64
kro False False 1 256 0 128 128
kro False False 1 256 0 256 256
kro False False 1 256 0.25 16 16
kro False False 1 256 0.25 32 32
kro False False 1 256 0.25 64 64
kro False False 1 256 0.25 128 128
kro False False 1 256 0.25 256 256
kro False False 1 256 0.5 16 16
kro False False 1 256 0.5 32 32
kro False False 1 256 0.5 64 64
kro False False 1 256 0.5 128 128
kro False False 1 256 0.5 256 256
kro False False 2 128 0 16 16
kro False False 2 128 0 32 32
kro False False 2 128 0 64 64
kro False False 2 128 0 128 128
kro False False 2 128 0 256 256
kro False False 2 128 0.25 16 16
kro False False 2 128 0.25 32 32
kro False False 2 128 0.25 64 64
kro False False 2 128 0.25 128 128
kro False False 2 128 0.25 256 256
kro False False 2 128 0.5 16 16
kro False False 2 128 0.5 32 32
kro False False 2 128 0.5 64 64
kro False False 2 128 0.5 128 128
kro False False 2 128 0.5 256 256
kro False False 2 256 0 16 16
kro False False 2 256 0 32 32
kro False False 2 256 0 64 64
kro False False 2 256 0 128 128
kro False False 2 256 0 256 256
kro False False 2 256 0.25 16 16
kro False False 2 256 0.25 32 32
kro False False 2 256 0.25 64 64
kro False False 2 256 0.25 128 128
kro False False 2 256 0.25 256 256
kro False False 2 256 0.5 16 16
kro False False 2 256 0.5 32 32
kro False False 2 256 0.5 64 64
kro False False 2 256 0.5 128 128
kro False False 2 256 0.5 256 256
kro False True 0 128 0 16 16
kro False True 0 128 0 32 32
kro False True 0 128 0 64 64
kro False True 0 128 0 128 128
kro False True 0 128 0 256 256
kro False True 0 128 0.25 16 16
kro False True 0 128 0.25 32 32
kro False True 0 128 0.25 64 64
kro False True 0 128 0.25 128 128
kro False True 0 128 0.25 256 256
kro False True 0 128 0.5 16 16
kro False True 0 128 0.5 32 32
kro False True 0 128 0.5 64 64
kro False True 0 128 0.5 128 128
kro False True 0 128 0.5 256 256
kro False True 0 256 0 16 16
kro False True 0 256 0 32 32
kro False True 0 256 0 64 64
kro False True 0 256 0 128 128
kro False True 0 256 0 256 256
kro False True 0 256 0.25 16 16
kro False True 0 256 0.25 32 32
kro False True 0 256 0.25 64 64
kro False True 0 256 0.25 128 128
kro False True 0 256 0.25 256 256
kro False True 0 256 0.5 16 16
kro False True 0 256 0.5 32 32
kro False True 0 256 0.5 64 64
kro False True 0 256 0.5 128 128
kro False True 0 256 0.5 256 256
kro False True 1 128 0 16 16
kro False True 1 128 0 32 32
kro False True 1 128 0 64 64
kro False True 1 128 0 128 128
kro False True 1 128 0 256 256
kro False True 1 128 0.25 16 16
kro False True 1 128 0.25 32 32
kro False True 1 128 0.25 64 64
kro False True 1 128 0.25 128 128
kro False True 1 128 0.25 256 256
kro False True 1 128 0.5 16 16
kro False True 1 128 0.5 32 32
kro False True 1 128 0.5 64 64
kro False True 1 128 0.5 128 128
kro False True 1 128 0.5 256 256
kro False True 1 256 0 16 16
kro False True 1 256 0 32 32
kro False True 1 256 0 64 64
kro False True 1 256 0 128 128
kro False True 1 256 0 256 256
kro False True 1 256 0.25 16 16
kro False True 1 256 0.25 32 32
kro False True 1 256 0.25 64 64
kro False True 1 256 0.25 128 128
kro False True 1 256 0.25 256 256
kro False True 1 256 0.5 16 16
kro False True 1 256 0.5 32 32
kro False True 1 256 0.5 64 64
kro False True 1 256 0.5 128 128
kro False True 1 256 0.5 256 256
kro False True 2 128 0 16 16
kro False True 2 128 0 32 32
kro False True 2 128 0 64 64
kro False True 2 128 0 128 128
kro False True 2 128 0 256 256
kro False True 2 128 0.25 16 16
kro False True 2 128 0.25 32 32
kro False True 2 128 0.25 64 64
kro False True 2 128 0.25 128 128
kro False True 2 128 0.25 256 256
kro False True 2 128 0.5 16 16
kro False True 2 128 0.5 32 32
kro False True 2 128 0.5 64 64
kro False True 2 128 0.5 128 128
kro False True 2 128 0.5 256 256
kro False True 2 256 0 16 16
kro False True 2 256 0 32 32
kro False True 2 256 0 64 64
kro False True 2 256 0 128 128
kro False True 2 256 0 256 256
kro False True 2 256 0.25 16 16
kro False True 2 256 0.25 32 32
kro False True 2 256 0.25 64 64
kro False True 2 256 0.25 128 128
kro False True 2 256 0.25 256 256
kro False True 2 256 0.5 16 16
kro False True 2 256 0.5 32 32
kro False True 2 256 0.5 64 64
kro False True 2 256 0.5 128 128
kro False True 2 256 0.5 256 256
kro True False 0 128 0 16 16
kro True False 0 128 0 32 32
kro True False 0 128 0 64 64
kro True False 0 128 0 128 128
kro True False 0 128 0 256 256
kro True False 0 128 0.25 16 16
kro True False 0 128 0.25 32 32
kro True False 0 128 0.25 64 64
kro True False 0 128 0.25 128 128
kro True False 0 128 0.25 256 256
kro True False 0 128 0.5 16 16
kro True False 0 128 0.5 32 32
kro True False 0 128 0.5 64 64
kro True False 0 128 0.5 128 128
kro True False 0 128 0.5 256 256
kro True False 0 256 0 16 16
kro True False 0 256 0 32 32
kro True False 0 256 0 64 64
kro True False 0 256 0 128 128
kro True False 0 256 0 256 256
kro True False 0 256 0.25 16 16
kro True False 0 256 0.25 32 32
kro True False 0 256 0.25 64 64
kro True False 0 256 0.25 128 128
kro True False 0 256 0.25 256 256
kro True False 0 256 0.5 16 16
kro True False 0 256 0.5 32 32
kro True False 0 256 0.5 64 64
kro True False 0 256 0.5 128 128
kro True False 0 256 0.5 256 256
kro True False 1 128 0 16 16
kro True False 1 128 0 32 32
kro True False 1 128 0 64 64
kro True False 1 128 0 128 128
kro True False 1 128 0 256 256
kro True False 1 128 0.25 16 16
kro True False 1 128 0.25 32 32
kro True False 1 128 0.25 64 64
kro True False 1 128 0.25 128 128
kro True False 1 128 0.25 256 256
kro True False 1 128 0.5 16 16
kro True False 1 128 0.5 32 32
kro True False 1 128 0.5 64 64
kro True False 1 128 0.5 128 128
kro True False 1 128 0.5 256 256
kro True False 1 256 0 16 16
kro True False 1 256 0 32 32
kro True False 1 256 0 64 64
kro True False 1 256 0 128 128
kro True False 1 256 0 256 256
kro True False 1 256 0.25 16 16
kro True False 1 256 0.25 32 32
kro True False 1 256 0.25 64 64
kro True False 1 256 0.25 128 128
kro True False 1 256 0.25 256 256
kro True False 1 256 0.5 16 16
kro True False 1 256 0.5 32 32
kro True False 1 256 0.5 64 64
kro True False 1 256 0.5 128 128
kro True False 1 256 0.5 256 256
kro True False 2 128 0 16 16
kro True False 2 128 0 32 32
kro True False 2 128 0 64 64
kro True False 2 128 0 128 128
kro True False 2 128 0 256 256
kro True False 2 128 0.25 16 16
kro True False 2 128 0.25 32 32
kro True False 2 128 0.25 64 64
kro True False 2 128 0.25 128 128
kro True False 2 128 0.25 256 256
kro True False 2 128 0.5 16 16
kro True False 2 128 0.5 32 32
kro True False 2 128 0.5 64 64
kro True False 2 128 0.5 128 128
kro True False 2 128 0.5 256 256
kro True False 2 256 0 16 16
kro True False 2 256 0 32 32
kro True False 2 256 0 64 64
kro True False 2 256 0 128 128
kro True False 2 256 0 256 256
kro True False 2 256 0.25 16 16
kro True False 2 256 0.25 32 32
kro True False 2 256 0.25 64 64
kro True False 2 256 0.25 128 128
kro True False 2 256 0.25 256 256
kro True False 2 256 0.5 16 16
kro True False 2 256 0.5 32 32
kro True False 2 256 0.5 64 64
kro True False 2 256 0.5 128 128
kro True False 2 256 0.5 256 256
kro True True 0 128 0 16 16
kro True True 0 128 0 32 32
kro True True 0 128 0 64 64
kro True True 0 128 0 128 128
kro True True 0 128 0 256 256
kro True True 0 128 0.25 16 16
kro True True 0 128 0.25 32 32
kro True True 0 128 0.25 64 64
kro True True 0 128 0.25 128 128
kro True True 0 128 0.25 256 256
kro True True 0 128 0.5 16 16
kro True True 0 128 0.5 32 32
kro True True 0 128 0.5 64 64
kro True True 0 128 0.5 128 128
kro True True 0 128 0.5 256 256
kro True True 0 256 0 16 16
kro True True 0 256 0 32 32
kro True True 0 256 0 64 64
kro True True 0 256 0 128 128
kro True True 0 256 0 256 256
kro True True 0 256 0.25 16 16
kro True True 0 256 0.25 32 32
kro True True 0 256 0.25 64 64
kro True True 0 256 0.25 128 128
kro True True 0 256 0.25 256 256
kro True True 0 256 0.5 16 16
kro True True 0 256 0.5 32 32
kro True True 0 256 0.5 64 64
kro True True 0 256 0.5 128 128
kro True True 0 256 0.5 256 256
kro True True 1 128 0 16 16
kro True True 1 128 0 32 32
kro True True 1 128 0 64 64
kro True True 1 128 0 128 128
kro True True 1 128 0 256 256
kro True True 1 128 0.25 16 16
kro True True 1 128 0.25 32 32
kro True True 1 128 0.25 64 64
kro True True 1 128 0.25 128 128
kro True True 1 128 0.25 256 256
kro True True 1 128 0.5 16 16
kro True True 1 128 0.5 32 32
kro True True 1 128 0.5 64 64
kro True True 1 128 0.5 128 128
kro True True 1 128 0.5 256 256
kro True True 1 256 0 16 16
kro True True 1 256 0 32 32
kro True True 1 256 0 64 64
kro True True 1 256 0 128 128
kro True True 1 256 0 256 256
kro True True 1 256 0.25 16 16
kro True True 1 256 0.25 32 32
kro True True 1 256 0.25 64 64
kro True True 1 256 0.25 128 128
kro True True 1 256 0.25 256 256
kro True True 1 256 0.5 16 16
kro True True 1 256 0.5 32 32
kro True True 1 256 0.5 64 64
kro True True 1 256 0.5 128 128
kro True True 1 256 0.5 256 256
kro True True 2 128 0 16 16
kro True True 2 128 0 32 32
kro True True 2 128 0 64 64
kro True True 2 128 0 128 128
kro True True 2 128 0 256 256
kro True True 2 128 0.25 16 16
kro True True 2 128 0.25 32 32
kro True True 2 128 0.25 64 64
kro True True 2 128 0.25 128 128
kro True True 2 128 0.25 256 256
kro True True 2 128 0.5 16 16
kro True True 2 128 0.5 32 32
kro True True 2 128 0.5 64 64
kro True True 2 128 0.5 128 128
kro True True 2 128 0.5 256 256
kro True True 2 256 0 16 16
kro True True 2 256 0 32 32
kro True True 2 256 0 64 64
kro True True 2 256 0 128 128
kro True True 2 256 0 256 256
kro True True 2 256 0.25 16 16
kro True True 2 256 0.25 32 32
kro True True 2 256 0.25 64 64
kro True True 2 256 0.25 128 128
kro True True 2 256 0.25 256 256
kro True True 2 256 0.5 16 16
kro True True 2 256 0.5 32 32
kro True True 2 256 0.5 64 64
kro True True 2 256 0.5 128 128
kro True True 2 256 0.5 256 256
