# Best result

**t** : *type des deux couches testees (convolution ou kronecker)*  
**bn1** : *presence ou non de la premiere couche de batch normalisation*  
**bn2** : *presence ou non de la deuxieme couche de batch normalisation*  
**relu** : *presence (1=avant ou 2=apres la batch normalisation) ou 0=non de la couche d'activation relu*  
**nbN** : *nombre de neurone dans la couche dense cachee*  
**do** : *force de la couche de drop out*  
**K1** : *nombre de filtres de convolution ou rang de kronecker (suivant le type des couches testees)*  
**K2** : *nombre de filtres de convolution ou rang de kronecker (suivant le type des couches testees)*  
**vloss** : *erreur sur le corpus de validation*  
**vacc** : *precision sur le corpus de validation*  
**tloss** : *erreur sur le corpus de test*  
**tacc** : *precision sur le corpus de test*  

| **t** | **bn1** | **bn2** | **relu** | **nbN** | **do** | **K1** | **K2** | **vloss** | **vacc** | **tloss** | **tacc** |
|:-----:|:-------:|:-------:|:--------:|:-------:|:------:|:------:|:------:|:---------:|:--------:|:---------:|:--------:|
| kro | True | True | 1 | 256 | 0.25 | 16 | 16 | 0.127 | 0.9790 | 0.1038 | 0.9792 |

# Other results

**t** : *type des deux couches testees (convolution ou kronecker)*  
**bn1** : *presence ou non de la premiere couche de batch normalisation*  
**bn2** : *presence ou non de la deuxieme couche de batch normalisation*  
**relu** : *presence (1=avant ou 2=apres la batch normalisation) ou 0=non de la couche d'activation relu*  
**nbN** : *nombre de neurone dans la couche dense cachee*  
**do** : *force de la couche de drop out*  
**K1** : *nombre de filtres de convolution ou rang de kronecker (suivant le type des couches testees)*  
**K2** : *nombre de filtres de convolution ou rang de kronecker (suivant le type des couches testees)*  
**vloss** : *erreur sur le corpus de validation*  
**vacc** : *precision sur le corpus de validation*  
**tloss** : *erreur sur le corpus de test*  
**tacc** : *precision sur le corpus de test*  

| **t** | **bn1** | **bn2** | **relu** | **nbN** | **do** | **K1** | **K2** | **vloss** | **vacc** | **tloss** | **tacc** |
|:-----:|:-------:|:-------:|:--------:|:-------:|:------:|:------:|:------:|:---------:|:--------:|:---------:|:--------:|
| kro | True | True | 1 | 256 | 0.25 | 16 | 16 | 0.127 | 0.9790 | 0.1038 | 0.9792 |
| kro | True | True | 1 | 256 | 0.0 | 64 | 64 | 0.137 | 0.9789 | 0.1437 | 0.9772 |
| kro | True | True | 1 | 256 | 0.0 | 64 | 64 | 0.151 | 0.9782 | 0.1285 | 0.9778 |
| kro | True | True | 1 | 256 | 0.25 | 16 | 16 | 0.125 | 0.9779 | 0.1028 | 0.9813 |
| kro | True | True | 1 | 256 | 0.25 | 32 | 32 | 0.129 | 0.9778 | 0.1067 | 0.9797 |
| kro | True | True | 1 | 128 | 0.25 | 32 | 32 | 0.155 | 0.9777 | 0.1286 | 0.9779 |
| kro | True | True | 1 | 128 | 0.0 | 64 | 64 | 0.144 | 0.9763 | 0.1321 | 0.977 |
| kro | True | True | 2 | 128 | 0.0 | 32 | 32 | 0.214 | 0.9763 | 0.2219 | 0.9758 |
| kro | True | True | 0 | 256 | 0.25 | 16 | 16 | 0.166 | 0.9761 | 0.1687 | 0.9735 |
| kro | True | True | 0 | 256 | 0.0 | 64 | 64 | 0.177 | 0.9760 | 0.1875 | 0.9726 |
| kro | True | True | 1 | 128 | 0.25 | 16 | 16 | 0.164 | 0.9759 | 0.1588 | 0.9751 |
| kro | True | True | 0 | 256 | 0.25 | 16 | 16 | 0.184 | 0.9756 | 0.1889 | 0.9755 |
| kro | True | True | 1 | 256 | 0.25 | 32 | 32 | 0.126 | 0.9755 | 0.1152 | 0.975 |
| kro | True | True | 0 | 256 | 0.0 | 32 | 32 | 0.174 | 0.9752 | 0.1847 | 0.9741 |
| kro | True | True | 1 | 128 | 0.25 | 32 | 32 | 0.158 | 0.9749 | 0.1417 | 0.9769 |
| kro | True | True | 1 | 256 | 0.5 | 16 | 16 | 0.201 | 0.9749 | 0.1934 | 0.9718 |
| kro | True | True | 1 | 256 | 0.0 | 64 | 64 | 0.182 | 0.9749 | 0.1543 | 0.9776 |
| kro | True | True | 0 | 256 | 0.0 | 64 | 64 | 0.158 | 0.9746 | 0.1809 | 0.9736 |
| kro | True | True | 0 | 256 | 0.25 | 16 | 16 | 0.175 | 0.9746 | 0.1656 | 0.9754 |
| kro | True | True | 1 | 256 | 0.25 | 64 | 64 | 0.133 | 0.9743 | 0.1237 | 0.9722 |
| kro | True | True | 1 | 128 | 0.0 | 64 | 64 | 0.168 | 0.9742 | 0.14 | 0.9758 |
| kro | True | True | 0 | 256 | 0.25 | 64 | 64 | 0.142 | 0.9738 | 0.137 | 0.9753 |
| kro | True | True | 0 | 256 | 0.0 | 16 | 16 | 0.269 | 0.9736 | 0.2586 | 0.9744 |
| kro | True | True | 1 | 128 | 0.25 | 64 | 64 | 0.113 | 0.9736 | 0.1155 | 0.9706 |
| kro | True | True | 0 | 256 | 0.5 | 16 | 16 | 0.173 | 0.9736 | 0.1657 | 0.9733 |
| kro | True | True | 0 | 128 | 0.0 | 64 | 64 | 0.165 | 0.9736 | 0.1641 | 0.9743 |
| kro | True | True | 2 | 128 | 0.0 | 16 | 16 | 0.180 | 0.9735 | 0.1771 | 0.9737 |
| kro | True | True | 1 | 128 | 0.25 | 16 | 16 | 0.193 | 0.9734 | 0.1906 | 0.9722 |
| kro | True | True | 1 | 256 | 0.0 | 32 | 32 | 0.172 | 0.9734 | 0.1803 | 0.9722 |
| kro | True | True | 1 | 128 | 0.5 | 32 | 32 | 0.170 | 0.9734 | 0.1593 | 0.9747 |
| kro | True | True | 1 | 128 | 0.25 | 32 | 32 | 0.170 | 0.9733 | 0.1437 | 0.9747 |
| kro | True | True | 0 | 256 | 0.25 | 32 | 32 | 0.149 | 0.9732 | 0.1631 | 0.9713 |
| kro | True | True | 1 | 128 | 0.0 | 16 | 16 | 0.286 | 0.9731 | 0.2818 | 0.9756 |
| kro | True | True | 1 | 256 | 0.0 | 64 | 64 | 0.181 | 0.9730 | 0.1537 | 0.9749 |
| kro | True | True | 0 | 256 | 0.0 | 64 | 64 | 0.192 | 0.9730 | 0.2015 | 0.972 |
| kro | True | True | 1 | 128 | 0.5 | 32 | 32 | 0.137 | 0.9730 | 0.1251 | 0.9736 |
| kro | True | True | 1 | 256 | 0.25 | 16 | 16 | 0.194 | 0.9730 | 0.1827 | 0.9739 |
| kro | True | True | 1 | 256 | 0.5 | 16 | 16 | 0.163 | 0.9729 | 0.1425 | 0.9729 |
| kro | True | True | 0 | 128 | 0.0 | 64 | 64 | 0.164 | 0.9728 | 0.1555 | 0.9722 |
| kro | True | True | 0 | 256 | 0.0 | 16 | 16 | 0.306 | 0.9728 | 0.297 | 0.9725 |
| kro | True | True | 2 | 128 | 0.0 | 32 | 32 | 0.254 | 0.9726 | 0.2559 | 0.9706 |
| kro | True | True | 0 | 128 | 0.25 | 32 | 32 | 0.164 | 0.9726 | 0.1535 | 0.9724 |
| kro | True | True | 2 | 256 | 0.0 | 32 | 32 | 0.168 | 0.9725 | 0.1681 | 0.9724 |
| kro | True | True | 1 | 256 | 0.0 | 32 | 32 | 0.180 | 0.9725 | 0.1764 | 0.9697 |
| kro | True | True | 0 | 256 | 0.25 | 16 | 16 | 0.204 | 0.9724 | 0.1979 | 0.9735 |
| kro | True | True | 1 | 256 | 0.25 | 16 | 16 | 0.149 | 0.9723 | 0.1537 | 0.9708 |
| kro | True | True | 1 | 128 | 0.25 | 16 | 16 | 0.250 | 0.9723 | 0.2536 | 0.9721 |
| kro | True | True | 1 | 128 | 0.0 | 64 | 64 | 0.182 | 0.9722 | 0.1778 | 0.9715 |
| kro | True | True | 0 | 128 | 0.0 | 32 | 32 | 0.322 | 0.9721 | 0.3676 | 0.9681 |
| kro | True | True | 1 | 128 | 0.0 | 32 | 32 | 0.218 | 0.9721 | 0.2124 | 0.9721 |
| kro | True | True | 0 | 128 | 0.25 | 16 | 16 | 0.205 | 0.9719 | 0.2268 | 0.9683 |
| kro | True | True | 0 | 256 | 0.5 | 16 | 16 | 0.195 | 0.9717 | 0.185 | 0.9731 |
| kro | True | True | 0 | 256 | 0.0 | 32 | 32 | 0.200 | 0.9716 | 0.1802 | 0.9725 |
| kro | True | True | 1 | 256 | 0.5 | 16 | 16 | 0.210 | 0.9716 | 0.1881 | 0.9743 |
| kro | True | True | 1 | 128 | 0.25 | 16 | 16 | 0.216 | 0.9715 | 0.1599 | 0.9762 |
| kro | True | True | 2 | 128 | 0.0 | 16 | 16 | 0.194 | 0.9715 | 0.1836 | 0.9729 |
| kro | True | True | 0 | 128 | 0.0 | 32 | 32 | 0.177 | 0.9714 | 0.1677 | 0.9708 |
| kro | True | True | 1 | 256 | 0.25 | 32 | 32 | 0.143 | 0.9714 | 0.1449 | 0.9702 |
| kro | True | True | 1 | 128 | 0.25 | 32 | 32 | 0.206 | 0.9712 | 0.1748 | 0.9743 |
| kro | True | True | 0 | 128 | 0.0 | 64 | 64 | 0.207 | 0.9710 | 0.1954 | 0.972 |
| kro | True | True | 1 | 128 | 0.0 | 16 | 16 | 0.319 | 0.9709 | 0.2878 | 0.9723 |
| kro | True | True | 2 | 256 | 0.25 | 32 | 32 | 0.153 | 0.9708 | 0.143 | 0.9716 |
| kro | True | True | 1 | 256 | 0.0 | 16 | 16 | 0.289 | 0.9708 | 0.2825 | 0.9724 |
| kro | True | True | 2 | 256 | 0.25 | 16 | 16 | 0.228 | 0.9707 | 0.2159 | 0.9701 |
| kro | True | True | 0 | 256 | 0.5 | 16 | 16 | 0.183 | 0.9707 | 0.1733 | 0.9713 |
| kro | True | True | 2 | 256 | 0.0 | 64 | 64 | 0.243 | 0.9706 | 0.2526 | 0.9664 |
| kro | True | True | 0 | 256 | 0.5 | 16 | 16 | 0.138 | 0.9705 | 0.1212 | 0.9747 |
| kro | True | True | 0 | 128 | 0.25 | 32 | 32 | 0.193 | 0.9704 | 0.1675 | 0.9736 |
| kro | True | True | 1 | 256 | 0.5 | 32 | 32 | 0.134 | 0.9704 | 0.1218 | 0.9706 |
| kro | True | True | 2 | 256 | 0.0 | 16 | 16 | 0.329 | 0.9703 | 0.2822 | 0.9713 |
| kro | True | True | 2 | 256 | 0.0 | 32 | 32 | 0.211 | 0.9703 | 0.2203 | 0.9696 |
| kro | True | True | 2 | 128 | 0.0 | 32 | 32 | 0.272 | 0.9702 | 0.2722 | 0.9716 |
| kro | True | True | 1 | 128 | 0.5 | 32 | 32 | 0.120 | 0.9701 | 0.0997 | 0.9722 |
| kro | True | True | 1 | 128 | 0.25 | 64 | 64 | 0.140 | 0.9700 | 0.1387 | 0.9692 |
| kro | True | True | 1 | 128 | 0.0 | 16 | 16 | 0.284 | 0.9699 | 0.2535 | 0.9722 |
| kro | True | True | 0 | 256 | 0.0 | 32 | 32 | 0.195 | 0.9699 | 0.1852 | 0.9703 |
| kro | True | True | 2 | 256 | 0.5 | 16 | 16 | 0.165 | 0.9698 | 0.1366 | 0.9722 |
| kro | True | True | 0 | 256 | 0.0 | 16 | 16 | 0.346 | 0.9695 | 0.3114 | 0.9723 |
| kro | True | True | 1 | 128 | 0.0 | 16 | 16 | 0.271 | 0.9695 | 0.2423 | 0.9737 |
| kro | True | True | 1 | 128 | 0.5 | 16 | 16 | 0.272 | 0.9693 | 0.2383 | 0.971 |
| kro | True | True | 1 | 256 | 0.5 | 32 | 32 | 0.141 | 0.9692 | 0.1294 | 0.9701 |
| kro | True | True | 1 | 128 | 0.0 | 32 | 32 | 0.290 | 0.9691 | 0.2519 | 0.974 |
| kro | True | True | 2 | 256 | 0.5 | 16 | 16 | 0.139 | 0.9690 | 0.1314 | 0.9709 |
| kro | True | True | 1 | 128 | 0.0 | 32 | 32 | 0.302 | 0.9688 | 0.3006 | 0.971 |
| kro | True | True | 0 | 256 | 0.0 | 32 | 32 | 0.184 | 0.9688 | 0.1981 | 0.9678 |
| kro | True | True | 1 | 256 | 0.25 | 32 | 32 | 0.178 | 0.9681 | 0.1565 | 0.9677 |
| kro | True | True | 0 | 128 | 0.25 | 16 | 16 | 0.239 | 0.9679 | 0.2236 | 0.9708 |
| kro | True | True | 2 | 256 | 0.5 | 16 | 16 | 0.197 | 0.9676 | 0.1781 | 0.9697 |
| kro | True | True | 1 | 256 | 0.0 | 16 | 16 | 0.362 | 0.9674 | 0.3826 | 0.9663 |
| kro | True | True | 1 | 128 | 0.0 | 32 | 32 | 0.320 | 0.9671 | 0.3007 | 0.9688 |
| kro | True | True | 1 | 256 | 0.0 | 16 | 16 | 0.260 | 0.9670 | 0.272 | 0.9677 |
| kro | True | True | 0 | 128 | 0.25 | 16 | 16 | 0.366 | 0.9669 | 0.3301 | 0.9681 |
| kro | True | True | 2 | 128 | 0.25 | 32 | 32 | 0.243 | 0.9667 | 0.2161 | 0.9684 |
| kro | True | True | 2 | 128 | 0.25 | 16 | 16 | 0.252 | 0.9667 | 0.2535 | 0.9673 |
| kro | True | True | 2 | 128 | 0.25 | 16 | 16 | 0.232 | 0.9666 | 0.1979 | 0.9698 |
| kro | True | True | 1 | 256 | 0.5 | 32 | 32 | 0.145 | 0.9666 | 0.1529 | 0.967 |
| kro | True | True | 2 | 128 | 0.25 | 32 | 32 | 0.228 | 0.9664 | 0.2 | 0.9701 |
| kro | True | True | 2 | 128 | 0.25 | 16 | 16 | 0.234 | 0.9663 | 0.2177 | 0.9692 |
| kro | True | True | 0 | 256 | 0.25 | 32 | 32 | 0.199 | 0.9661 | 0.1888 | 0.971 |
| kro | True | True | 0 | 128 | 0.0 | 16 | 16 | 0.385 | 0.9661 | 0.3798 | 0.9682 |
| kro | True | True | 0 | 128 | 0.0 | 16 | 16 | 0.357 | 0.9660 | 0.3718 | 0.9653 |
| kro | True | True | 2 | 128 | 0.25 | 32 | 32 | 0.216 | 0.9657 | 0.1789 | 0.9712 |
| kro | True | True | 1 | 128 | 0.5 | 16 | 16 | 0.278 | 0.9654 | 0.258 | 0.9672 |
| kro | True | True | 0 | 128 | 0.25 | 16 | 16 | 0.282 | 0.9652 | 0.3002 | 0.9625 |
| kro | True | True | 2 | 128 | 0.5 | 32 | 32 | 0.162 | 0.9649 | 0.1195 | 0.9712 |
| kro | True | True | 2 | 128 | 0.0 | 16 | 16 | 0.278 | 0.9648 | 0.2755 | 0.9649 |
| kro | True | True | 0 | 256 | 0.25 | 64 | 64 | 0.229 | 0.9645 | 0.2451 | 0.9628 |
| kro | True | True | 1 | 256 | 0.5 | 32 | 32 | 0.151 | 0.9645 | 0.137 | 0.9656 |
| kro | True | True | 1 | 128 | 0.5 | 16 | 16 | 0.261 | 0.9644 | 0.2378 | 0.966 |
| kro | True | True | 2 | 128 | 0.25 | 32 | 32 | 0.164 | 0.9641 | 0.1215 | 0.9711 |
| kro | True | True | 1 | 128 | 0.5 | 32 | 32 | 0.211 | 0.9641 | 0.1858 | 0.9685 |
| kro | True | True | 0 | 256 | 0.25 | 64 | 64 | 0.223 | 0.9641 | 0.205 | 0.9683 |
| kro | True | True | 0 | 128 | 0.5 | 32 | 32 | 0.182 | 0.9635 | 0.1784 | 0.9647 |
| kro | True | True | 0 | 128 | 0.0 | 16 | 16 | 0.449 | 0.9632 | 0.499 | 0.9606 |
| kro | True | True | 2 | 256 | 0.5 | 16 | 16 | 0.193 | 0.9626 | 0.17 | 0.9672 |
| kro | True | True | 1 | 256 | 0.25 | 64 | 64 | 0.217 | 0.9621 | 0.2067 | 0.9645 |
| kro | True | True | 2 | 128 | 0.25 | 16 | 16 | 0.270 | 0.9620 | 0.2865 | 0.9592 |
| kro | True | True | 0 | 128 | 0.5 | 16 | 16 | 0.280 | 0.9614 | 0.2485 | 0.9626 |
| kro | True | True | 1 | 256 | 0.25 | 64 | 64 | 0.223 | 0.9610 | 0.2228 | 0.9568 |
| kro | True | True | 2 | 128 | 0.5 | 16 | 16 | 0.239 | 0.9608 | 0.1939 | 0.9639 |
| kro | True | True | 1 | 256 | 0.5 | 16 | 16 | 0.234 | 0.9604 | 0.2081 | 0.9613 |
| kro | True | True | 2 | 128 | 0.5 | 16 | 16 | 0.223 | 0.9601 | 0.2089 | 0.9618 |
| kro | True | True | 0 | 128 | 0.5 | 32 | 32 | 0.239 | 0.9600 | 0.2091 | 0.9638 |
| kro | True | True | 0 | 128 | 0.0 | 32 | 32 | 0.424 | 0.9599 | 0.4149 | 0.9612 |
| kro | True | True | 1 | 256 | 0.0 | 32 | 32 | 0.252 | 0.9599 | 0.2198 | 0.9611 |
| kro | True | True | 0 | 128 | 0.5 | 16 | 16 | 0.282 | 0.9598 | 0.2668 | 0.9615 |
| kro | True | True | 1 | 128 | 0.0 | 64 | 64 | 0.222 | 0.9596 | 0.2085 | 0.9615 |
| kro | True | True | 0 | 128 | 0.5 | 32 | 32 | 0.218 | 0.9593 | 0.1764 | 0.9614 |
| kro | True | True | 1 | 128 | 0.5 | 16 | 16 | 0.294 | 0.9582 | 0.2614 | 0.9611 |
| kro | True | True | 2 | 128 | 0.5 | 16 | 16 | 0.330 | 0.9581 | 0.3042 | 0.961 |
| kro | True | True | 0 | 128 | 0.5 | 16 | 16 | 0.308 | 0.9580 | 0.2931 | 0.9583 |
| kro | True | True | 1 | 256 | 0.5 | 64 | 64 | 0.218 | 0.9579 | 0.2049 | 0.9565 |
| kro | True | True | 1 | 256 | 0.0 | 32 | 32 | 0.322 | 0.9577 | 0.2741 | 0.9619 |
| kro | True | True | 2 | 256 | 0.0 | 64 | 64 | 0.297 | 0.9576 | 0.3274 | 0.9556 |
| kro | True | True | 2 | 128 | 0.5 | 32 | 32 | 0.227 | 0.9574 | 0.1837 | 0.9625 |
| kro | True | True | 2 | 128 | 0.5 | 32 | 32 | 0.270 | 0.9571 | 0.2058 | 0.9652 |
| kro | True | True | 2 | 256 | 0.5 | 32 | 32 | 0.253 | 0.9570 | 0.2365 | 0.9587 |
| kro | True | True | 0 | 256 | 0.25 | 32 | 32 | 0.294 | 0.9567 | 0.2899 | 0.9556 |
| kro | True | True | 2 | 256 | 0.0 | 16 | 16 | 0.410 | 0.9559 | 0.4162 | 0.9555 |
| kro | True | True | 2 | 128 | 0.5 | 32 | 32 | 0.275 | 0.9559 | 0.2499 | 0.9582 |
| kro | True | True | 2 | 256 | 0.0 | 32 | 32 | 0.272 | 0.9556 | 0.2731 | 0.959 |
| kro | True | True | 2 | 256 | 0.0 | 16 | 16 | 0.588 | 0.9553 | 0.5347 | 0.9594 |
| kro | True | True | 1 | 256 | 0.5 | 64 | 64 | 0.228 | 0.9551 | 0.2126 | 0.9576 |
| kro | True | True | 0 | 128 | 0.25 | 32 | 32 | 0.636 | 0.9549 | 0.6672 | 0.9531 |
| kro | True | True | 2 | 128 | 0.5 | 16 | 16 | 0.214 | 0.9548 | 0.1911 | 0.9563 |
| kro | True | True | 0 | 128 | 0.5 | 16 | 16 | 0.303 | 0.9545 | 0.2646 | 0.9593 |
| kro | True | True | 2 | 256 | 0.25 | 16 | 16 | 0.364 | 0.9530 | 0.3637 | 0.9525 |
| kro | True | True | 1 | 256 | 0.5 | 64 | 64 | 0.218 | 0.9528 | 0.1964 | 0.9582 |
| kro | True | True | 0 | 128 | 0.25 | 32 | 32 | 0.257 | 0.9524 | 0.247 | 0.9534 |
| kro | True | True | 2 | 128 | 0.0 | 32 | 32 | 0.718 | 0.9518 | 0.6417 | 0.9569 |
| kro | True | True | 1 | 128 | 0.5 | 64 | 64 | 0.219 | 0.9499 | 0.2218 | 0.9479 |
| kro | True | True | 2 | 256 | 0.25 | 64 | 64 | 0.314 | 0.9493 | 0.3027 | 0.9522 |
| kro | True | True | 1 | 128 | 0.5 | 64 | 64 | 0.196 | 0.9476 | 0.2003 | 0.9496 |
| kro | True | True | 1 | 256 | 0.0 | 16 | 16 | 0.719 | 0.9468 | 0.6889 | 0.9484 |
| kro | True | True | 2 | 128 | 0.0 | 64 | 64 | 0.382 | 0.9440 | 0.3831 | 0.9475 |
| kro | True | True | 2 | 128 | 0.0 | 16 | 16 | 0.787 | 0.9422 | 0.7093 | 0.9467 |
| kro | True | True | 0 | 256 | 0.25 | 32 | 32 | 0.941 | 0.9395 | 0.9436 | 0.9389 |
| kro | True | True | 2 | 256 | 0.0 | 32 | 32 | 0.459 | 0.9362 | 0.4021 | 0.9419 |
| kro | True | True | 0 | 256 | 0.5 | 32 | 32 | 0.353 | 0.9339 | 0.3455 | 0.9315 |
| kro | True | True | 2 | 256 | 0.5 | 32 | 32 | 0.316 | 0.9327 | 0.325 | 0.933 |
| kro | True | True | 0 | 256 | 0.0 | 16 | 16 | 1.023 | 0.9316 | 1.0718 | 0.9308 |
| kro | True | True | 2 | 256 | 0.0 | 64 | 64 | 0.582 | 0.9315 | 0.5772 | 0.9303 |
| kro | True | True | 2 | 256 | 0.5 | 32 | 32 | 0.418 | 0.9288 | 0.3727 | 0.9378 |
| kro | True | True | 2 | 256 | 0.0 | 16 | 16 | 1.088 | 0.9283 | 1.07 | 0.9294 |
| kro | True | True | 1 | 256 | 0.25 | 64 | 64 | 0.451 | 0.9269 | 0.4715 | 0.9234 |
| kro | True | True | 2 | 128 | 0.0 | 64 | 64 | 0.503 | 0.9258 | 0.516 | 0.9254 |
| kro | True | True | 0 | 128 | 0.5 | 32 | 32 | 0.374 | 0.9245 | 0.3427 | 0.9279 |
| kro | True | True | 2 | 256 | 0.0 | 64 | 64 | 0.651 | 0.9211 | 0.6257 | 0.9238 |
| kro | True | True | 2 | 256 | 0.25 | 32 | 32 | 0.573 | 0.9160 | 0.5521 | 0.9224 |
| kro | True | True | 1 | 128 | 0.5 | 64 | 64 | 0.363 | 0.9145 | 0.3304 | 0.9186 |
| kro | True | True | 0 | 256 | 0.5 | 32 | 32 | 0.469 | 0.9109 | 0.4625 | 0.9113 |
| kro | True | True | 2 | 128 | 0.0 | 64 | 64 | 0.739 | 0.9052 | 0.6908 | 0.9114 |
| kro | True | True | 0 | 128 | 0.25 | 64 | 64 | 0.612 | 0.8985 | 0.5766 | 0.903 |
| kro | True | True | 0 | 128 | 0.25 | 64 | 64 | 0.702 | 0.8847 | 0.6597 | 0.8894 |
| kro | True | True | 0 | 256 | 0.5 | 32 | 32 | 0.621 | 0.8839 | 0.5894 | 0.8868 |
| kro | True | True | 2 | 128 | 0.25 | 64 | 64 | 1.165 | 0.8521 | 1.1941 | 0.8456 |
| kro | True | True | 1 | 256 | 0.5 | 64 | 64 | 0.851 | 0.8477 | 0.7841 | 0.8513 |
| kro | True | True | 0 | 128 | 0.25 | 64 | 64 | 1.314 | 0.8386 | 1.2276 | 0.8406 |
| kro | True | True | 2 | 256 | 0.25 | 64 | 64 | 1.396 | 0.8384 | 1.3013 | 0.8428 |
| kro | True | True | 2 | 128 | 0.5 | 64 | 64 | 1.228 | 0.8058 | 1.2149 | 0.8166 |
| kro | True | True | 2 | 128 | 0.5 | 64 | 64 | 1.572 | 0.7929 | 1.4735 | 0.8012 |
| kro | True | True | 2 | 128 | 0.25 | 64 | 64 | 1.679 | 0.7833 | 1.6436 | 0.7894 |
| kro | True | True | 2 | 128 | 0.25 | 64 | 64 | 2.053 | 0.7750 | 1.9804 | 0.7815 |
| kro | True | True | 0 | 256 | 0.5 | 64 | 64 | 2.182 | 0.7507 | 2.0474 | 0.7613 |
| kro | True | True | 0 | 256 | 0.5 | 32 | 32 | 2.489 | 0.7311 | 2.3872 | 0.7409 |
| kro | True | True | 0 | 128 | 0.5 | 64 | 64 | 2.462 | 0.7155 | 2.358 | 0.722 |
| kro | True | True | 0 | 256 | 0.5 | 64 | 64 | 3.150 | 0.7072 | 3.0765 | 0.7176 |
| kro | True | True | 0 | 128 | 0.5 | 64 | 64 | 2.903 | 0.7050 | 2.8799 | 0.7087 |
| kro | True | True | 2 | 256 | 0.25 | 64 | 64 | 3.322 | 0.6896 | 3.2052 | 0.7016 |
| kro | True | True | 0 | 256 | 0.5 | 64 | 64 | 3.581 | 0.6743 | 3.5916 | 0.6806 |
| kro | True | True | 2 | 128 | 0.25 | 64 | 64 | 3.612 | 0.6685 | 3.4582 | 0.6733 |
| kro | True | True | 0 | 128 | 0.5 | 64 | 64 | 3.718 | 0.6395 | 3.7175 | 0.6463 |
| kro | True | True | 2 | 256 | 0.5 | 64 | 64 | 4.307 | 0.6052 | 4.1566 | 0.6187 |
| kro | True | True | 2 | 256 | 0.25 | 32 | 32 | 4.204 | 0.5912 | 4.2563 | 0.5872 |
| kro | True | True | 0 | 256 | 0.5 | 64 | 64 | 5.382 | 0.5471 | 5.2898 | 0.5541 |
| kro | True | True | 2 | 256 | 0.5 | 64 | 64 | 5.041 | 0.5429 | 5.0321 | 0.549 |
| kro | True | True | 2 | 128 | 0.5 | 64 | 64 | 5.886 | 0.4780 | 5.7898 | 0.482 |
