3 5-15-17-5 5-5-5-8 4 0 Adam 1000
3 17-5-5-15 5-5-5-8 4 0 Adam 1000
3 5-15-17-5 5-5-5-8 4 0 Adagrad 1000
3 17-5-5-15 5-5-5-8 4 0 Adagrad 1000
3 5-15-17-5 5-5-5-8 4 0 RMSprop 1000
3 17-5-5-15 5-5-5-8 4 0 RMSprop 1000
3 5-15-17-5 5-5-5-8 4 0.2 Adam 1000
3 17-5-5-15 5-5-5-8 4 0.2 Adam 1000
3 5-15-17-5 5-5-5-8 4 0.2 Adagrad 1000
3 17-5-5-15 5-5-5-8 4 0.2 Adagrad 1000
3 5-15-17-5 5-5-5-8 4 0.2 RMSprop 1000
3 17-5-5-15 5-5-5-8 4 0.2 RMSprop 1000
3 5-15-17-5 5-5-5-8 4 0.4 Adam 1000
3 17-5-5-15 5-5-5-8 4 0.4 Adam 1000
3 5-15-17-5 5-5-5-8 4 0.4 Adagrad 1000
3 17-5-5-15 5-5-5-8 4 0.4 Adagrad 1000
3 5-15-17-5 5-5-5-8 4 0.4 RMSprop 1000
3 17-5-5-15 5-5-5-8 4 0.4 RMSprop 1000
3 5-15-17-5 5-5-5-8 5 0 Adam 1000
3 17-5-5-15 5-5-5-8 5 0 Adam 1000
3 5-15-17-5 5-5-5-8 5 0 Adagrad 1000
3 17-5-5-15 5-5-5-8 5 0 Adagrad 1000
3 5-15-17-5 5-5-5-8 5 0 RMSprop 1000
3 17-5-5-15 5-5-5-8 5 0 RMSprop 1000
3 5-15-17-5 5-5-5-8 5 0.2 Adam 1000
3 17-5-5-15 5-5-5-8 5 0.2 Adam 1000
3 5-15-17-5 5-5-5-8 5 0.2 Adagrad 1000
3 17-5-5-15 5-5-5-8 5 0.2 Adagrad 1000
3 5-15-17-5 5-5-5-8 5 0.2 RMSprop 1000
3 17-5-5-15 5-5-5-8 5 0.2 RMSprop 1000
3 5-15-17-5 5-5-5-8 5 0.4 Adam 1000
3 17-5-5-15 5-5-5-8 5 0.4 Adam 1000
3 5-15-17-5 5-5-5-8 5 0.4 Adagrad 1000
3 17-5-5-15 5-5-5-8 5 0.4 Adagrad 1000
3 5-15-17-5 5-5-5-8 5 0.4 RMSprop 1000
3 17-5-5-15 5-5-5-8 5 0.4 RMSprop 1000
3 5-15-17-5 5-5-5-8 6 0 Adam 1000
3 17-5-5-15 5-5-5-8 6 0 Adam 1000
3 5-15-17-5 5-5-5-8 6 0 Adagrad 1000
3 17-5-5-15 5-5-5-8 6 0 Adagrad 1000
3 5-15-17-5 5-5-5-8 6 0 RMSprop 1000
3 17-5-5-15 5-5-5-8 6 0 RMSprop 1000
3 5-15-17-5 5-5-5-8 6 0.2 Adam 1000
3 17-5-5-15 5-5-5-8 6 0.2 Adam 1000
3 5-15-17-5 5-5-5-8 6 0.2 Adagrad 1000
3 17-5-5-15 5-5-5-8 6 0.2 Adagrad 1000
3 5-15-17-5 5-5-5-8 6 0.2 RMSprop 1000
3 17-5-5-15 5-5-5-8 6 0.2 RMSprop 1000
3 5-15-17-5 5-5-5-8 6 0.4 Adam 1000
3 17-5-5-15 5-5-5-8 6 0.4 Adam 1000
3 5-15-17-5 5-5-5-8 6 0.4 Adagrad 1000
3 17-5-5-15 5-5-5-8 6 0.4 Adagrad 1000
3 5-15-17-5 5-5-5-8 6 0.4 RMSprop 1000
3 17-5-5-15 5-5-5-8 6 0.4 RMSprop 1000
3 5-15-17-5 5-5-5-8 7 0 Adam 1000
3 17-5-5-15 5-5-5-8 7 0 Adam 1000
3 5-15-17-5 5-5-5-8 7 0 Adagrad 1000
3 17-5-5-15 5-5-5-8 7 0 Adagrad 1000
3 5-15-17-5 5-5-5-8 7 0 RMSprop 1000
3 17-5-5-15 5-5-5-8 7 0 RMSprop 1000
3 5-15-17-5 5-5-5-8 7 0.2 Adam 1000
3 17-5-5-15 5-5-5-8 7 0.2 Adam 1000
3 5-15-17-5 5-5-5-8 7 0.2 Adagrad 1000
3 17-5-5-15 5-5-5-8 7 0.2 Adagrad 1000
3 5-15-17-5 5-5-5-8 7 0.2 RMSprop 1000
3 17-5-5-15 5-5-5-8 7 0.2 RMSprop 1000
3 5-15-17-5 5-5-5-8 7 0.4 Adam 1000
3 17-5-5-15 5-5-5-8 7 0.4 Adam 1000
3 5-15-17-5 5-5-5-8 7 0.4 Adagrad 1000
3 17-5-5-15 5-5-5-8 7 0.4 Adagrad 1000
3 5-15-17-5 5-5-5-8 7 0.4 RMSprop 1000
3 17-5-5-15 5-5-5-8 7 0.4 RMSprop 1000
