4 0-0-0-0 5-5-5-8 3 0 Adam 1000
4 0-0-0-0 5-5-5-8 3 0 Adagrad 1000
4 0-0-0-0 5-5-5-8 3 0 RMSprop 1000
4 0-0-0-0 5-5-5-8 3 0.2 Adam 1000
4 0-0-0-0 5-5-5-8 3 0.2 Adagrad 1000
4 0-0-0-0 5-5-5-8 3 0.2 RMSprop 1000
4 0-0-0-0 5-5-5-8 3 0.4 Adam 1000
4 0-0-0-0 5-5-5-8 3 0.4 Adagrad 1000
4 0-0-0-0 5-5-5-8 3 0.4 RMSprop 1000
4 0-0-0-0 5-5-5-8 4 0 Adam 1000
4 0-0-0-0 5-5-5-8 4 0 Adagrad 1000
4 0-0-0-0 5-5-5-8 4 0 RMSprop 1000
4 0-0-0-0 5-5-5-8 4 0.2 Adam 1000
4 0-0-0-0 5-5-5-8 4 0.2 Adagrad 1000
4 0-0-0-0 5-5-5-8 4 0.2 RMSprop 1000
4 0-0-0-0 5-5-5-8 4 0.4 Adam 1000
4 0-0-0-0 5-5-5-8 4 0.4 Adagrad 1000
4 0-0-0-0 5-5-5-8 4 0.4 RMSprop 1000
4 0-0-0-0 5-5-5-8 5 0 Adam 1000
4 0-0-0-0 5-5-5-8 5 0 Adagrad 1000
4 0-0-0-0 5-5-5-8 5 0 RMSprop 1000
4 0-0-0-0 5-5-5-8 5 0.2 Adam 1000
4 0-0-0-0 5-5-5-8 5 0.2 Adagrad 1000
4 0-0-0-0 5-5-5-8 5 0.2 RMSprop 1000
4 0-0-0-0 5-5-5-8 5 0.4 Adam 1000
4 0-0-0-0 5-5-5-8 5 0.4 Adagrad 1000
4 0-0-0-0 5-5-5-8 5 0.4 RMSprop 1000
4 0-0-0-0 5-5-5-8 6 0 Adam 1000
4 0-0-0-0 5-5-5-8 6 0 Adagrad 1000
4 0-0-0-0 5-5-5-8 6 0 RMSprop 1000
4 0-0-0-0 5-5-5-8 6 0.2 Adam 1000
4 0-0-0-0 5-5-5-8 6 0.2 Adagrad 1000
4 0-0-0-0 5-5-5-8 6 0.2 RMSprop 1000
4 0-0-0-0 5-5-5-8 6 0.4 Adam 1000
4 0-0-0-0 5-5-5-8 6 0.4 Adagrad 1000
4 0-0-0-0 5-5-5-8 6 0.4 RMSprop 1000
4 0-0-0-0 5-5-5-8 7 0 Adam 1000
4 0-0-0-0 5-5-5-8 7 0 Adagrad 1000
4 0-0-0-0 5-5-5-8 7 0 RMSprop 1000
4 0-0-0-0 5-5-5-8 7 0.2 Adam 1000
4 0-0-0-0 5-5-5-8 7 0.2 Adagrad 1000
4 0-0-0-0 5-5-5-8 7 0.2 RMSprop 1000
4 0-0-0-0 5-5-5-8 7 0.4 Adam 1000
4 0-0-0-0 5-5-5-8 7 0.4 Adagrad 1000
4 0-0-0-0 5-5-5-8 7 0.4 RMSprop 1000
4 0-0-0-0 5-5-5-8 8 0 Adam 1000
4 0-0-0-0 5-5-5-8 8 0 Adagrad 1000
4 0-0-0-0 5-5-5-8 8 0 RMSprop 1000
4 0-0-0-0 5-5-5-8 8 0.2 Adam 1000
4 0-0-0-0 5-5-5-8 8 0.2 Adagrad 1000
4 0-0-0-0 5-5-5-8 8 0.2 RMSprop 1000
4 0-0-0-0 5-5-5-8 8 0.4 Adam 1000
4 0-0-0-0 5-5-5-8 8 0.4 Adagrad 1000
4 0-0-0-0 5-5-5-8 8 0.4 RMSprop 1000
4 0-0-0-0 5-5-5-8 9 0 Adam 1000
4 0-0-0-0 5-5-5-8 9 0 Adagrad 1000
4 0-0-0-0 5-5-5-8 9 0 RMSprop 1000
4 0-0-0-0 5-5-5-8 9 0.2 Adam 1000
4 0-0-0-0 5-5-5-8 9 0.2 Adagrad 1000
4 0-0-0-0 5-5-5-8 9 0.2 RMSprop 1000
4 0-0-0-0 5-5-5-8 9 0.4 Adam 1000
4 0-0-0-0 5-5-5-8 9 0.4 Adagrad 1000
4 0-0-0-0 5-5-5-8 9 0.4 RMSprop 1000
4 0-0-0-0 5-5-5-8 10 0 Adam 1000
4 0-0-0-0 5-5-5-8 10 0 Adagrad 1000
4 0-0-0-0 5-5-5-8 10 0 RMSprop 1000
4 0-0-0-0 5-5-5-8 10 0.2 Adam 1000
4 0-0-0-0 5-5-5-8 10 0.2 Adagrad 1000
4 0-0-0-0 5-5-5-8 10 0.2 RMSprop 1000
4 0-0-0-0 5-5-5-8 10 0.4 Adam 1000
4 0-0-0-0 5-5-5-8 10 0.4 Adagrad 1000
4 0-0-0-0 5-5-5-8 10 0.4 RMSprop 1000
