0 0-0-0-0 0-0-0-0 1 0 Adam 500
0 0-0-0-0 0-0-0-0 1 0 Adagrad 500
0 0-0-0-0 0-0-0-0 1 0 RMSprop 500
0 0-0-0-0 0-0-0-0 1 0.2 Adam 500
0 0-0-0-0 0-0-0-0 1 0.2 Adagrad 500
0 0-0-0-0 0-0-0-0 1 0.2 RMSprop 500
0 0-0-0-0 0-0-0-0 1 0.4 Adam 500
0 0-0-0-0 0-0-0-0 1 0.4 Adagrad 500
0 0-0-0-0 0-0-0-0 1 0.4 RMSprop 500
0 0-0-0-0 0-0-0-0 2 0 Adam 500
0 0-0-0-0 0-0-0-0 2 0 Adagrad 500
0 0-0-0-0 0-0-0-0 2 0 RMSprop 500
0 0-0-0-0 0-0-0-0 2 0.2 Adam 500
0 0-0-0-0 0-0-0-0 2 0.2 Adagrad 500
0 0-0-0-0 0-0-0-0 2 0.2 RMSprop 500
0 0-0-0-0 0-0-0-0 2 0.4 Adam 500
0 0-0-0-0 0-0-0-0 2 0.4 Adagrad 500
0 0-0-0-0 0-0-0-0 2 0.4 RMSprop 500
0 0-0-0-0 0-0-0-0 3 0 Adam 500
0 0-0-0-0 0-0-0-0 3 0 Adagrad 500
0 0-0-0-0 0-0-0-0 3 0 RMSprop 500
0 0-0-0-0 0-0-0-0 3 0.2 Adam 500
0 0-0-0-0 0-0-0-0 3 0.2 Adagrad 500
0 0-0-0-0 0-0-0-0 3 0.2 RMSprop 500
0 0-0-0-0 0-0-0-0 3 0.4 Adam 500
0 0-0-0-0 0-0-0-0 3 0.4 Adagrad 500
0 0-0-0-0 0-0-0-0 3 0.4 RMSprop 500
0 0-0-0-0 0-0-0-0 4 0 Adam 500
0 0-0-0-0 0-0-0-0 4 0 Adagrad 500
0 0-0-0-0 0-0-0-0 4 0 RMSprop 500
0 0-0-0-0 0-0-0-0 4 0.2 Adam 500
0 0-0-0-0 0-0-0-0 4 0.2 Adagrad 500
0 0-0-0-0 0-0-0-0 4 0.2 RMSprop 500
0 0-0-0-0 0-0-0-0 4 0.4 Adam 500
0 0-0-0-0 0-0-0-0 4 0.4 Adagrad 500
0 0-0-0-0 0-0-0-0 4 0.4 RMSprop 500
0 0-0-0-0 0-0-0-0 5 0 Adam 500
0 0-0-0-0 0-0-0-0 5 0 Adagrad 500
0 0-0-0-0 0-0-0-0 5 0 RMSprop 500
0 0-0-0-0 0-0-0-0 5 0.2 Adam 500
0 0-0-0-0 0-0-0-0 5 0.2 Adagrad 500
0 0-0-0-0 0-0-0-0 5 0.2 RMSprop 500
0 0-0-0-0 0-0-0-0 5 0.4 Adam 500
0 0-0-0-0 0-0-0-0 5 0.4 Adagrad 500
0 0-0-0-0 0-0-0-0 5 0.4 RMSprop 500
0 0-0-0-0 0-0-0-0 6 0 Adam 500
0 0-0-0-0 0-0-0-0 6 0 Adagrad 500
0 0-0-0-0 0-0-0-0 6 0 RMSprop 500
0 0-0-0-0 0-0-0-0 6 0.2 Adam 500
0 0-0-0-0 0-0-0-0 6 0.2 Adagrad 500
0 0-0-0-0 0-0-0-0 6 0.2 RMSprop 500
0 0-0-0-0 0-0-0-0 6 0.4 Adam 500
0 0-0-0-0 0-0-0-0 6 0.4 Adagrad 500
0 0-0-0-0 0-0-0-0 6 0.4 RMSprop 500
0 0-0-0-0 0-0-0-0 7 0 Adam 500
0 0-0-0-0 0-0-0-0 7 0 Adagrad 500
0 0-0-0-0 0-0-0-0 7 0 RMSprop 500
0 0-0-0-0 0-0-0-0 7 0.2 Adam 500
0 0-0-0-0 0-0-0-0 7 0.2 Adagrad 500
0 0-0-0-0 0-0-0-0 7 0.2 RMSprop 500
0 0-0-0-0 0-0-0-0 7 0.4 Adam 500
0 0-0-0-0 0-0-0-0 7 0.4 Adagrad 500
0 0-0-0-0 0-0-0-0 7 0.4 RMSprop 500
0 0-0-0-0 0-0-0-0 8 0 Adam 500
0 0-0-0-0 0-0-0-0 8 0 Adagrad 500
0 0-0-0-0 0-0-0-0 8 0 RMSprop 500
0 0-0-0-0 0-0-0-0 8 0.2 Adam 500
0 0-0-0-0 0-0-0-0 8 0.2 Adagrad 500
0 0-0-0-0 0-0-0-0 8 0.2 RMSprop 500
0 0-0-0-0 0-0-0-0 8 0.4 Adam 500
0 0-0-0-0 0-0-0-0 8 0.4 Adagrad 500
0 0-0-0-0 0-0-0-0 8 0.4 RMSprop 500
