4 0-0-0-0 5-5-5-4 3 0 Adam 500
4 0-0-0-0 5-5-5-4 3 0 Adagrad 500
4 0-0-0-0 5-5-5-4 3 0 RMSprop 500
4 0-0-0-0 5-5-5-4 3 0.2 Adam 500
4 0-0-0-0 5-5-5-4 3 0.2 Adagrad 500
4 0-0-0-0 5-5-5-4 3 0.2 RMSprop 500
4 0-0-0-0 5-5-5-4 3 0.4 Adam 500
4 0-0-0-0 5-5-5-4 3 0.4 Adagrad 500
4 0-0-0-0 5-5-5-4 3 0.4 RMSprop 500
4 0-0-0-0 5-5-5-4 4 0 Adam 500
4 0-0-0-0 5-5-5-4 4 0 Adagrad 500
4 0-0-0-0 5-5-5-4 4 0 RMSprop 500
4 0-0-0-0 5-5-5-4 4 0.2 Adam 500
4 0-0-0-0 5-5-5-4 4 0.2 Adagrad 500
4 0-0-0-0 5-5-5-4 4 0.2 RMSprop 500
4 0-0-0-0 5-5-5-4 4 0.4 Adam 500
4 0-0-0-0 5-5-5-4 4 0.4 Adagrad 500
4 0-0-0-0 5-5-5-4 4 0.4 RMSprop 500
4 0-0-0-0 5-5-5-4 5 0 Adam 500
4 0-0-0-0 5-5-5-4 5 0 Adagrad 500
4 0-0-0-0 5-5-5-4 5 0 RMSprop 500
4 0-0-0-0 5-5-5-4 5 0.2 Adam 500
4 0-0-0-0 5-5-5-4 5 0.2 Adagrad 500
4 0-0-0-0 5-5-5-4 5 0.2 RMSprop 500
4 0-0-0-0 5-5-5-4 5 0.4 Adam 500
4 0-0-0-0 5-5-5-4 5 0.4 Adagrad 500
4 0-0-0-0 5-5-5-4 5 0.4 RMSprop 500
4 0-0-0-0 5-5-5-4 6 0 Adam 500
4 0-0-0-0 5-5-5-4 6 0 Adagrad 500
4 0-0-0-0 5-5-5-4 6 0 RMSprop 500
4 0-0-0-0 5-5-5-4 6 0.2 Adam 500
4 0-0-0-0 5-5-5-4 6 0.2 Adagrad 500
4 0-0-0-0 5-5-5-4 6 0.2 RMSprop 500
4 0-0-0-0 5-5-5-4 6 0.4 Adam 500
4 0-0-0-0 5-5-5-4 6 0.4 Adagrad 500
4 0-0-0-0 5-5-5-4 6 0.4 RMSprop 500
4 0-0-0-0 5-5-5-4 7 0 Adam 500
4 0-0-0-0 5-5-5-4 7 0 Adagrad 500
4 0-0-0-0 5-5-5-4 7 0 RMSprop 500
4 0-0-0-0 5-5-5-4 7 0.2 Adam 500
4 0-0-0-0 5-5-5-4 7 0.2 Adagrad 500
4 0-0-0-0 5-5-5-4 7 0.2 RMSprop 500
4 0-0-0-0 5-5-5-4 7 0.4 Adam 500
4 0-0-0-0 5-5-5-4 7 0.4 Adagrad 500
4 0-0-0-0 5-5-5-4 7 0.4 RMSprop 500
4 0-0-0-0 5-5-5-4 8 0 Adam 500
4 0-0-0-0 5-5-5-4 8 0 Adagrad 500
4 0-0-0-0 5-5-5-4 8 0 RMSprop 500
4 0-0-0-0 5-5-5-4 8 0.2 Adam 500
4 0-0-0-0 5-5-5-4 8 0.2 Adagrad 500
4 0-0-0-0 5-5-5-4 8 0.2 RMSprop 500
4 0-0-0-0 5-5-5-4 8 0.4 Adam 500
4 0-0-0-0 5-5-5-4 8 0.4 Adagrad 500
4 0-0-0-0 5-5-5-4 8 0.4 RMSprop 500
4 0-0-0-0 5-5-5-4 9 0 Adam 500
4 0-0-0-0 5-5-5-4 9 0 Adagrad 500
4 0-0-0-0 5-5-5-4 9 0 RMSprop 500
4 0-0-0-0 5-5-5-4 9 0.2 Adam 500
4 0-0-0-0 5-5-5-4 9 0.2 Adagrad 500
4 0-0-0-0 5-5-5-4 9 0.2 RMSprop 500
4 0-0-0-0 5-5-5-4 9 0.4 Adam 500
4 0-0-0-0 5-5-5-4 9 0.4 Adagrad 500
4 0-0-0-0 5-5-5-4 9 0.4 RMSprop 500
4 0-0-0-0 5-5-5-4 10 0 Adam 500
4 0-0-0-0 5-5-5-4 10 0 Adagrad 500
4 0-0-0-0 5-5-5-4 10 0 RMSprop 500
4 0-0-0-0 5-5-5-4 10 0.2 Adam 500
4 0-0-0-0 5-5-5-4 10 0.2 Adagrad 500
4 0-0-0-0 5-5-5-4 10 0.2 RMSprop 500
4 0-0-0-0 5-5-5-4 10 0.4 Adam 500
4 0-0-0-0 5-5-5-4 10 0.4 Adagrad 500
4 0-0-0-0 5-5-5-4 10 0.4 RMSprop 500
