
# 25 Meilleurs et pires décompositions par catégories

## 25 Meilleurs loss

| Shape A In | Shape B In | Shape A Out | Shape B Out | Rank | Loss | Accuracy | Time | NbParam | Val |
|:----------:|:----------:|:-----------:|:-----------:|:----:|:----:|:--------:|:----:|:-------:|:---:|
| 7-14 | 4-2 | 2-5 | 20-4 | 7 | 0.050333 | 0.9844 | 545.8772 | 1372 | 0.77254167 |
| 7-28 | 2-2 | 10-5 | 2-8 | 6 | 0.050645 | 0.9848 | 455.5141 | 1596 | 0.73825242 |
| 2-2 | 2-98 | 5-20 | 4-2 | 8 | 0.050811 | 0.985 | 617.0425 | 2464 | 0.60428784 |
| 2-7 | 7-8 | 2-4 | 25-4 | 4 | 0.051169 | 0.984 | 503.7919 | 712 | 0.8741007 |
| 14-7 | 2-4 | 10-5 | 2-8 | 9 | 0.051201 | 0.9845 | 579.9422 | 1548 | 0.74544023 |
| 4-4 | 7-7 | 100-2 | 2-2 | 5 | 0.051207 | 0.9849 | 538.3531 | 1345 | 0.77710541 |
| 2-2 | 14-14 | 20-4 | 5-2 | 9 | 0.051277 | 0.9844 | 553.9028 | 2610 | 0.58137505 |
| 7-4 | 4-7 | 100-2 | 2-2 | 10 | 0.051279 | 0.9843 | 740.9679 | 2600 | 0.58285999 |
| 7-7 | 2-8 | 2-5 | 20-4 | 5 | 0.051452 | 0.9844 | 434.5672 | 775 | 0.86472784 |
| 4-49 | 2-2 | 10-5 | 2-8 | 10 | 0.051479 | 0.9843 | 653.9901 | 2660 | 0.573596 |
| 7-28 | 2-2 | 4-20 | 5-2 | 10 | 0.051494 | 0.9849 | 668.6303 | 2900 | 0.53686705 |
| 2-7 | 14-4 | 5-20 | 4-2 | 7 | 0.05179 | 0.9848 | 515.6041 | 1246 | 0.79231987 |
| 7-28 | 2-2 | 8-5 | 4-5 | 8 | 0.051868 | 0.9847 | 647.9674 | 2080 | 0.66341749 |
| 2-14 | 14-2 | 5-20 | 4-2 | 4 | 0.051881 | 0.9846 | 354.575 | 656 | 0.88328272 |
| 2-4 | 14-7 | 2-4 | 25-4 | 6 | 0.051886 | 0.9838 | 424.3625 | 1284 | 0.7856511 |
| 2-8 | 7-7 | 8-5 | 4-5 | 10 | 0.051964 | 0.9839 | 721.748 | 1250 | 0.79097843 |
| 7-7 | 4-4 | 4-5 | 10-4 | 7 | 0.051999 | 0.9842 | 463.5221 | 875 | 0.84911372 |
| 2-14 | 7-4 | 2-5 | 20-4 | 5 | 0.052143 | 0.9834 | 444.1806 | 730 | 0.87079105 |
| 2-4 | 7-14 | 8-5 | 4-5 | 7 | 0.052188 | 0.9853 | 588.8185 | 1162 | 0.80570492 |
| 4-2 | 7-14 | 16-2 | 5-5 | 5 | 0.052262 | 0.9836 | 465.5423 | 815 | 0.85785349 |
| 2-7 | 14-4 | 8-5 | 4-5 | 5 | 0.052349 | 0.9838 | 378.7797 | 650 | 0.88349098 |
| 2-4 | 7-14 | 4-5 | 10-4 | 7 | 0.052376 | 0.9849 | 603.4579 | 1162 | 0.80537783 |
| 2-98 | 2-2 | 10-5 | 2-8 | 4 | 0.052733 | 0.9845 | 388.2855 | 1064 | 0.82018501 |
| 2-28 | 7-2 | 4-5 | 10-4 | 7 | 0.052803 | 0.9845 | 614.9214 | 910 | 0.84396745 |
| 7-8 | 2-7 | 10-5 | 2-8 | 7 | 0.052932 | 0.9832 | 542.7775 | 952 | 0.83637546 |

## 25 Meilleurs accuracy

| Shape A In | Shape B In | Shape A Out | Shape B Out | Rank | Loss | Accuracy | Time | NbParam | Val |
|:----------:|:----------:|:-----------:|:-----------:|:----:|:----:|:--------:|:----:|:-------:|:---:|
| 14-7 | 2-4 | 2-2 | 40-5 | 7 | 0.056398 | 0.9854 | 552.919 | 2170 | 0.64997756 |
| 2-4 | 7-14 | 8-5 | 4-5 | 7 | 0.052188 | 0.9853 | 588.8185 | 1162 | 0.80570492 |
| 2-2 | 14-14 | 5-4 | 10-4 | 7 | 0.055943 | 0.9853 | 508.0111 | 1820 | 0.7040065 |
| 2-7 | 7-8 | 4-20 | 5-2 | 9 | 0.057248 | 0.9851 | 636.4663 | 1440 | 0.76258329 |
| 2-4 | 7-14 | 4-20 | 5-2 | 4 | 0.055242 | 0.9851 | 421.2211 | 784 | 0.86395201 |
| 2-98 | 2-2 | 2-4 | 25-4 | 8 | 0.053437 | 0.9851 | 608.3745 | 2464 | 0.60434919 |
| 7-14 | 2-4 | 8-5 | 4-5 | 8 | 0.055794 | 0.985 | 674.716 | 1328 | 0.77981098 |
| 2-2 | 2-98 | 5-20 | 4-2 | 8 | 0.050811 | 0.985 | 617.0425 | 2464 | 0.60428784 |
| 2-14 | 7-4 | 8-5 | 4-5 | 9 | 0.054389 | 0.985 | 684.119 | 1044 | 0.82369176 |
| 7-28 | 2-2 | 4-20 | 5-2 | 10 | 0.051494 | 0.9849 | 668.6303 | 2900 | 0.53686705 |
| 2-7 | 7-8 | 8-5 | 4-5 | 8 | 0.055881 | 0.9849 | 652.2061 | 1040 | 0.82422611 |
| 4-4 | 7-7 | 100-2 | 2-2 | 5 | 0.051207 | 0.9849 | 538.3531 | 1345 | 0.77710541 |
| 2-4 | 7-14 | 4-5 | 10-4 | 7 | 0.052376 | 0.9849 | 603.4579 | 1162 | 0.80537783 |
| 2-98 | 2-2 | 10-5 | 2-8 | 7 | 0.053296 | 0.9849 | 481.0914 | 1862 | 0.69723195 |
| 2-7 | 14-4 | 5-20 | 4-2 | 7 | 0.05179 | 0.9848 | 515.6041 | 1246 | 0.79231987 |
| 2-28 | 7-2 | 2-2 | 40-5 | 7 | 0.053822 | 0.9848 | 594.4231 | 1918 | 0.68851036 |
| 7-28 | 2-2 | 10-5 | 2-8 | 6 | 0.050645 | 0.9848 | 455.5141 | 1596 | 0.73825242 |
| 2-49 | 2-4 | 8-5 | 4-5 | 4 | 0.0544 | 0.9848 | 393.9667 | 664 | 0.88222632 |
| 7-28 | 2-2 | 8-5 | 4-5 | 8 | 0.051868 | 0.9847 | 647.9674 | 2080 | 0.66341749 |
| 2-8 | 7-7 | 5-4 | 10-4 | 9 | 0.054753 | 0.9847 | 736.3145 | 1125 | 0.81092941 |
| 2-2 | 28-7 | 2-20 | 10-2 | 5 | 0.057234 | 0.9847 | 448.5131 | 1300 | 0.78389843 |
| 2-14 | 14-2 | 5-8 | 5-4 | 10 | 0.05899 | 0.9847 | 545.5439 | 1160 | 0.80552321 |
| 4-7 | 7-4 | 5-8 | 5-4 | 4 | 0.054967 | 0.9847 | 349.9689 | 464 | 0.91302928 |
| 2-2 | 28-7 | 5-8 | 5-4 | 6 | 0.058814 | 0.9846 | 484.4064 | 1560 | 0.74366258 |
| 2-2 | 14-14 | 16-2 | 5-5 | 10 | 0.056991 | 0.9846 | 672.2818 | 2570 | 0.58767105 |

## 25 Meilleurs val

| Shape A In | Shape B In | Shape A Out | Shape B Out | Rank | Loss | Accuracy | Time | NbParam | Val |
|:----------:|:----------:|:-----------:|:-----------:|:----:|:----:|:--------:|:----:|:-------:|:---:|
| 14-2 | 14-2 | 16-2 | 5-5 | 1 | 0.366309429491 | 0.8819 | 312.973213911 | 113 | 0.96331661 |
| 4-4 | 7-7 | 2-10 | 5-8 | 1 | 0.0857922809614 | 0.975 | 302.473001003 | 125 | 0.96147058 |
| 4-4 | 7-7 | 4-5 | 10-4 | 1 | 0.0610151914577 | 0.9816 | 495.851563931 | 125 | 0.96147058 |
| 7-2 | 7-8 | 2-20 | 10-2 | 1 | 0.162899825097 | 0.9517 | 545.969314814 | 130 | 0.96070141 |
| 7-8 | 2-7 | 8-5 | 4-5 | 1 | 0.0612218725274 | 0.9821 | 317.396252155 | 130 | 0.96070141 |
| 2-7 | 4-14 | 2-10 | 5-8 | 1 | 0.0787320539852 | 0.9781 | 295.610068083 | 130 | 0.96070141 |
| 8-7 | 7-2 | 10-5 | 2-8 | 1 | 0.0750821370506 | 0.9775 | 292.595957041 | 136 | 0.9597784 |
| 14-2 | 7-4 | 4-20 | 5-2 | 1 | 0.140447306157 | 0.9574 | 482.194140911 | 146 | 0.95824004 |
| 7-7 | 8-2 | 4-20 | 5-2 | 1 | 0.0669596893044 | 0.9806 | 306.354995012 | 155 | 0.95685552 |
| 4-14 | 7-2 | 20-4 | 5-2 | 1 | 0.0655176847472 | 0.9805 | 315.587267876 | 160 | 0.95608635 |
| 28-2 | 2-7 | 4-20 | 5-2 | 1 | 0.16514319484 | 0.9465 | 476.010727882 | 160 | 0.95608635 |
| 7-8 | 7-2 | 20-4 | 5-2 | 1 | 0.083200845536 | 0.9767 | 497.644571781 | 160 | 0.95608635 |
| 14-2 | 4-7 | 5-20 | 4-2 | 1 | 0.142456033412 | 0.9541 | 586.954221964 | 164 | 0.95547101 |
| 2-4 | 7-14 | 4-5 | 10-4 | 1 | 0.0603368888788 | 0.9821 | 327.644834995 | 166 | 0.95516334 |
| 2-4 | 14-7 | 4-5 | 10-4 | 1 | 0.059473178515 | 0.9815 | 302.05004096 | 166 | 0.95516334 |
| 4-2 | 2-49 | 2-5 | 20-4 | 1 | 0.0801292539255 | 0.9763 | 322.566645145 | 196 | 0.95054828 |
| 2-4 | 14-7 | 4-20 | 5-2 | 1 | 0.0666806215379 | 0.9795 | 299.58843112 | 196 | 0.95054828 |
| 49-2 | 4-2 | 5-2 | 10-8 | 1 | 0.381264167857 | 0.8764 | 474.918178082 | 196 | 0.95054828 |
| 2-4 | 14-7 | 25-4 | 4-2 | 1 | 0.0608955354369 | 0.981 | 477.573618889 | 214 | 0.94777924 |
| 2-49 | 2-4 | 2-4 | 25-4 | 1 | 0.0632501325559 | 0.9805 | 508.051899195 | 214 | 0.94777924 |
| 4-2 | 14-7 | 5-20 | 4-2 | 1 | 0.0860558981149 | 0.9743 | 303.735553026 | 214 | 0.94777924 |
| 14-2 | 4-7 | 10-2 | 5-8 | 2 | 0.0777982485218 | 0.9759 | 540.657625914 | 232 | 0.94501021 |
| 2-14 | 14-2 | 10-2 | 5-8 | 2 | 0.058974942046 | 0.9836 | 350.918870926 | 232 | 0.94501021 |
| 7-7 | 2-8 | 4-5 | 10-4 | 2 | 0.0635230154155 | 0.9804 | 569.748216867 | 250 | 0.94224117 |
| 7-8 | 7-2 | 16-2 | 5-5 | 2 | 0.0562731618005 | 0.9826 | 352.138509989 | 254 | 0.94162583 |

## 25 Pires loss

| Shape A In | Shape B In | Shape A Out | Shape B Out | Rank | Loss | Accuracy | Time | NbParam | Val |
|:----------:|:----------:|:-----------:|:-----------:|:----:|:----:|:--------:|:----:|:-------:|:---:|
| 49-2 | 4-2 | 5-2 | 10-8 | 1 | 0.381264167857 | 0.8764 | 474.918178082 | 196 | 0.95054828 |
| 14-2 | 14-2 | 16-2 | 5-5 | 1 | 0.366309429491 | 0.8819 | 312.973213911 | 113 | 0.96331661 |
| 4-2 | 49-2 | 2-5 | 20-4 | 2 | 0.195386577404 | 0.9414 | 293.423048019 | 392 | 0.92039656 |
| 7-2 | 28-2 | 2-2 | 40-5 | 2 | 0.170027454757 | 0.9472 | 350.591933966 | 548 | 0.89639825 |
| 14-2 | 14-2 | 25-4 | 4-2 | 2 | 0.169856179261 | 0.9481 | 554.92840004 | 328 | 0.93024202 |
| 28-2 | 2-7 | 4-20 | 5-2 | 1 | 0.16514319484 | 0.9465 | 476.010727882 | 160 | 0.95608635 |
| 28-2 | 7-2 | 25-4 | 4-2 | 2 | 0.163020600504 | 0.9524 | 357.62135005 | 356 | 0.92593463 |
| 7-2 | 7-8 | 2-20 | 10-2 | 1 | 0.162899825097 | 0.9517 | 545.969314814 | 130 | 0.96070141 |
| 49-2 | 4-2 | 10-2 | 5-8 | 4 | 0.145075 | 0.953 | 437.3192 | 664 | 0.8537385 |
| 49-2 | 4-2 | 10-5 | 2-8 | 4 | 0.144231 | 0.9553 | 424.07 | 688 | 0.85220252 |
| 14-2 | 4-7 | 5-20 | 4-2 | 1 | 0.142456033412 | 0.9541 | 586.954221964 | 164 | 0.95547101 |
| 49-2 | 4-2 | 5-20 | 4-2 | 4 | 0.142254 | 0.9563 | 414.7574 | 856 | 0.82789328 |
| 7-2 | 28-2 | 10-2 | 5-8 | 4 | 0.14164 | 0.957 | 399.8632 | 520 | 0.87893882 |
| 14-2 | 7-4 | 4-20 | 5-2 | 1 | 0.140447306157 | 0.9574 | 482.194140911 | 146 | 0.95824004 |
| 49-2 | 4-2 | 2-4 | 25-4 | 6 | 0.139317 | 0.9557 | 507.2956 | 1284 | 0.76321077 |
| 7-2 | 28-2 | 5-8 | 5-4 | 4 | 0.135428 | 0.9577 | 416.2418 | 520 | 0.87958172 |
| 4-2 | 49-2 | 16-2 | 5-5 | 4 | 0.135284 | 0.9604 | 428.7839 | 652 | 0.86217556 |
| 14-2 | 14-2 | 2-10 | 5-8 | 5 | 0.134974 | 0.9571 | 422.8609 | 580 | 0.87002266 |
| 7-2 | 28-2 | 20-4 | 5-2 | 5 | 0.134638 | 0.9578 | 482.1333 | 800 | 0.83760549 |
| 14-2 | 14-2 | 10-2 | 5-8 | 5 | 0.133556 | 0.9602 | 459.1759 | 580 | 0.87284062 |
| 49-2 | 4-2 | 5-2 | 10-8 | 6 | 0.133264 | 0.9584 | 426.8539 | 1176 | 0.78160338 |
| 49-2 | 4-2 | 2-5 | 20-4 | 5 | 0.133252 | 0.9581 | 449.3461 | 980 | 0.8108156 |
| 49-2 | 4-2 | 10-2 | 5-8 | 6 | 0.132734 | 0.9588 | 464.0459 | 996 | 0.8090016 |
| 4-2 | 49-2 | 2-20 | 10-2 | 4 | 0.132527 | 0.9594 | 406.2655 | 664 | 0.8594719 |
| 2-2 | 98-2 | 10-2 | 5-8 | 4 | 0.13252 | 0.9587 | 364.1492 | 1040 | 0.80230031 |

## 25 Pires accuracy

| Shape A In | Shape B In | Shape A Out | Shape B Out | Rank | Loss | Accuracy | Time | NbParam | Val |
|:----------:|:----------:|:-----------:|:-----------:|:----:|:----:|:--------:|:----:|:-------:|:---:|
| 49-2 | 4-2 | 5-2 | 10-8 | 1 | 0.381264167857 | 0.8764 | 474.918178082 | 196 | 0.95054828 |
| 14-2 | 14-2 | 16-2 | 5-5 | 1 | 0.366309429491 | 0.8819 | 312.973213911 | 113 | 0.96331661 |
| 4-2 | 49-2 | 2-5 | 20-4 | 2 | 0.195386577404 | 0.9414 | 293.423048019 | 392 | 0.92039656 |
| 28-2 | 2-7 | 4-20 | 5-2 | 1 | 0.16514319484 | 0.9465 | 476.010727882 | 160 | 0.95608635 |
| 7-2 | 28-2 | 2-2 | 40-5 | 2 | 0.170027454757 | 0.9472 | 350.591933966 | 548 | 0.89639825 |
| 14-2 | 14-2 | 25-4 | 4-2 | 2 | 0.169856179261 | 0.9481 | 554.92840004 | 328 | 0.93024202 |
| 7-2 | 7-8 | 2-20 | 10-2 | 1 | 0.162899825097 | 0.9517 | 545.969314814 | 130 | 0.96070141 |
| 28-2 | 7-2 | 25-4 | 4-2 | 2 | 0.163020600504 | 0.9524 | 357.62135005 | 356 | 0.92593463 |
| 49-2 | 4-2 | 10-2 | 5-8 | 4 | 0.145075 | 0.953 | 437.3192 | 664 | 0.8537385 |
| 14-2 | 4-7 | 5-20 | 4-2 | 1 | 0.142456033412 | 0.9541 | 586.954221964 | 164 | 0.95547101 |
| 49-2 | 4-2 | 10-5 | 2-8 | 4 | 0.144231 | 0.9553 | 424.07 | 688 | 0.85220252 |
| 49-2 | 4-2 | 2-4 | 25-4 | 6 | 0.139317 | 0.9557 | 507.2956 | 1284 | 0.76321077 |
| 49-2 | 4-2 | 5-20 | 4-2 | 4 | 0.142254 | 0.9563 | 414.7574 | 856 | 0.82789328 |
| 7-2 | 28-2 | 10-2 | 5-8 | 4 | 0.14164 | 0.957 | 399.8632 | 520 | 0.87893882 |
| 14-2 | 14-2 | 2-10 | 5-8 | 5 | 0.134974 | 0.9571 | 422.8609 | 580 | 0.87002266 |
| 14-2 | 7-4 | 4-20 | 5-2 | 1 | 0.140447306157 | 0.9574 | 482.194140911 | 146 | 0.95824004 |
| 4-2 | 49-2 | 4-5 | 10-4 | 4 | 0.132174 | 0.9577 | 422.661 | 664 | 0.85794897 |
| 2-2 | 98-2 | 5-4 | 10-4 | 4 | 0.131603 | 0.9577 | 416.7609 | 1040 | 0.80146345 |
| 7-2 | 28-2 | 5-8 | 5-4 | 4 | 0.135428 | 0.9577 | 416.2418 | 520 | 0.87958172 |
| 4-2 | 49-2 | 2-100 | 2-2 | 5 | 0.132377 | 0.9578 | 456.6161 | 1550 | 0.72492313 |
| 7-2 | 28-2 | 20-4 | 5-2 | 5 | 0.134638 | 0.9578 | 482.1333 | 800 | 0.83760549 |
| 49-2 | 4-2 | 2-5 | 20-4 | 5 | 0.133252 | 0.9581 | 449.3461 | 980 | 0.8108156 |
| 49-2 | 4-2 | 5-2 | 10-8 | 6 | 0.133264 | 0.9584 | 426.8539 | 1176 | 0.78160338 |
| 2-2 | 98-2 | 10-2 | 5-8 | 4 | 0.13252 | 0.9587 | 364.1492 | 1040 | 0.80230031 |
| 49-2 | 4-2 | 10-2 | 5-8 | 6 | 0.132734 | 0.9588 | 464.0459 | 996 | 0.8090016 |

## 25 Pires val

| Shape A In | Shape B In | Shape A Out | Shape B Out | Rank | Loss | Accuracy | Time | NbParam | Val |
|:----------:|:----------:|:-----------:|:-----------:|:----:|:----:|:--------:|:----:|:-------:|:---:|
| 2-2 | 98-2 | 2-2 | 40-5 | 10 | 0.112463 | 0.9664 | 659.5735 | 4040 | 0.35396768 |
| 7-28 | 2-2 | 2-100 | 2-2 | 10 | 0.099754 | 0.9688 | 569.8625 | 4040 | 0.35484674 |
| 4-49 | 2-2 | 2-100 | 2-2 | 10 | 0.088793 | 0.9719 | 626.958 | 4040 | 0.35598219 |
| 14-14 | 2-2 | 2-100 | 2-2 | 10 | 0.087826 | 0.9724 | 571.5832 | 4040 | 0.35616533 |
| 2-2 | 49-4 | 100-2 | 2-2 | 10 | 0.077181 | 0.9765 | 753.7678 | 4040 | 0.35766705 |
| 2-2 | 49-4 | 2-2 | 40-5 | 10 | 0.078555 | 0.9765 | 683.6463 | 4040 | 0.35766705 |
| 2-2 | 28-7 | 100-2 | 2-2 | 10 | 0.064654 | 0.9812 | 759.7929 | 4040 | 0.35938854 |
| 2-2 | 14-14 | 2-2 | 40-5 | 10 | 0.058981 | 0.9833 | 569.1454 | 4040 | 0.36015772 |
| 98-2 | 2-2 | 100-2 | 2-2 | 9 | 0.114194 | 0.9651 | 643.9572 | 3636 | 0.41465237 |
| 2-2 | 98-2 | 2-100 | 2-2 | 9 | 0.112288 | 0.9655 | 590.3501 | 3636 | 0.41482423 |
| 2-2 | 98-2 | 100-2 | 2-2 | 9 | 0.105085 | 0.967 | 704.61 | 3636 | 0.4154687 |
| 4-49 | 2-2 | 2-100 | 2-2 | 9 | 0.106522 | 0.9684 | 539.209 | 3636 | 0.41607021 |
| 2-2 | 14-14 | 2-2 | 40-5 | 9 | 0.060573 | 0.9827 | 616.4214 | 3636 | 0.42221416 |
| 4-49 | 2-2 | 2-2 | 40-5 | 9 | 0.062736 | 0.9831 | 835.4299 | 3636 | 0.42238602 |
| 2-2 | 4-49 | 2-100 | 2-2 | 8 | 0.096642 | 0.969 | 463.8204 | 3232 | 0.477736 |
| 28-7 | 2-2 | 2-100 | 2-2 | 8 | 0.097415 | 0.9702 | 467.7513 | 3232 | 0.47832762 |
| 14-14 | 2-2 | 2-100 | 2-2 | 8 | 0.089711 | 0.9713 | 547.8162 | 3232 | 0.47886994 |
| 2-2 | 49-4 | 100-2 | 2-2 | 8 | 0.074078 | 0.9779 | 654.1583 | 3232 | 0.48212387 |
| 4-49 | 2-2 | 100-2 | 2-2 | 8 | 0.070364 | 0.981 | 718.4601 | 3232 | 0.48365223 |
| 2-2 | 28-7 | 100-2 | 2-2 | 8 | 0.06286 | 0.9821 | 690.2116 | 3232 | 0.48419455 |
| 49-2 | 4-2 | 2-2 | 40-5 | 10 | 0.118812 | 0.963 | 681.86 | 3100 | 0.49471764 |
| 98-2 | 2-2 | 5-20 | 4-2 | 10 | 0.120328 | 0.9616 | 662.4468 | 3080 | 0.49701521 |
| 7-14 | 4-2 | 2-100 | 2-2 | 10 | 0.096204 | 0.9697 | 616.0802 | 3100 | 0.4981596 |
| 2-4 | 49-2 | 2-100 | 2-2 | 10 | 0.097475 | 0.9698 | 620.2702 | 3100 | 0.49821098 |
| 2-2 | 98-2 | 2-4 | 25-4 | 10 | 0.105217 | 0.9668 | 553.2242 | 3080 | 0.4997029 |
