7-4 7-4 5-4 10-4 8 100
2-4 2-49 2-5 20-4 9 100
49-2 4-2 4-4 2-25 5 100
7-2 2-28 20-4 5-2 7 100
2-7 7-8 5-8 5-4 5 100
7-28 2-2 5-20 4-2 4 100
14-2 7-4 2-5 20-4 8 100
14-4 7-2 4-20 5-2 10 100
14-7 2-4 10-2 5-8 6 100
7-7 4-4 5-2 10-8 8 100
2-2 98-2 8-5 4-5 5 100
7-2 14-4 2-20 10-2 7 100
2-4 7-14 5-20 4-2 9 100
2-2 14-14 20-4 5-2 9 100
2-2 4-49 10-5 2-8 4 100
14-2 2-14 20-4 5-2 5 100
2-49 4-2 5-8 5-4 5 100
2-14 14-2 5-4 10-4 6 100
7-2 2-28 10-5 2-8 6 100
2-2 98-2 100-2 2-2 6 100
2-2 14-14 5-4 10-4 8 100
2-14 14-2 5-2 10-8 5 100
2-2 98-2 2-4 25-4 6 100
2-28 2-7 2-5 20-4 6 100
4-4 7-7 2-4 25-4 8 100
2-2 7-28 10-5 2-8 5 100
2-2 4-49 4-4 2-25 9 100
4-2 14-7 16-2 5-5 4 100
28-2 2-7 8-5 4-5 8 100
7-2 14-4 16-2 5-5 9 100
14-7 4-2 20-4 5-2 9 100
7-2 7-8 2-100 2-2 9 100
14-4 2-7 5-8 5-4 5 100
7-4 7-4 10-2 5-8 7 100
8-7 7-2 8-5 4-5 4 100
7-2 8-7 100-2 2-2 10 100
4-7 14-2 2-4 25-4 4 100
28-7 2-2 5-4 10-4 5 100
8-7 2-7 4-4 2-25 7 100
4-7 14-2 2-4 25-4 5 100
2-98 2-2 4-4 2-25 6 100
4-14 7-2 5-8 5-4 4 100
7-2 7-8 5-2 10-8 6 100
49-2 2-4 8-5 4-5 7 100
2-2 14-14 5-2 10-8 9 100
2-4 49-2 5-8 5-4 4 100
8-7 7-2 5-8 5-4 6 100
98-2 2-2 4-4 2-25 7 100
2-7 7-8 2-5 20-4 4 100
7-2 8-7 4-5 10-4 6 100
28-7 2-2 5-4 10-4 5 100
28-7 2-2 4-20 5-2 9 100
2-14 7-4 16-2 5-5 4 100
49-2 4-2 100-2 2-2 6 100
49-2 2-4 8-5 4-5 4 100
7-28 2-2 8-5 4-5 8 100
2-7 4-14 2-5 20-4 5 100
28-7 2-2 8-5 4-5 6 100
4-2 14-7 8-5 4-5 6 100
2-7 28-2 2-10 5-8 4 100
14-7 2-4 5-2 10-8 10 100
7-2 7-8 8-5 4-5 4 100
2-8 7-7 2-2 40-5 10 100
7-4 14-2 100-2 2-2 4 100
14-4 7-2 4-5 10-4 5 100
2-4 7-14 5-20 4-2 6 100
2-4 49-2 10-2 5-8 9 100
2-2 49-4 4-20 5-2 8 100
7-2 14-4 5-20 4-2 4 100
4-2 49-2 4-4 2-25 8 100
4-7 2-14 5-4 10-4 8 100
2-14 7-4 2-4 25-4 10 100
2-2 4-49 2-5 20-4 6 100
98-2 2-2 4-4 2-25 5 100
4-2 14-7 2-100 2-2 9 100
7-4 14-2 5-20 4-2 5 100
2-7 4-14 20-4 5-2 9 100
28-2 2-7 20-4 5-2 5 100
28-2 7-2 20-4 5-2 9 100
7-28 2-2 2-10 5-8 6 100
2-7 28-2 2-20 10-2 9 100
2-4 49-2 5-2 10-8 8 100
4-2 2-49 10-5 2-8 4 100
2-4 2-49 16-2 5-5 8 100
2-4 7-14 2-5 20-4 10 100
14-7 2-4 2-5 20-4 7 100
2-28 7-2 5-8 5-4 8 100
7-4 7-4 100-2 2-2 8 100
7-4 14-2 100-2 2-2 10 100
14-2 7-4 2-10 5-8 7 100
4-7 7-4 2-2 40-5 8 100
4-7 2-14 16-2 5-5 5 100
2-14 14-2 5-20 4-2 8 100
7-7 2-8 5-4 10-4 6 100
2-4 14-7 100-2 2-2 8 100
4-7 4-7 2-100 2-2 7 100
2-14 4-7 2-4 25-4 5 100
7-2 14-4 20-4 5-2 10 100
7-4 4-7 2-2 40-5 4 100
4-7 4-7 4-4 2-25 4 100