4-7 2-14 4-5 10-4 7 100
2-2 49-4 2-2 40-5 10 100
4-7 2-14 10-2 5-8 6 100
2-2 28-7 8-5 4-5 6 100
4-14 2-7 4-20 5-2 4 100
14-2 2-14 2-10 5-8 10 100
14-14 2-2 5-4 10-4 8 100
2-7 14-4 2-100 2-2 9 100
4-2 49-2 10-2 5-8 7 100
14-2 14-2 2-4 25-4 9 100
4-7 14-2 2-100 2-2 7 100
4-7 7-4 25-4 4-2 8 100
2-2 14-14 16-2 5-5 10 100
2-7 14-4 5-20 4-2 7 100
2-4 49-2 2-2 40-5 6 100
2-49 4-2 5-8 5-4 10 100
2-4 7-14 25-4 4-2 4 100
2-2 14-14 2-10 5-8 5 100
2-7 28-2 16-2 5-5 6 100
4-7 2-14 25-4 4-2 8 100
7-2 2-28 25-4 4-2 9 100
2-2 4-49 2-5 20-4 5 100
2-2 2-98 4-5 10-4 8 100
49-2 4-2 2-2 40-5 10 100
2-49 2-4 16-2 5-5 7 100
2-7 2-28 25-4 4-2 10 100
14-2 7-4 5-4 10-4 8 100
4-7 7-4 2-10 5-8 10 100
4-2 2-49 16-2 5-5 8 100
4-2 2-49 16-2 5-5 10 100
2-2 4-49 20-4 5-2 9 100
7-7 4-4 5-20 4-2 5 100
7-2 7-8 2-5 20-4 6 100
2-4 49-2 25-4 4-2 8 100
49-2 4-2 2-20 10-2 6 100
4-2 49-2 2-2 40-5 5 100
2-7 8-7 4-20 5-2 6 100
14-14 2-2 5-8 5-4 9 100
2-7 28-2 5-4 10-4 7 100
4-14 7-2 8-5 4-5 8 100
98-2 2-2 4-5 10-4 7 100
2-14 7-4 10-5 2-8 8 100
2-49 2-4 20-4 5-2 9 100
7-4 4-7 20-4 5-2 4 100
7-8 7-2 5-4 10-4 5 100
2-28 7-2 10-5 2-8 7 100
2-14 4-7 8-5 4-5 6 100
4-2 14-7 100-2 2-2 7 100
2-14 4-7 2-100 2-2 10 100
2-2 2-98 2-100 2-2 6 100
14-7 2-4 2-2 40-5 6 100
7-4 2-14 2-20 10-2 6 100
7-2 14-4 5-20 4-2 4 100
4-7 2-14 25-4 4-2 10 100
2-4 14-7 10-5 2-8 4 100
98-2 2-2 2-5 20-4 4 100
4-49 2-2 20-4 5-2 9 100
7-8 7-2 5-8 5-4 5 100
2-2 28-7 100-2 2-2 8 100
7-8 2-7 5-20 4-2 7 100
2-28 2-7 2-20 10-2 4 100
49-2 2-4 2-5 20-4 8 100
7-14 4-2 5-2 10-8 9 100
4-7 4-7 5-2 10-8 5 100
2-4 7-14 8-5 4-5 10 100
4-14 2-7 10-5 2-8 8 100
2-4 49-2 5-20 4-2 4 100
2-4 7-14 4-20 5-2 7 100
14-7 4-2 4-4 2-25 5 100
4-7 2-14 5-2 10-8 10 100
7-14 4-2 5-8 5-4 10 100
2-2 14-14 4-20 5-2 5 100
7-2 14-4 2-4 25-4 4 100
2-28 7-2 2-5 20-4 4 100
2-14 7-4 5-4 10-4 9 100
2-2 7-28 25-4 4-2 8 100
2-7 4-14 20-4 5-2 4 100
2-7 28-2 2-4 25-4 4 100
2-49 4-2 5-2 10-8 8 100
2-14 4-7 2-10 5-8 9 100
4-2 7-14 2-20 10-2 8 100
2-28 7-2 5-4 10-4 9 100
49-2 2-4 10-5 2-8 8 100
2-28 7-2 100-2 2-2 6 100
49-2 4-2 2-100 2-2 9 100
14-2 14-2 2-20 10-2 10 100
2-28 2-7 2-2 40-5 8 100
7-2 8-7 2-4 25-4 5 100
7-14 2-4 25-4 4-2 9 100
4-7 4-7 4-4 2-25 9 100
7-2 2-28 8-5 4-5 10 100
14-4 7-2 4-20 5-2 8 100
28-7 2-2 5-20 4-2 5 100
2-14 14-2 2-20 10-2 10 100
2-7 7-8 2-4 25-4 5 100
98-2 2-2 4-20 5-2 8 100
7-28 2-2 25-4 4-2 8 100
2-14 4-7 10-5 2-8 10 100
7-2 7-8 4-5 10-4 4 100
4-49 2-2 5-20 4-2 10 100