| 4-7 | 7-4 | 2-4 | 25-4 | 3 | 0.0638570983187 | 0.9824 | 692.418879032 | 364 |
| 14-2 | 14-2 | 2-10 | 5-8 | 3 | 0.118628384258 | 0.9624 | 573.779747009 | 196 |
| 28-2 | 2-7 | 4-20 | 5-2 | 1 | 0.16514319484 | 0.9465 | 476.010727882 | 160 |
| 2-7 | 14-4 | 10-2 | 5-8 | 3 | 0.0632762313982 | 0.9807 | 571.811587811 | 210 |
| 2-2 | 14-14 | 2-4 | 25-4 | 3 | 0.0582403918696 | 0.9837 | 570.922209978 | 508 |
