| 7-2 | 2-28 | 2-2 | 40-5 | 1 | 0.111669193258 | 0.9656 | 329.140765905 | 274 |
| 2-4 | 2-49 | 4-20 | 5-2 | 3 | 0.0673133251446 | 0.9818 | 376.494784117 | 216 |
| 7-8 | 2-7 | 8-5 | 4-5 | 1 | 0.0612218725274 | 0.9821 | 317.396252155 | 130 |
| 4-2 | 7-14 | 2-10 | 5-8 | 3 | 0.0636557095752 | 0.9817 | 371.470800161 | 246 |
| 7-14 | 4-2 | 4-4 | 2-25 | 2 | 0.0654488078431 | 0.9799 | 327.581539154 | 222 |
