| 4-2 | 14-7 | 8-5 | 4-5 | 2 | 0.0626476967581 | 0.9827 | 342.442566872 | 186 |
| 7-2 | 28-2 | 2-2 | 40-5 | 2 | 0.170027454757 | 0.9472 | 350.591933966 | 474 |
| 7-2 | 8-7 | 2-2 | 40-5 | 3 | 0.0674701030496 | 0.9807 | 387.952324152 | 674 |
| 8-7 | 2-7 | 20-4 | 5-2 | 3 | 0.0678438093554 | 0.9822 | 459.272068024 | 180 |
| 4-2 | 49-2 | 2-5 | 20-4 | 2 | 0.195386577404 | 0.9414 | 293.423048019 | 276 |
