| 7-2 | 7-8 | 2-20 | 10-2 | 1 | 0.162899825097 | 0.9517 | 545.969314814 | 130 |
| 4-7 | 7-4 | 25-4 | 4-2 | 2 | 0.065739693508 | 0.9807 | 558.971052885 | 172 |
| 7-14 | 4-2 | 2-2 | 40-5 | 3 | 0.0594558206 | 0.9837 | 618.367233038 | 710 |
| 4-14 | 7-2 | 5-8 | 5-4 | 3 | 0.0601209017366 | 0.9816 | 585.04697299 | 170 |
| 7-4 | 2-14 | 100-2 | 2-2 | 2 | 0.0634068961621 | 0.9816 | 637.958846807 | 264 |
