| 4-49 | 2-2 | 25-4 | 4-2 | 1 | 0.0908433375942 | 0.9722 | 60.8302149773 | 308 |
| 7-7 | 2-8 | 10-2 | 5-8 | 2 | 0.0780064390908 | 0.9763 | 68.441339016 | 165 |
| 2-4 | 2-49 | 20-4 | 5-2 | 3 | 0.0877632341755 | 0.9726 | 86.1901159286 | 216 |
