| 2-2 | 2-98 | 5-20 | 4-2 | 1 | 0.0681050663219 | 0.9784 | 300.228462934 | 308 |
| 2-4 | 14-7 | 4-5 | 10-4 | 1 | 0.059473178515 | 0.9815 | 302.05004096 | 166 |
| 4-2 | 2-49 | 2-4 | 25-4 | 2 | 0.0691259053353 | 0.9799 | 382.047948122 | 314 |
| 14-2 | 2-14 | 4-20 | 5-2 | 3 | 0.0646311884679 | 0.9804 | 369.016165018 | 166 |
| 2-8 | 7-7 | 4-20 | 5-2 | 2 | 0.0678829468547 | 0.9799 | 351.668356895 | 165 |
