| 2-7 | 4-14 | 2-10 | 5-8 | 1 | 0.0787320539852 | 0.9781 | 295.610068083 | 130 |
| 49-4 | 2-2 | 5-20 | 4-2 | 2 | 0.0961091378176 | 0.9711 | 333.141402006 | 316 |
| 2-49 | 2-4 | 2-5 | 20-4 | 3 | 0.0554112731376 | 0.9828 | 408.513566971 | 356 |
| 2-2 | 7-28 | 10-5 | 2-8 | 3 | 0.0560751338824 | 0.983 | 392.184410095 | 298 |
| 4-2 | 14-7 | 10-5 | 2-8 | 2 | 0.065455868991 | 0.9825 | 320.873070002 | 188 |
