| 4 | 0-0 | 0-0 | 5-5 | 5-8 | 3 | 0.2 | Adagrad | 0.1226272 | 203.0 | 4363230 | 1000 |
| 4 | 0-0 | 0-0 | 5-5 | 5-8 | 5 | 0.2 | Adagrad | 0.1226432 | 231.8 | 4363490 | 1000 |
| 4 | 0-0 | 0-0 | 5-5 | 5-8 | 1 | 0.2 | Adagrad | 0.1226434 | 176.5 | 4362970 | 1000 |
| 4 | 0-0 | 0-0 | 5-5 | 5-8 | 8 | 0.2 | Adagrad | 0.1226762 | 285.8 | 4363880 | 1000 |
| 4 | 0-0 | 0-0 | 5-5 | 5-8 | 9 | 0.2 | Adagrad | 0.1226802 | 299.3 | 4364010 | 1000 |
| 4 | 0-0 | 0-0 | 5-5 | 5-8 | 2 | 0.2 | Adagrad | 0.1226821 | 191.6 | 4363100 | 1000 |
| 4 | 0-0 | 0-0 | 5-5 | 5-8 | 10 | 0.2 | Adagrad | 0.1226893 | 308.3 | 4364140 | 1000 |
| 4 | 0-0 | 0-0 | 5-5 | 5-4 | 3 | 0.0 | Adagrad | 0.1226979 | 127.3 | 1932110 | 500 |
| 4 | 0-0 | 0-0 | 5-5 | 5-4 | 4 | 0.0 | Adagrad | 0.1227019 | 132.6 | 1932200 | 500 |
| 4 | 0-0 | 0-0 | 5-5 | 5-4 | 1 | 0.0 | Adagrad | 0.122706 | 115.0 | 1931930 | 500 |
| 4 | 0-0 | 0-0 | 5-5 | 5-4 | 3 | 0.2 | Adagrad | 0.1227181 | 135.2 | 1932110 | 500 |
| 4 | 0-0 | 0-0 | 5-5 | 5-4 | 5 | 0.0 | Adagrad | 0.1227216 | 138.3 | 1932290 | 500 |
| 4 | 0-0 | 0-0 | 5-5 | 5-8 | 2 | 0.0 | Adagrad | 0.1227226 | 160.5 | 4363100 | 1000 |
| 4 | 0-0 | 0-0 | 5-5 | 5-4 | 2 | 0.0 | Adagrad | 0.1227235 | 120.0 | 1932020 | 500 |
| 4 | 0-0 | 0-0 | 5-5 | 5-8 | 7 | 0.2 | Adagrad | 0.1227245 | 267.9 | 4363750 | 1000 |
| 4 | 0-0 | 0-0 | 5-5 | 5-4 | 8 | 0.2 | Adagrad | 0.1227284 | 164.7 | 1932560 | 500 |
| 4 | 0-0 | 0-0 | 5-5 | 5-8 | 3 | 0.0 | Adagrad | 0.1227322 | 171.5 | 4363230 | 1000 |
| 4 | 0-0 | 0-0 | 5-5 | 5-8 | 6 | 0.0 | Adagrad | 0.1227373 | 205.2 | 4363620 | 1000 |
| 4 | 0-0 | 0-0 | 5-5 | 5-8 | 4 | 0.2 | Adagrad | 0.1227378 | 218.6 | 4363360 | 1000 |
| 4 | 0-0 | 0-0 | 5-5 | 5-8 | 6 | 0.2 | Adagrad | 0.1227387 | 249.2 | 4363620 | 1000 |
| 4 | 0-0 | 0-0 | 5-5 | 5-8 | 4 | 0.0 | Adagrad | 0.1227476 | 182.9 | 4363360 | 1000 |
| 4 | 0-0 | 0-0 | 5-5 | 5-8 | 7 | 0.0 | Adagrad | 0.1227478 | 215.8 | 4363750 | 1000 |
| 4 | 0-0 | 0-0 | 5-5 | 5-4 | 10 | 0.2 | Adagrad | 0.1227532 | 183.5 | 1932740 | 500 |
| 4 | 0-0 | 0-0 | 5-5 | 5-4 | 7 | 0.0 | Adagrad | 0.1227571 | 145.8 | 1932470 | 500 |
| 4 | 0-0 | 0-0 | 5-5 | 5-4 | 7 | 0.2 | Adagrad | 0.1227574 | 156.8 | 1932470 | 500 |
| 4 | 0-0 | 0-0 | 5-5 | 5-8 | 1 | 0.0 | Adagrad | 0.1227684 | 148.6 | 4362970 | 1000 |
| 4 | 0-0 | 0-0 | 5-5 | 5-4 | 9 | 0.0 | Adagrad | 0.1227694 | 157.3 | 1932650 | 500 |
| 4 | 0-0 | 0-0 | 5-5 | 5-4 | 6 | 0.2 | Adagrad | 0.1227717 | 151.0 | 1932380 | 500 |
| 4 | 0-0 | 0-0 | 5-5 | 5-8 | 5 | 0.0 | Adagrad | 0.1227733 | 193.7 | 4363490 | 1000 |
| 4 | 0-0 | 0-0 | 5-5 | 5-8 | 2 | 0.4 | Adam | 0.1227827 | 363.7 | 4363100 | 1000 |
| 4 | 0-0 | 0-0 | 5-5 | 5-8 | 9 | 0.0 | Adagrad | 0.1227828 | 238.3 | 4364010 | 1000 |
| 4 | 0-0 | 0-0 | 5-5 | 5-4 | 10 | 0.0 | Adagrad | 0.1227878 | 165.2 | 1932740 | 500 |
| 4 | 0-0 | 0-0 | 5-5 | 5-4 | 9 | 0.2 | Adagrad | 0.1227911 | 173.2 | 1932650 | 500 |
| 4 | 0-0 | 0-0 | 5-5 | 5-4 | 5 | 0.2 | Adagrad | 0.1228001 | 145.6 | 1932290 | 500 |
| 4 | 0-0 | 0-0 | 5-5 | 5-4 | 8 | 0.0 | Adagrad | 0.1228029 | 151.3 | 1932560 | 500 |
| 4 | 0-0 | 0-0 | 5-5 | 5-4 | 6 | 0.0 | Adagrad | 0.1228042 | 140.8 | 1932380 | 500 |
| 4 | 0-0 | 0-0 | 5-5 | 5-4 | 1 | 0.2 | Adagrad | 0.1228084 | 122.2 | 1931930 | 500 |
| 4 | 0-0 | 0-0 | 5-5 | 5-4 | 4 | 0.2 | Adagrad | 0.1228084 | 142.3 | 1932200 | 500 |
| 4 | 0-0 | 0-0 | 5-5 | 5-8 | 8 | 0.0 | Adagrad | 0.1228162 | 226.8 | 4363880 | 1000 |
| 4 | 0-0 | 0-0 | 5-5 | 5-8 | 10 | 0.0 | Adagrad | 0.1228164 | 251.0 | 4364140 | 1000 |
| 4 | 0-0 | 0-0 | 5-5 | 5-8 | 1 | 0.4 | Adam | 0.1228198 | 358.5 | 4362970 | 1000 |
| 4 | 0-0 | 0-0 | 5-5 | 5-4 | 2 | 0.2 | Adagrad | 0.1228339 | 128.4 | 1932020 | 500 |
| 4 | 0-0 | 0-0 | 5-5 | 5-8 | 5 | 0.4 | Adam | 0.1228371 | 398.8 | 4363490 | 1000 |
| 4 | 0-0 | 0-0 | 5-5 | 5-4 | 5 | 0.2 | Adam | 0.1228637 | 213.1 | 1932290 | 500 |
| 4 | 0-0 | 0-0 | 5-5 | 5-8 | 6 | 0.4 | Adam | 0.122876 | 409.1 | 4363620 | 1000 |
| 4 | 0-0 | 0-0 | 5-5 | 5-8 | 9 | 0.4 | Adam | 0.1228915 | 426.9 | 4364010 | 1000 |
| 4 | 0-0 | 0-0 | 5-5 | 5-8 | 7 | 0.4 | Adam | 0.1228934 | 422.6 | 4363750 | 1000 |
| 4 | 0-0 | 0-0 | 5-5 | 5-4 | 3 | 0.4 | Adam | 0.1228941 | 204.7 | 1932110 | 500 |
| 4 | 0-0 | 0-0 | 5-5 | 5-4 | 8 | 0.4 | Adam | 0.122898 | 233.2 | 1932560 | 500 |
| 4 | 0-0 | 0-0 | 5-5 | 5-4 | 2 | 0.4 | Adam | 0.1228986 | 196.6 | 1932020 | 500 |
| 4 | 0-0 | 0-0 | 5-5 | 5-8 | 8 | 0.4 | Adam | 0.1229033 | 417.2 | 4363880 | 1000 |
| 4 | 0-0 | 0-0 | 5-5 | 5-8 | 2 | 0.2 | Adam | 0.1229041 | 371.8 | 4363100 | 1000 |
| 4 | 0-0 | 0-0 | 5-5 | 5-4 | 1 | 0.2 | Adam | 0.1229136 | 193.2 | 1931930 | 500 |
| 4 | 0-0 | 0-0 | 5-5 | 5-4 | 4 | 0.4 | Adam | 0.1229138 | 210.7 | 1932200 | 500 |
| 4 | 0-0 | 0-0 | 5-5 | 5-8 | 3 | 0.4 | Adam | 0.1229147 | 373.8 | 4363230 | 1000 |
| 4 | 0-0 | 0-0 | 5-5 | 5-4 | 1 | 0.4 | Adam | 0.1229195 | 192.9 | 1931930 | 500 |
| 4 | 0-0 | 0-0 | 5-5 | 5-4 | 8 | 0.2 | Adam | 0.1229266 | 235.1 | 1932560 | 500 |
| 4 | 0-0 | 0-0 | 5-5 | 5-4 | 7 | 0.2 | Adam | 0.1229282 | 226.4 | 1932470 | 500 |
| 4 | 0-0 | 0-0 | 5-5 | 5-4 | 5 | 0.4 | Adam | 0.1229406 | 212.3 | 1932290 | 500 |
| 4 | 0-0 | 0-0 | 5-5 | 5-8 | 4 | 0.2 | Adam | 0.122941 | 403.6 | 4363360 | 1000 |
| 4 | 0-0 | 0-0 | 5-5 | 5-4 | 10 | 0.2 | Adam | 0.1229442 | 252.4 | 1932740 | 500 |
| 4 | 0-0 | 0-0 | 5-5 | 5-4 | 10 | 0.4 | Adam | 0.1229444 | 248.8 | 1932740 | 500 |
| 4 | 0-0 | 0-0 | 5-5 | 5-4 | 4 | 0.2 | Adam | 0.1229499 | 211.6 | 1932200 | 500 |
| 4 | 0-0 | 0-0 | 5-5 | 5-4 | 7 | 0.4 | Adam | 0.12295 | 224.5 | 1932470 | 500 |
| 4 | 0-0 | 0-0 | 5-5 | 5-4 | 6 | 0.2 | Adam | 0.1229542 | 221.4 | 1932380 | 500 |
| 4 | 0-0 | 0-0 | 5-5 | 5-4 | 6 | 0.4 | Adam | 0.1229548 | 218.2 | 1932380 | 500 |
| 4 | 0-0 | 0-0 | 5-5 | 5-8 | 4 | 0.4 | Adam | 0.1229567 | 384.1 | 4363360 | 1000 |
| 4 | 0-0 | 0-0 | 5-5 | 5-4 | 9 | 0.4 | Adam | 0.1229626 | 241.8 | 1932650 | 500 |
| 4 | 0-0 | 0-0 | 5-5 | 5-4 | 2 | 0.2 | Adam | 0.1229736 | 202.4 | 1932020 | 500 |
| 4 | 0-0 | 0-0 | 5-5 | 5-8 | 10 | 0.4 | Adam | 0.1229809 | 439.8 | 4364140 | 1000 |
| 4 | 0-0 | 0-0 | 5-5 | 5-4 | 9 | 0.2 | Adam | 0.1229839 | 247.9 | 1932650 | 500 |
| 4 | 0-0 | 0-0 | 5-5 | 5-8 | 1 | 0.2 | Adam | 0.1229884 | 362.0 | 4362970 | 1000 |
| 4 | 0-0 | 0-0 | 5-5 | 5-4 | 3 | 0.2 | Adam | 0.1230224 | 203.9 | 1932110 | 500 |
| 4 | 0-0 | 0-0 | 5-5 | 5-8 | 9 | 0.2 | Adam | 0.1230308 | 464.2 | 4364010 | 1000 |
| 4 | 0-0 | 0-0 | 5-5 | 5-8 | 10 | 0.2 | Adam | 0.1230312 | 484.9 | 4364140 | 1000 |
| 4 | 0-0 | 0-0 | 5-5 | 5-8 | 3 | 0.2 | Adam | 0.1230447 | 385.8 | 4363230 | 1000 |
| 4 | 0-0 | 0-0 | 5-5 | 5-8 | 1 | 0.4 | Adagrad | 0.1230457 | 160.6 | 4362970 | 1000 |
| 4 | 0-0 | 0-0 | 5-5 | 5-8 | 7 | 0.2 | Adam | 0.1230581 | 438.5 | 4363750 | 1000 |
| 4 | 0-0 | 0-0 | 5-5 | 5-8 | 8 | 0.2 | Adam | 0.1230683 | 449.8 | 4363880 | 1000 |
| 4 | 0-0 | 0-0 | 5-5 | 5-8 | 5 | 0.2 | Adam | 0.1230822 | 418.2 | 4363490 | 1000 |
| 4 | 0-0 | 0-0 | 5-5 | 5-8 | 6 | 0.2 | Adam | 0.1231049 | 429.1 | 4363620 | 1000 |
| 4 | 0-0 | 0-0 | 5-5 | 5-8 | 2 | 0.4 | Adagrad | 0.1232287 | 168.8 | 4363100 | 1000 |
| 4 | 0-0 | 0-0 | 5-5 | 5-8 | 7 | 0.4 | Adagrad | 0.1232431 | 221.8 | 4363750 | 1000 |
| 4 | 0-0 | 0-0 | 5-5 | 5-8 | 5 | 0.4 | Adagrad | 0.1232486 | 200.9 | 4363490 | 1000 |
| 4 | 0-0 | 0-0 | 5-5 | 5-8 | 6 | 0.4 | Adagrad | 0.1232624 | 211.2 | 4363620 | 1000 |
| 4 | 0-0 | 0-0 | 5-5 | 5-8 | 3 | 0.4 | Adagrad | 0.123263 | 179.2 | 4363230 | 1000 |
| 4 | 0-0 | 0-0 | 5-5 | 5-8 | 9 | 0.4 | Adagrad | 0.1232663 | 246.4 | 4364010 | 1000 |
| 4 | 0-0 | 0-0 | 5-5 | 5-8 | 10 | 0.4 | Adagrad | 0.1232949 | 260.5 | 4364140 | 1000 |
| 4 | 0-0 | 0-0 | 5-5 | 5-8 | 4 | 0.4 | Adagrad | 0.1233414 | 190.7 | 4363360 | 1000 |
| 4 | 0-0 | 0-0 | 5-5 | 5-8 | 6 | 0.0 | Adam | 0.1233423 | 321.4 | 4363620 | 1000 |
| 4 | 0-0 | 0-0 | 5-5 | 5-8 | 4 | 0.0 | Adam | 0.1233514 | 369.5 | 4363360 | 1000 |
| 4 | 0-0 | 0-0 | 5-5 | 5-4 | 3 | 0.0 | Adam | 0.1233695 | 197.6 | 1932110 | 500 |
| 4 | 0-0 | 0-0 | 5-5 | 5-8 | 2 | 0.0 | Adam | 0.1233786 | 344.7 | 4363100 | 1000 |
| 4 | 0-0 | 0-0 | 5-5 | 5-8 | 8 | 0.4 | Adagrad | 0.1233792 | 236.0 | 4363880 | 1000 |
| 4 | 0-0 | 0-0 | 5-5 | 5-8 | 3 | 0.0 | Adam | 0.1234049 | 354.3 | 4363230 | 1000 |
| 4 | 0-0 | 0-0 | 5-5 | 5-4 | 10 | 0.0 | Adam | 0.1234152 | 216.9 | 1932740 | 500 |
| 4 | 0-0 | 0-0 | 5-5 | 5-8 | 8 | 0.0 | Adam | 0.1234278 | 342.1 | 4363880 | 1000 |
| 4 | 0-0 | 0-0 | 5-5 | 5-4 | 1 | 0.0 | Adam | 0.1234284 | 185.4 | 1931930 | 500 |
| 4 | 0-0 | 0-0 | 5-5 | 5-4 | 4 | 0.0 | Adam | 0.1234341 | 203.9 | 1932200 | 500 |
| 4 | 0-0 | 0-0 | 5-5 | 5-8 | 7 | 0.0 | Adam | 0.1234531 | 331.8 | 4363750 | 1000 |
| 4 | 0-0 | 0-0 | 5-5 | 5-8 | 10 | 0.0 | Adam | 0.1234575 | 363.2 | 4364140 | 1000 |
| 4 | 0-0 | 0-0 | 5-5 | 5-4 | 8 | 0.0 | Adam | 0.1234589 | 200.7 | 1932560 | 500 |
| 4 | 0-0 | 0-0 | 5-5 | 5-8 | 5 | 0.0 | Adam | 0.1234778 | 381.2 | 4363490 | 1000 |
| 4 | 0-0 | 0-0 | 5-5 | 5-4 | 6 | 0.0 | Adam | 0.1234919 | 188.9 | 1932380 | 500 |
| 4 | 0-0 | 0-0 | 5-5 | 5-8 | 9 | 0.0 | Adam | 0.1235064 | 374.6 | 4364010 | 1000 |
| 4 | 0-0 | 0-0 | 5-5 | 5-4 | 7 | 0.0 | Adam | 0.1235142 | 192.4 | 1932470 | 500 |
| 4 | 0-0 | 0-0 | 5-5 | 5-4 | 2 | 0.0 | Adam | 0.1235219 | 191.2 | 1932020 | 500 |
| 4 | 0-0 | 0-0 | 5-5 | 5-4 | 5 | 0.0 | Adam | 0.1235235 | 208.8 | 1932290 | 500 |
| 4 | 0-0 | 0-0 | 5-5 | 5-4 | 9 | 0.0 | Adam | 0.123544 | 223.2 | 1932650 | 500 |
| 4 | 0-0 | 0-0 | 5-5 | 5-8 | 1 | 0.0 | Adam | 0.1235471 | 328.2 | 4362970 | 1000 |
| 4 | 0-0 | 0-0 | 5-5 | 5-4 | 2 | 0.4 | Adagrad | 0.1236005 | 132.6 | 1932020 | 500 |
| 4 | 0-0 | 0-0 | 5-5 | 5-4 | 1 | 0.4 | Adagrad | 0.1236019 | 124.7 | 1931930 | 500 |
| 4 | 0-0 | 0-0 | 5-5 | 5-4 | 8 | 0.4 | Adagrad | 0.1236679 | 165.2 | 1932560 | 500 |
| 4 | 0-0 | 0-0 | 5-5 | 5-4 | 5 | 0.4 | Adagrad | 0.1236851 | 146.3 | 1932290 | 500 |
| 4 | 0-0 | 0-0 | 5-5 | 5-4 | 7 | 0.4 | Adagrad | 0.1236852 | 158.4 | 1932470 | 500 |
| 4 | 0-0 | 0-0 | 5-5 | 5-4 | 4 | 0.4 | Adagrad | 0.1237592 | 143.2 | 1932200 | 500 |
| 4 | 0-0 | 0-0 | 5-5 | 5-4 | 6 | 0.4 | Adagrad | 0.1237689 | 152.8 | 1932380 | 500 |
| 4 | 0-0 | 0-0 | 5-5 | 5-4 | 9 | 0.4 | Adagrad | 0.1238159 | 172.6 | 1932650 | 500 |
| 4 | 0-0 | 0-0 | 5-5 | 5-4 | 2 | 0.0 | RMSprop | 0.1238536 | 178.5 | 1932020 | 500 |
| 4 | 0-0 | 0-0 | 5-5 | 5-4 | 3 | 0.4 | Adagrad | 0.1238662 | 135.9 | 1932110 | 500 |
| 4 | 0-0 | 0-0 | 5-5 | 5-4 | 10 | 0.4 | Adagrad | 0.1238757 | 178.5 | 1932740 | 500 |
| 4 | 0-0 | 0-0 | 5-5 | 5-8 | 1 | 0.0 | RMSprop | 0.123935 | 312.5 | 4362970 | 1000 |
| 4 | 0-0 | 0-0 | 5-5 | 5-4 | 4 | 0.0 | RMSprop | 0.1239372 | 187.8 | 1932200 | 500 |
| 4 | 0-0 | 0-0 | 5-5 | 5-4 | 7 | 0.0 | RMSprop | 0.1239499 | 179.8 | 1932470 | 500 |
| 4 | 0-0 | 0-0 | 5-5 | 5-4 | 8 | 0.0 | RMSprop | 0.1239572 | 204.2 | 1932560 | 500 |
| 4 | 0-0 | 0-0 | 5-5 | 5-8 | 10 | 0.0 | RMSprop | 0.1239608 | 399.0 | 4364140 | 1000 |
| 4 | 0-0 | 0-0 | 5-5 | 5-4 | 9 | 0.0 | RMSprop | 0.1240253 | 202.3 | 1932650 | 500 |
| 4 | 0-0 | 0-0 | 5-5 | 5-4 | 5 | 0.0 | RMSprop | 0.1240404 | 192.6 | 1932290 | 500 |
| 4 | 0-0 | 0-0 | 5-5 | 5-8 | 2 | 0.0 | RMSprop | 0.1240573 | 314.8 | 4363100 | 1000 |
| 4 | 0-0 | 0-0 | 5-5 | 5-8 | 5 | 0.0 | RMSprop | 0.1240644 | 345.4 | 4363490 | 1000 |
| 4 | 0-0 | 0-0 | 5-5 | 5-4 | 6 | 0.0 | RMSprop | 0.1240742 | 183.7 | 1932380 | 500 |
| 4 | 0-0 | 0-0 | 5-5 | 5-8 | 3 | 0.0 | RMSprop | 0.1241045 | 325.1 | 4363230 | 1000 |
| 4 | 0-0 | 0-0 | 5-5 | 5-8 | 9 | 0.0 | RMSprop | 0.1241133 | 375.3 | 4364010 | 1000 |
| 4 | 0-0 | 0-0 | 5-5 | 5-4 | 3 | 0.0 | RMSprop | 0.1241352 | 182.3 | 1932110 | 500 |
| 4 | 0-0 | 0-0 | 5-5 | 5-8 | 4 | 0.0 | RMSprop | 0.124156 | 335.6 | 4363360 | 1000 |
| 4 | 0-0 | 0-0 | 5-5 | 5-8 | 7 | 0.0 | RMSprop | 0.1241621 | 299.3 | 4363750 | 1000 |
| 4 | 0-0 | 0-0 | 5-5 | 5-8 | 6 | 0.0 | RMSprop | 0.1241655 | 316.9 | 4363620 | 1000 |
| 4 | 0-0 | 0-0 | 5-5 | 5-8 | 8 | 0.0 | RMSprop | 0.1241685 | 352.5 | 4363880 | 1000 |
| 4 | 0-0 | 0-0 | 5-5 | 5-4 | 1 | 0.0 | RMSprop | 0.124185 | 175.2 | 1931930 | 500 |
| 4 | 0-0 | 0-0 | 5-5 | 5-4 | 10 | 0.0 | RMSprop | 0.1242303 | 208.4 | 1932740 | 500 |
| 4 | 0-0 | 0-0 | 5-5 | 5-8 | 8 | 0.2 | RMSprop | 0.1246284 | 447.8 | 4363880 | 1000 |
| 4 | 0-0 | 0-0 | 5-5 | 5-8 | 3 | 0.2 | RMSprop | 0.1246453 | 391.4 | 4363230 | 1000 |
| 4 | 0-0 | 0-0 | 5-5 | 5-8 | 6 | 0.2 | RMSprop | 0.1246555 | 414.7 | 4363620 | 1000 |
| 4 | 0-0 | 0-0 | 5-5 | 5-8 | 1 | 0.2 | RMSprop | 0.1246618 | 374.2 | 4362970 | 1000 |
| 4 | 0-0 | 0-0 | 5-5 | 5-8 | 7 | 0.2 | RMSprop | 0.1246849 | 431.5 | 4363750 | 1000 |
| 4 | 0-0 | 0-0 | 5-5 | 5-8 | 9 | 0.2 | RMSprop | 0.124743 | 460.0 | 4364010 | 1000 |
| 4 | 0-0 | 0-0 | 5-5 | 5-8 | 10 | 0.2 | RMSprop | 0.1247708 | 470.6 | 4364140 | 1000 |
| 4 | 0-0 | 0-0 | 5-5 | 5-8 | 2 | 0.2 | RMSprop | 0.124789 | 384.3 | 4363100 | 1000 |
| 4 | 0-0 | 0-0 | 5-5 | 5-8 | 4 | 0.2 | RMSprop | 0.1247957 | 404.9 | 4363360 | 1000 |
| 4 | 0-0 | 0-0 | 5-5 | 5-8 | 5 | 0.2 | RMSprop | 0.1248167 | 409.4 | 4363490 | 1000 |
| 4 | 0-0 | 0-0 | 5-5 | 5-4 | 6 | 0.2 | RMSprop | 0.1248797 | 206.2 | 1932380 | 500 |
| 4 | 0-0 | 0-0 | 5-5 | 5-4 | 8 | 0.2 | RMSprop | 0.12489 | 223.8 | 1932560 | 500 |
| 4 | 0-0 | 0-0 | 5-5 | 5-4 | 9 | 0.2 | RMSprop | 0.1248916 | 231.2 | 1932650 | 500 |
| 4 | 0-0 | 0-0 | 5-5 | 5-4 | 1 | 0.2 | RMSprop | 0.1249007 | 188.7 | 1931930 | 500 |
| 4 | 0-0 | 0-0 | 5-5 | 5-4 | 10 | 0.2 | RMSprop | 0.1249185 | 238.0 | 1932740 | 500 |
| 4 | 0-0 | 0-0 | 5-5 | 5-4 | 5 | 0.2 | RMSprop | 0.1249432 | 203.4 | 1932290 | 500 |
| 4 | 0-0 | 0-0 | 5-5 | 5-4 | 7 | 0.2 | RMSprop | 0.1249556 | 217.7 | 1932470 | 500 |
| 4 | 0-0 | 0-0 | 5-5 | 5-4 | 3 | 0.2 | RMSprop | 0.1249565 | 197.0 | 1932110 | 500 |
| 4 | 0-0 | 0-0 | 5-5 | 5-4 | 4 | 0.2 | RMSprop | 0.1250003 | 203.2 | 1932200 | 500 |
| 4 | 0-0 | 0-0 | 5-5 | 5-4 | 2 | 0.2 | RMSprop | 0.1250046 | 192.4 | 1932020 | 500 |
| 4 | 0-0 | 0-0 | 5-5 | 5-8 | 1 | 0.4 | RMSprop | 0.126381 | 338.2 | 4362970 | 1000 |
| 4 | 0-0 | 0-0 | 5-5 | 5-8 | 6 | 0.4 | RMSprop | 0.126387 | 368.8 | 4363620 | 1000 |
| 4 | 0-0 | 0-0 | 5-5 | 5-8 | 7 | 0.4 | RMSprop | 0.1264675 | 381.2 | 4363750 | 1000 |
| 4 | 0-0 | 0-0 | 5-5 | 5-8 | 3 | 0.4 | RMSprop | 0.1264689 | 351.9 | 4363230 | 1000 |
| 4 | 0-0 | 0-0 | 5-5 | 5-8 | 8 | 0.4 | RMSprop | 0.1264891 | 394.2 | 4363880 | 1000 |
| 4 | 0-0 | 0-0 | 5-5 | 5-8 | 5 | 0.4 | RMSprop | 0.1264915 | 361.2 | 4363490 | 1000 |
| 4 | 0-0 | 0-0 | 5-5 | 5-8 | 9 | 0.4 | RMSprop | 0.1265063 | 405.1 | 4364010 | 1000 |
| 4 | 0-0 | 0-0 | 5-5 | 5-8 | 10 | 0.4 | RMSprop | 0.1265109 | 415.9 | 4364140 | 1000 |
| 4 | 0-0 | 0-0 | 5-5 | 5-8 | 4 | 0.4 | RMSprop | 0.1265344 | 353.7 | 4363360 | 1000 |
| 4 | 0-0 | 0-0 | 5-5 | 5-8 | 2 | 0.4 | RMSprop | 0.1265481 | 343.4 | 4363100 | 1000 |
| 4 | 0-0 | 0-0 | 5-5 | 5-4 | 10 | 0.4 | RMSprop | 0.1269732 | 235.4 | 1932740 | 500 |
| 4 | 0-0 | 0-0 | 5-5 | 5-4 | 1 | 0.4 | RMSprop | 0.1270087 | 189.1 | 1931930 | 500 |
| 4 | 0-0 | 0-0 | 5-5 | 5-4 | 2 | 0.4 | RMSprop | 0.1270658 | 195.5 | 1932020 | 500 |
| 4 | 0-0 | 0-0 | 5-5 | 5-4 | 4 | 0.4 | RMSprop | 0.1270883 | 205.4 | 1932200 | 500 |
| 4 | 0-0 | 0-0 | 5-5 | 5-4 | 5 | 0.4 | RMSprop | 0.1271035 | 208.1 | 1932290 | 500 |
| 4 | 0-0 | 0-0 | 5-5 | 5-4 | 9 | 0.4 | RMSprop | 0.1271086 | 229.1 | 1932650 | 500 |
| 4 | 0-0 | 0-0 | 5-5 | 5-4 | 8 | 0.4 | RMSprop | 0.1271354 | 222.0 | 1932560 | 500 |
| 4 | 0-0 | 0-0 | 5-5 | 5-4 | 6 | 0.4 | RMSprop | 0.1271505 | 210.4 | 1932380 | 500 |
| 4 | 0-0 | 0-0 | 5-5 | 5-4 | 7 | 0.4 | RMSprop | 0.1271588 | 218.6 | 1932470 | 500 |
| 4 | 0-0 | 0-0 | 5-5 | 5-4 | 3 | 0.4 | RMSprop | 0.1272104 | 199.8 | 1932110 | 500 |
