| 2 | 5-7 | 8-9 | 5-5 | 5-8 | 10 | 0.0 | Adagrad | 0.1280941 | 529.2 | 1844860 | 1000 |
| 2 | 7-8 | 5-9 | 5-5 | 5-8 | 10 | 0.0 | Adagrad | 0.1282313 | 545.4 | 1844800 | 1000 |
| 2 | 7-8 | 5-9 | 5-5 | 5-8 | 8 | 0.2 | Adagrad | 0.1283769 | 459.7 | 1844208 | 1000 |
| 2 | 7-8 | 5-9 | 5-5 | 5-8 | 8 | 0.0 | Adagrad | 0.1284412 | 472.1 | 1844208 | 1000 |
| 2 | 5-7 | 8-9 | 5-5 | 5-8 | 8 | 0.0 | Adagrad | 0.1285105 | 446.0 | 1844256 | 1000 |
| 2 | 7-8 | 5-9 | 5-5 | 5-8 | 9 | 0.0 | Adagrad | 0.1285258 | 496.6 | 1844504 | 1000 |
| 2 | 7-8 | 5-9 | 5-5 | 5-8 | 6 | 0.0 | Adagrad | 0.1286783 | 362.2 | 1843616 | 1000 |
| 2 | 5-7 | 8-9 | 5-5 | 5-8 | 6 | 0.0 | Adagrad | 0.1287811 | 363.3 | 1843652 | 1000 |
| 2 | 5-7 | 8-9 | 5-5 | 5-8 | 9 | 0.0 | Adagrad | 0.1287843 | 497.0 | 1844558 | 1000 |
| 2 | 5-7 | 8-9 | 5-5 | 5-8 | 7 | 0.0 | Adagrad | 0.1287918 | 409.2 | 1843954 | 1000 |
| 2 | 5-7 | 8-9 | 5-5 | 5-8 | 5 | 0.0 | Adagrad | 0.1288008 | 315.9 | 1843350 | 1000 |
| 2 | 7-8 | 5-9 | 5-5 | 5-4 | 7 | 0.0 | Adagrad | 0.1289306 | 308.3 | 672992 | 500 |
| 2 | 7-8 | 5-9 | 5-5 | 5-8 | 10 | 0.2 | Adagrad | 0.1289966 | 575.7 | 1844800 | 1000 |
| 2 | 7-8 | 5-9 | 5-5 | 5-8 | 5 | 0.0 | Adagrad | 0.1290292 | 315.6 | 1843320 | 1000 |
| 2 | 5-7 | 8-9 | 5-5 | 5-8 | 1 | 0.0 | Adagrad | 0.1290453 | 156.4 | 1842142 | 1000 |
| 2 | 5-7 | 8-9 | 5-5 | 5-8 | 1 | 0.2 | Adagrad | 0.1290471 | 157.0 | 1842142 | 1000 |
| 2 | 7-8 | 5-9 | 5-5 | 5-8 | 7 | 0.2 | Adagrad | 0.1290665 | 415.4 | 1843912 | 1000 |
| 2 | 5-7 | 8-9 | 5-5 | 5-8 | 9 | 0.2 | Adagrad | 0.1290687 | 515.1 | 1844558 | 1000 |
| 2 | 7-8 | 5-9 | 5-5 | 5-4 | 8 | 0.0 | Adagrad | 0.1290736 | 335.0 | 673228 | 500 |
| 2 | 5-7 | 8-9 | 5-5 | 5-4 | 9 | 0.0 | Adagrad | 0.1290922 | 337.1 | 673518 | 500 |
| 2 | 5-7 | 8-9 | 5-5 | 5-4 | 7 | 0.0 | Adagrad | 0.1291067 | 276.0 | 673034 | 500 |
| 2 | 7-8 | 5-9 | 5-5 | 5-8 | 2 | 0.0 | Adagrad | 0.1291724 | 186.8 | 1842432 | 1000 |
| 2 | 5-7 | 8-9 | 5-5 | 5-8 | 7 | 0.2 | Adagrad | 0.1291749 | 419.1 | 1843954 | 1000 |
| 2 | 7-8 | 5-9 | 5-5 | 5-4 | 10 | 0.2 | Adagrad | 0.1291967 | 425.3 | 673700 | 500 |
| 2 | 5-7 | 8-9 | 5-5 | 5-4 | 9 | 0.2 | Adagrad | 0.1292073 | 338.6 | 673518 | 500 |
| 2 | 5-7 | 8-9 | 5-5 | 5-8 | 9 | 0.4 | Adagrad | 0.1292201 | 499.1 | 1844558 | 1000 |
| 2 | 5-7 | 8-9 | 5-5 | 5-4 | 10 | 0.2 | Adagrad | 0.1292241 | 403.4 | 673760 | 500 |
| 2 | 7-8 | 5-9 | 5-5 | 5-4 | 1 | 0.0 | Adagrad | 0.1292272 | 119.3 | 671576 | 500 |
| 2 | 5-7 | 8-9 | 5-5 | 5-8 | 6 | 0.2 | Adagrad | 0.1292278 | 370.2 | 1843652 | 1000 |
| 2 | 5-7 | 8-9 | 5-5 | 5-8 | 4 | 0.2 | Adagrad | 0.1292287 | 281.2 | 1843048 | 1000 |
| 2 | 7-8 | 5-9 | 5-5 | 5-4 | 5 | 0.2 | Adagrad | 0.1292527 | 247.1 | 672520 | 500 |
| 2 | 5-7 | 8-9 | 5-5 | 5-8 | 8 | 0.2 | Adagrad | 0.129258 | 468.4 | 1844256 | 1000 |
| 2 | 5-7 | 8-9 | 5-5 | 5-4 | 7 | 0.4 | Adagrad | 0.1292761 | 265.2 | 673034 | 500 |
| 2 | 5-7 | 8-9 | 5-5 | 5-8 | 8 | 0.4 | Adagrad | 0.1292848 | 451.6 | 1844256 | 1000 |
| 2 | 5-7 | 8-9 | 5-5 | 5-8 | 10 | 0.2 | Adagrad | 0.129288 | 555.7 | 1844860 | 1000 |
| 2 | 5-7 | 8-9 | 5-5 | 5-8 | 4 | 0.0 | Adagrad | 0.129297 | 275.3 | 1843048 | 1000 |
| 2 | 5-7 | 8-9 | 5-5 | 5-8 | 5 | 0.2 | Adagrad | 0.1293041 | 322.8 | 1843350 | 1000 |
| 2 | 7-8 | 5-9 | 5-5 | 5-8 | 6 | 0.4 | Adagrad | 0.1293106 | 369.7 | 1843616 | 1000 |
| 2 | 5-7 | 8-9 | 5-5 | 5-8 | 6 | 0.4 | Adagrad | 0.1293423 | 357.0 | 1843652 | 1000 |
| 2 | 5-7 | 8-9 | 5-5 | 5-8 | 2 | 0.2 | Adagrad | 0.1293431 | 197.7 | 1842444 | 1000 |
| 2 | 5-7 | 8-9 | 5-5 | 5-4 | 1 | 0.0 | Adagrad | 0.129349 | 108.1 | 671582 | 500 |
| 2 | 5-7 | 8-9 | 5-5 | 5-4 | 5 | 0.2 | Adagrad | 0.1293584 | 217.1 | 672550 | 500 |
| 2 | 7-8 | 5-9 | 5-5 | 5-4 | 2 | 0.0 | Adagrad | 0.1293899 | 145.2 | 671812 | 500 |
| 2 | 7-8 | 5-9 | 5-5 | 5-8 | 5 | 0.2 | Adagrad | 0.1294064 | 302.1 | 1843320 | 1000 |
| 2 | 7-8 | 5-9 | 5-5 | 5-4 | 5 | 0.0 | Adagrad | 0.1294125 | 240.0 | 672520 | 500 |
| 2 | 5-7 | 8-9 | 5-5 | 5-4 | 10 | 0.4 | Adagrad | 0.1294339 | 385.0 | 673760 | 500 |
| 2 | 7-8 | 5-9 | 5-5 | 5-8 | 1 | 0.2 | Adagrad | 0.1294427 | 153.0 | 1842136 | 1000 |
| 2 | 7-8 | 5-9 | 5-5 | 5-8 | 9 | 0.2 | Adagrad | 0.1294431 | 518.9 | 1844504 | 1000 |
| 2 | 5-7 | 8-9 | 5-5 | 5-8 | 1 | 0.4 | Adagrad | 0.1294432 | 149.1 | 1842142 | 1000 |
| 2 | 7-8 | 5-9 | 5-5 | 5-4 | 10 | 0.4 | Adagrad | 0.1294486 | 447.3 | 673700 | 500 |
| 2 | 7-8 | 5-9 | 5-5 | 5-8 | 2 | 0.2 | Adagrad | 0.1294527 | 194.7 | 1842432 | 1000 |
| 2 | 5-7 | 8-9 | 5-5 | 5-4 | 1 | 0.2 | Adagrad | 0.1294851 | 110.2 | 671582 | 500 |
| 2 | 7-8 | 5-9 | 5-5 | 5-8 | 3 | 0.2 | Adagrad | 0.1295047 | 223.0 | 1842728 | 1000 |
| 2 | 7-8 | 5-9 | 5-5 | 5-8 | 4 | 0.4 | Adagrad | 0.1295202 | 281.9 | 1843024 | 1000 |
| 2 | 7-8 | 5-9 | 5-5 | 5-8 | 8 | 0.4 | Adagrad | 0.1295205 | 470.2 | 1844208 | 1000 |
| 2 | 7-8 | 5-9 | 5-5 | 5-8 | 7 | 0.0 | Adagrad | 0.1295211 | 413.4 | 1843912 | 1000 |
| 2 | 5-7 | 8-9 | 5-5 | 5-8 | 7 | 0.4 | Adagrad | 0.1295211 | 405.2 | 1843954 | 1000 |
| 2 | 5-7 | 8-9 | 5-5 | 5-4 | 5 | 0.0 | Adagrad | 0.1295211 | 217.7 | 672550 | 500 |
| 2 | 5-7 | 8-9 | 5-5 | 5-8 | 2 | 0.0 | Adagrad | 0.1295212 | 192.4 | 1842444 | 1000 |
| 2 | 7-8 | 5-9 | 5-5 | 5-8 | 4 | 0.2 | Adagrad | 0.1295212 | 261.7 | 1843024 | 1000 |
| 2 | 7-8 | 5-9 | 5-5 | 5-8 | 1 | 0.0 | Adagrad | 0.1295213 | 146.9 | 1842136 | 1000 |
| 2 | 7-8 | 5-9 | 5-5 | 5-8 | 7 | 0.4 | Adagrad | 0.1295216 | 421.1 | 1843912 | 1000 |
| 2 | 5-7 | 8-9 | 5-5 | 5-4 | 8 | 0.2 | Adagrad | 0.1295216 | 308.5 | 673276 | 500 |
| 2 | 7-8 | 5-9 | 5-5 | 5-4 | 9 | 0.2 | Adagrad | 0.1295216 | 377.5 | 673464 | 500 |
| 2 | 5-7 | 8-9 | 5-5 | 5-8 | 2 | 0.4 | Adagrad | 0.1295217 | 187.3 | 1842444 | 1000 |
| 2 | 7-8 | 5-9 | 5-5 | 5-4 | 10 | 0.0 | Adagrad | 0.1295218 | 399.4 | 673700 | 500 |
| 2 | 5-7 | 8-9 | 5-5 | 5-4 | 3 | 0.2 | Adagrad | 0.1295218 | 161.9 | 672066 | 500 |
| 2 | 7-8 | 5-9 | 5-5 | 5-8 | 1 | 0.4 | Adagrad | 0.1295219 | 157.6 | 1842136 | 1000 |
| 2 | 5-7 | 8-9 | 5-5 | 5-4 | 6 | 0.2 | Adagrad | 0.1295219 | 250.9 | 672792 | 500 |
| 2 | 7-8 | 5-9 | 5-5 | 5-8 | 2 | 0.4 | Adagrad | 0.1295221 | 197.7 | 1842432 | 1000 |
| 2 | 5-7 | 8-9 | 5-5 | 5-4 | 2 | 0.0 | Adagrad | 0.1295221 | 132.9 | 671824 | 500 |
| 2 | 5-7 | 8-9 | 5-5 | 5-8 | 5 | 0.4 | Adagrad | 0.1295222 | 317.0 | 1843350 | 1000 |
| 2 | 5-7 | 8-9 | 5-5 | 5-4 | 6 | 0.0 | Adagrad | 0.1295222 | 246.4 | 672792 | 500 |
| 2 | 5-7 | 8-9 | 5-5 | 5-4 | 1 | 0.4 | Adagrad | 0.1295222 | 106.2 | 671582 | 500 |
| 2 | 7-8 | 5-9 | 5-5 | 5-4 | 8 | 0.4 | Adagrad | 0.1295222 | 355.9 | 673228 | 500 |
| 2 | 5-7 | 8-9 | 5-5 | 5-8 | 10 | 0.4 | Adagrad | 0.1295223 | 562.8 | 1844860 | 1000 |
| 2 | 5-7 | 8-9 | 5-5 | 5-4 | 7 | 0.2 | Adagrad | 0.1295223 | 280.5 | 673034 | 500 |
| 2 | 7-8 | 5-9 | 5-5 | 5-4 | 4 | 0.2 | Adagrad | 0.1295223 | 221.3 | 672284 | 500 |
| 2 | 7-8 | 5-9 | 5-5 | 5-4 | 1 | 0.2 | Adagrad | 0.1295224 | 120.6 | 671576 | 500 |
| 2 | 7-8 | 5-9 | 5-5 | 5-4 | 2 | 0.2 | Adagrad | 0.1295224 | 153.1 | 671812 | 500 |
| 2 | 5-7 | 8-9 | 5-5 | 5-4 | 9 | 0.4 | Adagrad | 0.1295224 | 347.0 | 673518 | 500 |
| 2 | 5-7 | 8-9 | 5-5 | 5-4 | 3 | 0.0 | Adagrad | 0.1295225 | 161.2 | 672066 | 500 |
| 2 | 5-7 | 8-9 | 5-5 | 5-8 | 3 | 0.4 | Adagrad | 0.1295226 | 229.7 | 1842746 | 1000 |
| 2 | 7-8 | 5-9 | 5-5 | 5-4 | 6 | 0.2 | Adagrad | 0.1295226 | 275.9 | 672756 | 500 |
| 2 | 7-8 | 5-9 | 5-5 | 5-4 | 7 | 0.2 | Adagrad | 0.1295226 | 311.7 | 672992 | 500 |
| 2 | 7-8 | 5-9 | 5-5 | 5-4 | 8 | 0.2 | Adagrad | 0.1295227 | 345.4 | 673228 | 500 |
| 2 | 5-7 | 8-9 | 5-5 | 5-4 | 3 | 0.4 | Adagrad | 0.1295227 | 158.7 | 672066 | 500 |
| 2 | 5-7 | 8-9 | 5-5 | 5-8 | 3 | 0.2 | Adagrad | 0.1295228 | 237.1 | 1842746 | 1000 |
| 2 | 7-8 | 5-9 | 5-5 | 5-8 | 3 | 0.4 | Adagrad | 0.1295228 | 240.0 | 1842728 | 1000 |
| 2 | 7-8 | 5-9 | 5-5 | 5-8 | 5 | 0.4 | Adagrad | 0.1295228 | 330.3 | 1843320 | 1000 |
| 2 | 7-8 | 5-9 | 5-5 | 5-8 | 9 | 0.4 | Adagrad | 0.1295228 | 509.2 | 1844504 | 1000 |
| 2 | 7-8 | 5-9 | 5-5 | 5-4 | 5 | 0.4 | Adagrad | 0.1295228 | 249.6 | 672520 | 500 |
| 2 | 7-8 | 5-9 | 5-5 | 5-4 | 3 | 0.0 | Adagrad | 0.1295229 | 173.6 | 672048 | 500 |
| 2 | 7-8 | 5-9 | 5-5 | 5-4 | 6 | 0.0 | Adagrad | 0.1295229 | 273.7 | 672756 | 500 |
| 2 | 5-7 | 8-9 | 5-5 | 5-4 | 2 | 0.4 | Adagrad | 0.1295229 | 132.0 | 671824 | 500 |
| 2 | 5-7 | 8-9 | 5-5 | 5-4 | 4 | 0.4 | Adagrad | 0.1295229 | 183.5 | 672308 | 500 |
| 2 | 5-7 | 8-9 | 5-5 | 5-4 | 6 | 0.4 | Adagrad | 0.1295229 | 238.1 | 672792 | 500 |
| 2 | 7-8 | 5-9 | 5-5 | 5-4 | 9 | 0.0 | Adagrad | 0.129523 | 365.0 | 673464 | 500 |
| 2 | 5-7 | 8-9 | 5-5 | 5-4 | 2 | 0.2 | Adagrad | 0.129523 | 134.5 | 671824 | 500 |
| 2 | 5-7 | 8-9 | 5-5 | 5-4 | 5 | 0.4 | Adagrad | 0.129523 | 208.0 | 672550 | 500 |
| 2 | 7-8 | 5-9 | 5-5 | 5-4 | 4 | 0.4 | Adagrad | 0.1295231 | 215.3 | 672284 | 500 |
| 2 | 7-8 | 5-9 | 5-5 | 5-4 | 6 | 0.4 | Adagrad | 0.1295231 | 284.0 | 672756 | 500 |
| 2 | 7-8 | 5-9 | 5-5 | 5-8 | 6 | 0.2 | Adagrad | 0.1295232 | 359.9 | 1843616 | 1000 |
| 2 | 5-7 | 8-9 | 5-5 | 5-8 | 4 | 0.4 | Adagrad | 0.1295232 | 271.2 | 1843048 | 1000 |
| 2 | 7-8 | 5-9 | 5-5 | 5-4 | 4 | 0.0 | Adagrad | 0.1295232 | 207.2 | 672284 | 500 |
| 2 | 5-7 | 8-9 | 5-5 | 5-4 | 4 | 0.2 | Adagrad | 0.1295232 | 188.5 | 672308 | 500 |
| 2 | 7-8 | 5-9 | 5-5 | 5-4 | 9 | 0.4 | Adagrad | 0.1295232 | 404.8 | 673464 | 500 |
| 2 | 7-8 | 5-9 | 5-5 | 5-4 | 2 | 0.4 | Adagrad | 0.1295234 | 146.6 | 671812 | 500 |
| 2 | 5-7 | 8-9 | 5-5 | 5-8 | 3 | 0.0 | Adagrad | 0.1295236 | 233.3 | 1842746 | 1000 |
| 2 | 5-7 | 8-9 | 5-5 | 5-4 | 8 | 0.0 | Adagrad | 0.1295236 | 301.9 | 673276 | 500 |
| 2 | 7-8 | 5-9 | 5-5 | 5-4 | 3 | 0.4 | Adagrad | 0.1295236 | 181.4 | 672048 | 500 |
| 2 | 7-8 | 5-9 | 5-5 | 5-4 | 7 | 0.4 | Adagrad | 0.1295236 | 319.6 | 672992 | 500 |
| 2 | 7-8 | 5-9 | 5-5 | 5-8 | 3 | 0.0 | Adagrad | 0.1295237 | 226.9 | 1842728 | 1000 |
| 2 | 7-8 | 5-9 | 5-5 | 5-4 | 3 | 0.2 | Adagrad | 0.129524 | 187.4 | 672048 | 500 |
| 2 | 7-8 | 5-9 | 5-5 | 5-8 | 10 | 0.4 | Adagrad | 0.1295241 | 558.2 | 1844800 | 1000 |
| 2 | 5-7 | 8-9 | 5-5 | 5-4 | 4 | 0.0 | Adagrad | 0.1295241 | 189.0 | 672308 | 500 |
| 2 | 5-7 | 8-9 | 5-5 | 5-4 | 10 | 0.0 | Adagrad | 0.1295243 | 377.9 | 673760 | 500 |
| 2 | 5-7 | 8-9 | 5-5 | 5-4 | 8 | 0.4 | Adagrad | 0.1295251 | 304.2 | 673276 | 500 |
| 2 | 7-8 | 5-9 | 5-5 | 5-4 | 1 | 0.4 | Adagrad | 0.1295252 | 115.5 | 671576 | 500 |
| 2 | 7-8 | 5-9 | 5-5 | 5-8 | 4 | 0.0 | Adagrad | 0.1295259 | 266.9 | 1843024 | 1000 |
| 2 | 5-7 | 8-9 | 5-5 | 5-4 | 10 | 0.4 | Adam | 0.129572 | 486.8 | 673760 | 500 |
| 2 | 5-7 | 8-9 | 5-5 | 5-8 | 6 | 0.2 | Adam | 0.1295724 | 597.7 | 1843652 | 1000 |
| 2 | 7-8 | 5-9 | 5-5 | 5-8 | 9 | 0.4 | Adam | 0.1295734 | 692.8 | 1844504 | 1000 |
| 2 | 7-8 | 5-9 | 5-5 | 5-4 | 8 | 0.2 | Adam | 0.1295741 | 507.2 | 673228 | 500 |
| 2 | 7-8 | 5-9 | 5-5 | 5-4 | 4 | 0.4 | Adam | 0.1295762 | 323.9 | 672284 | 500 |
| 2 | 5-7 | 8-9 | 5-5 | 5-8 | 8 | 0.2 | Adam | 0.1295779 | 742.6 | 1844256 | 1000 |
| 2 | 5-7 | 8-9 | 5-5 | 5-8 | 1 | 0.0 | Adam | 0.1295781 | 387.5 | 1842142 | 1000 |
| 2 | 7-8 | 5-9 | 5-5 | 5-4 | 6 | 0.4 | Adam | 0.129579 | 426.0 | 672756 | 500 |
| 2 | 7-8 | 5-9 | 5-5 | 5-8 | 10 | 0.4 | Adam | 0.1295796 | 813.3 | 1844800 | 1000 |
| 2 | 5-7 | 8-9 | 5-5 | 5-4 | 2 | 0.0 | Adam | 0.1295801 | 237.3 | 671824 | 500 |
| 2 | 5-7 | 8-9 | 5-5 | 5-8 | 2 | 0.0 | Adam | 0.1295803 | 341.4 | 1842444 | 1000 |
| 2 | 7-8 | 5-9 | 5-5 | 5-8 | 9 | 0.2 | Adam | 0.1295805 | 769.4 | 1844504 | 1000 |
| 2 | 7-8 | 5-9 | 5-5 | 5-4 | 2 | 0.0 | Adam | 0.129581 | 266.3 | 671812 | 500 |
| 2 | 7-8 | 5-9 | 5-5 | 5-8 | 2 | 0.2 | Adam | 0.1295814 | 466.8 | 1842432 | 1000 |
| 2 | 5-7 | 8-9 | 5-5 | 5-4 | 8 | 0.0 | Adam | 0.129582 | 388.2 | 673276 | 500 |
| 2 | 5-7 | 8-9 | 5-5 | 5-4 | 9 | 0.0 | Adam | 0.1295823 | 423.0 | 673518 | 500 |
| 2 | 5-7 | 8-9 | 5-5 | 5-4 | 8 | 0.2 | Adam | 0.1295825 | 486.4 | 673276 | 500 |
| 2 | 7-8 | 5-9 | 5-5 | 5-8 | 8 | 0.4 | Adam | 0.1295826 | 700.5 | 1844208 | 1000 |
| 2 | 7-8 | 5-9 | 5-5 | 5-4 | 8 | 0.0 | Adam | 0.1295826 | 438.9 | 673228 | 500 |
| 2 | 7-8 | 5-9 | 5-5 | 5-8 | 4 | 0.4 | Adam | 0.1295827 | 497.5 | 1843024 | 1000 |
| 2 | 7-8 | 5-9 | 5-5 | 5-4 | 4 | 0.0 | Adam | 0.1295831 | 300.4 | 672284 | 500 |
| 2 | 7-8 | 5-9 | 5-5 | 5-4 | 3 | 0.2 | Adam | 0.1295831 | 339.3 | 672048 | 500 |
| 2 | 7-8 | 5-9 | 5-5 | 5-4 | 2 | 0.4 | Adam | 0.1295833 | 288.5 | 671812 | 500 |
| 2 | 7-8 | 5-9 | 5-5 | 5-4 | 3 | 0.4 | Adam | 0.1295833 | 330.7 | 672048 | 500 |
| 2 | 7-8 | 5-9 | 5-5 | 5-8 | 8 | 0.2 | Adam | 0.1295834 | 772.3 | 1844208 | 1000 |
| 2 | 7-8 | 5-9 | 5-5 | 5-4 | 4 | 0.2 | Adam | 0.1295837 | 332.9 | 672284 | 500 |
| 2 | 5-7 | 8-9 | 5-5 | 5-4 | 2 | 0.4 | Adam | 0.1295838 | 274.4 | 671824 | 500 |
| 2 | 5-7 | 8-9 | 5-5 | 5-8 | 2 | 0.2 | Adam | 0.129585 | 445.7 | 1842444 | 1000 |
| 2 | 7-8 | 5-9 | 5-5 | 5-8 | 3 | 0.2 | Adam | 0.1295851 | 509.3 | 1842728 | 1000 |
| 2 | 7-8 | 5-9 | 5-5 | 5-8 | 1 | 0.0 | Adam | 0.1295852 | 444.4 | 1842136 | 1000 |
| 2 | 5-7 | 8-9 | 5-5 | 5-4 | 9 | 0.4 | Adam | 0.1295852 | 406.9 | 673518 | 500 |
| 2 | 7-8 | 5-9 | 5-5 | 5-8 | 8 | 0.0 | Adam | 0.1295856 | 646.5 | 1844208 | 1000 |
| 2 | 5-7 | 8-9 | 5-5 | 5-8 | 7 | 0.2 | Adam | 0.1295863 | 606.6 | 1843954 | 1000 |
| 2 | 5-7 | 8-9 | 5-5 | 5-4 | 1 | 0.4 | Adam | 0.1295863 | 257.2 | 671582 | 500 |
| 2 | 5-7 | 8-9 | 5-5 | 5-8 | 9 | 0.2 | Adam | 0.1295864 | 738.1 | 1844558 | 1000 |
| 2 | 7-8 | 5-9 | 5-5 | 5-8 | 10 | 0.0 | Adam | 0.1295866 | 807.9 | 1844800 | 1000 |
| 2 | 5-7 | 8-9 | 5-5 | 5-8 | 7 | 0.4 | Adam | 0.1295866 | 568.8 | 1843954 | 1000 |
| 2 | 5-7 | 8-9 | 5-5 | 5-4 | 4 | 0.2 | Adam | 0.1295868 | 312.0 | 672308 | 500 |
| 2 | 5-7 | 8-9 | 5-5 | 5-8 | 3 | 0.4 | Adam | 0.1295871 | 494.1 | 1842746 | 1000 |
| 2 | 5-7 | 8-9 | 5-5 | 5-8 | 8 | 0.4 | Adam | 0.1295872 | 616.5 | 1844256 | 1000 |
| 2 | 5-7 | 8-9 | 5-5 | 5-8 | 4 | 0.2 | Adam | 0.1295874 | 511.7 | 1843048 | 1000 |
| 2 | 7-8 | 5-9 | 5-5 | 5-8 | 7 | 0.0 | Adam | 0.1295876 | 681.3 | 1843912 | 1000 |
| 2 | 5-7 | 8-9 | 5-5 | 5-4 | 7 | 0.0 | Adam | 0.1295877 | 388.5 | 673034 | 500 |
| 2 | 5-7 | 8-9 | 5-5 | 5-4 | 8 | 0.4 | Adam | 0.1295879 | 420.9 | 673276 | 500 |
| 2 | 5-7 | 8-9 | 5-5 | 5-4 | 9 | 0.2 | Adam | 0.1295882 | 449.4 | 673518 | 500 |
| 2 | 5-7 | 8-9 | 5-5 | 5-8 | 1 | 0.4 | Adam | 0.1295883 | 417.4 | 1842142 | 1000 |
| 2 | 7-8 | 5-9 | 5-5 | 5-4 | 10 | 0.2 | Adam | 0.1295883 | 587.2 | 673700 | 500 |
| 2 | 5-7 | 8-9 | 5-5 | 5-8 | 2 | 0.4 | Adam | 0.1295887 | 436.9 | 1842444 | 1000 |
| 2 | 5-7 | 8-9 | 5-5 | 5-4 | 1 | 0.0 | Adam | 0.1295887 | 260.4 | 671582 | 500 |
| 2 | 7-8 | 5-9 | 5-5 | 5-8 | 1 | 0.4 | Adam | 0.1295888 | 379.4 | 1842136 | 1000 |
| 2 | 7-8 | 5-9 | 5-5 | 5-8 | 2 | 0.0 | Adam | 0.1295889 | 405.7 | 1842432 | 1000 |
| 2 | 7-8 | 5-9 | 5-5 | 5-4 | 8 | 0.4 | Adam | 0.1295892 | 492.2 | 673228 | 500 |
| 2 | 5-7 | 8-9 | 5-5 | 5-4 | 3 | 0.4 | Adam | 0.1295893 | 315.5 | 672066 | 500 |
| 2 | 5-7 | 8-9 | 5-5 | 5-8 | 7 | 0.0 | Adam | 0.1295894 | 640.9 | 1843954 | 1000 |
| 2 | 7-8 | 5-9 | 5-5 | 5-4 | 3 | 0.0 | Adam | 0.1295896 | 268.1 | 672048 | 500 |
| 2 | 7-8 | 5-9 | 5-5 | 5-8 | 6 | 0.4 | Adam | 0.1295897 | 614.8 | 1843616 | 1000 |
| 2 | 5-7 | 8-9 | 5-5 | 5-4 | 6 | 0.4 | Adam | 0.1295897 | 387.1 | 672792 | 500 |
| 2 | 5-7 | 8-9 | 5-5 | 5-8 | 6 | 0.0 | Adam | 0.1295899 | 527.9 | 1843652 | 1000 |
| 2 | 5-7 | 8-9 | 5-5 | 5-8 | 4 | 0.4 | Adam | 0.1295899 | 455.6 | 1843048 | 1000 |
| 2 | 5-7 | 8-9 | 5-5 | 5-4 | 6 | 0.2 | Adam | 0.12959 | 402.0 | 672792 | 500 |
| 2 | 7-8 | 5-9 | 5-5 | 5-8 | 6 | 0.0 | Adam | 0.1295903 | 552.6 | 1843616 | 1000 |
| 2 | 5-7 | 8-9 | 5-5 | 5-8 | 5 | 0.4 | Adam | 0.129591 | 536.4 | 1843350 | 1000 |
| 2 | 5-7 | 8-9 | 5-5 | 5-8 | 10 | 0.4 | Adam | 0.129591 | 702.3 | 1844860 | 1000 |
| 2 | 5-7 | 8-9 | 5-5 | 5-4 | 5 | 0.2 | Adam | 0.1295912 | 382.2 | 672550 | 500 |
| 2 | 7-8 | 5-9 | 5-5 | 5-8 | 9 | 0.0 | Adam | 0.1295913 | 697.6 | 1844504 | 1000 |
| 2 | 5-7 | 8-9 | 5-5 | 5-8 | 5 | 0.2 | Adam | 0.1295917 | 565.8 | 1843350 | 1000 |
| 2 | 5-7 | 8-9 | 5-5 | 5-8 | 10 | 0.2 | Adam | 0.1295918 | 838.5 | 1844860 | 1000 |
| 2 | 7-8 | 5-9 | 5-5 | 5-8 | 5 | 0.0 | Adam | 0.1295919 | 528.7 | 1843320 | 1000 |
| 2 | 5-7 | 8-9 | 5-5 | 5-4 | 5 | 0.0 | Adam | 0.1295919 | 317.6 | 672550 | 500 |
| 2 | 7-8 | 5-9 | 5-5 | 5-4 | 10 | 0.4 | Adam | 0.129592 | 560.5 | 673700 | 500 |
| 2 | 5-7 | 8-9 | 5-5 | 5-8 | 8 | 0.0 | Adam | 0.1295922 | 606.5 | 1844256 | 1000 |
| 2 | 7-8 | 5-9 | 5-5 | 5-8 | 6 | 0.2 | Adam | 0.1295922 | 649.4 | 1843616 | 1000 |
| 2 | 7-8 | 5-9 | 5-5 | 5-4 | 7 | 0.2 | Adam | 0.1295925 | 458.3 | 672992 | 500 |
| 2 | 5-7 | 8-9 | 5-5 | 5-8 | 5 | 0.0 | Adam | 0.1295931 | 486.4 | 1843350 | 1000 |
| 2 | 5-7 | 8-9 | 5-5 | 5-4 | 4 | 0.0 | Adam | 0.1295932 | 287.4 | 672308 | 500 |
| 2 | 7-8 | 5-9 | 5-5 | 5-8 | 3 | 0.0 | Adam | 0.1295933 | 424.7 | 1842728 | 1000 |
| 2 | 7-8 | 5-9 | 5-5 | 5-8 | 7 | 0.4 | Adam | 0.1295935 | 629.6 | 1843912 | 1000 |
| 2 | 5-7 | 8-9 | 5-5 | 5-4 | 10 | 0.0 | Adam | 0.1295935 | 463.6 | 673760 | 500 |
| 2 | 7-8 | 5-9 | 5-5 | 5-8 | 5 | 0.2 | Adam | 0.1295937 | 593.1 | 1843320 | 1000 |
| 2 | 7-8 | 5-9 | 5-5 | 5-4 | 9 | 0.4 | Adam | 0.1295937 | 484.3 | 673464 | 500 |
| 2 | 5-7 | 8-9 | 5-5 | 5-4 | 7 | 0.4 | Adam | 0.1295938 | 390.2 | 673034 | 500 |
| 2 | 5-7 | 8-9 | 5-5 | 5-4 | 7 | 0.2 | Adam | 0.129594 | 407.6 | 673034 | 500 |
| 2 | 5-7 | 8-9 | 5-5 | 5-4 | 5 | 0.4 | Adam | 0.129594 | 368.4 | 672550 | 500 |
| 2 | 7-8 | 5-9 | 5-5 | 5-4 | 10 | 0.0 | Adam | 0.1295943 | 518.6 | 673700 | 500 |
| 2 | 5-7 | 8-9 | 5-5 | 5-4 | 2 | 0.2 | Adam | 0.1295943 | 286.9 | 671824 | 500 |
| 2 | 5-7 | 8-9 | 5-5 | 5-4 | 4 | 0.4 | Adam | 0.1295944 | 304.6 | 672308 | 500 |
| 2 | 7-8 | 5-9 | 5-5 | 5-8 | 4 | 0.2 | Adam | 0.1295947 | 504.7 | 1843024 | 1000 |
| 2 | 5-7 | 8-9 | 5-5 | 5-8 | 4 | 0.0 | Adam | 0.1295955 | 448.3 | 1843048 | 1000 |
| 2 | 5-7 | 8-9 | 5-5 | 5-8 | 10 | 0.0 | Adam | 0.1295961 | 710.7 | 1844860 | 1000 |
| 2 | 5-7 | 8-9 | 5-5 | 5-4 | 6 | 0.0 | Adam | 0.1295961 | 338.6 | 672792 | 500 |
| 2 | 7-8 | 5-9 | 5-5 | 5-8 | 4 | 0.0 | Adam | 0.1295962 | 453.6 | 1843024 | 1000 |
| 2 | 7-8 | 5-9 | 5-5 | 5-4 | 1 | 0.0 | Adam | 0.1295965 | 276.3 | 671576 | 500 |
| 2 | 5-7 | 8-9 | 5-5 | 5-8 | 3 | 0.2 | Adam | 0.129597 | 518.2 | 1842746 | 1000 |
| 2 | 7-8 | 5-9 | 5-5 | 5-8 | 2 | 0.4 | Adam | 0.1295974 | 441.9 | 1842432 | 1000 |
| 2 | 7-8 | 5-9 | 5-5 | 5-4 | 5 | 0.4 | Adam | 0.1295974 | 393.4 | 672520 | 500 |
| 2 | 7-8 | 5-9 | 5-5 | 5-4 | 7 | 0.4 | Adam | 0.1295974 | 448.6 | 672992 | 500 |
| 2 | 7-8 | 5-9 | 5-5 | 5-4 | 9 | 0.2 | Adam | 0.1295978 | 502.4 | 673464 | 500 |
| 2 | 7-8 | 5-9 | 5-5 | 5-8 | 5 | 0.4 | Adam | 0.1295983 | 590.8 | 1843320 | 1000 |
| 2 | 5-7 | 8-9 | 5-5 | 5-8 | 9 | 0.0 | Adam | 0.1295984 | 648.2 | 1844558 | 1000 |
| 2 | 7-8 | 5-9 | 5-5 | 5-4 | 5 | 0.2 | Adam | 0.1295985 | 399.9 | 672520 | 500 |
| 2 | 7-8 | 5-9 | 5-5 | 5-8 | 1 | 0.2 | Adam | 0.1295986 | 430.9 | 1842136 | 1000 |
| 2 | 7-8 | 5-9 | 5-5 | 5-4 | 7 | 0.0 | Adam | 0.1295989 | 420.6 | 672992 | 500 |
| 2 | 7-8 | 5-9 | 5-5 | 5-4 | 5 | 0.0 | Adam | 0.129599 | 342.5 | 672520 | 500 |
| 2 | 5-7 | 8-9 | 5-5 | 5-4 | 1 | 0.2 | Adam | 0.1295991 | 268.7 | 671582 | 500 |
| 2 | 7-8 | 5-9 | 5-5 | 5-4 | 2 | 0.2 | Adam | 0.1295994 | 297.0 | 671812 | 500 |
| 2 | 5-7 | 8-9 | 5-5 | 5-8 | 6 | 0.4 | Adam | 0.1295995 | 563.3 | 1843652 | 1000 |
| 2 | 5-7 | 8-9 | 5-5 | 5-4 | 10 | 0.2 | Adam | 0.1295995 | 549.3 | 673760 | 500 |
| 2 | 5-7 | 8-9 | 5-5 | 5-8 | 1 | 0.2 | Adam | 0.1295997 | 430.1 | 1842142 | 1000 |
| 2 | 7-8 | 5-9 | 5-5 | 5-4 | 6 | 0.0 | Adam | 0.1296001 | 369.7 | 672756 | 500 |
| 2 | 7-8 | 5-9 | 5-5 | 5-8 | 10 | 0.2 | Adam | 0.1296003 | 870.7 | 1844800 | 1000 |
| 2 | 7-8 | 5-9 | 5-5 | 5-8 | 3 | 0.4 | Adam | 0.1296007 | 499.9 | 1842728 | 1000 |
| 2 | 7-8 | 5-9 | 5-5 | 5-4 | 9 | 0.0 | Adam | 0.1296007 | 470.5 | 673464 | 500 |
| 2 | 7-8 | 5-9 | 5-5 | 5-4 | 1 | 0.4 | Adam | 0.1296009 | 244.0 | 671576 | 500 |
| 2 | 7-8 | 5-9 | 5-5 | 5-4 | 6 | 0.2 | Adam | 0.1296022 | 434.9 | 672756 | 500 |
| 2 | 5-7 | 8-9 | 5-5 | 5-4 | 3 | 0.2 | Adam | 0.1296025 | 323.4 | 672066 | 500 |
| 2 | 5-7 | 8-9 | 5-5 | 5-4 | 3 | 0.0 | Adam | 0.1296026 | 243.6 | 672066 | 500 |
| 2 | 5-7 | 8-9 | 5-5 | 5-8 | 9 | 0.4 | Adam | 0.1296034 | 628.0 | 1844558 | 1000 |
| 2 | 7-8 | 5-9 | 5-5 | 5-8 | 7 | 0.2 | Adam | 0.129604 | 709.7 | 1843912 | 1000 |
| 2 | 5-7 | 8-9 | 5-5 | 5-8 | 3 | 0.0 | Adam | 0.1296053 | 336.4 | 1842746 | 1000 |
| 2 | 7-8 | 5-9 | 5-5 | 5-4 | 1 | 0.2 | Adam | 0.1296066 | 273.5 | 671576 | 500 |
| 2 | 7-8 | 5-9 | 5-5 | 5-8 | 9 | 0.0 | RMSprop | 0.1298055 | 718.5 | 1844504 | 1000 |
| 2 | 7-8 | 5-9 | 5-5 | 5-4 | 9 | 0.2 | RMSprop | 0.1298062 | 505.8 | 673464 | 500 |
| 2 | 5-7 | 8-9 | 5-5 | 5-8 | 4 | 0.0 | RMSprop | 0.1298068 | 498.2 | 1843048 | 1000 |
| 2 | 5-7 | 8-9 | 5-5 | 5-4 | 1 | 0.4 | RMSprop | 0.1298074 | 278.0 | 671582 | 500 |
| 2 | 5-7 | 8-9 | 5-5 | 5-4 | 3 | 0.0 | RMSprop | 0.1298076 | 275.5 | 672066 | 500 |
| 2 | 5-7 | 8-9 | 5-5 | 5-8 | 8 | 0.2 | RMSprop | 0.1298084 | 830.0 | 1844256 | 1000 |
| 2 | 7-8 | 5-9 | 5-5 | 5-8 | 1 | 0.2 | RMSprop | 0.1298085 | 432.8 | 1842136 | 1000 |
| 2 | 5-7 | 8-9 | 5-5 | 5-4 | 9 | 0.2 | RMSprop | 0.1298085 | 459.7 | 673518 | 500 |
| 2 | 5-7 | 8-9 | 5-5 | 5-8 | 5 | 0.0 | RMSprop | 0.1298089 | 529.9 | 1843350 | 1000 |
| 2 | 7-8 | 5-9 | 5-5 | 5-4 | 7 | 0.0 | RMSprop | 0.1298096 | 458.4 | 672992 | 500 |
| 2 | 7-8 | 5-9 | 5-5 | 5-8 | 10 | 0.4 | RMSprop | 0.1298103 | 856.8 | 1844800 | 1000 |
| 2 | 7-8 | 5-9 | 5-5 | 5-8 | 10 | 0.0 | RMSprop | 0.1298104 | 756.9 | 1844800 | 1000 |
| 2 | 7-8 | 5-9 | 5-5 | 5-8 | 5 | 0.2 | RMSprop | 0.1298106 | 645.1 | 1843320 | 1000 |
| 2 | 7-8 | 5-9 | 5-5 | 5-8 | 4 | 0.0 | RMSprop | 0.1298108 | 462.4 | 1843024 | 1000 |
| 2 | 5-7 | 8-9 | 5-5 | 5-4 | 6 | 0.4 | RMSprop | 0.1298112 | 435.6 | 672792 | 500 |
| 2 | 7-8 | 5-9 | 5-5 | 5-8 | 3 | 0.2 | RMSprop | 0.1298114 | 532.2 | 1842728 | 1000 |
| 2 | 5-7 | 8-9 | 5-5 | 5-4 | 8 | 0.0 | RMSprop | 0.1298114 | 421.3 | 673276 | 500 |
| 2 | 5-7 | 8-9 | 5-5 | 5-8 | 4 | 0.4 | RMSprop | 0.1298115 | 525.2 | 1843048 | 1000 |
| 2 | 5-7 | 8-9 | 5-5 | 5-4 | 8 | 0.4 | RMSprop | 0.1298115 | 490.3 | 673276 | 500 |
| 2 | 5-7 | 8-9 | 5-5 | 5-4 | 10 | 0.0 | RMSprop | 0.1298116 | 455.3 | 673760 | 500 |
| 2 | 7-8 | 5-9 | 5-5 | 5-4 | 7 | 0.4 | RMSprop | 0.129813 | 419.0 | 672992 | 500 |
| 2 | 5-7 | 8-9 | 5-5 | 5-4 | 9 | 0.4 | RMSprop | 0.1298131 | 471.1 | 673518 | 500 |
| 2 | 5-7 | 8-9 | 5-5 | 5-8 | 6 | 0.4 | RMSprop | 0.1298132 | 695.1 | 1843652 | 1000 |
| 2 | 5-7 | 8-9 | 5-5 | 5-4 | 3 | 0.4 | RMSprop | 0.1298132 | 349.0 | 672066 | 500 |
| 2 | 7-8 | 5-9 | 5-5 | 5-8 | 1 | 0.4 | RMSprop | 0.1298137 | 437.4 | 1842136 | 1000 |
| 2 | 7-8 | 5-9 | 5-5 | 5-4 | 5 | 0.0 | RMSprop | 0.1298139 | 340.7 | 672520 | 500 |
| 2 | 7-8 | 5-9 | 5-5 | 5-8 | 2 | 0.0 | RMSprop | 0.1298142 | 416.9 | 1842432 | 1000 |
| 2 | 7-8 | 5-9 | 5-5 | 5-8 | 8 | 0.0 | RMSprop | 0.1298142 | 696.6 | 1844208 | 1000 |
| 2 | 5-7 | 8-9 | 5-5 | 5-8 | 9 | 0.0 | RMSprop | 0.1298144 | 714.0 | 1844558 | 1000 |
| 2 | 5-7 | 8-9 | 5-5 | 5-8 | 8 | 0.0 | RMSprop | 0.1298151 | 703.0 | 1844256 | 1000 |
| 2 | 7-8 | 5-9 | 5-5 | 5-4 | 8 | 0.4 | RMSprop | 0.1298153 | 524.0 | 673228 | 500 |
| 2 | 7-8 | 5-9 | 5-5 | 5-8 | 5 | 0.0 | RMSprop | 0.1298157 | 508.3 | 1843320 | 1000 |
| 2 | 7-8 | 5-9 | 5-5 | 5-4 | 6 | 0.4 | RMSprop | 0.1298157 | 439.9 | 672756 | 500 |
| 2 | 5-7 | 8-9 | 5-5 | 5-8 | 3 | 0.4 | RMSprop | 0.1298159 | 541.1 | 1842746 | 1000 |
| 2 | 5-7 | 8-9 | 5-5 | 5-4 | 5 | 0.2 | RMSprop | 0.129816 | 412.5 | 672550 | 500 |
| 2 | 7-8 | 5-9 | 5-5 | 5-4 | 4 | 0.2 | RMSprop | 0.1298165 | 341.8 | 672284 | 500 |
| 2 | 7-8 | 5-9 | 5-5 | 5-8 | 8 | 0.2 | RMSprop | 0.1298168 | 818.4 | 1844208 | 1000 |
| 2 | 7-8 | 5-9 | 5-5 | 5-4 | 1 | 0.0 | RMSprop | 0.1298169 | 281.3 | 671576 | 500 |
| 2 | 5-7 | 8-9 | 5-5 | 5-4 | 7 | 0.0 | RMSprop | 0.1298172 | 423.7 | 673034 | 500 |
| 2 | 5-7 | 8-9 | 5-5 | 5-4 | 1 | 0.2 | RMSprop | 0.1298177 | 282.7 | 671582 | 500 |
| 2 | 5-7 | 8-9 | 5-5 | 5-4 | 2 | 0.2 | RMSprop | 0.1298189 | 274.3 | 671824 | 500 |
| 2 | 5-7 | 8-9 | 5-5 | 5-4 | 3 | 0.2 | RMSprop | 0.1298189 | 347.1 | 672066 | 500 |
| 2 | 7-8 | 5-9 | 5-5 | 5-8 | 3 | 0.0 | RMSprop | 0.1298192 | 420.2 | 1842728 | 1000 |
| 2 | 7-8 | 5-9 | 5-5 | 5-4 | 3 | 0.4 | RMSprop | 0.1298192 | 344.5 | 672048 | 500 |
| 2 | 5-7 | 8-9 | 5-5 | 5-4 | 10 | 0.4 | RMSprop | 0.1298195 | 547.4 | 673760 | 500 |
| 2 | 7-8 | 5-9 | 5-5 | 5-4 | 7 | 0.2 | RMSprop | 0.1298196 | 444.0 | 672992 | 500 |
| 2 | 7-8 | 5-9 | 5-5 | 5-4 | 8 | 0.2 | RMSprop | 0.1298201 | 525.8 | 673228 | 500 |
| 2 | 5-7 | 8-9 | 5-5 | 5-8 | 10 | 0.0 | RMSprop | 0.1298204 | 751.5 | 1844860 | 1000 |
| 2 | 5-7 | 8-9 | 5-5 | 5-4 | 6 | 0.2 | RMSprop | 0.1298205 | 433.4 | 672792 | 500 |
| 2 | 5-7 | 8-9 | 5-5 | 5-8 | 10 | 0.4 | RMSprop | 0.1298207 | 906.3 | 1844860 | 1000 |
| 2 | 7-8 | 5-9 | 5-5 | 5-4 | 5 | 0.4 | RMSprop | 0.1298211 | 417.8 | 672520 | 500 |
| 2 | 5-7 | 8-9 | 5-5 | 5-4 | 4 | 0.2 | RMSprop | 0.1298217 | 327.2 | 672308 | 500 |
| 2 | 7-8 | 5-9 | 5-5 | 5-4 | 10 | 0.0 | RMSprop | 0.1298221 | 507.8 | 673700 | 500 |
| 2 | 7-8 | 5-9 | 5-5 | 5-4 | 9 | 0.0 | RMSprop | 0.1298225 | 472.6 | 673464 | 500 |
| 2 | 5-7 | 8-9 | 5-5 | 5-8 | 9 | 0.2 | RMSprop | 0.1298227 | 794.9 | 1844558 | 1000 |
| 2 | 7-8 | 5-9 | 5-5 | 5-8 | 6 | 0.2 | RMSprop | 0.1298233 | 714.5 | 1843616 | 1000 |
| 2 | 7-8 | 5-9 | 5-5 | 5-4 | 10 | 0.2 | RMSprop | 0.1298235 | 602.4 | 673700 | 500 |
| 2 | 7-8 | 5-9 | 5-5 | 5-8 | 7 | 0.4 | RMSprop | 0.1298237 | 647.4 | 1843912 | 1000 |
| 2 | 7-8 | 5-9 | 5-5 | 5-4 | 2 | 0.2 | RMSprop | 0.1298239 | 271.8 | 671812 | 500 |
| 2 | 5-7 | 8-9 | 5-5 | 5-4 | 10 | 0.2 | RMSprop | 0.129824 | 577.3 | 673760 | 500 |
| 2 | 5-7 | 8-9 | 5-5 | 5-4 | 8 | 0.2 | RMSprop | 0.1298242 | 477.4 | 673276 | 500 |
| 2 | 7-8 | 5-9 | 5-5 | 5-8 | 7 | 0.2 | RMSprop | 0.1298243 | 705.2 | 1843912 | 1000 |
| 2 | 7-8 | 5-9 | 5-5 | 5-4 | 4 | 0.4 | RMSprop | 0.1298244 | 331.0 | 672284 | 500 |
| 2 | 7-8 | 5-9 | 5-5 | 5-8 | 8 | 0.4 | RMSprop | 0.1298249 | 717.4 | 1844208 | 1000 |
| 2 | 5-7 | 8-9 | 5-5 | 5-8 | 1 | 0.2 | RMSprop | 0.129825 | 453.2 | 1842142 | 1000 |
| 2 | 7-8 | 5-9 | 5-5 | 5-8 | 10 | 0.2 | RMSprop | 0.1298251 | 864.9 | 1844800 | 1000 |
| 2 | 5-7 | 8-9 | 5-5 | 5-4 | 5 | 0.4 | RMSprop | 0.1298251 | 412.4 | 672550 | 500 |
| 2 | 5-7 | 8-9 | 5-5 | 5-4 | 7 | 0.2 | RMSprop | 0.1298258 | 400.8 | 673034 | 500 |
| 2 | 5-7 | 8-9 | 5-5 | 5-8 | 2 | 0.2 | RMSprop | 0.129826 | 474.4 | 1842444 | 1000 |
| 2 | 7-8 | 5-9 | 5-5 | 5-8 | 6 | 0.4 | RMSprop | 0.1298261 | 671.0 | 1843616 | 1000 |
| 2 | 7-8 | 5-9 | 5-5 | 5-8 | 2 | 0.4 | RMSprop | 0.1298262 | 443.6 | 1842432 | 1000 |
| 2 | 7-8 | 5-9 | 5-5 | 5-8 | 3 | 0.4 | RMSprop | 0.1298264 | 553.3 | 1842728 | 1000 |
| 2 | 5-7 | 8-9 | 5-5 | 5-8 | 3 | 0.2 | RMSprop | 0.1298266 | 563.5 | 1842746 | 1000 |
| 2 | 5-7 | 8-9 | 5-5 | 5-8 | 6 | 0.0 | RMSprop | 0.1298269 | 584.8 | 1843652 | 1000 |
| 2 | 5-7 | 8-9 | 5-5 | 5-4 | 5 | 0.0 | RMSprop | 0.1298269 | 314.3 | 672550 | 500 |
| 2 | 7-8 | 5-9 | 5-5 | 5-4 | 4 | 0.0 | RMSprop | 0.1298279 | 315.5 | 672284 | 500 |
| 2 | 5-7 | 8-9 | 5-5 | 5-4 | 2 | 0.0 | RMSprop | 0.1298282 | 289.9 | 671824 | 500 |
| 2 | 5-7 | 8-9 | 5-5 | 5-8 | 2 | 0.0 | RMSprop | 0.1298283 | 431.2 | 1842444 | 1000 |
| 2 | 7-8 | 5-9 | 5-5 | 5-4 | 9 | 0.4 | RMSprop | 0.1298283 | 494.6 | 673464 | 500 |
| 2 | 7-8 | 5-9 | 5-5 | 5-4 | 6 | 0.2 | RMSprop | 0.1298286 | 454.8 | 672756 | 500 |
| 2 | 7-8 | 5-9 | 5-5 | 5-8 | 7 | 0.0 | RMSprop | 0.1298289 | 686.0 | 1843912 | 1000 |
| 2 | 7-8 | 5-9 | 5-5 | 5-4 | 3 | 0.2 | RMSprop | 0.1298291 | 358.9 | 672048 | 500 |
| 2 | 5-7 | 8-9 | 5-5 | 5-4 | 6 | 0.0 | RMSprop | 0.1298294 | 342.9 | 672792 | 500 |
| 2 | 7-8 | 5-9 | 5-5 | 5-8 | 9 | 0.2 | RMSprop | 0.1298296 | 799.1 | 1844504 | 1000 |
| 2 | 5-7 | 8-9 | 5-5 | 5-4 | 2 | 0.4 | RMSprop | 0.1298299 | 274.6 | 671824 | 500 |
| 2 | 5-7 | 8-9 | 5-5 | 5-8 | 1 | 0.0 | RMSprop | 0.12983 | 470.6 | 1842142 | 1000 |
| 2 | 5-7 | 8-9 | 5-5 | 5-8 | 4 | 0.2 | RMSprop | 0.12983 | 557.3 | 1843048 | 1000 |
| 2 | 7-8 | 5-9 | 5-5 | 5-8 | 4 | 0.2 | RMSprop | 0.1298306 | 524.7 | 1843024 | 1000 |
| 2 | 5-7 | 8-9 | 5-5 | 5-8 | 7 | 0.4 | RMSprop | 0.1298308 | 667.4 | 1843954 | 1000 |
| 2 | 5-7 | 8-9 | 5-5 | 5-8 | 8 | 0.4 | RMSprop | 0.129831 | 758.6 | 1844256 | 1000 |
| 2 | 7-8 | 5-9 | 5-5 | 5-4 | 2 | 0.0 | RMSprop | 0.1298311 | 285.5 | 671812 | 500 |
| 2 | 5-7 | 8-9 | 5-5 | 5-8 | 10 | 0.2 | RMSprop | 0.1298325 | 899.3 | 1844860 | 1000 |
| 2 | 5-7 | 8-9 | 5-5 | 5-8 | 7 | 0.2 | RMSprop | 0.1298326 | 712.2 | 1843954 | 1000 |
| 2 | 5-7 | 8-9 | 5-5 | 5-8 | 1 | 0.4 | RMSprop | 0.1298329 | 434.3 | 1842142 | 1000 |
| 2 | 7-8 | 5-9 | 5-5 | 5-4 | 2 | 0.4 | RMSprop | 0.1298339 | 266.4 | 671812 | 500 |
| 2 | 5-7 | 8-9 | 5-5 | 5-4 | 1 | 0.0 | RMSprop | 0.1298341 | 283.6 | 671582 | 500 |
| 2 | 5-7 | 8-9 | 5-5 | 5-8 | 3 | 0.0 | RMSprop | 0.1298342 | 490.1 | 1842746 | 1000 |
| 2 | 7-8 | 5-9 | 5-5 | 5-4 | 1 | 0.4 | RMSprop | 0.1298344 | 259.9 | 671576 | 500 |
| 2 | 7-8 | 5-9 | 5-5 | 5-8 | 6 | 0.0 | RMSprop | 0.1298347 | 569.3 | 1843616 | 1000 |
| 2 | 7-8 | 5-9 | 5-5 | 5-4 | 6 | 0.0 | RMSprop | 0.1298355 | 388.4 | 672756 | 500 |
| 2 | 5-7 | 8-9 | 5-5 | 5-4 | 4 | 0.0 | RMSprop | 0.1298364 | 296.4 | 672308 | 500 |
| 2 | 7-8 | 5-9 | 5-5 | 5-8 | 9 | 0.4 | RMSprop | 0.1298365 | 710.7 | 1844504 | 1000 |
| 2 | 5-7 | 8-9 | 5-5 | 5-4 | 9 | 0.0 | RMSprop | 0.1298365 | 428.4 | 673518 | 500 |
| 2 | 5-7 | 8-9 | 5-5 | 5-8 | 5 | 0.2 | RMSprop | 0.1298366 | 682.2 | 1843350 | 1000 |
| 2 | 5-7 | 8-9 | 5-5 | 5-4 | 7 | 0.4 | RMSprop | 0.1298366 | 405.0 | 673034 | 500 |
| 2 | 7-8 | 5-9 | 5-5 | 5-8 | 4 | 0.4 | RMSprop | 0.1298367 | 545.1 | 1843024 | 1000 |
| 2 | 7-8 | 5-9 | 5-5 | 5-4 | 1 | 0.2 | RMSprop | 0.1298367 | 275.4 | 671576 | 500 |
| 2 | 7-8 | 5-9 | 5-5 | 5-8 | 2 | 0.2 | RMSprop | 0.1298369 | 438.0 | 1842432 | 1000 |
| 2 | 7-8 | 5-9 | 5-5 | 5-4 | 10 | 0.4 | RMSprop | 0.1298377 | 576.9 | 673700 | 500 |
| 2 | 7-8 | 5-9 | 5-5 | 5-4 | 5 | 0.2 | RMSprop | 0.1298387 | 427.6 | 672520 | 500 |
| 2 | 7-8 | 5-9 | 5-5 | 5-8 | 1 | 0.0 | RMSprop | 0.1298395 | 449.7 | 1842136 | 1000 |
| 2 | 5-7 | 8-9 | 5-5 | 5-8 | 6 | 0.2 | RMSprop | 0.1298403 | 734.4 | 1843652 | 1000 |
| 2 | 7-8 | 5-9 | 5-5 | 5-4 | 3 | 0.0 | RMSprop | 0.129841 | 297.0 | 672048 | 500 |
| 2 | 5-7 | 8-9 | 5-5 | 5-8 | 5 | 0.4 | RMSprop | 0.1298414 | 640.6 | 1843350 | 1000 |
| 2 | 7-8 | 5-9 | 5-5 | 5-8 | 5 | 0.4 | RMSprop | 0.1298416 | 634.2 | 1843320 | 1000 |
| 2 | 5-7 | 8-9 | 5-5 | 5-8 | 2 | 0.4 | RMSprop | 0.1298417 | 434.0 | 1842444 | 1000 |
| 2 | 5-7 | 8-9 | 5-5 | 5-8 | 7 | 0.0 | RMSprop | 0.1298421 | 693.6 | 1843954 | 1000 |
| 2 | 5-7 | 8-9 | 5-5 | 5-8 | 9 | 0.4 | RMSprop | 0.129844 | 778.6 | 1844558 | 1000 |
| 2 | 5-7 | 8-9 | 5-5 | 5-4 | 4 | 0.4 | RMSprop | 0.1298456 | 332.4 | 672308 | 500 |
| 2 | 7-8 | 5-9 | 5-5 | 5-4 | 8 | 0.0 | RMSprop | 0.1298483 | 457.2 | 673228 | 500 |
