Nombre de parametres de la couche CP :	(78792,)

dot.0
<class 'theano.tensor.var.TensorVariable'>


dot.0
<class 'theano.tensor.var.TensorVariable'>

[['56-14', '200-4', 7, 100], [0.060624206608864604, 98.089999999999989, 1360.6086719036102]]
