Nombre de parametres de la couche CP :	(1616,)

dot.0
<class 'theano.tensor.var.TensorVariable'>


dot.0
<class 'theano.tensor.var.TensorVariable'>

[['2-2-14-14', '5-5-8-5', 8, 100], [0.058962752824779543, 98.179999999999978, 1669.8418810367584]]
