| 2 | 5-7-8-9 | 5-5-5-8 | 4 | 0.0 | Adam | 0.1241428 | 0.1241428 | 470.31357 | 1843084.0 |
| 2 | 5-7-8-9 | 5-5-5-8 | 5 | 0.0 | Adam | 0.1242001 | 0.1242001 | 502.60236 | 1843395.0 |
| 2 | 5-7-8-9 | 5-5-5-8 | 6 | 0.0 | Adam | 0.1247646 | 0.1247646 | 603.85767 | 1843706.0 |
| 2 | 5-7-8-9 | 5-5-5-8 | 7 | 0.0 | Adam | 0.1246325 | 0.1246325 | 649.46499 | 1844017.0 |
| 2 | 5-7-8-9 | 5-5-5-8 | 8 | 0.0 | Adam | 0.1265218 | 0.1265218 | 733.66488 | 1844328.0 |
| 2 | 5-7-8-9 | 5-5-5-8 | 9 | 0.0 | Adam | 0.1284331 | 0.1284331 | 806.12111 | 1844639.0 |
| 2 | 5-7-8-9 | 5-5-5-8 | 10 | 0.0 | Adam | 0.1280783 | 0.1280783 | 855.99918 | 1844950.0 |
| 2 | 7-8-5-9 | 5-5-5-8 | 1 | 0.0 | Adam | 0.1270339 | 0.1270339 | 391.25838 | 1842151.0 |
| 2 | 7-8-5-9 | 5-5-5-8 | 2 | 0.0 | Adam | 0.1254830 | 0.1254830 | 436.73677 | 1842462.0 |
| 2 | 7-8-5-9 | 5-5-5-8 | 3 | 0.0 | Adam | 0.1246568 | 0.1246568 | 476.69420 | 1842773.0 |
| 2 | 7-8-5-9 | 5-5-5-8 | 4 | 0.0 | Adam | 0.1248850 | 0.1248850 | 476.54203 | 1843084.0 |
| 2 | 7-8-5-9 | 5-5-5-8 | 5 | 0.0 | Adam | 0.1243463 | 0.1243463 | 523.87431 | 1843395.0 |
| 2 | 7-8-5-9 | 5-5-5-8 | 6 | 0.0 | Adam | 0.1246005 | 0.1246005 | 608.83143 | 1843706.0 |
| 2 | 7-8-5-9 | 5-5-5-8 | 7 | 0.0 | Adam | 0.1265176 | 0.1265176 | 672.51877 | 1844017.0 |
| 2 | 7-8-5-9 | 5-5-5-8 | 8 | 0.0 | Adam | 0.1263750 | 0.1263750 | 732.14642 | 1844328.0 |
| 2 | 7-8-5-9 | 5-5-5-8 | 9 | 0.0 | Adam | 0.1266823 | 0.1266823 | 823.44828 | 1844639.0 |
| 2 | 7-8-5-9 | 5-5-5-8 | 10 | 0.0 | Adam | 0.1274514 | 0.1274514 | 896.48515 | 1844950.0 |
| 2 | 5-7-8-9 | 5-5-5-8 | 1 | 0.0 | Adagrad | 0.1274923 | 0.1274923 | 198.30722 | 1842151.0 |
| 2 | 5-7-8-9 | 5-5-5-8 | 2 | 0.0 | Adagrad | 0.1263934 | 0.1263934 | 257.03793 | 1842462.0 |
| 2 | 5-7-8-9 | 5-5-5-8 | 3 | 0.0 | Adagrad | 0.1257262 | 0.1257262 | 308.55185 | 1842773.0 |
| 2 | 5-7-8-9 | 5-5-5-8 | 4 | 0.0 | Adagrad | 0.1257110 | 0.1257110 | 353.86673 | 1843084.0 |
| 2 | 5-7-8-9 | 5-5-5-8 | 5 | 0.0 | Adagrad | 0.1251543 | 0.1251543 | 399.75812 | 1843395.0 |
| 2 | 5-7-8-9 | 5-5-5-8 | 6 | 0.0 | Adagrad | 0.1256234 | 0.1256234 | 475.84845 | 1843706.0 |
| 2 | 5-7-8-9 | 5-5-5-8 | 7 | 0.0 | Adagrad | 0.1255594 | 0.1255594 | 518.92799 | 1844017.0 |
| 2 | 5-7-8-9 | 5-5-5-8 | 8 | 0.0 | Adagrad | 0.1258220 | 0.1258220 | 587.32887 | 1844328.0 |
| 2 | 5-7-8-9 | 5-5-5-8 | 9 | 0.0 | Adagrad | 0.1257510 | 0.1257510 | 664.95280 | 1844639.0 |
| 2 | 5-7-8-9 | 5-5-5-8 | 10 | 0.0 | Adagrad | 0.1260012 | 0.1260012 | 728.50349 | 1844950.0 |
| 2 | 7-8-5-9 | 5-5-5-8 | 1 | 0.0 | Adagrad | 0.1281450 | 0.1281450 | 192.22712 | 1842151.0 |
| 2 | 7-8-5-9 | 5-5-5-8 | 2 | 0.0 | Adagrad | 0.1267118 | 0.1267118 | 243.76603 | 1842462.0 |
| 2 | 7-8-5-9 | 5-5-5-8 | 3 | 0.0 | Adagrad | 0.1264232 | 0.1264232 | 285.93635 | 1842773.0 |
| 2 | 7-8-5-9 | 5-5-5-8 | 4 | 0.0 | Adagrad | 0.1263177 | 0.1263177 | 336.09782 | 1843084.0 |
| 2 | 7-8-5-9 | 5-5-5-8 | 5 | 0.0 | Adagrad | 0.1260540 | 0.1260540 | 407.20264 | 1843395.0 |
| 2 | 7-8-5-9 | 5-5-5-8 | 6 | 0.0 | Adagrad | 0.1261075 | 0.1261075 | 482.62587 | 1843706.0 |
| 2 | 7-8-5-9 | 5-5-5-8 | 7 | 0.0 | Adagrad | 0.1262618 | 0.1262618 | 534.00541 | 1844017.0 |
| 2 | 7-8-5-9 | 5-5-5-8 | 8 | 0.0 | Adagrad | 0.1259808 | 0.1259808 | 597.26178 | 1844328.0 |
| 2 | 7-8-5-9 | 5-5-5-8 | 9 | 0.0 | Adagrad | 0.1261288 | 0.1261288 | 637.55918 | 1844639.0 |
| 2 | 7-8-5-9 | 5-5-5-8 | 10 | 0.0 | Adagrad | 0.1259324 | 0.1259324 | 695.45144 | 1844950.0 |
| 2 | 5-7-8-9 | 5-5-5-8 | 1 | 0.0 | RMSprop | 0.1291885 | 0.1291885 | 413.58932 | 1842151.0 |
| 2 | 5-7-8-9 | 5-5-5-8 | 2 | 0.0 | RMSprop | 0.1281967 | 0.1281967 | 445.87875 | 1842462.0 |
| 2 | 5-7-8-9 | 5-5-5-8 | 3 | 0.0 | RMSprop | 0.1273059 | 0.1273059 | 481.74089 | 1842773.0 |
| 2 | 5-7-8-9 | 5-5-5-8 | 4 | 0.0 | RMSprop | 0.1272869 | 0.1272869 | 486.60963 | 1843084.0 |
| 2 | 5-7-8-9 | 5-5-5-8 | 5 | 0.0 | RMSprop | 0.1268284 | 0.1268284 | 527.28041 | 1843395.0 |
| 2 | 5-7-8-9 | 5-5-5-8 | 6 | 0.0 | RMSprop | 0.1271436 | 0.1271436 | 589.16496 | 1843706.0 |
| 2 | 5-7-8-9 | 5-5-5-8 | 7 | 0.0 | RMSprop | 0.1269017 | 0.1269017 | 668.01025 | 1844017.0 |
| 2 | 5-7-8-9 | 5-5-5-8 | 8 | 0.0 | RMSprop | 0.1266301 | 0.1266301 | 716.92828 | 1844328.0 |
| 2 | 5-7-8-9 | 5-5-5-8 | 9 | 0.0 | RMSprop | 0.1266213 | 0.1266213 | 756.59407 | 1844639.0 |
| 2 | 5-7-8-9 | 5-5-5-8 | 10 | 0.0 | RMSprop | 0.1270734 | 0.1270734 | 818.98282 | 1844950.0 |
| 2 | 7-8-5-9 | 5-5-5-8 | 1 | 0.0 | RMSprop | 0.1292403 | 0.1292403 | 413.09788 | 1842151.0 |
| 2 | 7-8-5-9 | 5-5-5-8 | 2 | 0.0 | RMSprop | 0.1288331 | 0.1288331 | 454.79760 | 1842462.0 |
| 2 | 7-8-5-9 | 5-5-5-8 | 3 | 0.0 | RMSprop | 0.1280275 | 0.1280275 | 488.24757 | 1842773.0 |
| 2 | 7-8-5-9 | 5-5-5-8 | 4 | 0.0 | RMSprop | 0.1275989 | 0.1275989 | 470.03409 | 1843084.0 |
| 2 | 7-8-5-9 | 5-5-5-8 | 5 | 0.0 | RMSprop | 0.1276291 | 0.1276291 | 546.92940 | 1843395.0 |
| 2 | 7-8-5-9 | 5-5-5-8 | 6 | 0.0 | RMSprop | 0.1270898 | 0.1270898 | 569.38684 | 1843706.0 |
| 2 | 7-8-5-9 | 5-5-5-8 | 7 | 0.0 | RMSprop | 0.1270730 | 0.1270730 | 650.65952 | 1844017.0 |
| 2 | 7-8-5-9 | 5-5-5-8 | 8 | 0.0 | RMSprop | 0.1271126 | 0.1271126 | 711.89572 | 1844328.0 |
| 2 | 7-8-5-9 | 5-5-5-8 | 9 | 0.0 | RMSprop | 0.1269643 | 0.1269643 | 779.13500 | 1844639.0 |
| 2 | 7-8-5-9 | 5-5-5-8 | 10 | 0.0 | RMSprop | 0.1270288 | 0.1270288 | 794.57052 | 1844950.0 |
| 2 | 5-7-8-9 | 5-5-5-8 | 1 | 0.2 | Adam | 0.1269101 | 0.1269101 | 356.52175 | 1842151.0 |
| 2 | 5-7-8-9 | 5-5-5-8 | 2 | 0.2 | Adam | 0.1251647 | 0.1251647 | 371.13693 | 1842462.0 |
| 2 | 5-7-8-9 | 5-5-5-8 | 3 | 0.2 | Adam | 0.1252978 | 0.1252978 | 402.44528 | 1842773.0 |
| 2 | 5-7-8-9 | 5-5-5-8 | 4 | 0.2 | Adam | 0.1250670 | 0.1250670 | 434.07039 | 1843084.0 |
| 2 | 5-7-8-9 | 5-5-5-8 | 5 | 0.2 | Adam | 0.1248938 | 0.1248938 | 482.14939 | 1843395.0 |
| 2 | 5-7-8-9 | 5-5-5-8 | 6 | 0.2 | Adam | 0.1255110 | 0.1255110 | 516.02597 | 1843706.0 |
| 2 | 5-7-8-9 | 5-5-5-8 | 7 | 0.2 | Adam | 0.1260429 | 0.1260429 | 591.22399 | 1844017.0 |
