| 3 | 5-7-8-9 | 5-5-5-8 | 4 | 0.4 | Adagrad | 0.1283101 | 0.1283101 | 356.24585 | 842640.0 |
| 3 | 5-7-8-9 | 5-5-5-8 | 5 | 0.4 | Adagrad | 0.1282264 | 0.1282264 | 441.25150 | 843090.0 |
| 3 | 5-7-8-9 | 5-5-5-8 | 6 | 0.4 | Adagrad | 0.1280205 | 0.1280205 | 508.36093 | 843540.0 |
| 3 | 5-7-8-9 | 5-5-5-8 | 7 | 0.4 | Adagrad | 0.1275938 | 0.1275938 | 576.99502 | 843990.0 |
| 3 | 5-7-8-9 | 5-5-5-8 | 8 | 0.4 | Adagrad | 0.1278020 | 0.1278020 | 651.87182 | 844440.0 |
| 3 | 5-7-8-9 | 5-5-5-8 | 9 | 0.4 | Adagrad | 0.1275207 | 0.1275207 | 731.68825 | 844890.0 |
| 3 | 5-7-8-9 | 5-5-5-8 | 10 | 0.4 | Adagrad | 0.1278704 | 0.1278704 | 834.69458 | 845340.0 |
| 3 | 7-8-5-9 | 5-5-5-8 | 1 | 0.4 | Adagrad | 0.1292744 | 0.1292744 | 163.14380 | 841290.0 |
| 3 | 7-8-5-9 | 5-5-5-8 | 2 | 0.4 | Adagrad | 0.1287536 | 0.1287536 | 227.17278 | 841740.0 |
| 3 | 7-8-5-9 | 5-5-5-8 | 3 | 0.4 | Adagrad | 0.1284968 | 0.1284968 | 279.46574 | 842190.0 |
| 3 | 7-8-5-9 | 5-5-5-8 | 4 | 0.4 | Adagrad | 0.1282777 | 0.1282777 | 341.58786 | 842640.0 |
| 3 | 7-8-5-9 | 5-5-5-8 | 5 | 0.4 | Adagrad | 0.1284443 | 0.1284443 | 415.06050 | 843090.0 |
| 3 | 7-8-5-9 | 5-5-5-8 | 6 | 0.4 | Adagrad | 0.1281637 | 0.1281637 | 508.01167 | 843540.0 |
| 3 | 7-8-5-9 | 5-5-5-8 | 7 | 0.4 | Adagrad | 0.1279188 | 0.1279188 | 633.19956 | 843990.0 |
| 3 | 7-8-5-9 | 5-5-5-8 | 8 | 0.4 | Adagrad | 0.1279497 | 0.1279497 | 707.44021 | 844440.0 |
| 3 | 7-8-5-9 | 5-5-5-8 | 9 | 0.4 | Adagrad | 0.1279043 | 0.1279043 | 768.19609 | 844890.0 |
| 3 | 7-8-5-9 | 5-5-5-8 | 10 | 0.4 | Adagrad | 0.1277790 | 0.1277790 | 836.89947 | 845340.0 |
| 3 | 5-7-8-9 | 5-5-5-8 | 1 | 0.4 | RMSprop | 0.1297767 | 0.1297767 | 179.19094 | 841290.0 |
| 3 | 5-7-8-9 | 5-5-5-8 | 2 | 0.4 | RMSprop | 0.1293879 | 0.1293879 | 249.17428 | 841740.0 |
| 3 | 5-7-8-9 | 5-5-5-8 | 3 | 0.4 | RMSprop | 0.1291173 | 0.1291173 | 303.65860 | 842190.0 |
| 3 | 5-7-8-9 | 5-5-5-8 | 4 | 0.4 | RMSprop | 0.1289102 | 0.1289102 | 380.40609 | 842640.0 |
| 3 | 5-7-8-9 | 5-5-5-8 | 5 | 0.4 | RMSprop | 0.1289527 | 0.1289527 | 455.46771 | 843090.0 |
| 3 | 5-7-8-9 | 5-5-5-8 | 6 | 0.4 | RMSprop | 0.1289528 | 0.1289528 | 549.28929 | 843540.0 |
| 3 | 5-7-8-9 | 5-5-5-8 | 7 | 0.4 | RMSprop | 0.1286562 | 0.1286562 | 661.06184 | 843990.0 |
| 3 | 5-7-8-9 | 5-5-5-8 | 8 | 0.4 | RMSprop | 0.1286980 | 0.1286980 | 711.41920 | 844440.0 |
| 3 | 5-7-8-9 | 5-5-5-8 | 9 | 0.4 | RMSprop | 0.1286668 | 0.1286668 | 789.86080 | 844890.0 |
| 3 | 5-7-8-9 | 5-5-5-8 | 10 | 0.4 | RMSprop | 0.1284056 | 0.1284056 | 908.40864 | 845340.0 |
| 3 | 7-8-5-9 | 5-5-5-8 | 1 | 0.4 | RMSprop | 0.1297980 | 0.1297980 | 197.42736 | 841290.0 |
| 3 | 7-8-5-9 | 5-5-5-8 | 2 | 0.4 | RMSprop | 0.1295945 | 0.1295945 | 262.71699 | 841740.0 |
| 3 | 7-8-5-9 | 5-5-5-8 | 3 | 0.4 | RMSprop | 0.1292758 | 0.1292758 | 321.76049 | 842190.0 |
| 3 | 7-8-5-9 | 5-5-5-8 | 4 | 0.4 | RMSprop | 0.1290716 | 0.1290716 | 354.17450 | 842640.0 |
| 3 | 7-8-5-9 | 5-5-5-8 | 5 | 0.4 | RMSprop | 0.1289147 | 0.1289147 | 439.07129 | 843090.0 |
| 3 | 7-8-5-9 | 5-5-5-8 | 6 | 0.4 | RMSprop | 0.1287503 | 0.1287503 | 544.28020 | 843540.0 |
| 3 | 7-8-5-9 | 5-5-5-8 | 7 | 0.4 | RMSprop | 0.1286443 | 0.1286443 | 657.68245 | 843990.0 |
| 3 | 7-8-5-9 | 5-5-5-8 | 8 | 0.4 | RMSprop | 0.1286871 | 0.1286871 | 745.35184 | 844440.0 |
| 3 | 7-8-5-9 | 5-5-5-8 | 9 | 0.4 | RMSprop | 0.1286189 | 0.1286189 | 795.80295 | 844890.0 |
| 3 | 7-8-5-9 | 5-5-5-8 | 10 | 0.4 | RMSprop | 0.1285916 | 0.1285916 | 887.49642 | 845340.0 |
| 4 | 0-0-0-0 | 5-5-5-8 | 1 | 0.0 | Adam | 0.1233090 | 0.1233090 | 504.06841 | 4362979.0 |
| 4 | 0-0-0-0 | 5-5-5-8 | 2 | 0.0 | Adam | 0.1233834 | 0.1233834 | 506.91891 | 4363118.0 |
| 4 | 0-0-0-0 | 5-5-5-8 | 3 | 0.0 | Adam | 0.1234403 | 0.1234403 | 521.91121 | 4363257.0 |
| 4 | 0-0-0-0 | 5-5-5-8 | 4 | 0.0 | Adam | 0.1235703 | 0.1235703 | 538.32528 | 4363396.0 |
| 4 | 0-0-0-0 | 5-5-5-8 | 5 | 0.0 | Adam | 0.1234573 | 0.1234573 | 545.82979 | 4363535.0 |
| 4 | 0-0-0-0 | 5-5-5-8 | 6 | 0.0 | Adam | 0.1235727 | 0.1235727 | 551.79760 | 4363674.0 |
| 4 | 0-0-0-0 | 5-5-5-8 | 7 | 0.0 | Adam | 0.1235357 | 0.1235357 | 569.18309 | 4363813.0 |
| 4 | 0-0-0-0 | 5-5-5-8 | 8 | 0.0 | Adam | 0.1233967 | 0.1233967 | 584.26860 | 4363952.0 |
| 4 | 0-0-0-0 | 5-5-5-8 | 9 | 0.0 | Adam | 0.1235113 | 0.1235113 | 536.87752 | 4364091.0 |
| 4 | 0-0-0-0 | 5-5-5-8 | 10 | 0.0 | Adam | 0.1234714 | 0.1234714 | 502.46915 | 4364230.0 |
| 4 | 0-0-0-0 | 5-5-5-8 | 1 | 0.0 | Adagrad | 0.1230092 | 0.1230092 | 258.14348 | 4362979.0 |
| 4 | 0-0-0-0 | 5-5-5-8 | 2 | 0.0 | Adagrad | 0.1229257 | 0.1229257 | 271.98926 | 4363118.0 |
| 4 | 0-0-0-0 | 5-5-5-8 | 3 | 0.0 | Adagrad | 0.1229739 | 0.1229739 | 283.10737 | 4363257.0 |
| 4 | 0-0-0-0 | 5-5-5-8 | 4 | 0.0 | Adagrad | 0.1229255 | 0.1229255 | 288.06164 | 4363396.0 |
| 4 | 0-0-0-0 | 5-5-5-8 | 5 | 0.0 | Adagrad | 0.1229758 | 0.1229758 | 305.79053 | 4363535.0 |
| 4 | 0-0-0-0 | 5-5-5-8 | 6 | 0.0 | Adagrad | 0.1228553 | 0.1228553 | 324.05978 | 4363674.0 |
| 4 | 0-0-0-0 | 5-5-5-8 | 7 | 0.0 | Adagrad | 0.1229106 | 0.1229106 | 337.09782 | 4363813.0 |
| 4 | 0-0-0-0 | 5-5-5-8 | 8 | 0.0 | Adagrad | 0.1228967 | 0.1228967 | 354.53923 | 4363952.0 |
| 4 | 0-0-0-0 | 5-5-5-8 | 9 | 0.0 | Adagrad | 0.1229479 | 0.1229479 | 357.36678 | 4364091.0 |
| 4 | 0-0-0-0 | 5-5-5-8 | 10 | 0.0 | Adagrad | 0.1228922 | 0.1228922 | 357.68032 | 4364230.0 |
| 4 | 0-0-0-0 | 5-5-5-8 | 1 | 0.0 | RMSprop | 0.1243126 | 0.1243126 | 486.23872 | 4362979.0 |
| 4 | 0-0-0-0 | 5-5-5-8 | 2 | 0.0 | RMSprop | 0.1245485 | 0.1245485 | 501.34700 | 4363118.0 |
| 4 | 0-0-0-0 | 5-5-5-8 | 3 | 0.0 | RMSprop | 0.1241802 | 0.1241802 | 512.30584 | 4363257.0 |
| 4 | 0-0-0-0 | 5-5-5-8 | 4 | 0.0 | RMSprop | 0.1241647 | 0.1241647 | 516.40767 | 4363396.0 |
| 4 | 0-0-0-0 | 5-5-5-8 | 5 | 0.0 | RMSprop | 0.1241712 | 0.1241712 | 530.76239 | 4363535.0 |
| 4 | 0-0-0-0 | 5-5-5-8 | 6 | 0.0 | RMSprop | 0.1241823 | 0.1241823 | 539.59857 | 4363674.0 |
| 4 | 0-0-0-0 | 5-5-5-8 | 7 | 0.0 | RMSprop | 0.1241760 | 0.1241760 | 527.72787 | 4363813.0 |
