| 2 | 5-7-8-9 | 5-5-5-4 | 4 | 0.0 | Adam | 0.1244461 | 0.1244461 | 213.75424 | 672248.0 |
| 2 | 5-7-8-9 | 5-5-5-4 | 5 | 0.0 | Adam | 0.1242628 | 0.1242628 | 208.62546 | 672475.0 |
| 2 | 5-7-8-9 | 5-5-5-4 | 6 | 0.0 | Adam | 0.1246006 | 0.1246006 | 228.41844 | 672702.0 |
| 2 | 5-7-8-9 | 5-5-5-4 | 7 | 0.0 | Adam | 0.1258053 | 0.1258053 | 254.46941 | 672929.0 |
| 2 | 5-7-8-9 | 5-5-5-4 | 8 | 0.0 | Adam | 0.1265093 | 0.1265093 | 277.05971 | 673156.0 |
| 2 | 5-7-8-9 | 5-5-5-4 | 9 | 0.0 | Adam | 0.1252992 | 0.1252992 | 291.05691 | 673383.0 |
| 2 | 5-7-8-9 | 5-5-5-4 | 10 | 0.0 | Adam | 0.1285716 | 0.1285716 | 312.78517 | 673610.0 |
| 2 | 7-8-5-9 | 5-5-5-4 | 1 | 0.0 | Adam | 0.1269565 | 0.1269565 | 132.58914 | 671567.0 |
| 2 | 7-8-5-9 | 5-5-5-4 | 2 | 0.0 | Adam | 0.1258587 | 0.1258587 | 157.95358 | 671794.0 |
| 2 | 7-8-5-9 | 5-5-5-4 | 3 | 0.0 | Adam | 0.1249465 | 0.1249465 | 177.78451 | 672021.0 |
| 2 | 7-8-5-9 | 5-5-5-4 | 4 | 0.0 | Adam | 0.1244900 | 0.1244900 | 184.34597 | 672248.0 |
| 2 | 7-8-5-9 | 5-5-5-4 | 5 | 0.0 | Adam | 0.1250421 | 0.1250421 | 208.94077 | 672475.0 |
| 2 | 7-8-5-9 | 5-5-5-4 | 6 | 0.0 | Adam | 0.1247841 | 0.1247841 | 225.93129 | 672702.0 |
| 2 | 7-8-5-9 | 5-5-5-4 | 7 | 0.0 | Adam | 0.1260541 | 0.1260541 | 258.28606 | 672929.0 |
| 2 | 7-8-5-9 | 5-5-5-4 | 8 | 0.0 | Adam | 0.1268152 | 0.1268152 | 278.27989 | 673156.0 |
| 2 | 7-8-5-9 | 5-5-5-4 | 9 | 0.0 | Adam | 0.1263340 | 0.1263340 | 302.77517 | 673383.0 |
| 2 | 7-8-5-9 | 5-5-5-4 | 10 | 0.0 | Adam | 0.1273997 | 0.1273997 | 325.60087 | 673610.0 |
| 2 | 5-7-8-9 | 5-5-5-4 | 1 | 0.0 | Adagrad | 0.1283750 | 0.1283750 | 81.978549 | 671567.0 |
| 2 | 5-7-8-9 | 5-5-5-4 | 2 | 0.0 | Adagrad | 0.1271807 | 0.1271807 | 108.40519 | 671794.0 |
| 2 | 5-7-8-9 | 5-5-5-4 | 3 | 0.0 | Adagrad | 0.1267778 | 0.1267778 | 129.99807 | 672021.0 |
| 2 | 5-7-8-9 | 5-5-5-4 | 4 | 0.0 | Adagrad | 0.1265629 | 0.1265629 | 155.78877 | 672248.0 |
| 2 | 5-7-8-9 | 5-5-5-4 | 5 | 0.0 | Adagrad | 0.1266820 | 0.1266820 | 176.69295 | 672475.0 |
| 2 | 5-7-8-9 | 5-5-5-4 | 6 | 0.0 | Adagrad | 0.1266870 | 0.1266870 | 197.67256 | 672702.0 |
| 2 | 5-7-8-9 | 5-5-5-4 | 7 | 0.0 | Adagrad | 0.1273939 | 0.1273939 | 216.97777 | 672929.0 |
| 2 | 5-7-8-9 | 5-5-5-4 | 8 | 0.0 | Adagrad | 0.1264020 | 0.1264020 | 241.01881 | 673156.0 |
| 2 | 5-7-8-9 | 5-5-5-4 | 9 | 0.0 | Adagrad | 0.1268133 | 0.1268133 | 264.84701 | 673383.0 |
| 2 | 5-7-8-9 | 5-5-5-4 | 10 | 0.0 | Adagrad | 0.1276027 | 0.1276027 | 299.45224 | 673610.0 |
| 2 | 7-8-5-9 | 5-5-5-4 | 1 | 0.0 | Adagrad | 0.1284072 | 0.1284072 | 92.511788 | 671567.0 |
| 2 | 7-8-5-9 | 5-5-5-4 | 2 | 0.0 | Adagrad | 0.1278239 | 0.1278239 | 113.09322 | 671794.0 |
| 2 | 7-8-5-9 | 5-5-5-4 | 3 | 0.0 | Adagrad | 0.1275350 | 0.1275350 | 134.25216 | 672021.0 |
| 2 | 7-8-5-9 | 5-5-5-4 | 4 | 0.0 | Adagrad | 0.1269976 | 0.1269976 | 156.95040 | 672248.0 |
| 2 | 7-8-5-9 | 5-5-5-4 | 5 | 0.0 | Adagrad | 0.1267656 | 0.1267656 | 180.34882 | 672475.0 |
| 2 | 7-8-5-9 | 5-5-5-4 | 6 | 0.0 | Adagrad | 0.1265340 | 0.1265340 | 209.11270 | 672702.0 |
| 2 | 7-8-5-9 | 5-5-5-4 | 7 | 0.0 | Adagrad | 0.1264492 | 0.1264492 | 234.40396 | 672929.0 |
| 2 | 7-8-5-9 | 5-5-5-4 | 8 | 0.0 | Adagrad | 0.1269515 | 0.1269515 | 249.68981 | 673156.0 |
| 2 | 7-8-5-9 | 5-5-5-4 | 9 | 0.0 | Adagrad | 0.1269257 | 0.1269257 | 284.16339 | 673383.0 |
| 2 | 7-8-5-9 | 5-5-5-4 | 10 | 0.0 | Adagrad | 0.1270538 | 0.1270538 | 300.88036 | 673610.0 |
| 2 | 5-7-8-9 | 5-5-5-4 | 1 | 0.0 | RMSprop | 0.1291970 | 0.1291970 | 153.17024 | 671567.0 |
| 2 | 5-7-8-9 | 5-5-5-4 | 2 | 0.0 | RMSprop | 0.1286881 | 0.1286881 | 178.52313 | 671794.0 |
| 2 | 5-7-8-9 | 5-5-5-4 | 3 | 0.0 | RMSprop | 0.1279155 | 0.1279155 | 187.93049 | 672021.0 |
| 2 | 5-7-8-9 | 5-5-5-4 | 4 | 0.0 | RMSprop | 0.1278516 | 0.1278516 | 207.32734 | 672248.0 |
| 2 | 5-7-8-9 | 5-5-5-4 | 5 | 0.0 | RMSprop | 0.1277133 | 0.1277133 | 219.51382 | 672475.0 |
| 2 | 5-7-8-9 | 5-5-5-4 | 6 | 0.0 | RMSprop | 0.1276775 | 0.1276775 | 241.85004 | 672702.0 |
| 2 | 5-7-8-9 | 5-5-5-4 | 7 | 0.0 | RMSprop | 0.1276300 | 0.1276300 | 255.41697 | 672929.0 |
| 2 | 5-7-8-9 | 5-5-5-4 | 8 | 0.0 | RMSprop | 0.1278132 | 0.1278132 | 283.53334 | 673156.0 |
| 2 | 5-7-8-9 | 5-5-5-4 | 9 | 0.0 | RMSprop | 0.1276580 | 0.1276580 | 302.96923 | 673383.0 |
| 2 | 5-7-8-9 | 5-5-5-4 | 10 | 0.0 | RMSprop | 0.1274618 | 0.1274618 | 303.45081 | 673610.0 |
| 2 | 7-8-5-9 | 5-5-5-4 | 1 | 0.0 | RMSprop | 0.1293247 | 0.1293247 | 141.23523 | 671567.0 |
| 2 | 7-8-5-9 | 5-5-5-4 | 2 | 0.0 | RMSprop | 0.1288280 | 0.1288280 | 158.44993 | 671794.0 |
| 2 | 7-8-5-9 | 5-5-5-4 | 3 | 0.0 | RMSprop | 0.1282877 | 0.1282877 | 170.53463 | 672021.0 |
| 2 | 7-8-5-9 | 5-5-5-4 | 4 | 0.0 | RMSprop | 0.1280664 | 0.1280664 | 174.47785 | 672248.0 |
| 2 | 7-8-5-9 | 5-5-5-4 | 5 | 0.0 | RMSprop | 0.1280497 | 0.1280497 | 198.81829 | 672475.0 |
| 2 | 7-8-5-9 | 5-5-5-4 | 6 | 0.0 | RMSprop | 0.1278539 | 0.1278539 | 217.01363 | 672702.0 |
| 2 | 7-8-5-9 | 5-5-5-4 | 7 | 0.0 | RMSprop | 0.1278608 | 0.1278608 | 246.98006 | 672929.0 |
| 2 | 7-8-5-9 | 5-5-5-4 | 8 | 0.0 | RMSprop | 0.1277555 | 0.1277555 | 264.99098 | 673156.0 |
| 2 | 7-8-5-9 | 5-5-5-4 | 9 | 0.0 | RMSprop | 0.1279396 | 0.1279396 | 282.92437 | 673383.0 |
| 2 | 7-8-5-9 | 5-5-5-4 | 10 | 0.0 | RMSprop | 0.1281475 | 0.1281475 | 309.10423 | 673610.0 |
| 2 | 5-7-8-9 | 5-5-5-4 | 1 | 0.2 | Adam | 0.1271727 | 0.1271727 | 131.95829 | 671567.0 |
| 2 | 5-7-8-9 | 5-5-5-4 | 2 | 0.2 | Adam | 0.1259813 | 0.1259813 | 151.71282 | 671794.0 |
| 2 | 5-7-8-9 | 5-5-5-4 | 3 | 0.2 | Adam | 0.1256403 | 0.1256403 | 170.26595 | 672021.0 |
| 2 | 5-7-8-9 | 5-5-5-4 | 4 | 0.2 | Adam | 0.1250042 | 0.1250042 | 192.57670 | 672248.0 |
| 2 | 5-7-8-9 | 5-5-5-4 | 5 | 0.2 | Adam | 0.1257008 | 0.1257008 | 219.08440 | 672475.0 |
| 2 | 5-7-8-9 | 5-5-5-4 | 6 | 0.2 | Adam | 0.1251256 | 0.1251256 | 222.28474 | 672702.0 |
| 2 | 5-7-8-9 | 5-5-5-4 | 7 | 0.2 | Adam | 0.1258555 | 0.1258555 | 232.39840 | 672929.0 |
