| 1 | 7-8-5-9 | 5-5-5-4 | 6 | 0.0 | RMSprop | 0.1257631 | 0.1257631 | 282.18847 | 922656.0 |
| 1 | 7-8-5-9 | 5-5-5-4 | 7 | 0.0 | RMSprop | 0.1257607 | 0.1257607 | 269.49144 | 922792.0 |
| 1 | 7-8-5-9 | 5-5-5-4 | 8 | 0.0 | RMSprop | 0.1253795 | 0.1253795 | 287.32141 | 922928.0 |
| 1 | 7-8-5-9 | 5-5-5-4 | 9 | 0.0 | RMSprop | 0.1255732 | 0.1255732 | 279.65293 | 923064.0 |
| 1 | 7-8-5-9 | 5-5-5-4 | 10 | 0.0 | RMSprop | 0.1253828 | 0.1253828 | 296.11211 | 923200.0 |
| 1 | 5-7-8-9 | 5-5-5-4 | 1 | 0.2 | Adam | 0.1244939 | 0.1244939 | 157.58126 | 921976.0 |
| 1 | 5-7-8-9 | 5-5-5-4 | 2 | 0.2 | Adam | 0.1237707 | 0.1237707 | 178.03118 | 922112.0 |
| 1 | 5-7-8-9 | 5-5-5-4 | 3 | 0.2 | Adam | 0.1235428 | 0.1235428 | 192.06637 | 922248.0 |
| 1 | 5-7-8-9 | 5-5-5-4 | 4 | 0.2 | Adam | 0.1235049 | 0.1235049 | 211.59453 | 922384.0 |
| 1 | 5-7-8-9 | 5-5-5-4 | 5 | 0.2 | Adam | 0.1234670 | 0.1234670 | 229.41337 | 922520.0 |
| 1 | 5-7-8-9 | 5-5-5-4 | 6 | 0.2 | Adam | 0.1233960 | 0.1233960 | 250.28047 | 922656.0 |
| 1 | 5-7-8-9 | 5-5-5-4 | 7 | 0.2 | Adam | 0.1233767 | 0.1233767 | 265.75990 | 922792.0 |
| 1 | 5-7-8-9 | 5-5-5-4 | 8 | 0.2 | Adam | 0.1233510 | 0.1233510 | 277.56464 | 922928.0 |
| 1 | 5-7-8-9 | 5-5-5-4 | 9 | 0.2 | Adam | 0.1232916 | 0.1232916 | 299.80382 | 923064.0 |
| 1 | 5-7-8-9 | 5-5-5-4 | 10 | 0.2 | Adam | 0.1231874 | 0.1231874 | 351.22764 | 923200.0 |
| 1 | 7-8-5-9 | 5-5-5-4 | 1 | 0.2 | Adam | 0.1263289 | 0.1263289 | 171.57170 | 921976.0 |
| 1 | 7-8-5-9 | 5-5-5-4 | 2 | 0.2 | Adam | 0.1248550 | 0.1248550 | 185.74153 | 922112.0 |
| 1 | 7-8-5-9 | 5-5-5-4 | 3 | 0.2 | Adam | 0.1242168 | 0.1242168 | 205.43083 | 922248.0 |
| 1 | 7-8-5-9 | 5-5-5-4 | 4 | 0.2 | Adam | 0.1239770 | 0.1239770 | 226.49629 | 922384.0 |
| 1 | 7-8-5-9 | 5-5-5-4 | 5 | 0.2 | Adam | 0.1238957 | 0.1238957 | 241.46591 | 922520.0 |
| 1 | 7-8-5-9 | 5-5-5-4 | 6 | 0.2 | Adam | 0.1236372 | 0.1236372 | 258.21732 | 922656.0 |
| 1 | 7-8-5-9 | 5-5-5-4 | 7 | 0.2 | Adam | 0.1236094 | 0.1236094 | 278.10476 | 922792.0 |
| 1 | 7-8-5-9 | 5-5-5-4 | 8 | 0.2 | Adam | 0.1236001 | 0.1236001 | 303.15178 | 922928.0 |
| 1 | 7-8-5-9 | 5-5-5-4 | 9 | 0.2 | Adam | 0.1235492 | 0.1235492 | 326.16135 | 923064.0 |
| 1 | 7-8-5-9 | 5-5-5-4 | 10 | 0.2 | Adam | 0.1234916 | 0.1234916 | 319.53394 | 923200.0 |
| 1 | 5-7-8-9 | 5-5-5-4 | 1 | 0.2 | Adagrad | 0.1250362 | 0.1250362 | 101.74236 | 921976.0 |
| 1 | 5-7-8-9 | 5-5-5-4 | 2 | 0.2 | Adagrad | 0.1242585 | 0.1242585 | 124.24989 | 922112.0 |
| 1 | 5-7-8-9 | 5-5-5-4 | 3 | 0.2 | Adagrad | 0.1240457 | 0.1240457 | 144.88040 | 922248.0 |
| 1 | 5-7-8-9 | 5-5-5-4 | 4 | 0.2 | Adagrad | 0.1238916 | 0.1238916 | 162.07629 | 922384.0 |
| 1 | 5-7-8-9 | 5-5-5-4 | 5 | 0.2 | Adagrad | 0.1238119 | 0.1238119 | 179.73291 | 922520.0 |
| 1 | 5-7-8-9 | 5-5-5-4 | 6 | 0.2 | Adagrad | 0.1238314 | 0.1238314 | 192.21897 | 922656.0 |
| 1 | 5-7-8-9 | 5-5-5-4 | 7 | 0.2 | Adagrad | 0.1238279 | 0.1238279 | 216.66681 | 922792.0 |
| 1 | 5-7-8-9 | 5-5-5-4 | 8 | 0.2 | Adagrad | 0.1237771 | 0.1237771 | 244.32092 | 922928.0 |
| 1 | 5-7-8-9 | 5-5-5-4 | 9 | 0.2 | Adagrad | 0.1236494 | 0.1236494 | 241.62793 | 923064.0 |
| 1 | 5-7-8-9 | 5-5-5-4 | 10 | 0.2 | Adagrad | 0.1235648 | 0.1235648 | 255.46511 | 923200.0 |
| 1 | 7-8-5-9 | 5-5-5-4 | 1 | 0.2 | Adagrad | 0.1272784 | 0.1272784 | 100.48971 | 921976.0 |
| 1 | 7-8-5-9 | 5-5-5-4 | 2 | 0.2 | Adagrad | 0.1257151 | 0.1257151 | 124.00643 | 922112.0 |
| 1 | 7-8-5-9 | 5-5-5-4 | 3 | 0.2 | Adagrad | 0.1250357 | 0.1250357 | 145.31510 | 922248.0 |
| 1 | 7-8-5-9 | 5-5-5-4 | 4 | 0.2 | Adagrad | 0.1246703 | 0.1246703 | 157.39282 | 922384.0 |
| 1 | 7-8-5-9 | 5-5-5-4 | 5 | 0.2 | Adagrad | 0.1243850 | 0.1243850 | 175.21780 | 922520.0 |
| 1 | 7-8-5-9 | 5-5-5-4 | 6 | 0.2 | Adagrad | 0.1241706 | 0.1241706 | 184.39897 | 922656.0 |
| 1 | 7-8-5-9 | 5-5-5-4 | 7 | 0.2 | Adagrad | 0.1245980 | 0.1245980 | 200.79764 | 922792.0 |
| 1 | 7-8-5-9 | 5-5-5-4 | 8 | 0.2 | Adagrad | 0.1240766 | 0.1240766 | 221.48554 | 922928.0 |
| 1 | 7-8-5-9 | 5-5-5-4 | 9 | 0.2 | Adagrad | 0.1241513 | 0.1241513 | 239.08655 | 923064.0 |
| 1 | 7-8-5-9 | 5-5-5-4 | 10 | 0.2 | Adagrad | 0.1240802 | 0.1240802 | 264.17717 | 923200.0 |
| 1 | 5-7-8-9 | 5-5-5-4 | 1 | 0.2 | RMSprop | 0.1285129 | 0.1285129 | 176.07418 | 921976.0 |
| 1 | 5-7-8-9 | 5-5-5-4 | 2 | 0.2 | RMSprop | 0.1280640 | 0.1280640 | 190.43584 | 922112.0 |
| 1 | 5-7-8-9 | 5-5-5-4 | 3 | 0.2 | RMSprop | 0.1277388 | 0.1277388 | 199.22421 | 922248.0 |
| 1 | 5-7-8-9 | 5-5-5-4 | 4 | 0.2 | RMSprop | 0.1273564 | 0.1273564 | 214.65800 | 922384.0 |
| 1 | 5-7-8-9 | 5-5-5-4 | 5 | 0.2 | RMSprop | 0.1275032 | 0.1275032 | 234.73540 | 922520.0 |
| 1 | 5-7-8-9 | 5-5-5-4 | 6 | 0.2 | RMSprop | 0.1272602 | 0.1272602 | 253.96544 | 922656.0 |
| 1 | 5-7-8-9 | 5-5-5-4 | 7 | 0.2 | RMSprop | 0.1271735 | 0.1271735 | 272.08736 | 922792.0 |
| 1 | 5-7-8-9 | 5-5-5-4 | 8 | 0.2 | RMSprop | 0.1271474 | 0.1271474 | 280.63167 | 922928.0 |
| 1 | 5-7-8-9 | 5-5-5-4 | 9 | 0.2 | RMSprop | 0.1271516 | 0.1271516 | 308.72327 | 923064.0 |
| 1 | 5-7-8-9 | 5-5-5-4 | 10 | 0.2 | RMSprop | 0.1271665 | 0.1271665 | 307.21930 | 923200.0 |
| 1 | 7-8-5-9 | 5-5-5-4 | 1 | 0.2 | RMSprop | 0.1293623 | 0.1293623 | 185.85657 | 921976.0 |
| 1 | 7-8-5-9 | 5-5-5-4 | 2 | 0.2 | RMSprop | 0.1287521 | 0.1287521 | 194.78540 | 922112.0 |
| 1 | 7-8-5-9 | 5-5-5-4 | 3 | 0.2 | RMSprop | 0.1284277 | 0.1284277 | 209.75311 | 922248.0 |
| 1 | 7-8-5-9 | 5-5-5-4 | 4 | 0.2 | RMSprop | 0.1280776 | 0.1280776 | 222.45560 | 922384.0 |
| 1 | 7-8-5-9 | 5-5-5-4 | 5 | 0.2 | RMSprop | 0.1279355 | 0.1279355 | 217.52622 | 922520.0 |
| 1 | 7-8-5-9 | 5-5-5-4 | 6 | 0.2 | RMSprop | 0.1278202 | 0.1278202 | 221.86066 | 922656.0 |
| 1 | 7-8-5-9 | 5-5-5-4 | 7 | 0.2 | RMSprop | 0.1278843 | 0.1278843 | 225.42697 | 922792.0 |
| 1 | 7-8-5-9 | 5-5-5-4 | 8 | 0.2 | RMSprop | 0.1276278 | 0.1276278 | 233.08561 | 922928.0 |
| 1 | 7-8-5-9 | 5-5-5-4 | 9 | 0.2 | RMSprop | 0.1276213 | 0.1276213 | 241.27321 | 923064.0 |
