| 4 | 0-0-0-0 | 5-5-5-8 | 9 | 0.2 | Adagrad | 0.1225373 | 184.4 | 4367691 | 1000 |
| 4 | 0-0-0-0 | 5-5-5-8 | 7 | 0.2 | Adagrad | 0.1225664 | 188.8 | 4365913 | 1000 |
| 4 | 0-0-0-0 | 5-5-5-8 | 2 | 0.2 | Adagrad | 0.1225808 | 196.0 | 4363218 | 1000 |
| 4 | 0-0-0-0 | 5-5-5-8 | 4 | 0.2 | Adagrad | 0.1226029 | 196.0 | 4363996 | 1000 |
| 4 | 0-0-0-0 | 5-5-5-8 | 5 | 0.2 | Adagrad | 0.122615 | 194.8 | 4364535 | 1000 |
| 4 | 0-0-0-0 | 5-5-5-4 | 2 | 0.2 | Adagrad | 0.1226497 | 90.13 | 1932122 | 500 |
| 4 | 0-0-0-0 | 5-5-5-4 | 7 | 0.2 | Adagrad | 0.1226498 | 79.21 | 1934577 | 500 |
| 4 | 0-0-0-0 | 5-5-5-8 | 3 | 0.2 | Adagrad | 0.1226628 | 195.9 | 4363557 | 1000 |
| 4 | 0-0-0-0 | 5-5-5-4 | 4 | 0.2 | Adagrad | 0.1226675 | 89.71 | 1932804 | 500 |
| 4 | 0-0-0-0 | 5-5-5-4 | 5 | 0.2 | Adagrad | 0.1226704 | 86.67 | 1933295 | 500 |
| 4 | 0-0-0-0 | 5-5-5-4 | 9 | 0.2 | Adagrad | 0.1226732 | 79.67 | 1936259 | 500 |
| 4 | 0-0-0-0 | 5-5-5-4 | 3 | 0.2 | Adagrad | 0.1227141 | 90.7 | 1932413 | 500 |
| 4 | 0-0-0-0 | 5-5-5-4 | 1 | 0.2 | Adagrad | 0.122734 | 79.52 | 1937250 | 500 |
| 4 | 0-0-0-0 | 5-5-5-4 | 1 | 0.2 | Adagrad | 0.1227449 | 93.04 | 1931931 | 500 |
| 4 | 0-0-0-0 | 5-5-5-8 | 3 | 0.4 | Adam | 0.1228623 | 356.5 | 4363557 | 1000 |
| 4 | 0-0-0-0 | 5-5-5-8 | 1 | 0.2 | Adam | 0.1228699 | 413.7 | 4362979 | 1000 |
| 4 | 0-0-0-0 | 5-5-5-4 | 3 | 0.2 | Adam | 0.1228702 | 126.4 | 1932413 | 500 |
| 4 | 0-0-0-0 | 5-5-5-4 | 3 | 0.4 | Adam | 0.1228708 | 105.1 | 1932413 | 500 |
| 4 | 0-0-0-0 | 5-5-5-8 | 6 | 0.4 | Adagrad | 0.1228717 | 171.8 | 4365174 | 1000 |
| 4 | 0-0-0-0 | 5-5-5-4 | 1 | 0.0 | Adagrad | 0.1228779 | 77.5 | 1931931 | 500 |
| 4 | 0-0-0-0 | 5-5-5-4 | 6 | 0.4 | Adam | 0.1228817 | 93.53 | 1933886 | 500 |
| 4 | 0-0-0-0 | 5-5-5-8 | 7 | 0.4 | Adagrad | 0.1228844 | 171.8 | 4365913 | 1000 |
| 4 | 0-0-0-0 | 5-5-5-8 | 8 | 0.4 | Adagrad | 0.1228853 | 172.4 | 4366752 | 1000 |
| 4 | 0-0-0-0 | 5-5-5-8 | 5 | 0.4 | Adagrad | 0.1228889 | 171.6 | 4364535 | 1000 |
| 4 | 0-0-0-0 | 5-5-5-4 | 9 | 0.2 | Adam | 0.1228964 | 132.5 | 1936259 | 500 |
| 4 | 0-0-0-0 | 5-5-5-4 | 2 | 0.2 | Adam | 0.1228973 | 126.6 | 1932122 | 500 |
| 4 | 0-0-0-0 | 5-5-5-8 | 4 | 0.2 | Adam | 0.1229033 | 415.3 | 4363996 | 1000 |
| 4 | 0-0-0-0 | 5-5-5-8 | 8 | 0.2 | Adam | 0.1229114 | 401.2 | 4366752 | 1000 |
| 4 | 0-0-0-0 | 5-5-5-8 | 4 | 0.4 | Adagrad | 0.1229123 | 172.1 | 4363996 | 1000 |
| 4 | 0-0-0-0 | 5-5-5-4 | 6 | 0.2 | Adam | 0.1229224 | 128.0 | 1933886 | 500 |
| 4 | 0-0-0-0 | 5-5-5-8 | 7 | 0.4 | Adam | 0.122926 | 353.5 | 4365913 | 1000 |
| 4 | 0-0-0-0 | 5-5-5-8 | 2 | 0.4 | Adagrad | 0.1229385 | 171.3 | 4363218 | 1000 |
| 4 | 0-0-0-0 | 5-5-5-8 | 3 | 0.4 | Adagrad | 0.1229456 | 171.2 | 4363557 | 1000 |
| 4 | 0-0-0-0 | 5-5-5-4 | 7 | 0.4 | Adam | 0.1229457 | 93.79 | 1934577 | 500 |
| 4 | 0-0-0-0 | 5-5-5-8 | 6 | 0.4 | Adam | 0.1229481 | 355.0 | 4365174 | 1000 |
| 4 | 0-0-0-0 | 5-5-5-4 | 4 | 0.0 | Adagrad | 0.1229487 | 78.08 | 1932804 | 500 |
| 4 | 0-0-0-0 | 5-5-5-4 | 5 | 0.4 | Adam | 0.1229533 | 97.28 | 1933295 | 500 |
| 4 | 0-0-0-0 | 5-5-5-4 | 2 | 0.4 | Adam | 0.1229542 | 105.9 | 1932122 | 500 |
| 4 | 0-0-0-0 | 5-5-5-8 | 5 | 0.2 | Adam | 0.1229573 | 418.1 | 4364535 | 1000 |
| 4 | 0-0-0-0 | 5-5-5-4 | 4 | 0.2 | Adam | 0.1229597 | 127.7 | 1932804 | 500 |
| 4 | 0-0-0-0 | 5-5-5-8 | 8 | 0.4 | Adam | 0.1229661 | 348.6 | 4366752 | 1000 |
| 4 | 0-0-0-0 | 5-5-5-8 | 2 | 0.4 | Adam | 0.1229677 | 358.7 | 4363218 | 1000 |
| 4 | 0-0-0-0 | 5-5-5-8 | 6 | 0.2 | Adam | 0.1229713 | 419.4 | 4365174 | 1000 |
| 4 | 0-0-0-0 | 5-5-5-4 | 9 | 0.4 | Adam | 0.1229741 | 93.62 | 1936259 | 500 |
| 4 | 0-0-0-0 | 5-5-5-8 | 4 | 0.4 | Adam | 0.1229743 | 355.3 | 4363996 | 1000 |
| 4 | 0-0-0-0 | 5-5-5-4 | 3 | 0.0 | Adagrad | 0.1229808 | 78.12 | 1932413 | 500 |
| 4 | 0-0-0-0 | 5-5-5-4 | 1 | 0.4 | Adam | 0.1229833 | 93.59 | 1937250 | 500 |
| 4 | 0-0-0-0 | 5-5-5-8 | 1 | 0.0 | Adagrad | 0.1229857 | 182.5 | 4362979 | 1000 |
| 4 | 0-0-0-0 | 5-5-5-4 | 5 | 0.2 | Adam | 0.122989 | 129.0 | 1933295 | 500 |
| 4 | 0-0-0-0 | 5-5-5-8 | 7 | 0.2 | Adam | 0.1229897 | 417.5 | 4365913 | 1000 |
| 4 | 0-0-0-0 | 5-5-5-4 | 8 | 0.0 | Adagrad | 0.1229911 | 79.38 | 1935368 | 500 |
| 4 | 0-0-0-0 | 5-5-5-4 | 4 | 0.4 | Adam | 0.1229943 | 104.7 | 1932804 | 500 |
| 4 | 0-0-0-0 | 5-5-5-8 | 1 | 0.4 | Adagrad | 0.1229966 | 169.7 | 4362979 | 1000 |
| 4 | 0-0-0-0 | 5-5-5-8 | 2 | 0.2 | Adam | 0.1230058 | 417.4 | 4363218 | 1000 |
| 4 | 0-0-0-0 | 5-5-5-8 | 1 | 0.4 | Adam | 0.1230072 | 351.1 | 4368730 | 1000 |
| 4 | 0-0-0-0 | 5-5-5-4 | 1 | 0.0 | Adagrad | 0.1230138 | 79.15 | 1937250 | 500 |
| 4 | 0-0-0-0 | 5-5-5-4 | 7 | 0.2 | Adam | 0.1230172 | 132.9 | 1934577 | 500 |
| 4 | 0-0-0-0 | 5-5-5-8 | 5 | 0.4 | Adam | 0.1230345 | 353.8 | 4364535 | 1000 |
| 4 | 0-0-0-0 | 5-5-5-4 | 5 | 0.0 | Adagrad | 0.1230413 | 78.91 | 1933295 | 500 |
| 4 | 0-0-0-0 | 5-5-5-8 | 9 | 0.4 | Adam | 0.1230434 | 350.5 | 4367691 | 1000 |
| 4 | 0-0-0-0 | 5-5-5-4 | 7 | 0.0 | Adagrad | 0.1230466 | 79.58 | 1934577 | 500 |
| 4 | 0-0-0-0 | 5-5-5-8 | 1 | 0.2 | Adam | 0.123052 | 393.8 | 4368730 | 1000 |
| 4 | 0-0-0-0 | 5-5-5-4 | 8 | 0.4 | Adam | 0.1230845 | 93.62 | 1935368 | 500 |
| 4 | 0-0-0-0 | 5-5-5-8 | 3 | 0.0 | Adagrad | 0.1231204 | 182.3 | 4363557 | 1000 |
| 4 | 0-0-0-0 | 5-5-5-8 | 2 | 0.0 | Adagrad | 0.1231909 | 183.2 | 4363218 | 1000 |
| 4 | 0-0-0-0 | 5-5-5-8 | 9 | 0.0 | Adagrad | 0.1232984 | 183.7 | 4367691 | 1000 |
| 4 | 0-0-0-0 | 5-5-5-8 | 7 | 0.0 | Adagrad | 0.1233163 | 183.4 | 4365913 | 1000 |
| 4 | 0-0-0-0 | 5-5-5-8 | 5 | 0.0 | Adagrad | 0.1233295 | 182.4 | 4364535 | 1000 |
| 4 | 0-0-0-0 | 5-5-5-8 | 8 | 0.0 | Adagrad | 0.1233367 | 183.9 | 4366752 | 1000 |
| 4 | 0-0-0-0 | 5-5-5-4 | 6 | 0.4 | Adagrad | 0.1234762 | 60.65 | 1933886 | 500 |
| 4 | 0-0-0-0 | 5-5-5-8 | 1 | 0.0 | Adam | 0.1234972 | 410.2 | 4362979 | 1000 |
| 4 | 0-0-0-0 | 5-5-5-8 | 6 | 0.0 | Adagrad | 0.1235036 | 184.2 | 4365174 | 1000 |
| 4 | 0-0-0-0 | 5-5-5-4 | 8 | 0.4 | Adagrad | 0.1235676 | 61.01 | 1935368 | 500 |
| 4 | 0-0-0-0 | 5-5-5-4 | 2 | 0.4 | Adagrad | 0.1235938 | 60.11 | 1932122 | 500 |
| 4 | 0-0-0-0 | 5-5-5-4 | 2 | 0.0 | Adam | 0.123598 | 127.0 | 1932122 | 500 |
| 4 | 0-0-0-0 | 5-5-5-4 | 1 | 0.0 | Adam | 0.1236026 | 127.4 | 1931931 | 500 |
| 4 | 0-0-0-0 | 5-5-5-4 | 9 | 0.4 | Adagrad | 0.123604 | 61.03 | 1936259 | 500 |
| 4 | 0-0-0-0 | 5-5-5-4 | 9 | 0.0 | Adam | 0.1236135 | 111.0 | 1936259 | 500 |
| 4 | 0-0-0-0 | 5-5-5-4 | 1 | 0.4 | Adagrad | 0.123614 | 61.21 | 1937250 | 500 |
| 4 | 0-0-0-0 | 5-5-5-4 | 4 | 0.4 | Adagrad | 0.1236356 | 60.22 | 1932804 | 500 |
| 4 | 0-0-0-0 | 5-5-5-4 | 5 | 0.4 | Adagrad | 0.1236518 | 60.63 | 1933295 | 500 |
| 4 | 0-0-0-0 | 5-5-5-8 | 2 | 0.0 | Adam | 0.1236606 | 408.7 | 4363218 | 1000 |
| 4 | 0-0-0-0 | 5-5-5-8 | 9 | 0.0 | Adam | 0.1236613 | 359.8 | 4367691 | 1000 |
| 4 | 0-0-0-0 | 5-5-5-8 | 3 | 0.0 | Adam | 0.1236666 | 391.3 | 4363557 | 1000 |
| 4 | 0-0-0-0 | 5-5-5-4 | 1 | 0.0 | Adam | 0.1236734 | 110.5 | 1937250 | 500 |
| 4 | 0-0-0-0 | 5-5-5-8 | 4 | 0.0 | Adam | 0.123681 | 386.7 | 4363996 | 1000 |
| 4 | 0-0-0-0 | 5-5-5-8 | 7 | 0.0 | Adam | 0.1236855 | 381.9 | 4365913 | 1000 |
| 4 | 0-0-0-0 | 5-5-5-4 | 7 | 0.4 | Adagrad | 0.1236856 | 60.97 | 1934577 | 500 |
| 4 | 0-0-0-0 | 5-5-5-4 | 8 | 0.0 | Adam | 0.1236915 | 110.8 | 1935368 | 500 |
| 4 | 0-0-0-0 | 5-5-5-4 | 3 | 0.4 | Adagrad | 0.1237049 | 60.32 | 1932413 | 500 |
| 4 | 0-0-0-0 | 5-5-5-8 | 1 | 0.0 | Adam | 0.1237132 | 357.7 | 4368730 | 1000 |
| 4 | 0-0-0-0 | 5-5-5-4 | 7 | 0.0 | Adam | 0.1237248 | 110.9 | 1934577 | 500 |
| 4 | 0-0-0-0 | 5-5-5-4 | 5 | 0.0 | Adam | 0.1237289 | 123.6 | 1933295 | 500 |
| 4 | 0-0-0-0 | 5-5-5-4 | 5 | 0.0 | RMSprop | 0.1237907 | 98.69 | 1933295 | 500 |
| 4 | 0-0-0-0 | 5-5-5-8 | 5 | 0.0 | Adam | 0.1238054 | 386.1 | 4364535 | 1000 |
| 4 | 0-0-0-0 | 5-5-5-4 | 6 | 0.0 | Adam | 0.1238293 | 118.7 | 1933886 | 500 |
| 4 | 0-0-0-0 | 5-5-5-4 | 3 | 0.0 | Adam | 0.1238499 | 126.7 | 1932413 | 500 |
| 4 | 0-0-0-0 | 5-5-5-4 | 4 | 0.0 | Adam | 0.1238633 | 124.1 | 1932804 | 500 |
| 4 | 0-0-0-0 | 5-5-5-4 | 1 | 0.0 | RMSprop | 0.1238723 | 119.3 | 1937250 | 500 |
| 4 | 0-0-0-0 | 5-5-5-4 | 6 | 0.0 | RMSprop | 0.1238791 | 98.99 | 1933886 | 500 |
| 4 | 0-0-0-0 | 5-5-5-8 | 1 | 0.0 | RMSprop | 0.1239013 | 406.3 | 4368730 | 1000 |
| 4 | 0-0-0-0 | 5-5-5-4 | 3 | 0.0 | RMSprop | 0.123952 | 100.0 | 1932413 | 500 |
| 4 | 0-0-0-0 | 5-5-5-4 | 8 | 0.0 | RMSprop | 0.1239663 | 118.8 | 1935368 | 500 |
| 4 | 0-0-0-0 | 5-5-5-4 | 2 | 0.0 | RMSprop | 0.1239688 | 106.8 | 1932122 | 500 |
| 4 | 0-0-0-0 | 5-5-5-8 | 5 | 0.0 | RMSprop | 0.12397 | 364.3 | 4364535 | 1000 |
| 4 | 0-0-0-0 | 5-5-5-8 | 9 | 0.0 | RMSprop | 0.1239847 | 409.7 | 4367691 | 1000 |
| 4 | 0-0-0-0 | 5-5-5-8 | 1 | 0.0 | RMSprop | 0.1239944 | 369.6 | 4362979 | 1000 |
| 4 | 0-0-0-0 | 5-5-5-8 | 3 | 0.0 | RMSprop | 0.1240148 | 367.9 | 4363557 | 1000 |
| 4 | 0-0-0-0 | 5-5-5-8 | 4 | 0.0 | RMSprop | 0.1240173 | 366.6 | 4363996 | 1000 |
| 4 | 0-0-0-0 | 5-5-5-4 | 7 | 0.0 | RMSprop | 0.1240663 | 98.29 | 1934577 | 500 |
| 4 | 0-0-0-0 | 5-5-5-4 | 1 | 0.0 | RMSprop | 0.1241727 | 107.6 | 1931931 | 500 |
| 4 | 0-0-0-0 | 5-5-5-8 | 7 | 0.0 | RMSprop | 0.1241923 | 350.5 | 4365913 | 1000 |
| 4 | 0-0-0-0 | 5-5-5-8 | 8 | 0.2 | RMSprop | 0.1245996 | 370.1 | 4366752 | 1000 |
| 4 | 0-0-0-0 | 5-5-5-8 | 1 | 0.2 | RMSprop | 0.1246436 | 373.1 | 4362979 | 1000 |
| 4 | 0-0-0-0 | 5-5-5-8 | 7 | 0.2 | RMSprop | 0.1246593 | 370.0 | 4365913 | 1000 |
| 4 | 0-0-0-0 | 5-5-5-8 | 6 | 0.2 | RMSprop | 0.1246663 | 372.4 | 4365174 | 1000 |
| 4 | 0-0-0-0 | 5-5-5-8 | 4 | 0.2 | RMSprop | 0.1246798 | 372.8 | 4363996 | 1000 |
| 4 | 0-0-0-0 | 5-5-5-8 | 2 | 0.2 | RMSprop | 0.1246799 | 375.0 | 4363218 | 1000 |
| 4 | 0-0-0-0 | 5-5-5-8 | 5 | 0.2 | RMSprop | 0.1246847 | 373.4 | 4364535 | 1000 |
| 4 | 0-0-0-0 | 5-5-5-8 | 3 | 0.2 | RMSprop | 0.1246979 | 372.0 | 4363557 | 1000 |
| 4 | 0-0-0-0 | 5-5-5-8 | 1 | 0.2 | RMSprop | 0.1247028 | 361.2 | 4368730 | 1000 |
| 4 | 0-0-0-0 | 5-5-5-8 | 9 | 0.2 | RMSprop | 0.1248176 | 368.6 | 4367691 | 1000 |
| 4 | 0-0-0-0 | 5-5-5-4 | 5 | 0.2 | RMSprop | 0.1248832 | 112.8 | 1933295 | 500 |
| 4 | 0-0-0-0 | 5-5-5-4 | 3 | 0.2 | RMSprop | 0.1248896 | 112.3 | 1932413 | 500 |
| 4 | 0-0-0-0 | 5-5-5-4 | 1 | 0.2 | RMSprop | 0.1249186 | 106.8 | 1937250 | 500 |
| 4 | 0-0-0-0 | 5-5-5-4 | 8 | 0.2 | RMSprop | 0.1249391 | 111.0 | 1935368 | 500 |
| 4 | 0-0-0-0 | 5-5-5-4 | 7 | 0.2 | RMSprop | 0.1249454 | 112.5 | 1934577 | 500 |
| 4 | 0-0-0-0 | 5-5-5-4 | 9 | 0.2 | RMSprop | 0.1249675 | 109.3 | 1936259 | 500 |
| 4 | 0-0-0-0 | 5-5-5-4 | 2 | 0.2 | RMSprop | 0.1249725 | 112.1 | 1932122 | 500 |
| 4 | 0-0-0-0 | 5-5-5-4 | 6 | 0.2 | RMSprop | 0.1249884 | 112.6 | 1933886 | 500 |
| 4 | 0-0-0-0 | 5-5-5-4 | 4 | 0.2 | RMSprop | 0.1250199 | 111.9 | 1932804 | 500 |
| 4 | 0-0-0-0 | 5-5-5-4 | 1 | 0.2 | RMSprop | 0.1250539 | 111.3 | 1931931 | 500 |
| 4 | 0-0-0-0 | 5-5-5-8 | 2 | 0.4 | RMSprop | 0.1265099 | 347.7 | 4363218 | 1000 |
| 4 | 0-0-0-0 | 5-5-5-8 | 1 | 0.4 | RMSprop | 0.1265292 | 352.0 | 4362979 | 1000 |
| 4 | 0-0-0-0 | 5-5-5-8 | 6 | 0.4 | RMSprop | 0.1265311 | 346.8 | 4365174 | 1000 |
| 4 | 0-0-0-0 | 5-5-5-8 | 5 | 0.4 | RMSprop | 0.1266032 | 347.2 | 4364535 | 1000 |
| 4 | 0-0-0-0 | 5-5-5-8 | 3 | 0.4 | RMSprop | 0.1266188 | 349.3 | 4363557 | 1000 |
| 4 | 0-0-0-0 | 5-5-5-8 | 1 | 0.4 | RMSprop | 0.1266649 | 343.4 | 4368730 | 1000 |
| 4 | 0-0-0-0 | 5-5-5-8 | 9 | 0.4 | RMSprop | 0.1266895 | 344.5 | 4367691 | 1000 |
| 4 | 0-0-0-0 | 5-5-5-8 | 4 | 0.4 | RMSprop | 0.1266906 | 346.8 | 4363996 | 1000 |
| 4 | 0-0-0-0 | 5-5-5-4 | 7 | 0.4 | RMSprop | 0.1271735 | 88.97 | 1934577 | 500 |
| 4 | 0-0-0-0 | 5-5-5-4 | 1 | 0.4 | RMSprop | 0.1271848 | 89.93 | 1937250 | 500 |
| 4 | 0-0-0-0 | 5-5-5-4 | 8 | 0.4 | RMSprop | 0.1271972 | 89.27 | 1935368 | 500 |
| 4 | 0-0-0-0 | 5-5-5-4 | 9 | 0.4 | RMSprop | 0.1272074 | 89.11 | 1936259 | 500 |
| 4 | 0-0-0-0 | 5-5-5-4 | 3 | 0.4 | RMSprop | 0.1272246 | 89.39 | 1932413 | 500 |
| 4 | 0-0-0-0 | 5-5-5-4 | 4 | 0.4 | RMSprop | 0.1272903 | 88.98 | 1932804 | 500 |
| 4 | 0-0-0-0 | 5-5-5-4 | 2 | 0.4 | RMSprop | 0.1272904 | 89.47 | 1932122 | 500 |
| 4 | 0-0-0-0 | 5-5-5-4 | 6 | 0.4 | RMSprop | 0.1273412 | 89.31 | 1933886 | 500 |
| 4 | 0-0-0-0 | 5-5-5-4 | 1 | 0.4 | RMSprop | 0.1273563 | 89.9 | 1931931 | 500 |
