| 1 | 7-8 | 5-9 | 5-5 | 5-4 | 10 | 0.2 | RMSprop | 0.1281942 | 0.1281942 | 494.12270 | 923300.0 |
| 1 | 5-7 | 8-9 | 5-5 | 5-4 | 1 | 0.4 | Adam | 0.1264793 | 0.1264793 | 230.03975 | 921992.0 |
| 1 | 5-7 | 8-9 | 5-5 | 5-4 | 2 | 0.4 | Adam | 0.1282684 | 0.1282684 | 295.79958 | 922144.0 |
| 1 | 5-7 | 8-9 | 5-5 | 5-4 | 3 | 0.4 | Adam | 0.1280490 | 0.1280490 | 316.25061 | 922296.0 |
| 1 | 5-7 | 8-9 | 5-5 | 5-4 | 4 | 0.4 | Adam | 0.1288043 | 0.1288043 | 353.54682 | 922448.0 |
| 1 | 5-7 | 8-9 | 5-5 | 5-4 | 5 | 0.4 | Adam | 0.1283622 | 0.1283622 | 345.30951 | 922600.0 |
| 1 | 5-7 | 8-9 | 5-5 | 5-4 | 6 | 0.4 | Adam | 0.1289746 | 0.1289746 | 397.09074 | 922752.0 |
| 1 | 5-7 | 8-9 | 5-5 | 5-4 | 7 | 0.4 | Adam | 0.1281597 | 0.1281597 | 398.83274 | 922904.0 |
| 1 | 5-7 | 8-9 | 5-5 | 5-4 | 8 | 0.4 | Adam | 0.1286511 | 0.1286511 | 414.55377 | 923056.0 |
| 1 | 5-7 | 8-9 | 5-5 | 5-4 | 9 | 0.4 | Adam | 0.1288830 | 0.1288830 | 453.98630 | 923208.0 |
| 1 | 5-7 | 8-9 | 5-5 | 5-4 | 10 | 0.4 | Adam | 0.1284927 | 0.1284927 | 501.60342 | 923360.0 |
| 1 | 7-8 | 5-9 | 5-5 | 5-4 | 1 | 0.4 | Adam | 0.1264067 | 0.1264067 | 237.60875 | 921986.0 |
| 1 | 7-8 | 5-9 | 5-5 | 5-4 | 2 | 0.4 | Adam | 0.1271600 | 0.1271600 | 272.94572 | 922132.0 |
| 1 | 7-8 | 5-9 | 5-5 | 5-4 | 3 | 0.4 | Adam | 0.1288430 | 0.1288430 | 351.68169 | 922278.0 |
| 1 | 7-8 | 5-9 | 5-5 | 5-4 | 4 | 0.4 | Adam | 0.1276822 | 0.1276822 | 349.60821 | 922424.0 |
| 1 | 7-8 | 5-9 | 5-5 | 5-4 | 5 | 0.4 | Adam | 0.1279004 | 0.1279004 | 375.40593 | 922570.0 |
| 1 | 7-8 | 5-9 | 5-5 | 5-4 | 6 | 0.4 | Adam | 0.1275615 | 0.1275615 | 397.61578 | 922716.0 |
| 1 | 7-8 | 5-9 | 5-5 | 5-4 | 7 | 0.4 | Adam | 0.1273320 | 0.1273320 | 422.19014 | 922862.0 |
| 1 | 7-8 | 5-9 | 5-5 | 5-4 | 8 | 0.4 | Adam | 0.1282245 | 0.1282245 | 462.69518 | 923008.0 |
| 1 | 7-8 | 5-9 | 5-5 | 5-4 | 9 | 0.4 | Adam | 0.1276638 | 0.1276638 | 470.66703 | 923154.0 |
| 1 | 7-8 | 5-9 | 5-5 | 5-4 | 10 | 0.4 | Adam | 0.1267824 | 0.1267824 | 497.97490 | 923300.0 |
| 1 | 5-7 | 8-9 | 5-5 | 5-4 | 1 | 0.4 | Adagrad | 0.1276159 | 0.1276159 | 114.50780 | 921992.0 |
| 1 | 5-7 | 8-9 | 5-5 | 5-4 | 2 | 0.4 | Adagrad | 0.1276911 | 0.1276911 | 137.75345 | 922144.0 |
| 1 | 5-7 | 8-9 | 5-5 | 5-4 | 3 | 0.4 | Adagrad | 0.1280174 | 0.1280174 | 161.65906 | 922296.0 |
| 1 | 5-7 | 8-9 | 5-5 | 5-4 | 4 | 0.4 | Adagrad | 0.1279712 | 0.1279712 | 183.39924 | 922448.0 |
| 1 | 5-7 | 8-9 | 5-5 | 5-4 | 5 | 0.4 | Adagrad | 0.1273570 | 0.1273570 | 199.85081 | 922600.0 |
| 1 | 5-7 | 8-9 | 5-5 | 5-4 | 6 | 0.4 | Adagrad | 0.1276067 | 0.1276067 | 214.97967 | 922752.0 |
| 1 | 5-7 | 8-9 | 5-5 | 5-4 | 7 | 0.4 | Adagrad | 0.1276091 | 0.1276091 | 236.76935 | 922904.0 |
| 1 | 5-7 | 8-9 | 5-5 | 5-4 | 8 | 0.4 | Adagrad | 0.1273542 | 0.1273542 | 258.63039 | 923056.0 |
| 1 | 5-7 | 8-9 | 5-5 | 5-4 | 9 | 0.4 | Adagrad | 0.1273772 | 0.1273772 | 281.12325 | 923208.0 |
| 1 | 5-7 | 8-9 | 5-5 | 5-4 | 10 | 0.4 | Adagrad | 0.1275202 | 0.1275202 | 318.61969 | 923360.0 |
| 1 | 7-8 | 5-9 | 5-5 | 5-4 | 1 | 0.4 | Adagrad | 0.1278672 | 0.1278672 | 113.57021 | 921986.0 |
| 1 | 7-8 | 5-9 | 5-5 | 5-4 | 2 | 0.4 | Adagrad | 0.1276707 | 0.1276707 | 141.20884 | 922132.0 |
| 1 | 7-8 | 5-9 | 5-5 | 5-4 | 3 | 0.4 | Adagrad | 0.1277840 | 0.1277840 | 167.31631 | 922278.0 |
| 1 | 7-8 | 5-9 | 5-5 | 5-4 | 4 | 0.4 | Adagrad | 0.1279132 | 0.1279132 | 191.46808 | 922424.0 |
| 1 | 7-8 | 5-9 | 5-5 | 5-4 | 5 | 0.4 | Adagrad | 0.1274596 | 0.1274596 | 209.84684 | 922570.0 |
| 1 | 7-8 | 5-9 | 5-5 | 5-4 | 6 | 0.4 | Adagrad | 0.1277864 | 0.1277864 | 238.80098 | 922716.0 |
| 1 | 7-8 | 5-9 | 5-5 | 5-4 | 7 | 0.4 | Adagrad | 0.1274497 | 0.1274497 | 252.83069 | 922862.0 |
| 1 | 7-8 | 5-9 | 5-5 | 5-4 | 8 | 0.4 | Adagrad | 0.1272547 | 0.1272547 | 275.73938 | 923008.0 |
| 1 | 7-8 | 5-9 | 5-5 | 5-4 | 9 | 0.4 | Adagrad | 0.1275830 | 0.1275830 | 305.95225 | 923154.0 |
| 1 | 7-8 | 5-9 | 5-5 | 5-4 | 10 | 0.4 | Adagrad | 0.1270805 | 0.1270805 | 340.29376 | 923300.0 |
| 1 | 5-7 | 8-9 | 5-5 | 5-4 | 1 | 0.4 | RMSprop | 0.1298323 | 0.1298323 | 342.17188 | 921992.0 |
| 1 | 5-7 | 8-9 | 5-5 | 5-4 | 2 | 0.4 | RMSprop | 0.1297747 | 0.1297747 | 353.31296 | 922144.0 |
| 1 | 5-7 | 8-9 | 5-5 | 5-4 | 3 | 0.4 | RMSprop | 0.1297761 | 0.1297761 | 371.81795 | 922296.0 |
| 1 | 5-7 | 8-9 | 5-5 | 5-4 | 4 | 0.4 | RMSprop | 0.1298218 | 0.1298218 | 402.90608 | 922448.0 |
| 1 | 5-7 | 8-9 | 5-5 | 5-4 | 5 | 0.4 | RMSprop | 0.1296228 | 0.1296228 | 397.85938 | 922600.0 |
| 1 | 5-7 | 8-9 | 5-5 | 5-4 | 6 | 0.4 | RMSprop | 0.1298422 | 0.1298422 | 450.70380 | 922752.0 |
| 1 | 5-7 | 8-9 | 5-5 | 5-4 | 7 | 0.4 | RMSprop | 0.1296869 | 0.1296869 | 444.69349 | 922904.0 |
| 1 | 5-7 | 8-9 | 5-5 | 5-4 | 8 | 0.4 | RMSprop | 0.1294427 | 0.1294427 | 404.64198 | 923056.0 |
| 1 | 5-7 | 8-9 | 5-5 | 5-4 | 9 | 0.4 | RMSprop | 0.1294791 | 0.1294791 | 435.44429 | 923208.0 |
| 1 | 5-7 | 8-9 | 5-5 | 5-4 | 10 | 0.4 | RMSprop | 0.1297382 | 0.1297382 | 531.15938 | 923360.0 |
| 1 | 7-8 | 5-9 | 5-5 | 5-4 | 1 | 0.4 | RMSprop | 0.1297263 | 0.1297263 | 331.91820 | 921986.0 |
| 1 | 7-8 | 5-9 | 5-5 | 5-4 | 2 | 0.4 | RMSprop | 0.1297065 | 0.1297065 | 360.99774 | 922132.0 |
| 1 | 7-8 | 5-9 | 5-5 | 5-4 | 3 | 0.4 | RMSprop | 0.1297651 | 0.1297651 | 398.36535 | 922278.0 |
| 1 | 7-8 | 5-9 | 5-5 | 5-4 | 4 | 0.4 | RMSprop | 0.1298315 | 0.1298315 | 425.58351 | 922424.0 |
| 1 | 7-8 | 5-9 | 5-5 | 5-4 | 5 | 0.4 | RMSprop | 0.1297086 | 0.1297086 | 439.60544 | 922570.0 |
| 1 | 7-8 | 5-9 | 5-5 | 5-4 | 6 | 0.4 | RMSprop | 0.1298240 | 0.1298240 | 459.30626 | 922716.0 |
| 1 | 7-8 | 5-9 | 5-5 | 5-4 | 7 | 0.4 | RMSprop | 0.1294987 | 0.1294987 | 452.66327 | 922862.0 |
| 1 | 7-8 | 5-9 | 5-5 | 5-4 | 8 | 0.4 | RMSprop | 0.1296452 | 0.1296452 | 480.61422 | 923008.0 |
| 1 | 7-8 | 5-9 | 5-5 | 5-4 | 9 | 0.4 | RMSprop | 0.1293122 | 0.1293122 | 466.72857 | 923154.0 |
| 1 | 7-8 | 5-9 | 5-5 | 5-4 | 10 | 0.4 | RMSprop | 0.1292394 | 0.1292394 | 491.47935 | 923300.0 |
| 2 | 5-7 | 8-9 | 5-5 | 5-4 | 1 | 0.0 | Adam | 0.1295887 | 0.1295887 | 260.45859 | 671582.0 |
| 2 | 5-7 | 8-9 | 5-5 | 5-4 | 2 | 0.0 | Adam | 0.1295801 | 0.1295801 | 237.39099 | 671824.0 |
| 2 | 5-7 | 8-9 | 5-5 | 5-4 | 3 | 0.0 | Adam | 0.1296026 | 0.1296026 | 243.67301 | 672066.0 |
