| 3 | 5-7 | 8-9 | 5-5 | 5-8 | 4 | 0.4 | Adagrad | 0.1274731 | 0.1274731 | 329.13330 | 842568.0 |
| 3 | 5-7 | 8-9 | 5-5 | 5-8 | 5 | 0.4 | Adagrad | 0.1275146 | 0.1275146 | 390.88911 | 843000.0 |
| 3 | 5-7 | 8-9 | 5-5 | 5-8 | 6 | 0.4 | Adagrad | 0.1272666 | 0.1272666 | 434.64552 | 843432.0 |
| 3 | 5-7 | 8-9 | 5-5 | 5-8 | 7 | 0.4 | Adagrad | 0.1273130 | 0.1273130 | 493.50284 | 843864.0 |
| 3 | 5-7 | 8-9 | 5-5 | 5-8 | 8 | 0.4 | Adagrad | 0.1269645 | 0.1269645 | 560.38534 | 844296.0 |
| 3 | 5-7 | 8-9 | 5-5 | 5-8 | 9 | 0.4 | Adagrad | 0.1267856 | 0.1267856 | 640.02917 | 844728.0 |
| 3 | 5-7 | 8-9 | 5-5 | 5-8 | 10 | 0.4 | Adagrad | 0.1269288 | 0.1269288 | 715.72571 | 845160.0 |
| 3 | 7-8 | 5-9 | 5-5 | 5-8 | 1 | 0.4 | Adagrad | 0.1281061 | 0.1281061 | 157.75615 | 841266.0 |
| 3 | 7-8 | 5-9 | 5-5 | 5-8 | 2 | 0.4 | Adagrad | 0.1274410 | 0.1274410 | 208.38066 | 841692.0 |
| 3 | 7-8 | 5-9 | 5-5 | 5-8 | 3 | 0.4 | Adagrad | 0.1273743 | 0.1273743 | 263.87515 | 842118.0 |
| 3 | 7-8 | 5-9 | 5-5 | 5-8 | 4 | 0.4 | Adagrad | 0.1275266 | 0.1275266 | 316.03296 | 842544.0 |
| 3 | 7-8 | 5-9 | 5-5 | 5-8 | 5 | 0.4 | Adagrad | 0.1274407 | 0.1274407 | 377.79088 | 842970.0 |
| 3 | 7-8 | 5-9 | 5-5 | 5-8 | 6 | 0.4 | Adagrad | 0.1274124 | 0.1274124 | 437.54528 | 843396.0 |
| 3 | 7-8 | 5-9 | 5-5 | 5-8 | 7 | 0.4 | Adagrad | 0.1270746 | 0.1270746 | 521.99106 | 843822.0 |
| 3 | 7-8 | 5-9 | 5-5 | 5-8 | 8 | 0.4 | Adagrad | 0.1271240 | 0.1271240 | 602.99468 | 844248.0 |
| 3 | 7-8 | 5-9 | 5-5 | 5-8 | 9 | 0.4 | Adagrad | 0.1267442 | 0.1267442 | 706.81748 | 844674.0 |
| 3 | 7-8 | 5-9 | 5-5 | 5-8 | 10 | 0.4 | Adagrad | 0.1267810 | 0.1267810 | 767.88057 | 845100.0 |
| 3 | 5-7 | 8-9 | 5-5 | 5-8 | 1 | 0.4 | RMSprop | 0.1291724 | 0.1291724 | 164.23416 | 841272.0 |
| 3 | 5-7 | 8-9 | 5-5 | 5-8 | 2 | 0.4 | RMSprop | 0.1290187 | 0.1290187 | 222.36839 | 841704.0 |
| 3 | 5-7 | 8-9 | 5-5 | 5-8 | 3 | 0.4 | RMSprop | 0.1289257 | 0.1289257 | 280.82405 | 842136.0 |
| 3 | 5-7 | 8-9 | 5-5 | 5-8 | 4 | 0.4 | RMSprop | 0.1289801 | 0.1289801 | 336.80882 | 842568.0 |
| 3 | 5-7 | 8-9 | 5-5 | 5-8 | 5 | 0.4 | RMSprop | 0.1288524 | 0.1288524 | 389.61262 | 843000.0 |
| 3 | 5-7 | 8-9 | 5-5 | 5-8 | 6 | 0.4 | RMSprop | 0.1288907 | 0.1288907 | 443.99540 | 843432.0 |
| 3 | 5-7 | 8-9 | 5-5 | 5-8 | 7 | 0.4 | RMSprop | 0.1288715 | 0.1288715 | 497.59424 | 843864.0 |
| 3 | 5-7 | 8-9 | 5-5 | 5-8 | 8 | 0.4 | RMSprop | 0.1288988 | 0.1288988 | 582.60647 | 844296.0 |
| 3 | 5-7 | 8-9 | 5-5 | 5-8 | 9 | 0.4 | RMSprop | 0.1289866 | 0.1289866 | 647.54236 | 844728.0 |
| 3 | 5-7 | 8-9 | 5-5 | 5-8 | 10 | 0.4 | RMSprop | 0.1289630 | 0.1289630 | 700.37944 | 845160.0 |
| 3 | 7-8 | 5-9 | 5-5 | 5-8 | 1 | 0.4 | RMSprop | 0.1291778 | 0.1291778 | 154.91989 | 841266.0 |
| 3 | 7-8 | 5-9 | 5-5 | 5-8 | 2 | 0.4 | RMSprop | 0.1289693 | 0.1289693 | 203.23543 | 841692.0 |
| 3 | 7-8 | 5-9 | 5-5 | 5-8 | 3 | 0.4 | RMSprop | 0.1289579 | 0.1289579 | 249.41367 | 842118.0 |
| 3 | 7-8 | 5-9 | 5-5 | 5-8 | 4 | 0.4 | RMSprop | 0.1290627 | 0.1290627 | 302.02597 | 842544.0 |
| 3 | 7-8 | 5-9 | 5-5 | 5-8 | 5 | 0.4 | RMSprop | 0.1289739 | 0.1289739 | 357.06135 | 842970.0 |
| 3 | 7-8 | 5-9 | 5-5 | 5-8 | 6 | 0.4 | RMSprop | 0.1289143 | 0.1289143 | 416.97708 | 843396.0 |
| 3 | 7-8 | 5-9 | 5-5 | 5-8 | 7 | 0.4 | RMSprop | 0.1286671 | 0.1286671 | 481.89391 | 843822.0 |
| 3 | 7-8 | 5-9 | 5-5 | 5-8 | 8 | 0.4 | RMSprop | 0.1289256 | 0.1289256 | 540.47682 | 844248.0 |
| 3 | 7-8 | 5-9 | 5-5 | 5-8 | 9 | 0.4 | RMSprop | 0.1289746 | 0.1289746 | 578.04326 | 844674.0 |
| 3 | 7-8 | 5-9 | 5-5 | 5-8 | 10 | 0.4 | RMSprop | 0.1287193 | 0.1287193 | 642.50976 | 845100.0 |
| 4 | 0-0 | 0-0 | 5-5 | 5-8 | 1 | 0.0 | Adam | 0.1235471 | 0.1235471 | 328.29445 | 4362970.0 |
| 4 | 0-0 | 0-0 | 5-5 | 5-8 | 2 | 0.0 | Adam | 0.1233786 | 0.1233786 | 344.70558 | 4363100.0 |
| 4 | 0-0 | 0-0 | 5-5 | 5-8 | 3 | 0.0 | Adam | 0.1234049 | 0.1234049 | 354.35520 | 4363230.0 |
| 4 | 0-0 | 0-0 | 5-5 | 5-8 | 4 | 0.0 | Adam | 0.1233514 | 0.1233514 | 369.54447 | 4363360.0 |
| 4 | 0-0 | 0-0 | 5-5 | 5-8 | 5 | 0.0 | Adam | 0.1234778 | 0.1234778 | 381.20456 | 4363490.0 |
| 4 | 0-0 | 0-0 | 5-5 | 5-8 | 6 | 0.0 | Adam | 0.1233423 | 0.1233423 | 321.40142 | 4363620.0 |
| 4 | 0-0 | 0-0 | 5-5 | 5-8 | 7 | 0.0 | Adam | 0.1234531 | 0.1234531 | 331.82553 | 4363750.0 |
| 4 | 0-0 | 0-0 | 5-5 | 5-8 | 8 | 0.0 | Adam | 0.1234278 | 0.1234278 | 342.11277 | 4363880.0 |
| 4 | 0-0 | 0-0 | 5-5 | 5-8 | 9 | 0.0 | Adam | 0.1235064 | 0.1235064 | 374.65210 | 4364010.0 |
| 4 | 0-0 | 0-0 | 5-5 | 5-8 | 10 | 0.0 | Adam | 0.1234575 | 0.1234575 | 363.26746 | 4364140.0 |
| 4 | 0-0 | 0-0 | 5-5 | 5-8 | 1 | 0.0 | Adagrad | 0.1227684 | 0.1227684 | 148.66439 | 4362970.0 |
| 4 | 0-0 | 0-0 | 5-5 | 5-8 | 2 | 0.0 | Adagrad | 0.1227226 | 0.1227226 | 160.50887 | 4363100.0 |
| 4 | 0-0 | 0-0 | 5-5 | 5-8 | 3 | 0.0 | Adagrad | 0.1227322 | 0.1227322 | 171.54360 | 4363230.0 |
| 4 | 0-0 | 0-0 | 5-5 | 5-8 | 4 | 0.0 | Adagrad | 0.1227476 | 0.1227476 | 182.91551 | 4363360.0 |
| 4 | 0-0 | 0-0 | 5-5 | 5-8 | 5 | 0.0 | Adagrad | 0.1227733 | 0.1227733 | 193.75409 | 4363490.0 |
| 4 | 0-0 | 0-0 | 5-5 | 5-8 | 6 | 0.0 | Adagrad | 0.1227373 | 0.1227373 | 205.25223 | 4363620.0 |
| 4 | 0-0 | 0-0 | 5-5 | 5-8 | 7 | 0.0 | Adagrad | 0.1227478 | 0.1227478 | 215.84803 | 4363750.0 |
| 4 | 0-0 | 0-0 | 5-5 | 5-8 | 8 | 0.0 | Adagrad | 0.1228162 | 0.1228162 | 226.89806 | 4363880.0 |
| 4 | 0-0 | 0-0 | 5-5 | 5-8 | 9 | 0.0 | Adagrad | 0.1227828 | 0.1227828 | 238.31553 | 4364010.0 |
| 4 | 0-0 | 0-0 | 5-5 | 5-8 | 10 | 0.0 | Adagrad | 0.1228164 | 0.1228164 | 251.00320 | 4364140.0 |
| 4 | 0-0 | 0-0 | 5-5 | 5-8 | 1 | 0.0 | RMSprop | 0.1239350 | 0.1239350 | 312.56203 | 4362970.0 |
| 4 | 0-0 | 0-0 | 5-5 | 5-8 | 2 | 0.0 | RMSprop | 0.1240573 | 0.1240573 | 314.89514 | 4363100.0 |
| 4 | 0-0 | 0-0 | 5-5 | 5-8 | 3 | 0.0 | RMSprop | 0.1241045 | 0.1241045 | 325.15316 | 4363230.0 |
| 4 | 0-0 | 0-0 | 5-5 | 5-8 | 4 | 0.0 | RMSprop | 0.1241560 | 0.1241560 | 335.62518 | 4363360.0 |
| 4 | 0-0 | 0-0 | 5-5 | 5-8 | 5 | 0.0 | RMSprop | 0.1240644 | 0.1240644 | 345.48389 | 4363490.0 |
| 4 | 0-0 | 0-0 | 5-5 | 5-8 | 6 | 0.0 | RMSprop | 0.1241655 | 0.1241655 | 316.99542 | 4363620.0 |
| 4 | 0-0 | 0-0 | 5-5 | 5-8 | 7 | 0.0 | RMSprop | 0.1241621 | 0.1241621 | 299.30526 | 4363750.0 |
