| 2 | 5-7 | 8-9 | 5-5 | 5-4 | 4 | 0.0 | Adam | 0.1295932 | 0.1295932 | 287.44117 | 672308.0 |
| 2 | 5-7 | 8-9 | 5-5 | 5-4 | 5 | 0.0 | Adam | 0.1295919 | 0.1295919 | 317.69014 | 672550.0 |
| 2 | 5-7 | 8-9 | 5-5 | 5-4 | 6 | 0.0 | Adam | 0.1295961 | 0.1295961 | 338.65649 | 672792.0 |
| 2 | 5-7 | 8-9 | 5-5 | 5-4 | 7 | 0.0 | Adam | 0.1295877 | 0.1295877 | 388.59071 | 673034.0 |
| 2 | 5-7 | 8-9 | 5-5 | 5-4 | 8 | 0.0 | Adam | 0.1295820 | 0.1295820 | 388.29834 | 673276.0 |
| 2 | 5-7 | 8-9 | 5-5 | 5-4 | 9 | 0.0 | Adam | 0.1295823 | 0.1295823 | 423.06242 | 673518.0 |
| 2 | 5-7 | 8-9 | 5-5 | 5-4 | 10 | 0.0 | Adam | 0.1295935 | 0.1295935 | 463.65275 | 673760.0 |
| 2 | 7-8 | 5-9 | 5-5 | 5-4 | 1 | 0.0 | Adam | 0.1295965 | 0.1295965 | 276.38159 | 671576.0 |
| 2 | 7-8 | 5-9 | 5-5 | 5-4 | 2 | 0.0 | Adam | 0.1295810 | 0.1295810 | 266.37099 | 671812.0 |
| 2 | 7-8 | 5-9 | 5-5 | 5-4 | 3 | 0.0 | Adam | 0.1295896 | 0.1295896 | 268.11427 | 672048.0 |
| 2 | 7-8 | 5-9 | 5-5 | 5-4 | 4 | 0.0 | Adam | 0.1295831 | 0.1295831 | 300.46053 | 672284.0 |
| 2 | 7-8 | 5-9 | 5-5 | 5-4 | 5 | 0.0 | Adam | 0.1295990 | 0.1295990 | 342.55433 | 672520.0 |
| 2 | 7-8 | 5-9 | 5-5 | 5-4 | 6 | 0.0 | Adam | 0.1296001 | 0.1296001 | 369.75919 | 672756.0 |
| 2 | 7-8 | 5-9 | 5-5 | 5-4 | 7 | 0.0 | Adam | 0.1295989 | 0.1295989 | 420.64121 | 672992.0 |
| 2 | 7-8 | 5-9 | 5-5 | 5-4 | 8 | 0.0 | Adam | 0.1295826 | 0.1295826 | 438.94772 | 673228.0 |
| 2 | 7-8 | 5-9 | 5-5 | 5-4 | 9 | 0.0 | Adam | 0.1296007 | 0.1296007 | 470.53637 | 673464.0 |
| 2 | 7-8 | 5-9 | 5-5 | 5-4 | 10 | 0.0 | Adam | 0.1295943 | 0.1295943 | 518.68747 | 673700.0 |
| 2 | 5-7 | 8-9 | 5-5 | 5-4 | 1 | 0.0 | Adagrad | 0.1293490 | 0.1293490 | 108.14164 | 671582.0 |
| 2 | 5-7 | 8-9 | 5-5 | 5-4 | 2 | 0.0 | Adagrad | 0.1295221 | 0.1295221 | 132.98732 | 671824.0 |
| 2 | 5-7 | 8-9 | 5-5 | 5-4 | 3 | 0.0 | Adagrad | 0.1295225 | 0.1295225 | 161.23759 | 672066.0 |
| 2 | 5-7 | 8-9 | 5-5 | 5-4 | 4 | 0.0 | Adagrad | 0.1295241 | 0.1295241 | 189.08474 | 672308.0 |
| 2 | 5-7 | 8-9 | 5-5 | 5-4 | 5 | 0.0 | Adagrad | 0.1295211 | 0.1295211 | 217.75582 | 672550.0 |
| 2 | 5-7 | 8-9 | 5-5 | 5-4 | 6 | 0.0 | Adagrad | 0.1295222 | 0.1295222 | 246.44406 | 672792.0 |
| 2 | 5-7 | 8-9 | 5-5 | 5-4 | 7 | 0.0 | Adagrad | 0.1291067 | 0.1291067 | 276.06300 | 673034.0 |
| 2 | 5-7 | 8-9 | 5-5 | 5-4 | 8 | 0.0 | Adagrad | 0.1295236 | 0.1295236 | 301.98498 | 673276.0 |
| 2 | 5-7 | 8-9 | 5-5 | 5-4 | 9 | 0.0 | Adagrad | 0.1290922 | 0.1290922 | 337.10126 | 673518.0 |
| 2 | 5-7 | 8-9 | 5-5 | 5-4 | 10 | 0.0 | Adagrad | 0.1295243 | 0.1295243 | 377.91940 | 673760.0 |
| 2 | 7-8 | 5-9 | 5-5 | 5-4 | 1 | 0.0 | Adagrad | 0.1292272 | 0.1292272 | 119.31286 | 671576.0 |
| 2 | 7-8 | 5-9 | 5-5 | 5-4 | 2 | 0.0 | Adagrad | 0.1293899 | 0.1293899 | 145.23085 | 671812.0 |
| 2 | 7-8 | 5-9 | 5-5 | 5-4 | 3 | 0.0 | Adagrad | 0.1295229 | 0.1295229 | 173.61503 | 672048.0 |
| 2 | 7-8 | 5-9 | 5-5 | 5-4 | 4 | 0.0 | Adagrad | 0.1295232 | 0.1295232 | 207.29369 | 672284.0 |
| 2 | 7-8 | 5-9 | 5-5 | 5-4 | 5 | 0.0 | Adagrad | 0.1294125 | 0.1294125 | 240.00710 | 672520.0 |
| 2 | 7-8 | 5-9 | 5-5 | 5-4 | 6 | 0.0 | Adagrad | 0.1295229 | 0.1295229 | 273.76978 | 672756.0 |
| 2 | 7-8 | 5-9 | 5-5 | 5-4 | 7 | 0.0 | Adagrad | 0.1289306 | 0.1289306 | 308.39947 | 672992.0 |
| 2 | 7-8 | 5-9 | 5-5 | 5-4 | 8 | 0.0 | Adagrad | 0.1290736 | 0.1290736 | 335.05499 | 673228.0 |
| 2 | 7-8 | 5-9 | 5-5 | 5-4 | 9 | 0.0 | Adagrad | 0.1295230 | 0.1295230 | 365.08110 | 673464.0 |
| 2 | 7-8 | 5-9 | 5-5 | 5-4 | 10 | 0.0 | Adagrad | 0.1295218 | 0.1295218 | 399.40851 | 673700.0 |
| 2 | 5-7 | 8-9 | 5-5 | 5-4 | 1 | 0.0 | RMSprop | 0.1298341 | 0.1298341 | 283.66223 | 671582.0 |
| 2 | 5-7 | 8-9 | 5-5 | 5-4 | 2 | 0.0 | RMSprop | 0.1298282 | 0.1298282 | 289.98091 | 671824.0 |
| 2 | 5-7 | 8-9 | 5-5 | 5-4 | 3 | 0.0 | RMSprop | 0.1298076 | 0.1298076 | 275.51837 | 672066.0 |
| 2 | 5-7 | 8-9 | 5-5 | 5-4 | 4 | 0.0 | RMSprop | 0.1298364 | 0.1298364 | 296.40328 | 672308.0 |
| 2 | 5-7 | 8-9 | 5-5 | 5-4 | 5 | 0.0 | RMSprop | 0.1298269 | 0.1298269 | 314.30260 | 672550.0 |
| 2 | 5-7 | 8-9 | 5-5 | 5-4 | 6 | 0.0 | RMSprop | 0.1298294 | 0.1298294 | 342.97700 | 672792.0 |
| 2 | 5-7 | 8-9 | 5-5 | 5-4 | 7 | 0.0 | RMSprop | 0.1298172 | 0.1298172 | 423.71708 | 673034.0 |
| 2 | 5-7 | 8-9 | 5-5 | 5-4 | 8 | 0.0 | RMSprop | 0.1298114 | 0.1298114 | 421.36996 | 673276.0 |
| 2 | 5-7 | 8-9 | 5-5 | 5-4 | 9 | 0.0 | RMSprop | 0.1298365 | 0.1298365 | 428.42699 | 673518.0 |
| 2 | 5-7 | 8-9 | 5-5 | 5-4 | 10 | 0.0 | RMSprop | 0.1298116 | 0.1298116 | 455.34461 | 673760.0 |
| 2 | 7-8 | 5-9 | 5-5 | 5-4 | 1 | 0.0 | RMSprop | 0.1298169 | 0.1298169 | 281.31602 | 671576.0 |
| 2 | 7-8 | 5-9 | 5-5 | 5-4 | 2 | 0.0 | RMSprop | 0.1298311 | 0.1298311 | 285.56289 | 671812.0 |
| 2 | 7-8 | 5-9 | 5-5 | 5-4 | 3 | 0.0 | RMSprop | 0.1298410 | 0.1298410 | 297.03333 | 672048.0 |
| 2 | 7-8 | 5-9 | 5-5 | 5-4 | 4 | 0.0 | RMSprop | 0.1298279 | 0.1298279 | 315.57629 | 672284.0 |
| 2 | 7-8 | 5-9 | 5-5 | 5-4 | 5 | 0.0 | RMSprop | 0.1298139 | 0.1298139 | 340.72932 | 672520.0 |
| 2 | 7-8 | 5-9 | 5-5 | 5-4 | 6 | 0.0 | RMSprop | 0.1298355 | 0.1298355 | 388.46016 | 672756.0 |
| 2 | 7-8 | 5-9 | 5-5 | 5-4 | 7 | 0.0 | RMSprop | 0.1298096 | 0.1298096 | 458.49185 | 672992.0 |
| 2 | 7-8 | 5-9 | 5-5 | 5-4 | 8 | 0.0 | RMSprop | 0.1298483 | 0.1298483 | 457.25805 | 673228.0 |
| 2 | 7-8 | 5-9 | 5-5 | 5-4 | 9 | 0.0 | RMSprop | 0.1298225 | 0.1298225 | 472.60723 | 673464.0 |
| 2 | 7-8 | 5-9 | 5-5 | 5-4 | 10 | 0.0 | RMSprop | 0.1298221 | 0.1298221 | 507.87580 | 673700.0 |
| 2 | 5-7 | 8-9 | 5-5 | 5-4 | 1 | 0.2 | Adam | 0.1295991 | 0.1295991 | 268.74023 | 671582.0 |
| 2 | 5-7 | 8-9 | 5-5 | 5-4 | 2 | 0.2 | Adam | 0.1295943 | 0.1295943 | 286.99998 | 671824.0 |
| 2 | 5-7 | 8-9 | 5-5 | 5-4 | 3 | 0.2 | Adam | 0.1296025 | 0.1296025 | 323.42275 | 672066.0 |
| 2 | 5-7 | 8-9 | 5-5 | 5-4 | 4 | 0.2 | Adam | 0.1295868 | 0.1295868 | 312.06981 | 672308.0 |
| 2 | 5-7 | 8-9 | 5-5 | 5-4 | 5 | 0.2 | Adam | 0.1295912 | 0.1295912 | 382.24351 | 672550.0 |
| 2 | 5-7 | 8-9 | 5-5 | 5-4 | 6 | 0.2 | Adam | 0.1295900 | 0.1295900 | 402.09651 | 672792.0 |
| 2 | 5-7 | 8-9 | 5-5 | 5-4 | 7 | 0.2 | Adam | 0.1295940 | 0.1295940 | 407.66338 | 673034.0 |
