| 3 | 7-8-5-9 | 5-5-5-8 | 9 | 0.2 | Adam | 0.1241684 | 678.3 | 844890 | 1000 |
| 3 | 5-7-8-9 | 5-5-5-8 | 10 | 0.2 | Adam | 0.1241715 | 807.2 | 845340 | 1000 |
| 3 | 7-8-5-9 | 5-5-5-4 | 10 | 0.0 | Adam | 0.1242156 | 317.9 | 424020 | 500 |
| 3 | 5-7-8-9 | 5-5-5-8 | 9 | 0.2 | Adam | 0.1242451 | 728.4 | 844890 | 1000 |
| 3 | 5-7-8-9 | 5-5-5-8 | 8 | 0.2 | Adam | 0.124264 | 655.2 | 844440 | 1000 |
| 3 | 7-8-5-9 | 5-5-5-8 | 8 | 0.2 | Adam | 0.124281 | 658.5 | 844440 | 1000 |
| 3 | 7-8-5-9 | 5-5-5-8 | 10 | 0.2 | Adam | 0.1242883 | 830.7 | 845340 | 1000 |
| 3 | 7-8-5-9 | 5-5-5-4 | 9 | 0.0 | Adam | 0.1243431 | 321.7 | 423702 | 500 |
| 3 | 5-7-8-9 | 5-5-5-8 | 10 | 0.0 | Adagrad | 0.1243661 | 848.8 | 845340 | 1000 |
| 3 | 7-8-5-9 | 5-5-5-4 | 10 | 0.2 | Adam | 0.1243675 | 271.7 | 424020 | 500 |
| 3 | 5-7-8-9 | 5-5-5-4 | 10 | 0.2 | Adam | 0.1243736 | 319.9 | 424020 | 500 |
| 3 | 5-7-8-9 | 5-5-5-8 | 7 | 0.2 | Adam | 0.1243863 | 584.4 | 843990 | 1000 |
| 3 | 7-8-5-9 | 5-5-5-8 | 10 | 0.0 | Adagrad | 0.124403 | 854.7 | 845340 | 1000 |
| 3 | 5-7-8-9 | 5-5-5-8 | 6 | 0.2 | Adam | 0.1244246 | 512.5 | 843540 | 1000 |
| 3 | 7-8-5-9 | 5-5-5-4 | 7 | 0.0 | Adam | 0.124435 | 239.0 | 423066 | 500 |
| 3 | 7-8-5-9 | 5-5-5-8 | 7 | 0.2 | Adam | 0.1244401 | 584.3 | 843990 | 1000 |
| 3 | 5-7-8-9 | 5-5-5-4 | 10 | 0.0 | Adam | 0.1244582 | 292.3 | 424020 | 500 |
| 3 | 7-8-5-9 | 5-5-5-8 | 6 | 0.2 | Adam | 0.124466 | 512.6 | 843540 | 1000 |
| 3 | 7-8-5-9 | 5-5-5-8 | 9 | 0.0 | Adam | 0.1244718 | 728.2 | 844890 | 1000 |
| 3 | 7-8-5-9 | 5-5-5-8 | 10 | 0.0 | Adam | 0.1244979 | 805.8 | 845340 | 1000 |
| 3 | 7-8-5-9 | 5-5-5-4 | 9 | 0.2 | Adam | 0.1245042 | 279.7 | 423702 | 500 |
| 3 | 7-8-5-9 | 5-5-5-4 | 8 | 0.0 | Adam | 0.124507 | 262.8 | 423384 | 500 |
| 3 | 5-7-8-9 | 5-5-5-8 | 5 | 0.2 | Adam | 0.1245245 | 448.4 | 843090 | 1000 |
| 3 | 5-7-8-9 | 5-5-5-8 | 9 | 0.0 | Adagrad | 0.1245419 | 782.3 | 844890 | 1000 |
| 3 | 5-7-8-9 | 5-5-5-4 | 9 | 0.2 | Adam | 0.1245458 | 286.8 | 423702 | 500 |
| 3 | 5-7-8-9 | 5-5-5-8 | 10 | 0.0 | Adam | 0.1245659 | 592.8 | 845340 | 1000 |
| 3 | 5-7-8-9 | 5-5-5-4 | 9 | 0.0 | Adam | 0.1245795 | 260.7 | 423702 | 500 |
| 3 | 5-7-8-9 | 5-5-5-4 | 7 | 0.0 | Adam | 0.1246421 | 232.9 | 423066 | 500 |
| 3 | 7-8-5-9 | 5-5-5-8 | 5 | 0.2 | Adam | 0.1246486 | 415.5 | 843090 | 1000 |
| 3 | 5-7-8-9 | 5-5-5-4 | 8 | 0.2 | Adam | 0.1246643 | 255.2 | 423384 | 500 |
| 3 | 7-8-5-9 | 5-5-5-8 | 8 | 0.0 | Adam | 0.1246659 | 643.2 | 844440 | 1000 |
| 3 | 5-7-8-9 | 5-5-5-4 | 8 | 0.0 | Adam | 0.1247004 | 245.8 | 423384 | 500 |
| 3 | 5-7-8-9 | 5-5-5-4 | 7 | 0.2 | Adam | 0.1247011 | 223.1 | 423066 | 500 |
| 3 | 7-8-5-9 | 5-5-5-8 | 9 | 0.0 | Adagrad | 0.1247084 | 792.0 | 844890 | 1000 |
| 3 | 7-8-5-9 | 5-5-5-4 | 8 | 0.2 | Adam | 0.1247335 | 247.5 | 423384 | 500 |
| 3 | 7-8-5-9 | 5-5-5-8 | 7 | 0.0 | Adam | 0.124736 | 572.2 | 843990 | 1000 |
| 3 | 7-8-5-9 | 5-5-5-4 | 7 | 0.2 | Adam | 0.1247515 | 219.4 | 423066 | 500 |
| 3 | 5-7-8-9 | 5-5-5-8 | 8 | 0.0 | Adagrad | 0.1247713 | 670.9 | 844440 | 1000 |
| 3 | 5-7-8-9 | 5-5-5-8 | 9 | 0.0 | Adam | 0.1247738 | 609.3 | 844890 | 1000 |
| 3 | 5-7-8-9 | 5-5-5-8 | 8 | 0.0 | Adam | 0.12478 | 631.0 | 844440 | 1000 |
| 3 | 5-7-8-9 | 5-5-5-8 | 7 | 0.0 | Adam | 0.1247942 | 566.7 | 843990 | 1000 |
| 3 | 7-8-5-9 | 5-5-5-4 | 6 | 0.0 | Adam | 0.1248007 | 239.7 | 422748 | 500 |
| 3 | 5-7-8-9 | 5-5-5-4 | 6 | 0.2 | Adam | 0.1248179 | 198.8 | 422748 | 500 |
| 3 | 7-8-5-9 | 5-5-5-8 | 6 | 0.0 | Adam | 0.1248411 | 515.4 | 843540 | 1000 |
| 3 | 5-7-8-9 | 5-5-5-4 | 6 | 0.0 | Adam | 0.1248427 | 207.5 | 422748 | 500 |
| 3 | 5-7-8-9 | 5-5-5-4 | 5 | 0.0 | Adam | 0.1248497 | 176.8 | 422430 | 500 |
| 3 | 5-7-8-9 | 5-5-5-8 | 6 | 0.0 | Adam | 0.1248617 | 485.0 | 843540 | 1000 |
| 3 | 5-7-8-9 | 5-5-5-8 | 7 | 0.0 | Adagrad | 0.1248738 | 549.6 | 843990 | 1000 |
| 3 | 5-7-8-9 | 5-5-5-4 | 9 | 0.0 | Adagrad | 0.1249106 | 303.4 | 423702 | 500 |
| 3 | 5-7-8-9 | 5-5-5-8 | 4 | 0.2 | Adam | 0.1249247 | 373.4 | 842640 | 1000 |
| 3 | 5-7-8-9 | 5-5-5-8 | 6 | 0.0 | Adagrad | 0.1249492 | 495.4 | 843540 | 1000 |
| 3 | 7-8-5-9 | 5-5-5-8 | 4 | 0.2 | Adam | 0.1249674 | 352.8 | 842640 | 1000 |
| 3 | 5-7-8-9 | 5-5-5-8 | 5 | 0.0 | Adam | 0.1249805 | 401.5 | 843090 | 1000 |
| 3 | 7-8-5-9 | 5-5-5-4 | 6 | 0.2 | Adam | 0.1249825 | 196.0 | 422748 | 500 |
| 3 | 7-8-5-9 | 5-5-5-4 | 5 | 0.0 | Adam | 0.1250019 | 152.7 | 422430 | 500 |
| 3 | 7-8-5-9 | 5-5-5-8 | 8 | 0.0 | Adagrad | 0.1250213 | 700.5 | 844440 | 1000 |
| 3 | 7-8-5-9 | 5-5-5-8 | 10 | 0.4 | Adam | 0.125038 | 817.3 | 845340 | 1000 |
| 3 | 7-8-5-9 | 5-5-5-4 | 4 | 0.0 | Adam | 0.125049 | 132.6 | 422112 | 500 |
| 3 | 7-8-5-9 | 5-5-5-8 | 9 | 0.4 | Adam | 0.1250493 | 736.5 | 844890 | 1000 |
| 3 | 5-7-8-9 | 5-5-5-4 | 10 | 0.0 | Adagrad | 0.125055 | 329.4 | 424020 | 500 |
| 3 | 5-7-8-9 | 5-5-5-8 | 10 | 0.4 | Adam | 0.1250681 | 793.9 | 845340 | 1000 |
| 3 | 7-8-5-9 | 5-5-5-8 | 5 | 0.0 | Adam | 0.1250873 | 337.7 | 843090 | 1000 |
| 3 | 7-8-5-9 | 5-5-5-8 | 6 | 0.0 | Adagrad | 0.1250933 | 545.0 | 843540 | 1000 |
| 3 | 5-7-8-9 | 5-5-5-8 | 7 | 0.4 | Adam | 0.1250962 | 609.6 | 843990 | 1000 |
| 3 | 5-7-8-9 | 5-5-5-8 | 4 | 0.0 | Adam | 0.1250999 | 328.0 | 842640 | 1000 |
| 3 | 5-7-8-9 | 5-5-5-4 | 4 | 0.0 | Adam | 0.1251213 | 157.3 | 422112 | 500 |
| 3 | 5-7-8-9 | 5-5-5-8 | 9 | 0.4 | Adam | 0.1251226 | 725.3 | 844890 | 1000 |
| 3 | 7-8-5-9 | 5-5-5-4 | 10 | 0.0 | Adagrad | 0.1251388 | 331.3 | 424020 | 500 |
| 3 | 5-7-8-9 | 5-5-5-4 | 5 | 0.2 | Adam | 0.1251405 | 175.4 | 422430 | 500 |
| 3 | 7-8-5-9 | 5-5-5-8 | 8 | 0.4 | Adam | 0.1251506 | 645.8 | 844440 | 1000 |
| 3 | 5-7-8-9 | 5-5-5-8 | 5 | 0.0 | Adagrad | 0.1251514 | 409.6 | 843090 | 1000 |
| 3 | 7-8-5-9 | 5-5-5-4 | 5 | 0.2 | Adam | 0.1251684 | 191.1 | 422430 | 500 |
| 3 | 7-8-5-9 | 5-5-5-8 | 4 | 0.0 | Adam | 0.1251733 | 258.6 | 842640 | 1000 |
| 3 | 5-7-8-9 | 5-5-5-4 | 9 | 0.4 | Adam | 0.1251741 | 260.6 | 423702 | 500 |
| 3 | 5-7-8-9 | 5-5-5-8 | 8 | 0.4 | Adam | 0.1251964 | 727.3 | 844440 | 1000 |
| 3 | 7-8-5-9 | 5-5-5-8 | 7 | 0.0 | Adagrad | 0.1252038 | 601.1 | 843990 | 1000 |
| 3 | 7-8-5-9 | 5-5-5-8 | 7 | 0.4 | Adam | 0.1252384 | 571.1 | 843990 | 1000 |
| 3 | 5-7-8-9 | 5-5-5-4 | 8 | 0.0 | Adagrad | 0.1252441 | 285.5 | 423384 | 500 |
| 3 | 7-8-5-9 | 5-5-5-4 | 8 | 0.0 | Adagrad | 0.1252553 | 271.2 | 423384 | 500 |
| 3 | 5-7-8-9 | 5-5-5-8 | 3 | 0.2 | Adam | 0.1252562 | 306.5 | 842190 | 1000 |
| 3 | 7-8-5-9 | 5-5-5-8 | 3 | 0.2 | Adam | 0.1253053 | 280.9 | 842190 | 1000 |
| 3 | 5-7-8-9 | 5-5-5-4 | 7 | 0.0 | Adagrad | 0.1253146 | 230.7 | 423066 | 500 |
| 3 | 7-8-5-9 | 5-5-5-4 | 9 | 0.0 | Adagrad | 0.1253171 | 300.3 | 423702 | 500 |
| 3 | 5-7-8-9 | 5-5-5-4 | 10 | 0.4 | Adam | 0.1253218 | 266.7 | 424020 | 500 |
| 3 | 5-7-8-9 | 5-5-5-8 | 3 | 0.0 | Adam | 0.1253668 | 277.3 | 842190 | 1000 |
| 3 | 5-7-8-9 | 5-5-5-8 | 6 | 0.4 | Adam | 0.1253802 | 530.0 | 843540 | 1000 |
| 3 | 5-7-8-9 | 5-5-5-8 | 5 | 0.4 | Adam | 0.1253903 | 424.8 | 843090 | 1000 |
| 3 | 7-8-5-9 | 5-5-5-4 | 4 | 0.2 | Adam | 0.1254024 | 163.2 | 422112 | 500 |
| 3 | 5-7-8-9 | 5-5-5-8 | 4 | 0.0 | Adagrad | 0.1254343 | 356.6 | 842640 | 1000 |
| 3 | 5-7-8-9 | 5-5-5-4 | 3 | 0.2 | Adam | 0.1254506 | 154.9 | 421794 | 500 |
| 3 | 5-7-8-9 | 5-5-5-4 | 3 | 0.0 | Adam | 0.1254512 | 134.4 | 421794 | 500 |
| 3 | 5-7-8-9 | 5-5-5-4 | 4 | 0.2 | Adam | 0.1254624 | 157.2 | 422112 | 500 |
| 3 | 5-7-8-9 | 5-5-5-8 | 10 | 0.2 | Adagrad | 0.1254798 | 810.8 | 845340 | 1000 |
| 3 | 7-8-5-9 | 5-5-5-8 | 6 | 0.4 | Adam | 0.1254815 | 511.0 | 843540 | 1000 |
| 3 | 7-8-5-9 | 5-5-5-8 | 3 | 0.0 | Adam | 0.1254903 | 216.5 | 842190 | 1000 |
| 3 | 7-8-5-9 | 5-5-5-4 | 6 | 0.0 | Adagrad | 0.1254977 | 199.7 | 422748 | 500 |
| 3 | 7-8-5-9 | 5-5-5-8 | 5 | 0.0 | Adagrad | 0.1254993 | 408.6 | 843090 | 1000 |
| 3 | 7-8-5-9 | 5-5-5-4 | 3 | 0.0 | Adam | 0.1255102 | 122.6 | 421794 | 500 |
| 3 | 7-8-5-9 | 5-5-5-8 | 9 | 0.0 | RMSprop | 0.1255144 | 759.2 | 844890 | 1000 |
| 3 | 5-7-8-9 | 5-5-5-8 | 10 | 0.0 | RMSprop | 0.1255202 | 937.6 | 845340 | 1000 |
| 3 | 7-8-5-9 | 5-5-5-8 | 10 | 0.0 | RMSprop | 0.1255368 | 853.0 | 845340 | 1000 |
| 3 | 5-7-8-9 | 5-5-5-8 | 9 | 0.0 | RMSprop | 0.1255486 | 793.3 | 844890 | 1000 |
| 3 | 7-8-5-9 | 5-5-5-4 | 7 | 0.4 | Adam | 0.1255618 | 188.4 | 423066 | 500 |
| 3 | 7-8-5-9 | 5-5-5-8 | 4 | 0.0 | Adagrad | 0.125605 | 351.8 | 842640 | 1000 |
| 3 | 7-8-5-9 | 5-5-5-4 | 8 | 0.4 | Adam | 0.1256176 | 210.2 | 423384 | 500 |
| 3 | 5-7-8-9 | 5-5-5-4 | 8 | 0.4 | Adam | 0.125622 | 211.6 | 423384 | 500 |
| 3 | 7-8-5-9 | 5-5-5-4 | 10 | 0.4 | Adam | 0.1256328 | 255.8 | 424020 | 500 |
| 3 | 7-8-5-9 | 5-5-5-8 | 5 | 0.4 | Adam | 0.125634 | 442.9 | 843090 | 1000 |
| 3 | 7-8-5-9 | 5-5-5-4 | 7 | 0.0 | Adagrad | 0.1256607 | 235.3 | 423066 | 500 |
| 3 | 5-7-8-9 | 5-5-5-8 | 8 | 0.2 | Adagrad | 0.1256685 | 690.9 | 844440 | 1000 |
| 3 | 5-7-8-9 | 5-5-5-8 | 7 | 0.0 | RMSprop | 0.1256962 | 578.0 | 843990 | 1000 |
| 3 | 5-7-8-9 | 5-5-5-4 | 10 | 0.0 | RMSprop | 0.1256969 | 353.1 | 424020 | 500 |
| 3 | 5-7-8-9 | 5-5-5-8 | 8 | 0.0 | RMSprop | 0.125718 | 696.4 | 844440 | 1000 |
| 3 | 7-8-5-9 | 5-5-5-4 | 9 | 0.4 | Adam | 0.1257241 | 246.1 | 423702 | 500 |
| 3 | 5-7-8-9 | 5-5-5-4 | 5 | 0.0 | Adagrad | 0.125742 | 171.4 | 422430 | 500 |
| 3 | 5-7-8-9 | 5-5-5-8 | 2 | 0.2 | Adam | 0.1257623 | 249.0 | 841740 | 1000 |
| 3 | 5-7-8-9 | 5-5-5-4 | 7 | 0.4 | Adam | 0.125769 | 190.0 | 423066 | 500 |
| 3 | 5-7-8-9 | 5-5-5-4 | 2 | 0.0 | Adam | 0.1257772 | 111.0 | 421476 | 500 |
| 3 | 5-7-8-9 | 5-5-5-8 | 7 | 0.2 | Adagrad | 0.1257953 | 605.8 | 843990 | 1000 |
| 3 | 7-8-5-9 | 5-5-5-8 | 2 | 0.2 | Adam | 0.1257956 | 219.7 | 841740 | 1000 |
| 3 | 7-8-5-9 | 5-5-5-8 | 10 | 0.2 | Adagrad | 0.1258059 | 879.8 | 845340 | 1000 |
| 3 | 5-7-8-9 | 5-5-5-8 | 9 | 0.2 | Adagrad | 0.1258067 | 749.2 | 844890 | 1000 |
| 3 | 7-8-5-9 | 5-5-5-8 | 8 | 0.0 | RMSprop | 0.1258106 | 678.2 | 844440 | 1000 |
| 3 | 5-7-8-9 | 5-5-5-4 | 6 | 0.0 | Adagrad | 0.1258151 | 201.8 | 422748 | 500 |
| 3 | 7-8-5-9 | 5-5-5-8 | 8 | 0.2 | Adagrad | 0.1258196 | 710.5 | 844440 | 1000 |
| 3 | 7-8-5-9 | 5-5-5-4 | 10 | 0.0 | RMSprop | 0.1258378 | 342.4 | 424020 | 500 |
| 3 | 5-7-8-9 | 5-5-5-4 | 9 | 0.0 | RMSprop | 0.1258386 | 317.5 | 423702 | 500 |
| 3 | 7-8-5-9 | 5-5-5-8 | 9 | 0.2 | Adagrad | 0.1258595 | 795.6 | 844890 | 1000 |
| 3 | 7-8-5-9 | 5-5-5-4 | 3 | 0.2 | Adam | 0.1258645 | 139.7 | 421794 | 500 |
| 3 | 7-8-5-9 | 5-5-5-8 | 4 | 0.4 | Adam | 0.1258752 | 347.9 | 842640 | 1000 |
| 3 | 7-8-5-9 | 5-5-5-8 | 7 | 0.0 | RMSprop | 0.1258812 | 597.6 | 843990 | 1000 |
| 3 | 5-7-8-9 | 5-5-5-8 | 4 | 0.4 | Adam | 0.1259 | 370.0 | 842640 | 1000 |
| 3 | 5-7-8-9 | 5-5-5-4 | 6 | 0.4 | Adam | 0.1259053 | 168.7 | 422748 | 500 |
| 3 | 5-7-8-9 | 5-5-5-4 | 5 | 0.4 | Adam | 0.1259141 | 148.0 | 422430 | 500 |
| 3 | 5-7-8-9 | 5-5-5-8 | 6 | 0.0 | RMSprop | 0.1259303 | 521.4 | 843540 | 1000 |
| 3 | 5-7-8-9 | 5-5-5-8 | 3 | 0.4 | Adam | 0.125937 | 306.3 | 842190 | 1000 |
| 3 | 7-8-5-9 | 5-5-5-4 | 5 | 0.0 | Adagrad | 0.1259383 | 178.4 | 422430 | 500 |
| 3 | 5-7-8-9 | 5-5-5-8 | 2 | 0.0 | Adam | 0.1259397 | 223.3 | 841740 | 1000 |
| 3 | 7-8-5-9 | 5-5-5-4 | 5 | 0.4 | Adam | 0.1259812 | 148.0 | 422430 | 500 |
| 3 | 5-7-8-9 | 5-5-5-4 | 7 | 0.0 | RMSprop | 0.1260187 | 245.3 | 423066 | 500 |
| 3 | 7-8-5-9 | 5-5-5-8 | 2 | 0.0 | Adam | 0.1260234 | 176.7 | 841740 | 1000 |
| 3 | 7-8-5-9 | 5-5-5-4 | 8 | 0.0 | RMSprop | 0.1260331 | 281.5 | 423384 | 500 |
| 3 | 7-8-5-9 | 5-5-5-4 | 6 | 0.4 | Adam | 0.1260391 | 169.1 | 422748 | 500 |
| 3 | 7-8-5-9 | 5-5-5-4 | 9 | 0.0 | RMSprop | 0.1260553 | 297.8 | 423702 | 500 |
| 3 | 7-8-5-9 | 5-5-5-8 | 6 | 0.0 | RMSprop | 0.1260685 | 468.9 | 843540 | 1000 |
| 3 | 5-7-8-9 | 5-5-5-4 | 8 | 0.0 | RMSprop | 0.1260692 | 283.4 | 423384 | 500 |
| 3 | 5-7-8-9 | 5-5-5-8 | 5 | 0.0 | RMSprop | 0.126102 | 436.7 | 843090 | 1000 |
| 3 | 7-8-5-9 | 5-5-5-8 | 3 | 0.0 | Adagrad | 0.1261104 | 285.0 | 842190 | 1000 |
| 3 | 7-8-5-9 | 5-5-5-4 | 10 | 0.2 | Adagrad | 0.1261226 | 261.6 | 424020 | 500 |
| 3 | 7-8-5-9 | 5-5-5-8 | 6 | 0.2 | Adagrad | 0.1261661 | 504.6 | 843540 | 1000 |
| 3 | 5-7-8-9 | 5-5-5-4 | 4 | 0.0 | Adagrad | 0.1261951 | 147.0 | 422112 | 500 |
| 3 | 5-7-8-9 | 5-5-5-8 | 3 | 0.0 | Adagrad | 0.1261976 | 279.8 | 842190 | 1000 |
| 3 | 5-7-8-9 | 5-5-5-4 | 4 | 0.4 | Adam | 0.1262061 | 127.7 | 422112 | 500 |
| 3 | 5-7-8-9 | 5-5-5-8 | 5 | 0.2 | Adagrad | 0.1262156 | 432.2 | 843090 | 1000 |
| 3 | 5-7-8-9 | 5-5-5-8 | 6 | 0.2 | Adagrad | 0.1262175 | 506.6 | 843540 | 1000 |
| 3 | 7-8-5-9 | 5-5-5-8 | 7 | 0.2 | Adagrad | 0.1262629 | 624.5 | 843990 | 1000 |
| 3 | 7-8-5-9 | 5-5-5-8 | 5 | 0.0 | RMSprop | 0.1262742 | 433.7 | 843090 | 1000 |
| 3 | 5-7-8-9 | 5-5-5-4 | 9 | 0.2 | Adagrad | 0.1262789 | 232.2 | 423702 | 500 |
| 3 | 7-8-5-9 | 5-5-5-4 | 4 | 0.0 | Adagrad | 0.1262851 | 163.8 | 422112 | 500 |
| 3 | 5-7-8-9 | 5-5-5-4 | 2 | 0.2 | Adam | 0.126319 | 127.3 | 421476 | 500 |
| 3 | 7-8-5-9 | 5-5-5-8 | 3 | 0.4 | Adam | 0.1263239 | 291.0 | 842190 | 1000 |
| 3 | 7-8-5-9 | 5-5-5-4 | 2 | 0.0 | Adam | 0.1263365 | 107.1 | 421476 | 500 |
| 3 | 7-8-5-9 | 5-5-5-4 | 7 | 0.0 | RMSprop | 0.1263389 | 256.9 | 423066 | 500 |
| 3 | 7-8-5-9 | 5-5-5-4 | 4 | 0.4 | Adam | 0.1263428 | 127.9 | 422112 | 500 |
| 3 | 7-8-5-9 | 5-5-5-4 | 9 | 0.2 | Adagrad | 0.1263621 | 233.8 | 423702 | 500 |
| 3 | 7-8-5-9 | 5-5-5-4 | 3 | 0.4 | Adam | 0.1264076 | 107.9 | 421794 | 500 |
| 3 | 7-8-5-9 | 5-5-5-4 | 2 | 0.2 | Adam | 0.1264212 | 113.4 | 421476 | 500 |
| 3 | 5-7-8-9 | 5-5-5-4 | 10 | 0.2 | Adagrad | 0.1264251 | 256.2 | 424020 | 500 |
| 3 | 5-7-8-9 | 5-5-5-4 | 8 | 0.2 | Adagrad | 0.1264707 | 211.9 | 423384 | 500 |
| 3 | 5-7-8-9 | 5-5-5-4 | 3 | 0.0 | Adagrad | 0.1264982 | 125.9 | 421794 | 500 |
| 3 | 7-8-5-9 | 5-5-5-4 | 6 | 0.0 | RMSprop | 0.1265207 | 220.2 | 422748 | 500 |
| 3 | 5-7-8-9 | 5-5-5-4 | 7 | 0.2 | Adagrad | 0.1265293 | 189.9 | 423066 | 500 |
| 3 | 7-8-5-9 | 5-5-5-8 | 5 | 0.2 | Adagrad | 0.1265766 | 432.9 | 843090 | 1000 |
| 3 | 5-7-8-9 | 5-5-5-4 | 6 | 0.0 | RMSprop | 0.1266145 | 214.8 | 422748 | 500 |
| 3 | 5-7-8-9 | 5-5-5-8 | 4 | 0.0 | RMSprop | 0.1266586 | 367.7 | 842640 | 1000 |
| 3 | 7-8-5-9 | 5-5-5-4 | 8 | 0.2 | Adagrad | 0.1266614 | 212.2 | 423384 | 500 |
| 3 | 5-7-8-9 | 5-5-5-8 | 2 | 0.4 | Adam | 0.126662 | 245.5 | 841740 | 1000 |
| 3 | 5-7-8-9 | 5-5-5-8 | 2 | 0.0 | Adagrad | 0.1266702 | 225.1 | 841740 | 1000 |
| 3 | 7-8-5-9 | 5-5-5-4 | 5 | 0.0 | RMSprop | 0.126672 | 200.2 | 422430 | 500 |
| 3 | 7-8-5-9 | 5-5-5-8 | 4 | 0.0 | RMSprop | 0.1266925 | 356.8 | 842640 | 1000 |
| 3 | 5-7-8-9 | 5-5-5-4 | 6 | 0.2 | Adagrad | 0.1267113 | 168.8 | 422748 | 500 |
| 3 | 7-8-5-9 | 5-5-5-4 | 3 | 0.0 | Adagrad | 0.1267197 | 137.8 | 421794 | 500 |
| 3 | 5-7-8-9 | 5-5-5-4 | 5 | 0.0 | RMSprop | 0.1267724 | 192.3 | 422430 | 500 |
| 3 | 5-7-8-9 | 5-5-5-8 | 1 | 0.0 | Adam | 0.1268006 | 158.4 | 841290 | 1000 |
| 3 | 7-8-5-9 | 5-5-5-4 | 6 | 0.2 | Adagrad | 0.1268227 | 168.6 | 422748 | 500 |
| 3 | 5-7-8-9 | 5-5-5-4 | 3 | 0.4 | Adam | 0.1268334 | 108.0 | 421794 | 500 |
| 3 | 7-8-5-9 | 5-5-5-8 | 2 | 0.4 | Adam | 0.1268398 | 229.8 | 841740 | 1000 |
| 3 | 7-8-5-9 | 5-5-5-8 | 4 | 0.2 | Adagrad | 0.1268472 | 361.9 | 842640 | 1000 |
| 3 | 5-7-8-9 | 5-5-5-8 | 4 | 0.2 | Adagrad | 0.1268696 | 357.2 | 842640 | 1000 |
| 3 | 5-7-8-9 | 5-5-5-4 | 2 | 0.4 | Adam | 0.1268781 | 88.69 | 421476 | 500 |
| 3 | 7-8-5-9 | 5-5-5-8 | 2 | 0.0 | Adagrad | 0.1269396 | 236.2 | 841740 | 1000 |
| 3 | 5-7-8-9 | 5-5-5-4 | 2 | 0.0 | Adagrad | 0.1269661 | 101.4 | 421476 | 500 |
| 3 | 7-8-5-9 | 5-5-5-4 | 5 | 0.2 | Adagrad | 0.1269663 | 147.7 | 422430 | 500 |
| 3 | 5-7-8-9 | 5-5-5-4 | 5 | 0.2 | Adagrad | 0.1269759 | 149.9 | 422430 | 500 |
| 3 | 7-8-5-9 | 5-5-5-4 | 7 | 0.2 | Adagrad | 0.1269981 | 190.8 | 423066 | 500 |
| 3 | 5-7-8-9 | 5-5-5-8 | 3 | 0.2 | Adagrad | 0.1270132 | 281.5 | 842190 | 1000 |
| 3 | 5-7-8-9 | 5-5-5-8 | 10 | 0.2 | RMSprop | 0.1270357 | 855.9 | 845340 | 1000 |
| 3 | 5-7-8-9 | 5-5-5-4 | 4 | 0.0 | RMSprop | 0.1270648 | 177.4 | 422112 | 500 |
| 3 | 5-7-8-9 | 5-5-5-4 | 1 | 0.0 | Adam | 0.1270652 | 81.27 | 421158 | 500 |
| 3 | 7-8-5-9 | 5-5-5-4 | 4 | 0.2 | Adagrad | 0.1270738 | 126.9 | 422112 | 500 |
| 3 | 5-7-8-9 | 5-5-5-8 | 9 | 0.2 | RMSprop | 0.1270843 | 801.4 | 844890 | 1000 |
| 3 | 5-7-8-9 | 5-5-5-4 | 4 | 0.2 | Adagrad | 0.1270902 | 128.7 | 422112 | 500 |
| 3 | 5-7-8-9 | 5-5-5-8 | 3 | 0.0 | RMSprop | 0.1271117 | 303.2 | 842190 | 1000 |
| 3 | 7-8-5-9 | 5-5-5-8 | 10 | 0.2 | RMSprop | 0.1271437 | 806.9 | 845340 | 1000 |
| 3 | 7-8-5-9 | 5-5-5-4 | 4 | 0.0 | RMSprop | 0.1271588 | 168.8 | 422112 | 500 |
| 3 | 5-7-8-9 | 5-5-5-8 | 8 | 0.2 | RMSprop | 0.1272021 | 714.9 | 844440 | 1000 |
| 3 | 7-8-5-9 | 5-5-5-4 | 2 | 0.0 | Adagrad | 0.1272578 | 110.9 | 421476 | 500 |
| 3 | 7-8-5-9 | 5-5-5-8 | 9 | 0.2 | RMSprop | 0.127274 | 716.6 | 844890 | 1000 |
| 3 | 5-7-8-9 | 5-5-5-4 | 3 | 0.0 | RMSprop | 0.1273163 | 144.7 | 421794 | 500 |
| 3 | 7-8-5-9 | 5-5-5-8 | 3 | 0.2 | Adagrad | 0.1273246 | 295.9 | 842190 | 1000 |
| 3 | 7-8-5-9 | 5-5-5-8 | 3 | 0.0 | RMSprop | 0.1273257 | 299.1 | 842190 | 1000 |
| 3 | 7-8-5-9 | 5-5-5-8 | 1 | 0.0 | Adam | 0.1273269 | 124.0 | 841290 | 1000 |
| 3 | 7-8-5-9 | 5-5-5-8 | 8 | 0.2 | RMSprop | 0.1273436 | 674.1 | 844440 | 1000 |
| 3 | 7-8-5-9 | 5-5-5-8 | 1 | 0.2 | Adam | 0.1274026 | 164.2 | 841290 | 1000 |
| 3 | 5-7-8-9 | 5-5-5-8 | 2 | 0.2 | Adagrad | 0.1274081 | 225.0 | 841740 | 1000 |
| 3 | 5-7-8-9 | 5-5-5-8 | 7 | 0.2 | RMSprop | 0.1274471 | 648.6 | 843990 | 1000 |
| 3 | 5-7-8-9 | 5-5-5-4 | 1 | 0.2 | Adam | 0.1274764 | 95.81 | 421158 | 500 |
| 3 | 5-7-8-9 | 5-5-5-4 | 10 | 0.2 | RMSprop | 0.1274864 | 262.2 | 424020 | 500 |
| 3 | 7-8-5-9 | 5-5-5-4 | 2 | 0.4 | Adam | 0.1275019 | 87.22 | 421476 | 500 |
| 3 | 5-7-8-9 | 5-5-5-8 | 1 | 0.2 | Adam | 0.1275158 | 177.2 | 841290 | 1000 |
| 3 | 5-7-8-9 | 5-5-5-8 | 9 | 0.4 | Adagrad | 0.1275207 | 731.6 | 844890 | 1000 |
| 3 | 7-8-5-9 | 5-5-5-4 | 10 | 0.2 | RMSprop | 0.1275224 | 278.5 | 424020 | 500 |
| 3 | 7-8-5-9 | 5-5-5-8 | 6 | 0.2 | RMSprop | 0.1275816 | 529.3 | 843540 | 1000 |
| 3 | 5-7-8-9 | 5-5-5-8 | 7 | 0.4 | Adagrad | 0.1275938 | 576.9 | 843990 | 1000 |
| 3 | 5-7-8-9 | 5-5-5-4 | 3 | 0.2 | Adagrad | 0.1276366 | 107.8 | 421794 | 500 |
| 3 | 7-8-5-9 | 5-5-5-4 | 1 | 0.0 | Adam | 0.1276491 | 77.89 | 421158 | 500 |
| 3 | 7-8-5-9 | 5-5-5-8 | 7 | 0.2 | RMSprop | 0.1276555 | 594.3 | 843990 | 1000 |
| 3 | 5-7-8-9 | 5-5-5-8 | 5 | 0.2 | RMSprop | 0.1277165 | 461.3 | 843090 | 1000 |
| 3 | 5-7-8-9 | 5-5-5-4 | 9 | 0.2 | RMSprop | 0.1277295 | 233.9 | 423702 | 500 |
| 3 | 5-7-8-9 | 5-5-5-8 | 6 | 0.2 | RMSprop | 0.1277334 | 541.1 | 843540 | 1000 |
| 3 | 7-8-5-9 | 5-5-5-4 | 3 | 0.0 | RMSprop | 0.1277422 | 150.1 | 421794 | 500 |
| 3 | 5-7-8-9 | 5-5-5-8 | 2 | 0.0 | RMSprop | 0.1277494 | 243.4 | 841740 | 1000 |
| 3 | 5-7-8-9 | 5-5-5-4 | 8 | 0.2 | RMSprop | 0.1277542 | 213.1 | 423384 | 500 |
| 3 | 5-7-8-9 | 5-5-5-8 | 1 | 0.4 | Adam | 0.1277666 | 172.9 | 841290 | 1000 |
| 3 | 7-8-5-9 | 5-5-5-8 | 2 | 0.2 | Adagrad | 0.1277667 | 234.1 | 841740 | 1000 |
| 3 | 7-8-5-9 | 5-5-5-8 | 10 | 0.4 | Adagrad | 0.127779 | 836.8 | 845340 | 1000 |
| 3 | 5-7-8-9 | 5-5-5-8 | 8 | 0.4 | Adagrad | 0.127802 | 651.8 | 844440 | 1000 |
| 3 | 5-7-8-9 | 5-5-5-8 | 1 | 0.0 | Adagrad | 0.1278528 | 157.4 | 841290 | 1000 |
| 3 | 5-7-8-9 | 5-5-5-8 | 10 | 0.4 | Adagrad | 0.1278704 | 834.6 | 845340 | 1000 |
| 3 | 7-8-5-9 | 5-5-5-8 | 9 | 0.4 | Adagrad | 0.1279043 | 768.1 | 844890 | 1000 |
| 3 | 7-8-5-9 | 5-5-5-8 | 7 | 0.4 | Adagrad | 0.1279188 | 633.1 | 843990 | 1000 |
| 3 | 7-8-5-9 | 5-5-5-4 | 9 | 0.2 | RMSprop | 0.1279215 | 232.1 | 423702 | 500 |
| 3 | 5-7-8-9 | 5-5-5-4 | 7 | 0.2 | RMSprop | 0.127929 | 191.3 | 423066 | 500 |
| 3 | 7-8-5-9 | 5-5-5-4 | 3 | 0.2 | Adagrad | 0.1279295 | 109.1 | 421794 | 500 |
| 3 | 7-8-5-9 | 5-5-5-4 | 8 | 0.2 | RMSprop | 0.1279329 | 214.0 | 423384 | 500 |
| 3 | 7-8-5-9 | 5-5-5-8 | 2 | 0.0 | RMSprop | 0.1279456 | 237.1 | 841740 | 1000 |
| 3 | 7-8-5-9 | 5-5-5-8 | 8 | 0.4 | Adagrad | 0.1279497 | 707.4 | 844440 | 1000 |
| 3 | 5-7-8-9 | 5-5-5-4 | 9 | 0.4 | Adagrad | 0.127981 | 232.9 | 423702 | 500 |
| 3 | 7-8-5-9 | 5-5-5-4 | 1 | 0.2 | Adam | 0.1279935 | 83.99 | 421158 | 500 |
| 3 | 7-8-5-9 | 5-5-5-4 | 2 | 0.2 | Adagrad | 0.1280178 | 88.29 | 421476 | 500 |
| 3 | 5-7-8-9 | 5-5-5-8 | 6 | 0.4 | Adagrad | 0.1280205 | 508.3 | 843540 | 1000 |
| 3 | 5-7-8-9 | 5-5-5-4 | 7 | 0.4 | Adagrad | 0.1280248 | 190.3 | 423066 | 500 |
| 3 | 7-8-5-9 | 5-5-5-8 | 5 | 0.2 | RMSprop | 0.128026 | 471.4 | 843090 | 1000 |
| 3 | 7-8-5-9 | 5-5-5-4 | 2 | 0.0 | RMSprop | 0.1280496 | 125.1 | 421476 | 500 |
| 3 | 7-8-5-9 | 5-5-5-8 | 1 | 0.4 | Adam | 0.1280532 | 163.4 | 841290 | 1000 |
| 3 | 7-8-5-9 | 5-5-5-4 | 1 | 0.4 | Adam | 0.1280943 | 62.93 | 421158 | 500 |
| 3 | 5-7-8-9 | 5-5-5-8 | 4 | 0.2 | RMSprop | 0.1280994 | 389.8 | 842640 | 1000 |
| 3 | 5-7-8-9 | 5-5-5-4 | 2 | 0.2 | Adagrad | 0.1281032 | 87.66 | 421476 | 500 |
| 3 | 7-8-5-9 | 5-5-5-4 | 9 | 0.4 | Adagrad | 0.1281179 | 234.9 | 423702 | 500 |
| 3 | 5-7-8-9 | 5-5-5-4 | 6 | 0.4 | Adagrad | 0.1281246 | 167.2 | 422748 | 500 |
| 3 | 7-8-5-9 | 5-5-5-4 | 8 | 0.4 | Adagrad | 0.1281484 | 211.8 | 423384 | 500 |
| 3 | 7-8-5-9 | 5-5-5-4 | 6 | 0.4 | Adagrad | 0.1281491 | 169.3 | 422748 | 500 |
| 3 | 7-8-5-9 | 5-5-5-8 | 1 | 0.0 | Adagrad | 0.1281507 | 168.3 | 841290 | 1000 |
| 3 | 5-7-8-9 | 5-5-5-4 | 10 | 0.4 | Adagrad | 0.1281587 | 255.6 | 424020 | 500 |
| 3 | 7-8-5-9 | 5-5-5-8 | 6 | 0.4 | Adagrad | 0.1281637 | 508.0 | 843540 | 1000 |
| 3 | 5-7-8-9 | 5-5-5-4 | 6 | 0.2 | RMSprop | 0.128193 | 170.0 | 422748 | 500 |
| 3 | 7-8-5-9 | 5-5-5-4 | 7 | 0.2 | RMSprop | 0.1281934 | 191.4 | 423066 | 500 |
| 3 | 5-7-8-9 | 5-5-5-4 | 8 | 0.4 | Adagrad | 0.1282075 | 212.7 | 423384 | 500 |
| 3 | 7-8-5-9 | 5-5-5-8 | 4 | 0.2 | RMSprop | 0.1282114 | 390.3 | 842640 | 1000 |
| 3 | 5-7-8-9 | 5-5-5-8 | 5 | 0.4 | Adagrad | 0.1282264 | 441.2 | 843090 | 1000 |
| 3 | 5-7-8-9 | 5-5-5-4 | 1 | 0.4 | Adam | 0.1282337 | 63.73 | 421158 | 500 |
| 3 | 5-7-8-9 | 5-5-5-4 | 2 | 0.0 | RMSprop | 0.1282554 | 119.6 | 421476 | 500 |
| 3 | 7-8-5-9 | 5-5-5-8 | 4 | 0.4 | Adagrad | 0.1282777 | 341.5 | 842640 | 1000 |
| 3 | 5-7-8-9 | 5-5-5-4 | 5 | 0.2 | RMSprop | 0.12829 | 149.5 | 422430 | 500 |
| 3 | 5-7-8-9 | 5-5-5-8 | 4 | 0.4 | Adagrad | 0.1283101 | 356.2 | 842640 | 1000 |
| 3 | 5-7-8-9 | 5-5-5-4 | 1 | 0.0 | Adagrad | 0.1283371 | 76.44 | 421158 | 500 |
| 3 | 7-8-5-9 | 5-5-5-4 | 1 | 0.0 | Adagrad | 0.1283402 | 80.7 | 421158 | 500 |
| 3 | 7-8-5-9 | 5-5-5-4 | 7 | 0.4 | Adagrad | 0.1283506 | 190.5 | 423066 | 500 |
| 3 | 5-7-8-9 | 5-5-5-8 | 3 | 0.2 | RMSprop | 0.1283932 | 318.4 | 842190 | 1000 |
| 3 | 5-7-8-9 | 5-5-5-8 | 1 | 0.0 | RMSprop | 0.128405 | 173.2 | 841290 | 1000 |
| 3 | 5-7-8-9 | 5-5-5-8 | 10 | 0.4 | RMSprop | 0.1284056 | 908.4 | 845340 | 1000 |
| 3 | 7-8-5-9 | 5-5-5-4 | 5 | 0.4 | Adagrad | 0.1284056 | 147.7 | 422430 | 500 |
| 3 | 7-8-5-9 | 5-5-5-8 | 1 | 0.2 | Adagrad | 0.1284333 | 159.2 | 841290 | 1000 |
| 3 | 7-8-5-9 | 5-5-5-8 | 5 | 0.4 | Adagrad | 0.1284443 | 415.0 | 843090 | 1000 |
| 3 | 5-7-8-9 | 5-5-5-4 | 5 | 0.4 | Adagrad | 0.1284468 | 148.1 | 422430 | 500 |
| 3 | 5-7-8-9 | 5-5-5-8 | 1 | 0.2 | Adagrad | 0.1284504 | 162.9 | 841290 | 1000 |
| 3 | 7-8-5-9 | 5-5-5-4 | 10 | 0.4 | Adagrad | 0.1284719 | 258.7 | 424020 | 500 |
| 3 | 5-7-8-9 | 5-5-5-8 | 3 | 0.4 | Adagrad | 0.128474 | 272.7 | 842190 | 1000 |
| 3 | 7-8-5-9 | 5-5-5-4 | 4 | 0.2 | RMSprop | 0.1284874 | 130.8 | 422112 | 500 |
| 3 | 7-8-5-9 | 5-5-5-8 | 3 | 0.4 | Adagrad | 0.1284968 | 279.4 | 842190 | 1000 |
| 3 | 7-8-5-9 | 5-5-5-4 | 6 | 0.2 | RMSprop | 0.1285112 | 172.1 | 422748 | 500 |
| 3 | 5-7-8-9 | 5-5-5-4 | 4 | 0.4 | Adagrad | 0.1285138 | 131.1 | 422112 | 500 |
| 3 | 5-7-8-9 | 5-5-5-4 | 4 | 0.2 | RMSprop | 0.1285313 | 129.0 | 422112 | 500 |
| 3 | 7-8-5-9 | 5-5-5-8 | 3 | 0.2 | RMSprop | 0.1285346 | 315.1 | 842190 | 1000 |
| 3 | 7-8-5-9 | 5-5-5-4 | 5 | 0.2 | RMSprop | 0.1285427 | 151.8 | 422430 | 500 |
| 3 | 7-8-5-9 | 5-5-5-4 | 4 | 0.4 | Adagrad | 0.1285493 | 127.1 | 422112 | 500 |
| 3 | 7-8-5-9 | 5-5-5-8 | 10 | 0.4 | RMSprop | 0.1285916 | 887.4 | 845340 | 1000 |
| 3 | 5-7-8-9 | 5-5-5-8 | 2 | 0.2 | RMSprop | 0.1285919 | 252.8 | 841740 | 1000 |
| 3 | 7-8-5-9 | 5-5-5-4 | 3 | 0.4 | Adagrad | 0.1286115 | 107.3 | 421794 | 500 |
| 3 | 7-8-5-9 | 5-5-5-8 | 9 | 0.4 | RMSprop | 0.1286189 | 795.8 | 844890 | 1000 |
| 3 | 5-7-8-9 | 5-5-5-4 | 3 | 0.4 | Adagrad | 0.1286289 | 103.1 | 421794 | 500 |
| 3 | 7-8-5-9 | 5-5-5-8 | 7 | 0.4 | RMSprop | 0.1286443 | 657.6 | 843990 | 1000 |
| 3 | 5-7-8-9 | 5-5-5-8 | 7 | 0.4 | RMSprop | 0.1286562 | 661.0 | 843990 | 1000 |
| 3 | 5-7-8-9 | 5-5-5-8 | 9 | 0.4 | RMSprop | 0.1286668 | 789.8 | 844890 | 1000 |
| 3 | 7-8-5-9 | 5-5-5-8 | 8 | 0.4 | RMSprop | 0.1286871 | 745.3 | 844440 | 1000 |
| 3 | 5-7-8-9 | 5-5-5-8 | 8 | 0.4 | RMSprop | 0.128698 | 711.4 | 844440 | 1000 |
| 3 | 7-8-5-9 | 5-5-5-8 | 6 | 0.4 | RMSprop | 0.1287503 | 544.2 | 843540 | 1000 |
| 3 | 7-8-5-9 | 5-5-5-8 | 2 | 0.4 | Adagrad | 0.1287536 | 227.1 | 841740 | 1000 |
| 3 | 5-7-8-9 | 5-5-5-4 | 10 | 0.4 | RMSprop | 0.128756 | 258.6 | 424020 | 500 |
| 3 | 5-7-8-9 | 5-5-5-8 | 2 | 0.4 | Adagrad | 0.1287625 | 219.9 | 841740 | 1000 |
| 3 | 7-8-5-9 | 5-5-5-4 | 9 | 0.4 | RMSprop | 0.128785 | 238.2 | 423702 | 500 |
| 3 | 7-8-5-9 | 5-5-5-4 | 10 | 0.4 | RMSprop | 0.1287986 | 259.9 | 424020 | 500 |
| 3 | 5-7-8-9 | 5-5-5-4 | 7 | 0.4 | RMSprop | 0.1288066 | 191.5 | 423066 | 500 |
| 3 | 7-8-5-9 | 5-5-5-8 | 1 | 0.0 | RMSprop | 0.1288096 | 168.9 | 841290 | 1000 |
| 3 | 7-8-5-9 | 5-5-5-4 | 1 | 0.2 | Adagrad | 0.1288341 | 63.06 | 421158 | 500 |
| 3 | 5-7-8-9 | 5-5-5-4 | 9 | 0.4 | RMSprop | 0.1288373 | 236.2 | 423702 | 500 |
| 3 | 5-7-8-9 | 5-5-5-4 | 2 | 0.4 | Adagrad | 0.1288761 | 82.22 | 421476 | 500 |
| 3 | 5-7-8-9 | 5-5-5-4 | 1 | 0.2 | Adagrad | 0.1288852 | 62.43 | 421158 | 500 |
| 3 | 7-8-5-9 | 5-5-5-4 | 3 | 0.2 | RMSprop | 0.1288897 | 110.8 | 421794 | 500 |
| 3 | 7-8-5-9 | 5-5-5-4 | 2 | 0.4 | Adagrad | 0.1288958 | 86.43 | 421476 | 500 |
| 3 | 7-8-5-9 | 5-5-5-4 | 7 | 0.4 | RMSprop | 0.1289005 | 195.0 | 423066 | 500 |
| 3 | 7-8-5-9 | 5-5-5-4 | 8 | 0.4 | RMSprop | 0.1289047 | 217.9 | 423384 | 500 |
| 3 | 5-7-8-9 | 5-5-5-8 | 4 | 0.4 | RMSprop | 0.1289102 | 380.4 | 842640 | 1000 |
| 3 | 7-8-5-9 | 5-5-5-8 | 5 | 0.4 | RMSprop | 0.1289147 | 439.0 | 843090 | 1000 |
| 3 | 5-7-8-9 | 5-5-5-4 | 3 | 0.2 | RMSprop | 0.1289178 | 107.4 | 421794 | 500 |
| 3 | 5-7-8-9 | 5-5-5-4 | 8 | 0.4 | RMSprop | 0.1289186 | 214.5 | 423384 | 500 |
| 3 | 5-7-8-9 | 5-5-5-8 | 5 | 0.4 | RMSprop | 0.1289527 | 455.4 | 843090 | 1000 |
| 3 | 5-7-8-9 | 5-5-5-8 | 6 | 0.4 | RMSprop | 0.1289528 | 549.2 | 843540 | 1000 |
| 3 | 5-7-8-9 | 5-5-5-4 | 6 | 0.4 | RMSprop | 0.1289646 | 167.7 | 422748 | 500 |
| 3 | 7-8-5-9 | 5-5-5-8 | 2 | 0.2 | RMSprop | 0.1289745 | 247.1 | 841740 | 1000 |
| 3 | 7-8-5-9 | 5-5-5-4 | 6 | 0.4 | RMSprop | 0.1289807 | 172.4 | 422748 | 500 |
| 3 | 5-7-8-9 | 5-5-5-4 | 5 | 0.4 | RMSprop | 0.1289883 | 151.7 | 422430 | 500 |
| 3 | 5-7-8-9 | 5-5-5-4 | 1 | 0.0 | RMSprop | 0.1290203 | 86.23 | 421158 | 500 |
| 3 | 7-8-5-9 | 5-5-5-8 | 4 | 0.4 | RMSprop | 0.1290716 | 354.1 | 842640 | 1000 |
| 3 | 7-8-5-9 | 5-5-5-4 | 1 | 0.0 | RMSprop | 0.1290787 | 92.94 | 421158 | 500 |
| 3 | 5-7-8-9 | 5-5-5-4 | 2 | 0.2 | RMSprop | 0.1290877 | 86.72 | 421476 | 500 |
| 3 | 7-8-5-9 | 5-5-5-4 | 2 | 0.2 | RMSprop | 0.1291003 | 90.68 | 421476 | 500 |
| 3 | 7-8-5-9 | 5-5-5-4 | 5 | 0.4 | RMSprop | 0.1291056 | 152.0 | 422430 | 500 |
| 3 | 5-7-8-9 | 5-5-5-8 | 3 | 0.4 | RMSprop | 0.1291173 | 303.6 | 842190 | 1000 |
| 3 | 5-7-8-9 | 5-5-5-4 | 4 | 0.4 | RMSprop | 0.1291705 | 130.8 | 422112 | 500 |
| 3 | 7-8-5-9 | 5-5-5-4 | 4 | 0.4 | RMSprop | 0.1291891 | 132.0 | 422112 | 500 |
| 3 | 7-8-5-9 | 5-5-5-4 | 1 | 0.4 | Adagrad | 0.1291991 | 61.9 | 421158 | 500 |
| 3 | 5-7-8-9 | 5-5-5-8 | 1 | 0.4 | Adagrad | 0.1292414 | 158.8 | 841290 | 1000 |
| 3 | 7-8-5-9 | 5-5-5-8 | 1 | 0.4 | Adagrad | 0.1292744 | 163.1 | 841290 | 1000 |
| 3 | 7-8-5-9 | 5-5-5-8 | 3 | 0.4 | RMSprop | 0.1292758 | 321.7 | 842190 | 1000 |
| 3 | 5-7-8-9 | 5-5-5-4 | 1 | 0.4 | Adagrad | 0.1292939 | 57.76 | 421158 | 500 |
| 3 | 5-7-8-9 | 5-5-5-4 | 1 | 0.2 | RMSprop | 0.1293324 | 63.63 | 421158 | 500 |
| 3 | 5-7-8-9 | 5-5-5-8 | 1 | 0.2 | RMSprop | 0.1293639 | 177.2 | 841290 | 1000 |
| 3 | 5-7-8-9 | 5-5-5-8 | 2 | 0.4 | RMSprop | 0.1293879 | 249.1 | 841740 | 1000 |
| 3 | 5-7-8-9 | 5-5-5-4 | 3 | 0.4 | RMSprop | 0.129433 | 109.0 | 421794 | 500 |
| 3 | 7-8-5-9 | 5-5-5-8 | 1 | 0.2 | RMSprop | 0.1294799 | 179.5 | 841290 | 1000 |
| 3 | 7-8-5-9 | 5-5-5-4 | 3 | 0.4 | RMSprop | 0.1295014 | 112.6 | 421794 | 500 |
| 3 | 7-8-5-9 | 5-5-5-4 | 1 | 0.2 | RMSprop | 0.1295633 | 67.49 | 421158 | 500 |
| 3 | 5-7-8-9 | 5-5-5-4 | 2 | 0.4 | RMSprop | 0.1295657 | 91.92 | 421476 | 500 |
| 3 | 7-8-5-9 | 5-5-5-4 | 2 | 0.4 | RMSprop | 0.1295927 | 89.34 | 421476 | 500 |
| 3 | 7-8-5-9 | 5-5-5-8 | 2 | 0.4 | RMSprop | 0.1295945 | 262.7 | 841740 | 1000 |
| 3 | 5-7-8-9 | 5-5-5-8 | 1 | 0.4 | RMSprop | 0.1297767 | 179.1 | 841290 | 1000 |
| 3 | 7-8-5-9 | 5-5-5-4 | 1 | 0.4 | RMSprop | 0.1297867 | 75.03 | 421158 | 500 |
| 3 | 7-8-5-9 | 5-5-5-8 | 1 | 0.4 | RMSprop | 0.129798 | 197.4 | 841290 | 1000 |
| 3 | 5-7-8-9 | 5-5-5-4 | 1 | 0.4 | RMSprop | 0.1298255 | 72.0 | 421158 | 500 |
