| 1 | 5-7-8-9 | 5-5-5-8 | 8 | 0.2 | Adagrad | 0.1229805 | 513.7 | 2844216 | 1000 |
| 1 | 5-7-8-9 | 5-5-5-8 | 7 | 0.2 | Adagrad | 0.1229907 | 452.2 | 2844044 | 1000 |
| 1 | 5-7-8-9 | 5-5-5-8 | 10 | 0.2 | Adagrad | 0.1229948 | 602.2 | 2844560 | 1000 |
| 1 | 5-7-8-9 | 5-5-5-8 | 6 | 0.2 | Adagrad | 0.1230124 | 416.0 | 2843872 | 1000 |
| 1 | 5-7-8-9 | 5-5-5-8 | 10 | 0.0 | Adagrad | 0.1230334 | 510.1 | 2844560 | 1000 |
| 1 | 5-7-8-9 | 5-5-5-8 | 9 | 0.2 | Adagrad | 0.1230418 | 557.0 | 2844388 | 1000 |
| 1 | 5-7-8-9 | 5-5-5-8 | 5 | 0.2 | Adagrad | 0.1231366 | 355.8 | 2843700 | 1000 |
| 1 | 5-7-8-9 | 5-5-5-4 | 9 | 0.0 | Adagrad | 0.1231386 | 239.4 | 923064 | 500 |
| 1 | 5-7-8-9 | 5-5-5-8 | 7 | 0.0 | Adagrad | 0.1231537 | 374.7 | 2844044 | 1000 |
| 1 | 5-7-8-9 | 5-5-5-8 | 10 | 0.2 | Adam | 0.1231563 | 1006.0 | 2844560 | 1000 |
| 1 | 5-7-8-9 | 5-5-5-8 | 6 | 0.2 | Adam | 0.1231587 | 755.0 | 2843872 | 1000 |
| 1 | 5-7-8-9 | 5-5-5-8 | 5 | 0.2 | Adam | 0.1231765 | 706.0 | 2843700 | 1000 |
| 1 | 5-7-8-9 | 5-5-5-8 | 8 | 0.0 | Adagrad | 0.123184 | 414.5 | 2844216 | 1000 |
| 1 | 5-7-8-9 | 5-5-5-4 | 10 | 0.2 | Adam | 0.1231874 | 351.2 | 923200 | 500 |
| 1 | 5-7-8-9 | 5-5-5-8 | 4 | 0.2 | Adagrad | 0.123218 | 311.0 | 2843528 | 1000 |
| 1 | 5-7-8-9 | 5-5-5-8 | 4 | 0.2 | Adam | 0.1232289 | 665.5 | 2843528 | 1000 |
| 1 | 5-7-8-9 | 5-5-5-8 | 9 | 0.0 | Adagrad | 0.1232386 | 470.7 | 2844388 | 1000 |
| 1 | 5-7-8-9 | 5-5-5-8 | 9 | 0.2 | Adam | 0.123259 | 943.2 | 2844388 | 1000 |
| 1 | 5-7-8-9 | 5-5-5-4 | 10 | 0.0 | Adagrad | 0.1232797 | 253.7 | 923200 | 500 |
| 1 | 7-8-5-9 | 5-5-5-8 | 9 | 0.2 | Adagrad | 0.1232866 | 547.0 | 2844388 | 1000 |
| 1 | 5-7-8-9 | 5-5-5-4 | 9 | 0.2 | Adam | 0.1232916 | 299.8 | 923064 | 500 |
| 1 | 5-7-8-9 | 5-5-5-8 | 8 | 0.2 | Adam | 0.1232942 | 879.8 | 2844216 | 1000 |
| 1 | 5-7-8-9 | 5-5-5-8 | 6 | 0.0 | Adagrad | 0.1233115 | 337.0 | 2843872 | 1000 |
| 1 | 5-7-8-9 | 5-5-5-8 | 4 | 0.0 | Adagrad | 0.1233157 | 257.8 | 2843528 | 1000 |
| 1 | 5-7-8-9 | 5-5-5-4 | 8 | 0.0 | Adagrad | 0.1233211 | 229.4 | 922928 | 500 |
| 1 | 7-8-5-9 | 5-5-5-8 | 10 | 0.2 | Adagrad | 0.1233471 | 599.6 | 2844560 | 1000 |
| 1 | 5-7-8-9 | 5-5-5-4 | 8 | 0.2 | Adam | 0.123351 | 277.5 | 922928 | 500 |
| 1 | 5-7-8-9 | 5-5-5-4 | 7 | 0.2 | Adam | 0.1233767 | 265.7 | 922792 | 500 |
| 1 | 5-7-8-9 | 5-5-5-4 | 5 | 0.0 | Adagrad | 0.1233836 | 176.6 | 922520 | 500 |
| 1 | 7-8-5-9 | 5-5-5-8 | 8 | 0.2 | Adagrad | 0.123387 | 493.8 | 2844216 | 1000 |
| 1 | 7-8-5-9 | 5-5-5-8 | 10 | 0.0 | Adagrad | 0.1233891 | 510.6 | 2844560 | 1000 |
| 1 | 5-7-8-9 | 5-5-5-8 | 7 | 0.2 | Adam | 0.123394 | 793.8 | 2844044 | 1000 |
| 1 | 5-7-8-9 | 5-5-5-4 | 6 | 0.2 | Adam | 0.123396 | 250.2 | 922656 | 500 |
| 1 | 5-7-8-9 | 5-5-5-8 | 3 | 0.2 | Adagrad | 0.1234053 | 281.6 | 2843356 | 1000 |
| 1 | 5-7-8-9 | 5-5-5-4 | 7 | 0.0 | Adagrad | 0.1234202 | 215.9 | 922792 | 500 |
| 1 | 5-7-8-9 | 5-5-5-8 | 7 | 0.0 | Adam | 0.1234427 | 979.2 | 2844044 | 1000 |
| 1 | 5-7-8-9 | 5-5-5-4 | 6 | 0.0 | Adagrad | 0.1234427 | 190.2 | 922656 | 500 |
| 1 | 5-7-8-9 | 5-5-5-8 | 9 | 0.0 | Adam | 0.1234461 | 965.9 | 2844388 | 1000 |
| 1 | 7-8-5-9 | 5-5-5-8 | 10 | 0.2 | Adam | 0.1234501 | 984.5 | 2844560 | 1000 |
| 1 | 7-8-5-9 | 5-5-5-4 | 10 | 0.0 | Adagrad | 0.1234544 | 258.3 | 923200 | 500 |
| 1 | 5-7-8-9 | 5-5-5-8 | 5 | 0.0 | Adagrad | 0.123466 | 282.7 | 2843700 | 1000 |
| 1 | 5-7-8-9 | 5-5-5-4 | 5 | 0.2 | Adam | 0.123467 | 229.4 | 922520 | 500 |
| 1 | 7-8-5-9 | 5-5-5-8 | 9 | 0.2 | Adam | 0.123474 | 945.0 | 2844388 | 1000 |
| 1 | 5-7-8-9 | 5-5-5-8 | 6 | 0.0 | Adam | 0.1234771 | 922.4 | 2843872 | 1000 |
| 1 | 7-8-5-9 | 5-5-5-4 | 9 | 0.0 | Adagrad | 0.1234778 | 236.3 | 923064 | 500 |
| 1 | 5-7-8-9 | 5-5-5-8 | 8 | 0.0 | Adam | 0.1234794 | 882.4 | 2844216 | 1000 |
| 1 | 7-8-5-9 | 5-5-5-4 | 8 | 0.0 | Adagrad | 0.1234837 | 219.9 | 922928 | 500 |
| 1 | 5-7-8-9 | 5-5-5-8 | 10 | 0.0 | Adam | 0.1234876 | 1016.0 | 2844560 | 1000 |
| 1 | 7-8-5-9 | 5-5-5-4 | 10 | 0.2 | Adam | 0.1234916 | 319.5 | 923200 | 500 |
| 1 | 5-7-8-9 | 5-5-5-4 | 4 | 0.2 | Adam | 0.1235049 | 211.5 | 922384 | 500 |
| 1 | 7-8-5-9 | 5-5-5-8 | 7 | 0.0 | Adagrad | 0.1235172 | 370.2 | 2844044 | 1000 |
| 1 | 7-8-5-9 | 5-5-5-8 | 7 | 0.2 | Adam | 0.1235211 | 820.8 | 2844044 | 1000 |
| 1 | 5-7-8-9 | 5-5-5-4 | 5 | 0.0 | Adam | 0.1235278 | 230.1 | 922520 | 500 |
| 1 | 5-7-8-9 | 5-5-5-8 | 3 | 0.2 | Adam | 0.1235377 | 628.0 | 2843356 | 1000 |
| 1 | 5-7-8-9 | 5-5-5-8 | 4 | 0.0 | Adam | 0.1235384 | 833.7 | 2843528 | 1000 |
| 1 | 7-8-5-9 | 5-5-5-8 | 9 | 0.0 | Adagrad | 0.1235404 | 472.6 | 2844388 | 1000 |
| 1 | 5-7-8-9 | 5-5-5-4 | 3 | 0.2 | Adam | 0.1235428 | 192.0 | 922248 | 500 |
| 1 | 5-7-8-9 | 5-5-5-4 | 10 | 0.0 | Adam | 0.1235489 | 299.6 | 923200 | 500 |
| 1 | 7-8-5-9 | 5-5-5-4 | 9 | 0.2 | Adam | 0.1235492 | 326.1 | 923064 | 500 |
| 1 | 7-8-5-9 | 5-5-5-8 | 8 | 0.0 | Adagrad | 0.1235605 | 421.0 | 2844216 | 1000 |
| 1 | 5-7-8-9 | 5-5-5-4 | 7 | 0.0 | Adam | 0.1235613 | 258.0 | 922792 | 500 |
| 1 | 7-8-5-9 | 5-5-5-8 | 9 | 0.0 | Adam | 0.1235631 | 922.9 | 2844388 | 1000 |
| 1 | 5-7-8-9 | 5-5-5-4 | 10 | 0.2 | Adagrad | 0.1235648 | 255.4 | 923200 | 500 |
| 1 | 5-7-8-9 | 5-5-5-4 | 4 | 0.0 | Adagrad | 0.1235858 | 161.4 | 922384 | 500 |
| 1 | 7-8-5-9 | 5-5-5-4 | 8 | 0.2 | Adam | 0.1236001 | 303.1 | 922928 | 500 |
| 1 | 5-7-8-9 | 5-5-5-4 | 8 | 0.0 | Adam | 0.1236045 | 261.8 | 922928 | 500 |
| 1 | 7-8-5-9 | 5-5-5-4 | 7 | 0.2 | Adam | 0.1236094 | 278.1 | 922792 | 500 |
| 1 | 5-7-8-9 | 5-5-5-8 | 3 | 0.0 | Adagrad | 0.123616 | 232.9 | 2843356 | 1000 |
| 1 | 5-7-8-9 | 5-5-5-4 | 9 | 0.0 | Adam | 0.1236269 | 281.3 | 923064 | 500 |
| 1 | 7-8-5-9 | 5-5-5-4 | 9 | 0.0 | Adam | 0.1236293 | 298.5 | 923064 | 500 |
| 1 | 7-8-5-9 | 5-5-5-8 | 7 | 0.0 | Adam | 0.1236297 | 913.0 | 2844044 | 1000 |
| 1 | 7-8-5-9 | 5-5-5-4 | 6 | 0.2 | Adam | 0.1236372 | 258.2 | 922656 | 500 |
| 1 | 7-8-5-9 | 5-5-5-8 | 8 | 0.2 | Adam | 0.1236492 | 917.3 | 2844216 | 1000 |
| 1 | 5-7-8-9 | 5-5-5-4 | 9 | 0.2 | Adagrad | 0.1236494 | 241.6 | 923064 | 500 |
| 1 | 5-7-8-9 | 5-5-5-8 | 2 | 0.2 | Adam | 0.1236541 | 584.6 | 2843184 | 1000 |
| 1 | 7-8-5-9 | 5-5-5-4 | 7 | 0.0 | Adagrad | 0.1236648 | 198.5 | 922792 | 500 |
| 1 | 7-8-5-9 | 5-5-5-4 | 10 | 0.0 | Adam | 0.1236659 | 323.0 | 923200 | 500 |
| 1 | 7-8-5-9 | 5-5-5-8 | 6 | 0.2 | Adam | 0.1236764 | 765.3 | 2843872 | 1000 |
| 1 | 5-7-8-9 | 5-5-5-4 | 6 | 0.0 | Adam | 0.1236779 | 247.1 | 922656 | 500 |
| 1 | 7-8-5-9 | 5-5-5-8 | 7 | 0.2 | Adagrad | 0.1236887 | 414.0 | 2844044 | 1000 |
| 1 | 5-7-8-9 | 5-5-5-8 | 5 | 0.0 | Adam | 0.123693 | 880.0 | 2843700 | 1000 |
| 1 | 7-8-5-9 | 5-5-5-8 | 10 | 0.0 | Adam | 0.123695 | 874.7 | 2844560 | 1000 |
| 1 | 5-7-8-9 | 5-5-5-8 | 10 | 0.4 | Adagrad | 0.1237165 | 573.0 | 2844560 | 1000 |
| 1 | 5-7-8-9 | 5-5-5-8 | 7 | 0.4 | Adam | 0.1237239 | 780.4 | 2844044 | 1000 |
| 1 | 5-7-8-9 | 5-5-5-8 | 9 | 0.4 | Adagrad | 0.1237248 | 564.5 | 2844388 | 1000 |
| 1 | 5-7-8-9 | 5-5-5-8 | 2 | 0.2 | Adagrad | 0.1237257 | 251.6 | 2843184 | 1000 |
| 1 | 5-7-8-9 | 5-5-5-4 | 3 | 0.0 | Adagrad | 0.1237434 | 144.0 | 922248 | 500 |
| 1 | 5-7-8-9 | 5-5-5-8 | 5 | 0.4 | Adam | 0.123769 | 702.3 | 2843700 | 1000 |
| 1 | 5-7-8-9 | 5-5-5-4 | 2 | 0.2 | Adam | 0.1237707 | 178.0 | 922112 | 500 |
| 1 | 5-7-8-9 | 5-5-5-8 | 7 | 0.4 | Adagrad | 0.1237734 | 461.3 | 2844044 | 1000 |
| 1 | 5-7-8-9 | 5-5-5-4 | 8 | 0.2 | Adagrad | 0.1237771 | 244.3 | 922928 | 500 |
| 1 | 7-8-5-9 | 5-5-5-8 | 5 | 0.2 | Adagrad | 0.1237957 | 328.3 | 2843700 | 1000 |
| 1 | 5-7-8-9 | 5-5-5-4 | 3 | 0.0 | Adam | 0.1238012 | 191.7 | 922248 | 500 |
| 1 | 5-7-8-9 | 5-5-5-4 | 5 | 0.2 | Adagrad | 0.1238119 | 179.7 | 922520 | 500 |
| 1 | 5-7-8-9 | 5-5-5-4 | 7 | 0.2 | Adagrad | 0.1238279 | 216.6 | 922792 | 500 |
| 1 | 5-7-8-9 | 5-5-5-4 | 6 | 0.2 | Adagrad | 0.1238314 | 192.2 | 922656 | 500 |
| 1 | 5-7-8-9 | 5-5-5-8 | 8 | 0.4 | Adagrad | 0.1238318 | 522.9 | 2844216 | 1000 |
| 1 | 5-7-8-9 | 5-5-5-8 | 10 | 0.4 | Adam | 0.1238334 | 966.8 | 2844560 | 1000 |
| 1 | 7-8-5-9 | 5-5-5-8 | 5 | 0.2 | Adam | 0.1238374 | 734.2 | 2843700 | 1000 |
| 1 | 7-8-5-9 | 5-5-5-4 | 6 | 0.0 | Adagrad | 0.1238514 | 182.2 | 922656 | 500 |
| 1 | 5-7-8-9 | 5-5-5-8 | 3 | 0.0 | Adam | 0.1238546 | 799.6 | 2843356 | 1000 |
| 1 | 7-8-5-9 | 5-5-5-4 | 7 | 0.0 | Adam | 0.123861 | 274.7 | 922792 | 500 |
| 1 | 7-8-5-9 | 5-5-5-8 | 6 | 0.2 | Adagrad | 0.1238728 | 378.1 | 2843872 | 1000 |
| 1 | 5-7-8-9 | 5-5-5-8 | 4 | 0.4 | Adagrad | 0.1238747 | 338.4 | 2843528 | 1000 |
| 1 | 7-8-5-9 | 5-5-5-8 | 4 | 0.2 | Adam | 0.1238857 | 695.1 | 2843528 | 1000 |
| 1 | 5-7-8-9 | 5-5-5-4 | 4 | 0.2 | Adagrad | 0.1238916 | 162.0 | 922384 | 500 |
| 1 | 7-8-5-9 | 5-5-5-4 | 5 | 0.2 | Adam | 0.1238957 | 241.4 | 922520 | 500 |
| 1 | 5-7-8-9 | 5-5-5-8 | 5 | 0.4 | Adagrad | 0.1238959 | 373.5 | 2843700 | 1000 |
| 1 | 7-8-5-9 | 5-5-5-8 | 6 | 0.0 | Adam | 0.1238971 | 904.8 | 2843872 | 1000 |
| 1 | 5-7-8-9 | 5-5-5-4 | 4 | 0.0 | Adam | 0.1239023 | 208.5 | 922384 | 500 |
| 1 | 5-7-8-9 | 5-5-5-8 | 4 | 0.4 | Adam | 0.1239085 | 658.0 | 2843528 | 1000 |
| 1 | 5-7-8-9 | 5-5-5-8 | 9 | 0.4 | Adam | 0.1239102 | 906.1 | 2844388 | 1000 |
| 1 | 5-7-8-9 | 5-5-5-8 | 2 | 0.0 | Adagrad | 0.1239105 | 207.5 | 2843184 | 1000 |
| 1 | 7-8-5-9 | 5-5-5-4 | 6 | 0.0 | Adam | 0.1239161 | 259.0 | 922656 | 500 |
| 1 | 7-8-5-9 | 5-5-5-8 | 6 | 0.0 | Adagrad | 0.123928 | 316.2 | 2843872 | 1000 |
| 1 | 7-8-5-9 | 5-5-5-4 | 8 | 0.0 | Adam | 0.123928 | 289.5 | 922928 | 500 |
| 1 | 5-7-8-9 | 5-5-5-8 | 8 | 0.4 | Adam | 0.1239396 | 865.4 | 2844216 | 1000 |
| 1 | 5-7-8-9 | 5-5-5-8 | 6 | 0.4 | Adam | 0.1239746 | 725.1 | 2843872 | 1000 |
| 1 | 7-8-5-9 | 5-5-5-4 | 4 | 0.2 | Adam | 0.123977 | 226.4 | 922384 | 500 |
| 1 | 7-8-5-9 | 5-5-5-4 | 4 | 0.0 | Adam | 0.1239869 | 225.4 | 922384 | 500 |
| 1 | 7-8-5-9 | 5-5-5-8 | 10 | 0.4 | Adam | 0.1239937 | 971.7 | 2844560 | 1000 |
| 1 | 7-8-5-9 | 5-5-5-8 | 5 | 0.0 | Adam | 0.124002 | 850.8 | 2843700 | 1000 |
| 1 | 5-7-8-9 | 5-5-5-4 | 2 | 0.0 | Adagrad | 0.124007 | 122.5 | 922112 | 500 |
| 1 | 5-7-8-9 | 5-5-5-8 | 6 | 0.4 | Adagrad | 0.1240124 | 404.6 | 2843872 | 1000 |
| 1 | 7-8-5-9 | 5-5-5-4 | 5 | 0.0 | Adam | 0.1240226 | 241.3 | 922520 | 500 |
| 1 | 5-7-8-9 | 5-5-5-8 | 3 | 0.4 | Adam | 0.1240308 | 633.5 | 2843356 | 1000 |
| 1 | 5-7-8-9 | 5-5-5-4 | 3 | 0.2 | Adagrad | 0.1240457 | 144.8 | 922248 | 500 |
| 1 | 7-8-5-9 | 5-5-5-8 | 8 | 0.0 | Adam | 0.1240488 | 829.3 | 2844216 | 1000 |
| 1 | 7-8-5-9 | 5-5-5-8 | 4 | 0.0 | Adam | 0.1240529 | 825.7 | 2843528 | 1000 |
| 1 | 5-7-8-9 | 5-5-5-8 | 3 | 0.4 | Adagrad | 0.1240551 | 308.8 | 2843356 | 1000 |
| 1 | 5-7-8-9 | 5-5-5-8 | 2 | 0.0 | Adam | 0.1240605 | 761.6 | 2843184 | 1000 |
| 1 | 7-8-5-9 | 5-5-5-4 | 8 | 0.2 | Adagrad | 0.1240766 | 221.4 | 922928 | 500 |
| 1 | 7-8-5-9 | 5-5-5-4 | 10 | 0.2 | Adagrad | 0.1240802 | 264.1 | 923200 | 500 |
| 1 | 7-8-5-9 | 5-5-5-4 | 5 | 0.0 | Adagrad | 0.1240832 | 173.0 | 922520 | 500 |
| 1 | 5-7-8-9 | 5-5-5-4 | 2 | 0.0 | Adam | 0.1240847 | 172.5 | 922112 | 500 |
| 1 | 7-8-5-9 | 5-5-5-8 | 4 | 0.2 | Adagrad | 0.1240902 | 305.8 | 2843528 | 1000 |
| 1 | 7-8-5-9 | 5-5-5-8 | 3 | 0.2 | Adam | 0.1241053 | 664.6 | 2843356 | 1000 |
| 1 | 7-8-5-9 | 5-5-5-8 | 7 | 0.4 | Adam | 0.1241142 | 809.7 | 2844044 | 1000 |
| 1 | 7-8-5-9 | 5-5-5-8 | 8 | 0.4 | Adagrad | 0.1241224 | 507.0 | 2844216 | 1000 |
| 1 | 7-8-5-9 | 5-5-5-8 | 10 | 0.4 | Adagrad | 0.124146 | 613.9 | 2844560 | 1000 |
| 1 | 7-8-5-9 | 5-5-5-4 | 9 | 0.2 | Adagrad | 0.1241513 | 239.0 | 923064 | 500 |
| 1 | 7-8-5-9 | 5-5-5-4 | 6 | 0.2 | Adagrad | 0.1241706 | 184.3 | 922656 | 500 |
| 1 | 7-8-5-9 | 5-5-5-8 | 8 | 0.4 | Adam | 0.1241957 | 900.4 | 2844216 | 1000 |
| 1 | 5-7-8-9 | 5-5-5-8 | 2 | 0.4 | Adagrad | 0.1242073 | 277.0 | 2843184 | 1000 |
| 1 | 5-7-8-9 | 5-5-5-8 | 1 | 0.2 | Adam | 0.1242159 | 550.4 | 2843012 | 1000 |
| 1 | 7-8-5-9 | 5-5-5-4 | 3 | 0.2 | Adam | 0.1242168 | 205.4 | 922248 | 500 |
| 1 | 7-8-5-9 | 5-5-5-8 | 9 | 0.4 | Adam | 0.1242231 | 947.5 | 2844388 | 1000 |
| 1 | 7-8-5-9 | 5-5-5-4 | 4 | 0.0 | Adagrad | 0.1242462 | 156.0 | 922384 | 500 |
| 1 | 5-7-8-9 | 5-5-5-4 | 2 | 0.2 | Adagrad | 0.1242585 | 124.2 | 922112 | 500 |
| 1 | 5-7-8-9 | 5-5-5-8 | 2 | 0.4 | Adam | 0.1242647 | 600.0 | 2843184 | 1000 |
| 1 | 7-8-5-9 | 5-5-5-8 | 5 | 0.0 | Adagrad | 0.1243185 | 283.7 | 2843700 | 1000 |
| 1 | 7-8-5-9 | 5-5-5-8 | 3 | 0.0 | Adam | 0.124348 | 810.0 | 2843356 | 1000 |
| 1 | 7-8-5-9 | 5-5-5-4 | 3 | 0.0 | Adam | 0.1243773 | 206.8 | 922248 | 500 |
| 1 | 7-8-5-9 | 5-5-5-4 | 5 | 0.2 | Adagrad | 0.124385 | 175.2 | 922520 | 500 |
| 1 | 7-8-5-9 | 5-5-5-8 | 6 | 0.4 | Adam | 0.1243991 | 770.2 | 2843872 | 1000 |
| 1 | 5-7-8-9 | 5-5-5-4 | 10 | 0.4 | Adam | 0.1244146 | 332.1 | 923200 | 500 |
| 1 | 7-8-5-9 | 5-5-5-8 | 9 | 0.4 | Adagrad | 0.1244412 | 567.3 | 2844388 | 1000 |
| 1 | 7-8-5-9 | 5-5-5-8 | 5 | 0.4 | Adam | 0.1244525 | 743.3 | 2843700 | 1000 |
| 1 | 7-8-5-9 | 5-5-5-8 | 6 | 0.4 | Adagrad | 0.1244614 | 386.8 | 2843872 | 1000 |
| 1 | 7-8-5-9 | 5-5-5-8 | 7 | 0.4 | Adagrad | 0.1244679 | 443.0 | 2844044 | 1000 |
| 1 | 5-7-8-9 | 5-5-5-4 | 1 | 0.2 | Adam | 0.1244939 | 157.5 | 921976 | 500 |
| 1 | 5-7-8-9 | 5-5-5-4 | 1 | 0.0 | Adam | 0.1244988 | 154.4 | 921976 | 500 |
| 1 | 7-8-5-9 | 5-5-5-8 | 4 | 0.0 | Adagrad | 0.1245011 | 260.1 | 2843528 | 1000 |
| 1 | 5-7-8-9 | 5-5-5-4 | 8 | 0.4 | Adam | 0.1245183 | 274.9 | 922928 | 500 |
| 1 | 5-7-8-9 | 5-5-5-4 | 9 | 0.4 | Adam | 0.1245325 | 294.8 | 923064 | 500 |
| 1 | 7-8-5-9 | 5-5-5-8 | 2 | 0.0 | Adam | 0.1245386 | 790.7 | 2843184 | 1000 |
| 1 | 5-7-8-9 | 5-5-5-4 | 7 | 0.4 | Adam | 0.124541 | 255.5 | 922792 | 500 |
| 1 | 5-7-8-9 | 5-5-5-8 | 1 | 0.2 | Adagrad | 0.1245422 | 219.0 | 2843012 | 1000 |
| 1 | 5-7-8-9 | 5-5-5-4 | 6 | 0.4 | Adam | 0.1245581 | 241.4 | 922656 | 500 |
| 1 | 7-8-5-9 | 5-5-5-4 | 7 | 0.2 | Adagrad | 0.124598 | 200.7 | 922792 | 500 |
| 1 | 5-7-8-9 | 5-5-5-4 | 5 | 0.4 | Adam | 0.1246039 | 238.2 | 922520 | 500 |
| 1 | 7-8-5-9 | 5-5-5-8 | 5 | 0.4 | Adagrad | 0.124611 | 360.9 | 2843700 | 1000 |
| 1 | 5-7-8-9 | 5-5-5-8 | 8 | 0.0 | RMSprop | 0.1246172 | 985.4 | 2844216 | 1000 |
| 1 | 7-8-5-9 | 5-5-5-4 | 9 | 0.4 | Adam | 0.1246261 | 308.7 | 923064 | 500 |
| 1 | 5-7-8-9 | 5-5-5-8 | 1 | 0.0 | Adam | 0.124637 | 722.1 | 2843012 | 1000 |
| 1 | 7-8-5-9 | 5-5-5-8 | 4 | 0.4 | Adam | 0.1246399 | 695.8 | 2843528 | 1000 |
| 1 | 7-8-5-9 | 5-5-5-8 | 3 | 0.2 | Adagrad | 0.1246504 | 292.2 | 2843356 | 1000 |
| 1 | 7-8-5-9 | 5-5-5-4 | 10 | 0.4 | Adam | 0.1246657 | 327.8 | 923200 | 500 |
| 1 | 7-8-5-9 | 5-5-5-4 | 4 | 0.2 | Adagrad | 0.1246703 | 157.3 | 922384 | 500 |
| 1 | 5-7-8-9 | 5-5-5-8 | 10 | 0.0 | RMSprop | 0.1246704 | 896.3 | 2844560 | 1000 |
| 1 | 5-7-8-9 | 5-5-5-8 | 7 | 0.0 | RMSprop | 0.1247217 | 925.1 | 2844044 | 1000 |
| 1 | 5-7-8-9 | 5-5-5-8 | 1 | 0.0 | Adagrad | 0.1247267 | 174.2 | 2843012 | 1000 |
| 1 | 5-7-8-9 | 5-5-5-8 | 6 | 0.0 | RMSprop | 0.1247521 | 892.5 | 2843872 | 1000 |
| 1 | 7-8-5-9 | 5-5-5-4 | 2 | 0.0 | Adam | 0.1247758 | 188.3 | 922112 | 500 |
| 1 | 5-7-8-9 | 5-5-5-8 | 9 | 0.0 | RMSprop | 0.1247793 | 840.3 | 2844388 | 1000 |
| 1 | 7-8-5-9 | 5-5-5-4 | 3 | 0.0 | Adagrad | 0.1247945 | 143.2 | 922248 | 500 |
| 1 | 5-7-8-9 | 5-5-5-4 | 1 | 0.0 | Adagrad | 0.1248169 | 100.3 | 921976 | 500 |
| 1 | 7-8-5-9 | 5-5-5-8 | 2 | 0.2 | Adam | 0.1248203 | 636.1 | 2843184 | 1000 |
| 1 | 5-7-8-9 | 5-5-5-4 | 4 | 0.4 | Adam | 0.1248382 | 222.1 | 922384 | 500 |
| 1 | 5-7-8-9 | 5-5-5-8 | 5 | 0.0 | RMSprop | 0.1248495 | 847.4 | 2843700 | 1000 |
| 1 | 7-8-5-9 | 5-5-5-4 | 2 | 0.2 | Adam | 0.124855 | 185.7 | 922112 | 500 |
| 1 | 7-8-5-9 | 5-5-5-4 | 7 | 0.4 | Adam | 0.1248951 | 265.9 | 922792 | 500 |
| 1 | 5-7-8-9 | 5-5-5-4 | 3 | 0.4 | Adam | 0.1249072 | 207.9 | 922248 | 500 |
| 1 | 5-7-8-9 | 5-5-5-4 | 9 | 0.0 | RMSprop | 0.1249518 | 271.9 | 923064 | 500 |
| 1 | 5-7-8-9 | 5-5-5-8 | 4 | 0.0 | RMSprop | 0.1249735 | 819.3 | 2843528 | 1000 |
| 1 | 7-8-5-9 | 5-5-5-4 | 8 | 0.4 | Adam | 0.1249786 | 292.8 | 922928 | 500 |
| 1 | 5-7-8-9 | 5-5-5-4 | 2 | 0.4 | Adam | 0.1249813 | 189.6 | 922112 | 500 |
| 1 | 7-8-5-9 | 5-5-5-8 | 4 | 0.4 | Adagrad | 0.1250022 | 323.1 | 2843528 | 1000 |
| 1 | 5-7-8-9 | 5-5-5-8 | 1 | 0.4 | Adam | 0.1250179 | 562.8 | 2843012 | 1000 |
| 1 | 7-8-5-9 | 5-5-5-4 | 3 | 0.2 | Adagrad | 0.1250357 | 145.3 | 922248 | 500 |
| 1 | 5-7-8-9 | 5-5-5-4 | 1 | 0.2 | Adagrad | 0.1250362 | 101.7 | 921976 | 500 |
| 1 | 5-7-8-9 | 5-5-5-8 | 3 | 0.0 | RMSprop | 0.125049 | 800.4 | 2843356 | 1000 |
| 1 | 7-8-5-9 | 5-5-5-8 | 10 | 0.0 | RMSprop | 0.1250593 | 903.1 | 2844560 | 1000 |
| 1 | 5-7-8-9 | 5-5-5-4 | 10 | 0.0 | RMSprop | 0.1250687 | 295.4 | 923200 | 500 |
| 1 | 7-8-5-9 | 5-5-5-4 | 4 | 0.4 | Adam | 0.1250772 | 224.9 | 922384 | 500 |
| 1 | 5-7-8-9 | 5-5-5-8 | 1 | 0.4 | Adagrad | 0.1250918 | 231.3 | 2843012 | 1000 |
| 1 | 7-8-5-9 | 5-5-5-4 | 5 | 0.4 | Adam | 0.1251078 | 246.6 | 922520 | 500 |
| 1 | 7-8-5-9 | 5-5-5-8 | 3 | 0.4 | Adam | 0.1251318 | 667.4 | 2843356 | 1000 |
| 1 | 7-8-5-9 | 5-5-5-4 | 6 | 0.4 | Adam | 0.1251343 | 251.1 | 922656 | 500 |
| 1 | 5-7-8-9 | 5-5-5-4 | 6 | 0.0 | RMSprop | 0.1251558 | 247.1 | 922656 | 500 |
| 1 | 5-7-8-9 | 5-5-5-4 | 7 | 0.0 | RMSprop | 0.1251677 | 265.4 | 922792 | 500 |
| 1 | 7-8-5-9 | 5-5-5-8 | 3 | 0.0 | Adagrad | 0.1251721 | 233.5 | 2843356 | 1000 |
| 1 | 5-7-8-9 | 5-5-5-4 | 8 | 0.0 | RMSprop | 0.1251873 | 275.1 | 922928 | 500 |
| 1 | 7-8-5-9 | 5-5-5-4 | 2 | 0.0 | Adagrad | 0.125216 | 122.4 | 922112 | 500 |
| 1 | 5-7-8-9 | 5-5-5-4 | 5 | 0.0 | RMSprop | 0.1252699 | 228.0 | 922520 | 500 |
| 1 | 7-8-5-9 | 5-5-5-8 | 9 | 0.0 | RMSprop | 0.1253078 | 807.2 | 2844388 | 1000 |
| 1 | 5-7-8-9 | 5-5-5-8 | 2 | 0.0 | RMSprop | 0.1253111 | 775.9 | 2843184 | 1000 |
| 1 | 5-7-8-9 | 5-5-5-4 | 4 | 0.0 | RMSprop | 0.1253232 | 209.7 | 922384 | 500 |
| 1 | 7-8-5-9 | 5-5-5-8 | 8 | 0.0 | RMSprop | 0.1253241 | 885.2 | 2844216 | 1000 |
| 1 | 5-7-8-9 | 5-5-5-4 | 3 | 0.0 | RMSprop | 0.1253264 | 195.4 | 922248 | 500 |
| 1 | 7-8-5-9 | 5-5-5-8 | 7 | 0.0 | RMSprop | 0.1253306 | 849.5 | 2844044 | 1000 |
| 1 | 7-8-5-9 | 5-5-5-4 | 8 | 0.0 | RMSprop | 0.1253795 | 287.3 | 922928 | 500 |
| 1 | 7-8-5-9 | 5-5-5-8 | 3 | 0.4 | Adagrad | 0.1253811 | 287.0 | 2843356 | 1000 |
| 1 | 7-8-5-9 | 5-5-5-4 | 10 | 0.0 | RMSprop | 0.1253828 | 296.1 | 923200 | 500 |
| 1 | 7-8-5-9 | 5-5-5-8 | 6 | 0.0 | RMSprop | 0.1254727 | 795.1 | 2843872 | 1000 |
| 1 | 7-8-5-9 | 5-5-5-8 | 2 | 0.4 | Adam | 0.1254992 | 632.1 | 2843184 | 1000 |
| 1 | 5-7-8-9 | 5-5-5-4 | 2 | 0.0 | RMSprop | 0.1255383 | 181.5 | 922112 | 500 |
| 1 | 7-8-5-9 | 5-5-5-4 | 9 | 0.0 | RMSprop | 0.1255732 | 279.6 | 923064 | 500 |
| 1 | 5-7-8-9 | 5-5-5-4 | 1 | 0.4 | Adam | 0.1256039 | 162.5 | 921976 | 500 |
| 1 | 7-8-5-9 | 5-5-5-4 | 3 | 0.4 | Adam | 0.1256802 | 210.8 | 922248 | 500 |
| 1 | 7-8-5-9 | 5-5-5-8 | 5 | 0.0 | RMSprop | 0.1256834 | 879.1 | 2843700 | 1000 |
| 1 | 7-8-5-9 | 5-5-5-4 | 2 | 0.2 | Adagrad | 0.1257151 | 124.0 | 922112 | 500 |
| 1 | 7-8-5-9 | 5-5-5-4 | 7 | 0.0 | RMSprop | 0.1257607 | 269.4 | 922792 | 500 |
| 1 | 7-8-5-9 | 5-5-5-4 | 6 | 0.0 | RMSprop | 0.1257631 | 282.1 | 922656 | 500 |
| 1 | 7-8-5-9 | 5-5-5-4 | 5 | 0.0 | RMSprop | 0.1258161 | 227.8 | 922520 | 500 |
| 1 | 7-8-5-9 | 5-5-5-4 | 1 | 0.0 | Adam | 0.125875 | 173.4 | 921976 | 500 |
| 1 | 7-8-5-9 | 5-5-5-8 | 2 | 0.2 | Adagrad | 0.1259065 | 270.2 | 2843184 | 1000 |
| 1 | 7-8-5-9 | 5-5-5-8 | 4 | 0.0 | RMSprop | 0.1260798 | 859.0 | 2843528 | 1000 |
| 1 | 7-8-5-9 | 5-5-5-8 | 2 | 0.0 | Adagrad | 0.1260864 | 209.7 | 2843184 | 1000 |
| 1 | 5-7-8-9 | 5-5-5-4 | 5 | 0.4 | Adagrad | 0.1260872 | 177.8 | 922520 | 500 |
| 1 | 7-8-5-9 | 5-5-5-8 | 1 | 0.0 | Adam | 0.1261046 | 786.3 | 2843012 | 1000 |
| 1 | 7-8-5-9 | 5-5-5-8 | 2 | 0.4 | Adagrad | 0.1262058 | 256.9 | 2843184 | 1000 |
| 1 | 5-7-8-9 | 5-5-5-4 | 10 | 0.4 | Adagrad | 0.1262093 | 286.5 | 923200 | 500 |
| 1 | 5-7-8-9 | 5-5-5-4 | 9 | 0.4 | Adagrad | 0.1262123 | 250.1 | 923064 | 500 |
| 1 | 5-7-8-9 | 5-5-5-8 | 9 | 0.2 | RMSprop | 0.1262139 | 798.3 | 2844388 | 1000 |
| 1 | 5-7-8-9 | 5-5-5-8 | 1 | 0.0 | RMSprop | 0.1262331 | 758.9 | 2843012 | 1000 |
| 1 | 5-7-8-9 | 5-5-5-4 | 6 | 0.4 | Adagrad | 0.1262364 | 179.5 | 922656 | 500 |
| 1 | 5-7-8-9 | 5-5-5-4 | 8 | 0.4 | Adagrad | 0.126251 | 222.8 | 922928 | 500 |
| 1 | 5-7-8-9 | 5-5-5-8 | 8 | 0.2 | RMSprop | 0.1262525 | 767.2 | 2844216 | 1000 |
| 1 | 7-8-5-9 | 5-5-5-4 | 2 | 0.4 | Adam | 0.1262633 | 195.2 | 922112 | 500 |
| 1 | 5-7-8-9 | 5-5-5-8 | 6 | 0.2 | RMSprop | 0.1263043 | 760.0 | 2843872 | 1000 |
| 1 | 5-7-8-9 | 5-5-5-8 | 10 | 0.2 | RMSprop | 0.1263047 | 809.9 | 2844560 | 1000 |
| 1 | 7-8-5-9 | 5-5-5-4 | 1 | 0.2 | Adam | 0.1263289 | 171.5 | 921976 | 500 |
| 1 | 7-8-5-9 | 5-5-5-8 | 1 | 0.2 | Adam | 0.1263389 | 611.0 | 2843012 | 1000 |
| 1 | 5-7-8-9 | 5-5-5-4 | 7 | 0.4 | Adagrad | 0.1263468 | 199.5 | 922792 | 500 |
| 1 | 7-8-5-9 | 5-5-5-4 | 4 | 0.0 | RMSprop | 0.1263509 | 218.3 | 922384 | 500 |
| 1 | 7-8-5-9 | 5-5-5-8 | 3 | 0.0 | RMSprop | 0.12636 | 842.2 | 2843356 | 1000 |
| 1 | 5-7-8-9 | 5-5-5-8 | 7 | 0.2 | RMSprop | 0.1264115 | 729.4 | 2844044 | 1000 |
| 1 | 7-8-5-9 | 5-5-5-4 | 8 | 0.4 | Adagrad | 0.1264505 | 217.8 | 922928 | 500 |
| 1 | 5-7-8-9 | 5-5-5-8 | 5 | 0.2 | RMSprop | 0.126472 | 725.7 | 2843700 | 1000 |
| 1 | 7-8-5-9 | 5-5-5-4 | 10 | 0.4 | Adagrad | 0.1264793 | 266.4 | 923200 | 500 |
| 1 | 5-7-8-9 | 5-5-5-4 | 3 | 0.4 | Adagrad | 0.1264893 | 141.2 | 922248 | 500 |
| 1 | 5-7-8-9 | 5-5-5-4 | 4 | 0.4 | Adagrad | 0.1264996 | 160.2 | 922384 | 500 |
| 1 | 7-8-5-9 | 5-5-5-4 | 7 | 0.4 | Adagrad | 0.1265218 | 207.5 | 922792 | 500 |
| 1 | 5-7-8-9 | 5-5-5-4 | 1 | 0.0 | RMSprop | 0.1265409 | 169.7 | 921976 | 500 |
| 1 | 5-7-8-9 | 5-5-5-8 | 4 | 0.2 | RMSprop | 0.1265465 | 691.4 | 2843528 | 1000 |
| 1 | 5-7-8-9 | 5-5-5-4 | 2 | 0.4 | Adagrad | 0.1265865 | 122.6 | 922112 | 500 |
| 1 | 7-8-5-9 | 5-5-5-4 | 5 | 0.4 | Adagrad | 0.1265959 | 179.5 | 922520 | 500 |
| 1 | 7-8-5-9 | 5-5-5-4 | 9 | 0.4 | Adagrad | 0.1265959 | 240.1 | 923064 | 500 |
| 1 | 7-8-5-9 | 5-5-5-4 | 6 | 0.4 | Adagrad | 0.1266196 | 187.7 | 922656 | 500 |
| 1 | 5-7-8-9 | 5-5-5-8 | 3 | 0.2 | RMSprop | 0.1267099 | 667.8 | 2843356 | 1000 |
| 1 | 7-8-5-9 | 5-5-5-4 | 1 | 0.0 | Adagrad | 0.1267105 | 97.93 | 921976 | 500 |
| 1 | 7-8-5-9 | 5-5-5-8 | 1 | 0.4 | Adam | 0.1267543 | 590.2 | 2843012 | 1000 |
| 1 | 7-8-5-9 | 5-5-5-8 | 9 | 0.2 | RMSprop | 0.1268362 | 687.2 | 2844388 | 1000 |
| 1 | 7-8-5-9 | 5-5-5-4 | 3 | 0.0 | RMSprop | 0.1268379 | 204.7 | 922248 | 500 |
| 1 | 5-7-8-9 | 5-5-5-8 | 2 | 0.2 | RMSprop | 0.126852 | 635.5 | 2843184 | 1000 |
| 1 | 7-8-5-9 | 5-5-5-8 | 8 | 0.2 | RMSprop | 0.1269054 | 661.8 | 2844216 | 1000 |
| 1 | 7-8-5-9 | 5-5-5-4 | 4 | 0.4 | Adagrad | 0.126916 | 163.7 | 922384 | 500 |
| 1 | 7-8-5-9 | 5-5-5-8 | 7 | 0.2 | RMSprop | 0.126955 | 628.5 | 2844044 | 1000 |
| 1 | 5-7-8-9 | 5-5-5-4 | 1 | 0.4 | Adagrad | 0.1269965 | 101.2 | 921976 | 500 |
| 1 | 7-8-5-9 | 5-5-5-8 | 10 | 0.2 | RMSprop | 0.1269986 | 990.1 | 2844560 | 1000 |
| 1 | 7-8-5-9 | 5-5-5-4 | 3 | 0.4 | Adagrad | 0.1270832 | 150.9 | 922248 | 500 |
| 1 | 5-7-8-9 | 5-5-5-4 | 8 | 0.2 | RMSprop | 0.1271474 | 280.6 | 922928 | 500 |
| 1 | 5-7-8-9 | 5-5-5-4 | 9 | 0.2 | RMSprop | 0.1271516 | 308.7 | 923064 | 500 |
| 1 | 5-7-8-9 | 5-5-5-4 | 10 | 0.2 | RMSprop | 0.1271665 | 307.2 | 923200 | 500 |
| 1 | 5-7-8-9 | 5-5-5-4 | 7 | 0.2 | RMSprop | 0.1271735 | 272.0 | 922792 | 500 |
| 1 | 7-8-5-9 | 5-5-5-8 | 5 | 0.2 | RMSprop | 0.1271904 | 555.6 | 2843700 | 1000 |
| 1 | 7-8-5-9 | 5-5-5-8 | 1 | 0.2 | Adagrad | 0.1272291 | 223.1 | 2843012 | 1000 |
| 1 | 7-8-5-9 | 5-5-5-8 | 1 | 0.4 | Adagrad | 0.1272439 | 213.4 | 2843012 | 1000 |
| 1 | 7-8-5-9 | 5-5-5-8 | 2 | 0.0 | RMSprop | 0.1272457 | 841.6 | 2843184 | 1000 |
| 1 | 5-7-8-9 | 5-5-5-4 | 6 | 0.2 | RMSprop | 0.1272602 | 253.9 | 922656 | 500 |
| 1 | 7-8-5-9 | 5-5-5-4 | 1 | 0.2 | Adagrad | 0.1272784 | 100.4 | 921976 | 500 |
| 1 | 7-8-5-9 | 5-5-5-8 | 6 | 0.2 | RMSprop | 0.1272801 | 593.8 | 2843872 | 1000 |
| 1 | 5-7-8-9 | 5-5-5-4 | 4 | 0.2 | RMSprop | 0.1273564 | 214.6 | 922384 | 500 |
| 1 | 7-8-5-9 | 5-5-5-4 | 2 | 0.0 | RMSprop | 0.1274179 | 193.7 | 922112 | 500 |
| 1 | 7-8-5-9 | 5-5-5-4 | 1 | 0.4 | Adam | 0.1274218 | 170.8 | 921976 | 500 |
| 1 | 7-8-5-9 | 5-5-5-8 | 4 | 0.2 | RMSprop | 0.1274322 | 537.5 | 2843528 | 1000 |
| 1 | 5-7-8-9 | 5-5-5-4 | 5 | 0.2 | RMSprop | 0.1275032 | 234.7 | 922520 | 500 |
| 1 | 7-8-5-9 | 5-5-5-4 | 10 | 0.2 | RMSprop | 0.1275472 | 360.0 | 923200 | 500 |
| 1 | 7-8-5-9 | 5-5-5-4 | 9 | 0.2 | RMSprop | 0.1276213 | 241.2 | 923064 | 500 |
| 1 | 7-8-5-9 | 5-5-5-4 | 8 | 0.2 | RMSprop | 0.1276278 | 233.0 | 922928 | 500 |
| 1 | 7-8-5-9 | 5-5-5-8 | 1 | 0.0 | Adagrad | 0.12767 | 176.6 | 2843012 | 1000 |
| 1 | 7-8-5-9 | 5-5-5-4 | 2 | 0.4 | Adagrad | 0.1276776 | 130.3 | 922112 | 500 |
| 1 | 5-7-8-9 | 5-5-5-4 | 3 | 0.2 | RMSprop | 0.1277388 | 199.2 | 922248 | 500 |
| 1 | 7-8-5-9 | 5-5-5-4 | 6 | 0.2 | RMSprop | 0.1278202 | 221.8 | 922656 | 500 |
| 1 | 5-7-8-9 | 5-5-5-8 | 1 | 0.2 | RMSprop | 0.1278572 | 605.5 | 2843012 | 1000 |
| 1 | 7-8-5-9 | 5-5-5-4 | 7 | 0.2 | RMSprop | 0.1278843 | 225.4 | 922792 | 500 |
| 1 | 7-8-5-9 | 5-5-5-8 | 3 | 0.2 | RMSprop | 0.1279345 | 548.1 | 2843356 | 1000 |
| 1 | 7-8-5-9 | 5-5-5-4 | 5 | 0.2 | RMSprop | 0.1279355 | 217.5 | 922520 | 500 |
| 1 | 5-7-8-9 | 5-5-5-4 | 2 | 0.2 | RMSprop | 0.128064 | 190.4 | 922112 | 500 |
| 1 | 7-8-5-9 | 5-5-5-4 | 4 | 0.2 | RMSprop | 0.1280776 | 222.4 | 922384 | 500 |
| 1 | 7-8-5-9 | 5-5-5-4 | 3 | 0.2 | RMSprop | 0.1284277 | 209.7 | 922248 | 500 |
| 1 | 5-7-8-9 | 5-5-5-8 | 7 | 0.4 | RMSprop | 0.1284755 | 857.8 | 2844044 | 1000 |
| 1 | 7-8-5-9 | 5-5-5-4 | 1 | 0.4 | Adagrad | 0.1284837 | 104.5 | 921976 | 500 |
| 1 | 5-7-8-9 | 5-5-5-4 | 1 | 0.2 | RMSprop | 0.1285129 | 176.0 | 921976 | 500 |
| 1 | 5-7-8-9 | 5-5-5-8 | 10 | 0.4 | RMSprop | 0.1285267 | 889.6 | 2844560 | 1000 |
| 1 | 5-7-8-9 | 5-5-5-8 | 9 | 0.4 | RMSprop | 0.1285268 | 937.6 | 2844388 | 1000 |
| 1 | 5-7-8-9 | 5-5-5-8 | 6 | 0.4 | RMSprop | 0.1285478 | 781.4 | 2843872 | 1000 |
| 1 | 5-7-8-9 | 5-5-5-8 | 8 | 0.4 | RMSprop | 0.1285819 | 903.0 | 2844216 | 1000 |
| 1 | 5-7-8-9 | 5-5-5-8 | 5 | 0.4 | RMSprop | 0.1285932 | 759.7 | 2843700 | 1000 |
| 1 | 7-8-5-9 | 5-5-5-8 | 2 | 0.2 | RMSprop | 0.128595 | 547.0 | 2843184 | 1000 |
| 1 | 5-7-8-9 | 5-5-5-8 | 4 | 0.4 | RMSprop | 0.1285965 | 727.2 | 2843528 | 1000 |
| 1 | 7-8-5-9 | 5-5-5-8 | 9 | 0.4 | RMSprop | 0.1286074 | 695.3 | 2844388 | 1000 |
| 1 | 7-8-5-9 | 5-5-5-8 | 8 | 0.4 | RMSprop | 0.1286206 | 671.2 | 2844216 | 1000 |
| 1 | 7-8-5-9 | 5-5-5-8 | 7 | 0.4 | RMSprop | 0.1286555 | 642.5 | 2844044 | 1000 |
| 1 | 7-8-5-9 | 5-5-5-8 | 10 | 0.4 | RMSprop | 0.1286584 | 735.7 | 2844560 | 1000 |
| 1 | 7-8-5-9 | 5-5-5-4 | 1 | 0.0 | RMSprop | 0.1286755 | 187.1 | 921976 | 500 |
| 1 | 5-7-8-9 | 5-5-5-8 | 3 | 0.4 | RMSprop | 0.1286888 | 683.3 | 2843356 | 1000 |
| 1 | 7-8-5-9 | 5-5-5-8 | 6 | 0.4 | RMSprop | 0.1287412 | 632.1 | 2843872 | 1000 |
| 1 | 7-8-5-9 | 5-5-5-4 | 2 | 0.2 | RMSprop | 0.1287521 | 194.7 | 922112 | 500 |
| 1 | 5-7-8-9 | 5-5-5-4 | 10 | 0.4 | RMSprop | 0.1287586 | 322.9 | 923200 | 500 |
| 1 | 5-7-8-9 | 5-5-5-4 | 5 | 0.4 | RMSprop | 0.1288215 | 256.9 | 922520 | 500 |
| 1 | 7-8-5-9 | 5-5-5-8 | 5 | 0.4 | RMSprop | 0.128832 | 605.2 | 2843700 | 1000 |
| 1 | 7-8-5-9 | 5-5-5-8 | 1 | 0.0 | RMSprop | 0.1288354 | 859.4 | 2843012 | 1000 |
| 1 | 5-7-8-9 | 5-5-5-4 | 9 | 0.4 | RMSprop | 0.1288369 | 307.9 | 923064 | 500 |
| 1 | 7-8-5-9 | 5-5-5-4 | 9 | 0.4 | RMSprop | 0.1288419 | 265.0 | 923064 | 500 |
| 1 | 5-7-8-9 | 5-5-5-4 | 7 | 0.4 | RMSprop | 0.1288646 | 267.0 | 922792 | 500 |
| 1 | 5-7-8-9 | 5-5-5-8 | 2 | 0.4 | RMSprop | 0.1288827 | 664.2 | 2843184 | 1000 |
| 1 | 7-8-5-9 | 5-5-5-4 | 8 | 0.4 | RMSprop | 0.1288946 | 275.1 | 922928 | 500 |
| 1 | 7-8-5-9 | 5-5-5-4 | 10 | 0.4 | RMSprop | 0.128903 | 265.8 | 923200 | 500 |
| 1 | 5-7-8-9 | 5-5-5-4 | 6 | 0.4 | RMSprop | 0.1289172 | 255.4 | 922656 | 500 |
| 1 | 7-8-5-9 | 5-5-5-4 | 7 | 0.4 | RMSprop | 0.1289433 | 272.1 | 922792 | 500 |
| 1 | 7-8-5-9 | 5-5-5-8 | 3 | 0.4 | RMSprop | 0.1289543 | 628.2 | 2843356 | 1000 |
| 1 | 5-7-8-9 | 5-5-5-4 | 8 | 0.4 | RMSprop | 0.1289859 | 290.0 | 922928 | 500 |
| 1 | 7-8-5-9 | 5-5-5-8 | 4 | 0.4 | RMSprop | 0.1289887 | 636.1 | 2843528 | 1000 |
| 1 | 7-8-5-9 | 5-5-5-4 | 5 | 0.4 | RMSprop | 0.1290087 | 237.1 | 922520 | 500 |
| 1 | 5-7-8-9 | 5-5-5-4 | 3 | 0.4 | RMSprop | 0.1290477 | 236.7 | 922248 | 500 |
| 1 | 7-8-5-9 | 5-5-5-4 | 6 | 0.4 | RMSprop | 0.1290517 | 254.1 | 922656 | 500 |
| 1 | 5-7-8-9 | 5-5-5-4 | 4 | 0.4 | RMSprop | 0.1290725 | 251.0 | 922384 | 500 |
| 1 | 7-8-5-9 | 5-5-5-4 | 4 | 0.4 | RMSprop | 0.1290752 | 235.2 | 922384 | 500 |
| 1 | 7-8-5-9 | 5-5-5-8 | 1 | 0.2 | RMSprop | 0.1290783 | 534.2 | 2843012 | 1000 |
| 1 | 5-7-8-9 | 5-5-5-4 | 2 | 0.4 | RMSprop | 0.1291166 | 218.4 | 922112 | 500 |
| 1 | 5-7-8-9 | 5-5-5-8 | 1 | 0.4 | RMSprop | 0.1291235 | 636.0 | 2843012 | 1000 |
| 1 | 7-8-5-9 | 5-5-5-4 | 3 | 0.4 | RMSprop | 0.129204 | 226.8 | 922248 | 500 |
| 1 | 7-8-5-9 | 5-5-5-8 | 2 | 0.4 | RMSprop | 0.1292194 | 610.3 | 2843184 | 1000 |
| 1 | 7-8-5-9 | 5-5-5-4 | 2 | 0.4 | RMSprop | 0.1293489 | 211.5 | 922112 | 500 |
| 1 | 7-8-5-9 | 5-5-5-4 | 1 | 0.2 | RMSprop | 0.1293623 | 185.8 | 921976 | 500 |
| 1 | 5-7-8-9 | 5-5-5-4 | 1 | 0.4 | RMSprop | 0.1293691 | 194.9 | 921976 | 500 |
| 1 | 7-8-5-9 | 5-5-5-8 | 1 | 0.4 | RMSprop | 0.1294473 | 593.4 | 2843012 | 1000 |
| 1 | 7-8-5-9 | 5-5-5-4 | 1 | 0.4 | RMSprop | 0.1294623 | 193.5 | 921976 | 500 |
