| 0 | 0-0-0-0 | 0-0-0-0 | 1 | 0.0 | Adam | 0.8309109 | 0.8309109 | 16.507481 | 4753625.0 |
| 0 | 0-0-0-0 | 0-0-0-0 | 1 | 0.0 | Adagrad | 0.8196195 | 0.8196195 | 16.152205 | 4753625.0 |
| 0 | 0-0-0-0 | 0-0-0-0 | 1 | 0.0 | RMSprop | 0.8550574 | 0.8550574 | 15.463107 | 4753625.0 |
| 0 | 0-0-0-0 | 0-0-0-0 | 1 | 0.2 | Adam | 0.8428091 | 0.8428091 | 20.258744 | 4753625.0 |
| 0 | 0-0-0-0 | 0-0-0-0 | 1 | 0.2 | Adagrad | 0.8424409 | 0.8424409 | 24.556670 | 4753625.0 |
| 0 | 0-0-0-0 | 0-0-0-0 | 1 | 0.2 | RMSprop | 0.8510472 | 0.8510472 | 20.473026 | 4753625.0 |
| 0 | 0-0-0-0 | 0-0-0-0 | 1 | 0.4 | Adam | 0.8941113 | 0.8941113 | 17.849041 | 4753625.0 |
| 0 | 0-0-0-0 | 0-0-0-0 | 1 | 0.4 | Adagrad | 0.9571783 | 0.9571783 | 12.262263 | 4753625.0 |
| 0 | 0-0-0-0 | 0-0-0-0 | 1 | 0.4 | RMSprop | 0.9028874 | 0.9028874 | 18.648258 | 4753625.0 |
| 0 | 0-0-0-0 | 0-0-0-0 | 2 | 0.0 | Adam | 0.8359072 | 0.8359072 | 16.702359 | 4753625.0 |
| 0 | 0-0-0-0 | 0-0-0-0 | 2 | 0.0 | Adagrad | 0.8155369 | 0.8155369 | 16.430435 | 4753625.0 |
| 0 | 0-0-0-0 | 0-0-0-0 | 2 | 0.0 | RMSprop | 0.8498045 | 0.8498045 | 14.973025 | 4753625.0 |
| 0 | 0-0-0-0 | 0-0-0-0 | 2 | 0.2 | Adam | 0.8376342 | 0.8376342 | 20.960551 | 4753625.0 |
| 0 | 0-0-0-0 | 0-0-0-0 | 2 | 0.2 | Adagrad | 0.8470603 | 0.8470603 | 19.978204 | 4753625.0 |
| 0 | 0-0-0-0 | 0-0-0-0 | 2 | 0.2 | RMSprop | 0.8570651 | 0.8570651 | 22.436849 | 4753625.0 |
| 0 | 0-0-0-0 | 0-0-0-0 | 2 | 0.4 | Adam | 0.8876734 | 0.8876734 | 21.235134 | 4753625.0 |
| 0 | 0-0-0-0 | 0-0-0-0 | 2 | 0.4 | Adagrad | 0.9780497 | 0.9780497 | 9.2056573 | 4753625.0 |
| 0 | 0-0-0-0 | 0-0-0-0 | 2 | 0.4 | RMSprop | 0.9166548 | 0.9166548 | 15.179323 | 4753625.0 |
| 0 | 0-0-0-0 | 0-0-0-0 | 3 | 0.0 | Adam | 0.8313458 | 0.8313458 | 18.832457 | 4753625.0 |
| 0 | 0-0-0-0 | 0-0-0-0 | 3 | 0.0 | Adagrad | 0.8173482 | 0.8173482 | 17.192875 | 4753625.0 |
| 0 | 0-0-0-0 | 0-0-0-0 | 3 | 0.0 | RMSprop | 0.8455727 | 0.8455727 | 18.169579 | 4753625.0 |
| 0 | 0-0-0-0 | 0-0-0-0 | 3 | 0.2 | Adam | 0.8382742 | 0.8382743 | 25.255754 | 4753625.0 |
| 0 | 0-0-0-0 | 0-0-0-0 | 3 | 0.2 | Adagrad | 0.8463053 | 0.8463053 | 25.005774 | 4753625.0 |
| 0 | 0-0-0-0 | 0-0-0-0 | 3 | 0.2 | RMSprop | 0.8472205 | 0.8472205 | 24.379538 | 4753625.0 |
| 0 | 0-0-0-0 | 0-0-0-0 | 3 | 0.4 | Adam | 0.8898184 | 0.8898184 | 23.627086 | 4753625.0 |
| 0 | 0-0-0-0 | 0-0-0-0 | 3 | 0.4 | Adagrad | 0.9664113 | 0.9664113 | 11.857625 | 4753625.0 |
| 0 | 0-0-0-0 | 0-0-0-0 | 3 | 0.4 | RMSprop | 0.8850813 | 0.8850813 | 25.160637 | 4753625.0 |
| 0 | 0-0-0-0 | 0-0-0-0 | 4 | 0.0 | Adam | 0.8366571 | 0.8366571 | 18.818868 | 4753625.0 |
| 0 | 0-0-0-0 | 0-0-0-0 | 4 | 0.0 | Adagrad | 0.8145353 | 0.8145354 | 21.950005 | 4753625.0 |
| 0 | 0-0-0-0 | 0-0-0-0 | 4 | 0.0 | RMSprop | 0.8441043 | 0.8441043 | 18.935251 | 4753625.0 |
| 0 | 0-0-0-0 | 0-0-0-0 | 4 | 0.2 | Adam | 0.8537884 | 0.8537884 | 24.023572 | 4753625.0 |
| 0 | 0-0-0-0 | 0-0-0-0 | 4 | 0.2 | Adagrad | 0.8442428 | 0.8442428 | 24.331562 | 4753625.0 |
| 0 | 0-0-0-0 | 0-0-0-0 | 4 | 0.2 | RMSprop | 0.8505554 | 0.8505554 | 22.741997 | 4753625.0 |
| 0 | 0-0-0-0 | 0-0-0-0 | 4 | 0.4 | Adam | 0.8830822 | 0.8830822 | 24.164349 | 4753625.0 |
| 0 | 0-0-0-0 | 0-0-0-0 | 4 | 0.4 | Adagrad | 0.9727678 | 0.9727678 | 11.225551 | 4753625.0 |
| 0 | 0-0-0-0 | 0-0-0-0 | 4 | 0.4 | RMSprop | 0.9165814 | 0.9165814 | 18.031468 | 4753625.0 |
| 0 | 0-0-0-0 | 0-0-0-0 | 5 | 0.0 | Adam | 0.8265116 | 0.8265116 | 22.606291 | 4753625.0 |
| 0 | 0-0-0-0 | 0-0-0-0 | 5 | 0.0 | Adagrad | 0.8157585 | 0.8157585 | 19.299822 | 4753625.0 |
| 0 | 0-0-0-0 | 0-0-0-0 | 5 | 0.0 | RMSprop | 0.8528376 | 0.8528376 | 16.568471 | 4753625.0 |
| 0 | 0-0-0-0 | 0-0-0-0 | 5 | 0.2 | Adam | 0.8537424 | 0.8537424 | 20.861050 | 4753625.0 |
| 0 | 0-0-0-0 | 0-0-0-0 | 5 | 0.2 | Adagrad | 0.8383445 | 0.8383445 | 27.905304 | 4753625.0 |
| 0 | 0-0-0-0 | 0-0-0-0 | 5 | 0.2 | RMSprop | 0.8494425 | 0.8494425 | 24.269503 | 4753625.0 |
| 0 | 0-0-0-0 | 0-0-0-0 | 5 | 0.4 | Adam | 0.8931576 | 0.8931576 | 20.755667 | 4753625.0 |
| 0 | 0-0-0-0 | 0-0-0-0 | 5 | 0.4 | Adagrad | 0.9640394 | 0.9640394 | 13.443488 | 4753625.0 |
| 0 | 0-0-0-0 | 0-0-0-0 | 5 | 0.4 | RMSprop | 0.8980702 | 0.8980703 | 22.776063 | 4753625.0 |
| 0 | 0-0-0-0 | 0-0-0-0 | 6 | 0.0 | Adam | 0.8330075 | 0.8330075 | 18.119197 | 4753625.0 |
| 0 | 0-0-0-0 | 0-0-0-0 | 6 | 0.0 | Adagrad | 0.8208372 | 0.8208372 | 17.439731 | 4753625.0 |
| 0 | 0-0-0-0 | 0-0-0-0 | 6 | 0.0 | RMSprop | 0.8386354 | 0.8386354 | 17.062890 | 4753625.0 |
| 0 | 0-0-0-0 | 0-0-0-0 | 6 | 0.2 | Adam | 0.8408636 | 0.8408636 | 21.816199 | 4753625.0 |
| 0 | 0-0-0-0 | 0-0-0-0 | 6 | 0.2 | Adagrad | 0.8577306 | 0.8577306 | 19.565391 | 4753625.0 |
| 0 | 0-0-0-0 | 0-0-0-0 | 6 | 0.2 | RMSprop | 0.8579185 | 0.8579185 | 20.169578 | 4753625.0 |
| 0 | 0-0-0-0 | 0-0-0-0 | 6 | 0.4 | Adam | 0.8897698 | 0.8897698 | 22.158923 | 4753625.0 |
| 0 | 0-0-0-0 | 0-0-0-0 | 6 | 0.4 | Adagrad | 0.9631278 | 0.9631278 | 14.325793 | 4753625.0 |
| 0 | 0-0-0-0 | 0-0-0-0 | 6 | 0.4 | RMSprop | 0.9039247 | 0.9039247 | 19.018295 | 4753625.0 |
| 0 | 0-0-0-0 | 0-0-0-0 | 7 | 0.0 | Adam | 0.8364898 | 0.8364898 | 18.030067 | 4753625.0 |
| 0 | 0-0-0-0 | 0-0-0-0 | 7 | 0.0 | Adagrad | 0.8167940 | 0.8167940 | 16.964769 | 4753625.0 |
| 0 | 0-0-0-0 | 0-0-0-0 | 7 | 0.0 | RMSprop | 0.8376146 | 0.8376146 | 19.917499 | 4753625.0 |
| 0 | 0-0-0-0 | 0-0-0-0 | 7 | 0.2 | Adam | 0.8437680 | 0.8437680 | 19.426970 | 4753625.0 |
| 0 | 0-0-0-0 | 0-0-0-0 | 7 | 0.2 | Adagrad | 0.8410613 | 0.8410613 | 21.588420 | 4753625.0 |
| 0 | 0-0-0-0 | 0-0-0-0 | 7 | 0.2 | RMSprop | 0.8646478 | 0.8646478 | 17.031793 | 4753625.0 |
| 0 | 0-0-0-0 | 0-0-0-0 | 7 | 0.4 | Adam | 0.8942837 | 0.8942837 | 19.091246 | 4753625.0 |
| 0 | 0-0-0-0 | 0-0-0-0 | 7 | 0.4 | Adagrad | 0.9706682 | 0.9706682 | 9.6436954 | 4753625.0 |
| 0 | 0-0-0-0 | 0-0-0-0 | 7 | 0.4 | RMSprop | 0.9083103 | 0.9083103 | 18.647722 | 4753625.0 |
| 0 | 0-0-0-0 | 0-0-0-0 | 8 | 0.0 | Adam | 0.8312379 | 0.8312378 | 18.337887 | 4753625.0 |
| 0 | 0-0-0-0 | 0-0-0-0 | 8 | 0.0 | Adagrad | 0.8170454 | 0.8170454 | 17.843625 | 4753625.0 |
| 0 | 0-0-0-0 | 0-0-0-0 | 8 | 0.0 | RMSprop | 0.8422871 | 0.8422871 | 16.749560 | 4753625.0 |
| 0 | 0-0-0-0 | 0-0-0-0 | 8 | 0.2 | Adam | 0.8469983 | 0.8469983 | 20.810954 | 4753625.0 |
| 0 | 0-0-0-0 | 0-0-0-0 | 8 | 0.2 | Adagrad | 0.8529640 | 0.8529640 | 23.053711 | 4753625.0 |
| 0 | 0-0-0-0 | 0-0-0-0 | 8 | 0.2 | RMSprop | 0.8576316 | 0.8576316 | 21.392377 | 4753625.0 |
| 0 | 0-0-0-0 | 0-0-0-0 | 8 | 0.4 | Adam | 0.8885250 | 0.8885250 | 19.509423 | 4753625.0 |
| 0 | 0-0-0-0 | 0-0-0-0 | 8 | 0.4 | Adagrad | 0.9618107 | 0.9618107 | 12.286043 | 4753625.0 |
| 0 | 0-0-0-0 | 0-0-0-0 | 8 | 0.4 | RMSprop | 0.9074523 | 0.9074523 | 18.205809 | 4753625.0 |
