| 2 | 5-15-17-5 | 5-5-5-8 | 2 | 0.0 | Adam | 0.8502141 | 0.8502141 | 38.110960 | 3128853.0 |
| 2 | 17-5-5-15 | 5-5-5-8 | 2 | 0.0 | Adam | 0.8457640 | 0.8457640 | 42.100318 | 3128913.0 |
| 2 | 5-15-17-5 | 5-5-5-8 | 2 | 0.0 | Adagrad | 0.8327425 | 0.8327425 | 34.145475 | 3128853.0 |
| 2 | 17-5-5-15 | 5-5-5-8 | 2 | 0.0 | Adagrad | 0.8487642 | 0.8487642 | 35.060775 | 3128913.0 |
| 2 | 5-15-17-5 | 5-5-5-8 | 2 | 0.0 | RMSprop | 0.8479125 | 0.8479125 | 37.281991 | 3128853.0 |
| 2 | 17-5-5-15 | 5-5-5-8 | 2 | 0.0 | RMSprop | 0.8527262 | 0.8527262 | 40.456275 | 3128913.0 |
| 2 | 5-15-17-5 | 5-5-5-8 | 2 | 0.2 | Adam | 0.8393230 | 0.8393230 | 38.970317 | 3128853.0 |
| 2 | 17-5-5-15 | 5-5-5-8 | 2 | 0.2 | Adam | 0.8359835 | 0.8359835 | 44.411098 | 3128913.0 |
| 2 | 5-15-17-5 | 5-5-5-8 | 2 | 0.2 | Adagrad | 0.8310393 | 0.8310393 | 40.271729 | 3128853.0 |
| 2 | 17-5-5-15 | 5-5-5-8 | 2 | 0.2 | Adagrad | 0.8364488 | 0.8364488 | 40.519570 | 3128913.0 |
| 2 | 5-15-17-5 | 5-5-5-8 | 2 | 0.2 | RMSprop | 0.8309189 | 0.8309189 | 41.513797 | 3128853.0 |
| 2 | 17-5-5-15 | 5-5-5-8 | 2 | 0.2 | RMSprop | 0.8384937 | 0.8384937 | 47.218626 | 3128913.0 |
| 2 | 5-15-17-5 | 5-5-5-8 | 2 | 0.4 | Adam | 0.8291210 | 0.8291210 | 49.753488 | 3128853.0 |
| 2 | 17-5-5-15 | 5-5-5-8 | 2 | 0.4 | Adam | 0.8375593 | 0.8375593 | 53.136920 | 3128913.0 |
| 2 | 5-15-17-5 | 5-5-5-8 | 2 | 0.4 | Adagrad | 0.8358326 | 0.8358326 | 41.602609 | 3128853.0 |
| 2 | 17-5-5-15 | 5-5-5-8 | 2 | 0.4 | Adagrad | 0.8409937 | 0.8409937 | 45.387356 | 3128913.0 |
| 2 | 5-15-17-5 | 5-5-5-8 | 2 | 0.4 | RMSprop | 0.8264034 | 0.8264034 | 53.553262 | 3128853.0 |
| 2 | 17-5-5-15 | 5-5-5-8 | 2 | 0.4 | RMSprop | 0.8354448 | 0.8354448 | 55.733097 | 3128913.0 |
| 2 | 5-15-17-5 | 5-5-5-8 | 3 | 0.0 | Adam | 0.8382587 | 0.8382587 | 41.640094 | 3129217.0 |
| 2 | 17-5-5-15 | 5-5-5-8 | 3 | 0.0 | Adam | 0.8391334 | 0.8391333 | 43.667394 | 3129307.0 |
| 2 | 5-15-17-5 | 5-5-5-8 | 3 | 0.0 | Adagrad | 0.8241196 | 0.8241196 | 36.026164 | 3129217.0 |
| 2 | 17-5-5-15 | 5-5-5-8 | 3 | 0.0 | Adagrad | 0.8315890 | 0.8315889 | 42.717853 | 3129307.0 |
| 2 | 5-15-17-5 | 5-5-5-8 | 3 | 0.0 | RMSprop | 0.8484138 | 0.8484137 | 37.335276 | 3129217.0 |
| 2 | 17-5-5-15 | 5-5-5-8 | 3 | 0.0 | RMSprop | 0.8315759 | 0.8315759 | 50.980940 | 3129307.0 |
| 2 | 5-15-17-5 | 5-5-5-8 | 3 | 0.2 | Adam | 0.8298503 | 0.8298503 | 54.895428 | 3129217.0 |
| 2 | 17-5-5-15 | 5-5-5-8 | 3 | 0.2 | Adam | 0.8332391 | 0.8332391 | 51.083764 | 3129307.0 |
| 2 | 5-15-17-5 | 5-5-5-8 | 3 | 0.2 | Adagrad | 0.8307427 | 0.8307427 | 41.608161 | 3129217.0 |
| 2 | 17-5-5-15 | 5-5-5-8 | 3 | 0.2 | Adagrad | 0.8348865 | 0.8348865 | 43.096928 | 3129307.0 |
| 2 | 5-15-17-5 | 5-5-5-8 | 3 | 0.2 | RMSprop | 0.8314089 | 0.8314089 | 52.068069 | 3129217.0 |
| 2 | 17-5-5-15 | 5-5-5-8 | 3 | 0.2 | RMSprop | 0.8288459 | 0.8288459 | 47.790999 | 3129307.0 |
| 2 | 5-15-17-5 | 5-5-5-8 | 3 | 0.4 | Adam | 0.8278817 | 0.8278817 | 54.077558 | 3129217.0 |
| 2 | 17-5-5-15 | 5-5-5-8 | 3 | 0.4 | Adam | 0.8311063 | 0.8311063 | 52.333550 | 3129307.0 |
| 2 | 5-15-17-5 | 5-5-5-8 | 3 | 0.4 | Adagrad | 0.8224211 | 0.8224211 | 51.977381 | 3129217.0 |
| 2 | 17-5-5-15 | 5-5-5-8 | 3 | 0.4 | Adagrad | 0.8322943 | 0.8322943 | 51.092482 | 3129307.0 |
| 2 | 5-15-17-5 | 5-5-5-8 | 3 | 0.4 | RMSprop | 0.8242157 | 0.8242157 | 56.942202 | 3129217.0 |
| 2 | 17-5-5-15 | 5-5-5-8 | 3 | 0.4 | RMSprop | 0.8318193 | 0.8318193 | 65.861494 | 3129307.0 |
| 2 | 5-15-17-5 | 5-5-5-8 | 4 | 0.0 | Adam | 0.8325331 | 0.8325331 | 54.336210 | 3129581.0 |
| 2 | 17-5-5-15 | 5-5-5-8 | 4 | 0.0 | Adam | 0.8314770 | 0.8314771 | 62.488752 | 3129701.0 |
| 2 | 5-15-17-5 | 5-5-5-8 | 4 | 0.0 | Adagrad | 0.8250806 | 0.8250806 | 49.587259 | 3129581.0 |
| 2 | 17-5-5-15 | 5-5-5-8 | 4 | 0.0 | Adagrad | 0.8284976 | 0.8284976 | 55.887655 | 3129701.0 |
| 2 | 5-15-17-5 | 5-5-5-8 | 4 | 0.0 | RMSprop | 0.8375546 | 0.8375546 | 63.219404 | 3129581.0 |
| 2 | 17-5-5-15 | 5-5-5-8 | 4 | 0.0 | RMSprop | 0.8317145 | 0.8317145 | 54.872668 | 3129701.0 |
| 2 | 5-15-17-5 | 5-5-5-8 | 4 | 0.2 | Adam | 0.8245954 | 0.8245954 | 65.061203 | 3129581.0 |
| 2 | 17-5-5-15 | 5-5-5-8 | 4 | 0.2 | Adam | 0.8242462 | 0.8242462 | 66.091804 | 3129701.0 |
| 2 | 5-15-17-5 | 5-5-5-8 | 4 | 0.2 | Adagrad | 0.8181508 | 0.8181508 | 55.211671 | 3129581.0 |
| 2 | 17-5-5-15 | 5-5-5-8 | 4 | 0.2 | Adagrad | 0.8242553 | 0.8242553 | 58.720640 | 3129701.0 |
| 2 | 5-15-17-5 | 5-5-5-8 | 4 | 0.2 | RMSprop | 0.8212802 | 0.8212802 | 63.647544 | 3129581.0 |
| 2 | 17-5-5-15 | 5-5-5-8 | 4 | 0.2 | RMSprop | 0.8278828 | 0.8278828 | 58.886482 | 3129701.0 |
| 2 | 5-15-17-5 | 5-5-5-8 | 4 | 0.4 | Adam | 0.8194328 | 0.8194328 | 81.709400 | 3129581.0 |
| 2 | 17-5-5-15 | 5-5-5-8 | 4 | 0.4 | Adam | 0.8246703 | 0.8246703 | 73.834265 | 3129701.0 |
| 2 | 5-15-17-5 | 5-5-5-8 | 4 | 0.4 | Adagrad | 0.8103772 | 0.8103772 | 58.875185 | 3129581.0 |
| 2 | 17-5-5-15 | 5-5-5-8 | 4 | 0.4 | Adagrad | 0.8303074 | 0.8303074 | 51.648796 | 3129701.0 |
| 2 | 5-15-17-5 | 5-5-5-8 | 4 | 0.4 | RMSprop | 0.8186437 | 0.8186437 | 76.841115 | 3129581.0 |
| 2 | 17-5-5-15 | 5-5-5-8 | 4 | 0.4 | RMSprop | 0.8258346 | 0.8258346 | 67.564161 | 3129701.0 |
| 2 | 5-15-17-5 | 5-5-5-8 | 5 | 0.0 | Adam | 0.8266332 | 0.8266332 | 60.167867 | 3129945.0 |
| 2 | 17-5-5-15 | 5-5-5-8 | 5 | 0.0 | Adam | 0.8237619 | 0.8237619 | 63.432997 | 3130095.0 |
| 2 | 5-15-17-5 | 5-5-5-8 | 5 | 0.0 | Adagrad | 0.8226939 | 0.8226939 | 55.068325 | 3129945.0 |
| 2 | 17-5-5-15 | 5-5-5-8 | 5 | 0.0 | Adagrad | 0.8231103 | 0.8231103 | 54.112322 | 3130095.0 |
| 2 | 5-15-17-5 | 5-5-5-8 | 5 | 0.0 | RMSprop | 0.8213445 | 0.8213445 | 62.734596 | 3129945.0 |
| 2 | 17-5-5-15 | 5-5-5-8 | 5 | 0.0 | RMSprop | 0.8199480 | 0.8199480 | 64.310754 | 3130095.0 |
| 2 | 5-15-17-5 | 5-5-5-8 | 5 | 0.2 | Adam | 0.8134185 | 0.8134185 | 70.310515 | 3129945.0 |
| 2 | 17-5-5-15 | 5-5-5-8 | 5 | 0.2 | Adam | 0.8252876 | 0.8252876 | 65.329873 | 3130095.0 |
| 2 | 5-15-17-5 | 5-5-5-8 | 5 | 0.2 | Adagrad | 0.8199476 | 0.8199476 | 58.950574 | 3129945.0 |
| 2 | 17-5-5-15 | 5-5-5-8 | 5 | 0.2 | Adagrad | 0.8222838 | 0.8222838 | 61.647918 | 3130095.0 |
| 2 | 5-15-17-5 | 5-5-5-8 | 5 | 0.2 | RMSprop | 0.8150825 | 0.8150825 | 67.938458 | 3129945.0 |
| 2 | 17-5-5-15 | 5-5-5-8 | 5 | 0.2 | RMSprop | 0.8153924 | 0.8153924 | 83.181895 | 3130095.0 |
| 2 | 5-15-17-5 | 5-5-5-8 | 5 | 0.4 | Adam | 0.8099561 | 0.8099561 | 81.782778 | 3129945.0 |
| 2 | 17-5-5-15 | 5-5-5-8 | 5 | 0.4 | Adam | 0.8242973 | 0.8242973 | 75.130073 | 3130095.0 |
| 2 | 5-15-17-5 | 5-5-5-8 | 5 | 0.4 | Adagrad | 0.8096842 | 0.8096842 | 79.700552 | 3129945.0 |
| 2 | 17-5-5-15 | 5-5-5-8 | 5 | 0.4 | Adagrad | 0.8257366 | 0.8257366 | 69.174168 | 3130095.0 |
| 2 | 5-15-17-5 | 5-5-5-8 | 5 | 0.4 | RMSprop | 0.8078929 | 0.8078929 | 97.818568 | 3129945.0 |
| 2 | 17-5-5-15 | 5-5-5-8 | 5 | 0.4 | RMSprop | 0.8217050 | 0.8217050 | 73.893178 | 3130095.0 |
