| 2 | 5-15-17-5 | 5-5-5-4 | 6 | 0.0 | Adam | 0.8173362 | 0.8173362 | 62.062072 | 1316901.0 |
| 2 | 17-5-5-15 | 5-5-5-4 | 6 | 0.0 | Adam | 0.8195507 | 0.8195507 | 60.573958 | 1316841.0 |
| 2 | 5-15-17-5 | 5-5-5-4 | 6 | 0.0 | Adagrad | 0.8122701 | 0.8122701 | 53.859126 | 1316901.0 |
| 2 | 17-5-5-15 | 5-5-5-4 | 6 | 0.0 | Adagrad | 0.8241042 | 0.8241042 | 53.646061 | 1316841.0 |
| 2 | 5-15-17-5 | 5-5-5-4 | 6 | 0.0 | RMSprop | 0.8218241 | 0.8218241 | 62.008544 | 1316901.0 |
| 2 | 17-5-5-15 | 5-5-5-4 | 6 | 0.0 | RMSprop | 0.8262888 | 0.8262888 | 57.688398 | 1316841.0 |
| 2 | 5-15-17-5 | 5-5-5-4 | 6 | 0.2 | Adam | 0.8176645 | 0.8176645 | 72.502309 | 1316901.0 |
| 2 | 17-5-5-15 | 5-5-5-4 | 6 | 0.2 | Adam | 0.8154449 | 0.8154449 | 68.575856 | 1316841.0 |
| 2 | 5-15-17-5 | 5-5-5-4 | 6 | 0.2 | Adagrad | 0.8199953 | 0.8199953 | 60.119225 | 1316901.0 |
| 2 | 17-5-5-15 | 5-5-5-4 | 6 | 0.2 | Adagrad | 0.8210292 | 0.8210292 | 61.899600 | 1316841.0 |
| 2 | 5-15-17-5 | 5-5-5-4 | 6 | 0.2 | RMSprop | 0.8158120 | 0.8158120 | 67.807717 | 1316901.0 |
| 2 | 17-5-5-15 | 5-5-5-4 | 6 | 0.2 | RMSprop | 0.8223571 | 0.8223571 | 66.025308 | 1316841.0 |
| 2 | 5-15-17-5 | 5-5-5-4 | 6 | 0.4 | Adam | 0.8119709 | 0.8119709 | 84.305638 | 1316901.0 |
| 2 | 17-5-5-15 | 5-5-5-4 | 6 | 0.4 | Adam | 0.8109258 | 0.8109258 | 76.709648 | 1316841.0 |
| 2 | 5-15-17-5 | 5-5-5-4 | 6 | 0.4 | Adagrad | 0.8124317 | 0.8124317 | 66.463332 | 1316901.0 |
| 2 | 17-5-5-15 | 5-5-5-4 | 6 | 0.4 | Adagrad | 0.8173204 | 0.8173204 | 69.835018 | 1316841.0 |
| 2 | 5-15-17-5 | 5-5-5-4 | 6 | 0.4 | RMSprop | 0.8178159 | 0.8178159 | 80.675734 | 1316901.0 |
| 2 | 17-5-5-15 | 5-5-5-4 | 6 | 0.4 | RMSprop | 0.8291946 | 0.8291946 | 69.198194 | 1316841.0 |
| 2 | 5-15-17-5 | 5-5-5-4 | 7 | 0.0 | Adam | 0.8137310 | 0.8137310 | 68.397521 | 1317197.0 |
| 2 | 17-5-5-15 | 5-5-5-4 | 7 | 0.0 | Adam | 0.8208956 | 0.8208956 | 75.638560 | 1317127.0 |
| 2 | 5-15-17-5 | 5-5-5-4 | 7 | 0.0 | Adagrad | 0.8100812 | 0.8100812 | 63.110838 | 1317197.0 |
| 2 | 17-5-5-15 | 5-5-5-4 | 7 | 0.0 | Adagrad | 0.8200334 | 0.8200334 | 60.118555 | 1317127.0 |
| 2 | 5-15-17-5 | 5-5-5-4 | 7 | 0.0 | RMSprop | 0.8105738 | 0.8105738 | 78.313688 | 1317197.0 |
| 2 | 17-5-5-15 | 5-5-5-4 | 7 | 0.0 | RMSprop | 0.8165916 | 0.8165916 | 77.456256 | 1317127.0 |
| 2 | 5-15-17-5 | 5-5-5-4 | 7 | 0.2 | Adam | 0.8124535 | 0.8124536 | 79.358271 | 1317197.0 |
| 2 | 17-5-5-15 | 5-5-5-4 | 7 | 0.2 | Adam | 0.8150788 | 0.8150788 | 82.936145 | 1317127.0 |
| 2 | 5-15-17-5 | 5-5-5-4 | 7 | 0.2 | Adagrad | 0.8049629 | 0.8049630 | 77.634288 | 1317197.0 |
| 2 | 17-5-5-15 | 5-5-5-4 | 7 | 0.2 | Adagrad | 0.8179746 | 0.8179746 | 69.586873 | 1317127.0 |
| 2 | 5-15-17-5 | 5-5-5-4 | 7 | 0.2 | RMSprop | 0.8111045 | 0.8111045 | 86.541191 | 1317197.0 |
| 2 | 17-5-5-15 | 5-5-5-4 | 7 | 0.2 | RMSprop | 0.8161821 | 0.8161821 | 84.924532 | 1317127.0 |
| 2 | 5-15-17-5 | 5-5-5-4 | 7 | 0.4 | Adam | 0.8100053 | 0.8100053 | 85.208983 | 1317197.0 |
| 2 | 17-5-5-15 | 5-5-5-4 | 7 | 0.4 | Adam | 0.8208225 | 0.8208225 | 92.208060 | 1317127.0 |
| 2 | 5-15-17-5 | 5-5-5-4 | 7 | 0.4 | Adagrad | 0.8126769 | 0.8126769 | 75.473043 | 1317197.0 |
| 2 | 17-5-5-15 | 5-5-5-4 | 7 | 0.4 | Adagrad | 0.8204920 | 0.8204920 | 78.307509 | 1317127.0 |
| 2 | 5-15-17-5 | 5-5-5-4 | 7 | 0.4 | RMSprop | 0.8178952 | 0.8178952 | 84.574166 | 1317197.0 |
| 2 | 17-5-5-15 | 5-5-5-4 | 7 | 0.4 | RMSprop | 0.8203962 | 0.8203962 | 84.438381 | 1317127.0 |
| 2 | 5-15-17-5 | 5-5-5-4 | 8 | 0.0 | Adam | 0.8154537 | 0.8154537 | 81.813784 | 1317493.0 |
| 2 | 17-5-5-15 | 5-5-5-4 | 8 | 0.0 | Adam | 0.8153563 | 0.8153563 | 82.571459 | 1317413.0 |
| 2 | 5-15-17-5 | 5-5-5-4 | 8 | 0.0 | Adagrad | 0.8131498 | 0.8131498 | 79.812556 | 1317493.0 |
| 2 | 17-5-5-15 | 5-5-5-4 | 8 | 0.0 | Adagrad | 0.8175738 | 0.8175738 | 67.833580 | 1317413.0 |
| 2 | 5-15-17-5 | 5-5-5-4 | 8 | 0.0 | RMSprop | 0.8180925 | 0.8180925 | 74.074267 | 1317493.0 |
| 2 | 17-5-5-15 | 5-5-5-4 | 8 | 0.0 | RMSprop | 0.8262715 | 0.8262715 | 73.371360 | 1317413.0 |
| 2 | 5-15-17-5 | 5-5-5-4 | 8 | 0.2 | Adam | 0.8075052 | 0.8075053 | 89.151868 | 1317493.0 |
| 2 | 17-5-5-15 | 5-5-5-4 | 8 | 0.2 | Adam | 0.8116769 | 0.8116770 | 88.685021 | 1317413.0 |
| 2 | 5-15-17-5 | 5-5-5-4 | 8 | 0.2 | Adagrad | 0.8060423 | 0.8060423 | 85.642837 | 1317493.0 |
| 2 | 17-5-5-15 | 5-5-5-4 | 8 | 0.2 | Adagrad | 0.8185773 | 0.8185773 | 71.809177 | 1317413.0 |
| 2 | 5-15-17-5 | 5-5-5-4 | 8 | 0.2 | RMSprop | 0.8068436 | 0.8068436 | 92.815393 | 1317493.0 |
| 2 | 17-5-5-15 | 5-5-5-4 | 8 | 0.2 | RMSprop | 0.8179244 | 0.8179244 | 70.927374 | 1317413.0 |
| 2 | 5-15-17-5 | 5-5-5-4 | 8 | 0.4 | Adam | 0.8050600 | 0.8050600 | 92.385414 | 1317493.0 |
| 2 | 17-5-5-15 | 5-5-5-4 | 8 | 0.4 | Adam | 0.8108230 | 0.8108230 | 82.158458 | 1317413.0 |
| 2 | 5-15-17-5 | 5-5-5-4 | 8 | 0.4 | Adagrad | 0.8145993 | 0.8145993 | 78.242302 | 1317493.0 |
| 2 | 17-5-5-15 | 5-5-5-4 | 8 | 0.4 | Adagrad | 0.8163199 | 0.8163199 | 72.444790 | 1317413.0 |
| 2 | 5-15-17-5 | 5-5-5-4 | 8 | 0.4 | RMSprop | 0.8106479 | 0.8106479 | 87.609507 | 1317493.0 |
| 2 | 17-5-5-15 | 5-5-5-4 | 8 | 0.4 | RMSprop | 0.8161184 | 0.8161184 | 82.778676 | 1317413.0 |
| 2 | 5-15-17-5 | 5-5-5-4 | 9 | 0.0 | Adam | 0.8177880 | 0.8177880 | 71.698364 | 1317789.0 |
| 2 | 17-5-5-15 | 5-5-5-4 | 9 | 0.0 | Adam | 0.8135612 | 0.8135612 | 73.384235 | 1317699.0 |
| 2 | 5-15-17-5 | 5-5-5-4 | 9 | 0.0 | Adagrad | 0.8109133 | 0.8109133 | 63.924731 | 1317789.0 |
| 2 | 17-5-5-15 | 5-5-5-4 | 9 | 0.0 | Adagrad | 0.8104582 | 0.8104582 | 63.952932 | 1317699.0 |
| 2 | 5-15-17-5 | 5-5-5-4 | 9 | 0.0 | RMSprop | 0.8128196 | 0.8128196 | 76.115909 | 1317789.0 |
| 2 | 17-5-5-15 | 5-5-5-4 | 9 | 0.0 | RMSprop | 0.8128244 | 0.8128244 | 70.332507 | 1317699.0 |
| 2 | 5-15-17-5 | 5-5-5-4 | 9 | 0.2 | Adam | 0.8105917 | 0.8105917 | 82.387525 | 1317789.0 |
| 2 | 17-5-5-15 | 5-5-5-4 | 9 | 0.2 | Adam | 0.8132706 | 0.8132706 | 75.803794 | 1317699.0 |
| 2 | 5-15-17-5 | 5-5-5-4 | 9 | 0.2 | Adagrad | 0.8098545 | 0.8098545 | 71.850290 | 1317789.0 |
| 2 | 17-5-5-15 | 5-5-5-4 | 9 | 0.2 | Adagrad | 0.8152769 | 0.8152769 | 70.800897 | 1317699.0 |
| 2 | 5-15-17-5 | 5-5-5-4 | 9 | 0.2 | RMSprop | 0.8174995 | 0.8174995 | 73.333606 | 1317789.0 |
| 2 | 17-5-5-15 | 5-5-5-4 | 9 | 0.2 | RMSprop | 0.8179766 | 0.8179766 | 75.853399 | 1317699.0 |
| 2 | 5-15-17-5 | 5-5-5-4 | 9 | 0.4 | Adam | 0.8120519 | 0.8120519 | 77.980003 | 1317789.0 |
| 2 | 17-5-5-15 | 5-5-5-4 | 9 | 0.4 | Adam | 0.8124487 | 0.8124487 | 90.779578 | 1317699.0 |
| 2 | 5-15-17-5 | 5-5-5-4 | 9 | 0.4 | Adagrad | 0.8049480 | 0.8049480 | 84.255161 | 1317789.0 |
| 2 | 17-5-5-15 | 5-5-5-4 | 9 | 0.4 | Adagrad | 0.8196366 | 0.8196366 | 72.544702 | 1317699.0 |
| 2 | 5-15-17-5 | 5-5-5-4 | 9 | 0.4 | RMSprop | 0.8127241 | 0.8127241 | 87.749257 | 1317789.0 |
| 2 | 17-5-5-15 | 5-5-5-4 | 9 | 0.4 | RMSprop | 0.8107495 | 0.8107495 | 91.326928 | 1317699.0 |
