| 0 | 0-0-0-0 | 0-0-0-0 | 1 | 0.0 | Adam | 0.8337842 | 0.8337842 | 38.178175 | 10505125. |
| 0 | 0-0-0-0 | 0-0-0-0 | 1 | 0.0 | Adagrad | 0.8361539 | 0.8361539 | 28.204824 | 10505125. |
| 0 | 0-0-0-0 | 0-0-0-0 | 1 | 0.0 | RMSprop | 0.8556351 | 0.8556351 | 32.951249 | 10505125. |
| 0 | 0-0-0-0 | 0-0-0-0 | 1 | 0.2 | Adam | 0.8390344 | 0.8390344 | 41.865941 | 10505125. |
| 0 | 0-0-0-0 | 0-0-0-0 | 1 | 0.2 | Adagrad | 0.8259746 | 0.8259746 | 47.973151 | 10505125. |
| 0 | 0-0-0-0 | 0-0-0-0 | 1 | 0.2 | RMSprop | 0.8891969 | 0.8891969 | 31.934924 | 10505125. |
| 0 | 0-0-0-0 | 0-0-0-0 | 1 | 0.4 | Adam | 0.9081596 | 0.9081596 | 33.328982 | 10505125. |
| 0 | 0-0-0-0 | 0-0-0-0 | 1 | 0.4 | Adagrad | 0.9704595 | 0.9704595 | 17.964153 | 10505125. |
| 0 | 0-0-0-0 | 0-0-0-0 | 1 | 0.4 | RMSprop | 0.9415867 | 0.9415867 | 28.158911 | 10505125. |
| 0 | 0-0-0-0 | 0-0-0-0 | 2 | 0.0 | Adam | 0.8276211 | 0.8276211 | 40.145330 | 10505125. |
| 0 | 0-0-0-0 | 0-0-0-0 | 2 | 0.0 | Adagrad | 0.8306214 | 0.8306214 | 33.666816 | 10505125. |
| 0 | 0-0-0-0 | 0-0-0-0 | 2 | 0.0 | RMSprop | 0.8470390 | 0.8470390 | 35.403305 | 10505125. |
| 0 | 0-0-0-0 | 0-0-0-0 | 2 | 0.2 | Adam | 0.8389750 | 0.8389750 | 49.285863 | 10505125. |
| 0 | 0-0-0-0 | 0-0-0-0 | 2 | 0.2 | Adagrad | 0.8284910 | 0.8284910 | 53.932848 | 10505125. |
| 0 | 0-0-0-0 | 0-0-0-0 | 2 | 0.2 | RMSprop | 0.8627129 | 0.8627129 | 46.186072 | 10505125. |
| 0 | 0-0-0-0 | 0-0-0-0 | 2 | 0.4 | Adam | 0.9186887 | 0.9186888 | 34.409651 | 10505125. |
| 0 | 0-0-0-0 | 0-0-0-0 | 2 | 0.4 | Adagrad | 0.9716976 | 0.9716976 | 23.247242 | 10505125. |
| 0 | 0-0-0-0 | 0-0-0-0 | 2 | 0.4 | RMSprop | 0.9520714 | 0.9520714 | 37.755489 | 10505125. |
| 0 | 0-0-0-0 | 0-0-0-0 | 3 | 0.0 | Adam | 0.8297979 | 0.8297979 | 41.899294 | 10505125. |
| 0 | 0-0-0-0 | 0-0-0-0 | 3 | 0.0 | Adagrad | 0.8419095 | 0.8419095 | 34.122274 | 10505125. |
| 0 | 0-0-0-0 | 0-0-0-0 | 3 | 0.0 | RMSprop | 0.8555784 | 0.8555784 | 36.130015 | 10505125. |
| 0 | 0-0-0-0 | 0-0-0-0 | 3 | 0.2 | Adam | 0.8473941 | 0.8473941 | 47.175994 | 10505125. |
| 0 | 0-0-0-0 | 0-0-0-0 | 3 | 0.2 | Adagrad | 0.8300276 | 0.8300276 | 52.028580 | 10505125. |
| 0 | 0-0-0-0 | 0-0-0-0 | 3 | 0.2 | RMSprop | 0.8678076 | 0.8678076 | 44.633378 | 10505125. |
| 0 | 0-0-0-0 | 0-0-0-0 | 3 | 0.4 | Adam | 0.9035585 | 0.9035585 | 43.939578 | 10505125. |
| 0 | 0-0-0-0 | 0-0-0-0 | 3 | 0.4 | Adagrad | 0.9708084 | 0.9708084 | 21.121951 | 10505125. |
| 0 | 0-0-0-0 | 0-0-0-0 | 3 | 0.4 | RMSprop | 0.9526285 | 0.9526285 | 31.625866 | 10505125. |
| 0 | 0-0-0-0 | 0-0-0-0 | 4 | 0.0 | Adam | 0.8330612 | 0.8330612 | 38.966163 | 10505125. |
| 0 | 0-0-0-0 | 0-0-0-0 | 4 | 0.0 | Adagrad | 0.8227277 | 0.8227277 | 32.152366 | 10505125. |
| 0 | 0-0-0-0 | 0-0-0-0 | 4 | 0.0 | RMSprop | 0.8466786 | 0.8466786 | 34.270616 | 10505125. |
| 0 | 0-0-0-0 | 0-0-0-0 | 4 | 0.2 | Adam | 0.8532129 | 0.8532129 | 43.302729 | 10505125. |
| 0 | 0-0-0-0 | 0-0-0-0 | 4 | 0.2 | Adagrad | 0.8423847 | 0.8423847 | 38.512671 | 10505125. |
| 0 | 0-0-0-0 | 0-0-0-0 | 4 | 0.2 | RMSprop | 0.8725928 | 0.8725928 | 39.180607 | 10505125. |
| 0 | 0-0-0-0 | 0-0-0-0 | 4 | 0.4 | Adam | 0.9200151 | 0.9200151 | 32.910209 | 10505125. |
| 0 | 0-0-0-0 | 0-0-0-0 | 4 | 0.4 | Adagrad | 0.9551383 | 0.9551383 | 27.305243 | 10505125. |
| 0 | 0-0-0-0 | 0-0-0-0 | 4 | 0.4 | RMSprop | 0.9582026 | 0.9582026 | 23.604644 | 10505125. |
| 0 | 0-0-0-0 | 0-0-0-0 | 5 | 0.0 | Adam | 0.8330116 | 0.8330116 | 37.448549 | 10505125. |
| 0 | 0-0-0-0 | 0-0-0-0 | 5 | 0.0 | Adagrad | 0.8319678 | 0.8319678 | 30.525514 | 10505125. |
| 0 | 0-0-0-0 | 0-0-0-0 | 5 | 0.0 | RMSprop | 0.8529404 | 0.8529404 | 38.306277 | 10505125. |
| 0 | 0-0-0-0 | 0-0-0-0 | 5 | 0.2 | Adam | 0.8428377 | 0.8428377 | 41.822516 | 10505125. |
| 0 | 0-0-0-0 | 0-0-0-0 | 5 | 0.2 | Adagrad | 0.8336983 | 0.8336983 | 45.368074 | 10505125. |
| 0 | 0-0-0-0 | 0-0-0-0 | 5 | 0.2 | RMSprop | 0.8731871 | 0.8731871 | 35.576670 | 10505125. |
| 0 | 0-0-0-0 | 0-0-0-0 | 5 | 0.4 | Adam | 0.9166140 | 0.9166140 | 30.568383 | 10505125. |
| 0 | 0-0-0-0 | 0-0-0-0 | 5 | 0.4 | Adagrad | 0.9738277 | 0.9738277 | 16.251939 | 10505125. |
| 0 | 0-0-0-0 | 0-0-0-0 | 5 | 0.4 | RMSprop | 0.9472406 | 0.9472406 | 25.763510 | 10505125. |
| 0 | 0-0-0-0 | 0-0-0-0 | 6 | 0.0 | Adam | 0.8362847 | 0.8362847 | 35.025987 | 10505125. |
| 0 | 0-0-0-0 | 0-0-0-0 | 6 | 0.0 | Adagrad | 0.8340239 | 0.8340239 | 27.580096 | 10505125. |
| 0 | 0-0-0-0 | 0-0-0-0 | 6 | 0.0 | RMSprop | 0.8493241 | 0.8493241 | 31.654024 | 10505125. |
| 0 | 0-0-0-0 | 0-0-0-0 | 6 | 0.2 | Adam | 0.8464611 | 0.8464611 | 38.166632 | 10505125. |
| 0 | 0-0-0-0 | 0-0-0-0 | 6 | 0.2 | Adagrad | 0.8204456 | 0.8204456 | 42.594453 | 10505125. |
| 0 | 0-0-0-0 | 0-0-0-0 | 6 | 0.2 | RMSprop | 0.8868415 | 0.8868415 | 30.881645 | 10505125. |
| 0 | 0-0-0-0 | 0-0-0-0 | 6 | 0.4 | Adam | 0.9194337 | 0.9194337 | 30.722117 | 10505125. |
| 0 | 0-0-0-0 | 0-0-0-0 | 6 | 0.4 | Adagrad | 0.9683789 | 0.9683789 | 16.943937 | 10505125. |
| 0 | 0-0-0-0 | 0-0-0-0 | 6 | 0.4 | RMSprop | 0.9569784 | 0.9569784 | 27.020649 | 10505125. |
| 0 | 0-0-0-0 | 0-0-0-0 | 7 | 0.0 | Adam | 0.8379651 | 0.8379651 | 27.254765 | 10505125. |
| 0 | 0-0-0-0 | 0-0-0-0 | 7 | 0.0 | Adagrad | 0.8259397 | 0.8259397 | 28.107594 | 10505125. |
| 0 | 0-0-0-0 | 0-0-0-0 | 7 | 0.0 | RMSprop | 0.8521012 | 0.8521012 | 27.429257 | 10505125. |
| 0 | 0-0-0-0 | 0-0-0-0 | 7 | 0.2 | Adam | 0.8599527 | 0.8599527 | 34.856132 | 10505125. |
| 0 | 0-0-0-0 | 0-0-0-0 | 7 | 0.2 | Adagrad | 0.8355093 | 0.8355093 | 41.409799 | 10505125. |
| 0 | 0-0-0-0 | 0-0-0-0 | 7 | 0.2 | RMSprop | 0.8698546 | 0.8698546 | 34.023509 | 10505125. |
| 0 | 0-0-0-0 | 0-0-0-0 | 7 | 0.4 | Adam | 0.9175967 | 0.9175967 | 25.195058 | 10505125. |
| 0 | 0-0-0-0 | 0-0-0-0 | 7 | 0.4 | Adagrad | 0.9709719 | 0.9709719 | 16.887555 | 10505125. |
| 0 | 0-0-0-0 | 0-0-0-0 | 7 | 0.4 | RMSprop | 0.9487210 | 0.9487210 | 23.072195 | 10505125. |
| 0 | 0-0-0-0 | 0-0-0-0 | 8 | 0.0 | Adam | 0.8325249 | 0.8325249 | 31.146037 | 10505125. |
| 0 | 0-0-0-0 | 0-0-0-0 | 8 | 0.0 | Adagrad | 0.8305184 | 0.8305184 | 31.036911 | 10505125. |
| 0 | 0-0-0-0 | 0-0-0-0 | 8 | 0.0 | RMSprop | 0.8492025 | 0.8492025 | 28.055866 | 10505125. |
| 0 | 0-0-0-0 | 0-0-0-0 | 8 | 0.2 | Adam | 0.8398721 | 0.8398721 | 37.756714 | 10505125. |
| 0 | 0-0-0-0 | 0-0-0-0 | 8 | 0.2 | Adagrad | 0.8328824 | 0.8328824 | 36.208581 | 10505125. |
| 0 | 0-0-0-0 | 0-0-0-0 | 8 | 0.2 | RMSprop | 0.8784476 | 0.8784476 | 37.245344 | 10505125. |
| 0 | 0-0-0-0 | 0-0-0-0 | 8 | 0.4 | Adam | 0.9307694 | 0.9307694 | 23.438123 | 10505125. |
| 0 | 0-0-0-0 | 0-0-0-0 | 8 | 0.4 | Adagrad | 0.9506623 | 0.9506623 | 24.307992 | 10505125. |
| 0 | 0-0-0-0 | 0-0-0-0 | 8 | 0.4 | RMSprop | 0.9465822 | 0.9465822 | 23.756775 | 10505125. |
