| 2 | 5-15-17-5 | 5-5-5-8 | 10 | 0.0 | Adam | 0.8106895 | 0.8106895 | 124.10846 | 3131765.0 |
| 2 | 17-5-5-15 | 5-5-5-8 | 10 | 0.0 | Adam | 0.8185116 | 0.8185116 | 122.58910 | 3132065.0 |
| 2 | 5-15-17-5 | 5-5-5-8 | 10 | 0.0 | Adagrad | 0.8067817 | 0.8067817 | 109.27867 | 3131765.0 |
| 2 | 17-5-5-15 | 5-5-5-8 | 10 | 0.0 | Adagrad | 0.8154003 | 0.8154003 | 103.19990 | 3132065.0 |
| 2 | 5-15-17-5 | 5-5-5-8 | 10 | 0.0 | RMSprop | 0.8044472 | 0.8044471 | 117.96523 | 3131765.0 |
| 2 | 17-5-5-15 | 5-5-5-8 | 10 | 0.0 | RMSprop | 0.8102335 | 0.8102335 | 123.85829 | 3132065.0 |
| 2 | 5-15-17-5 | 5-5-5-8 | 10 | 0.2 | Adam | 0.8038896 | 0.8038896 | 129.40292 | 3131765.0 |
| 2 | 17-5-5-15 | 5-5-5-8 | 10 | 0.2 | Adam | 0.8115833 | 0.8115833 | 127.15915 | 3132065.0 |
| 2 | 5-15-17-5 | 5-5-5-8 | 10 | 0.2 | Adagrad | 0.8054618 | 0.8054618 | 120.50934 | 3131765.0 |
| 2 | 17-5-5-15 | 5-5-5-8 | 10 | 0.2 | Adagrad | 0.8095192 | 0.8095192 | 117.78553 | 3132065.0 |
| 2 | 5-15-17-5 | 5-5-5-8 | 10 | 0.2 | RMSprop | 0.8057258 | 0.8057258 | 132.09242 | 3131765.0 |
| 2 | 17-5-5-15 | 5-5-5-8 | 10 | 0.2 | RMSprop | 0.8023207 | 0.8023207 | 131.39251 | 3132065.0 |
| 2 | 5-15-17-5 | 5-5-5-8 | 10 | 0.4 | Adam | 0.8055748 | 0.8055748 | 132.25384 | 3131765.0 |
| 2 | 17-5-5-15 | 5-5-5-8 | 10 | 0.4 | Adam | 0.8140050 | 0.8140050 | 136.71014 | 3132065.0 |
| 2 | 5-15-17-5 | 5-5-5-8 | 10 | 0.4 | Adagrad | 0.8040100 | 0.8040100 | 127.00041 | 3131765.0 |
| 2 | 17-5-5-15 | 5-5-5-8 | 10 | 0.4 | Adagrad | 0.8141784 | 0.8141784 | 130.14854 | 3132065.0 |
| 2 | 5-15-17-5 | 5-5-5-8 | 10 | 0.4 | RMSprop | 0.8088745 | 0.8088745 | 132.94093 | 3131765.0 |
| 2 | 17-5-5-15 | 5-5-5-8 | 10 | 0.4 | RMSprop | 0.8175767 | 0.8175767 | 128.01366 | 3132065.0 |
| 3 | 5-15-17-5 | 5-5-5-8 | 1 | 0.0 | Adam | 0.8632171 | 0.8632171 | 32.952305 | 2127628.0 |
| 3 | 17-5-5-15 | 5-5-5-8 | 1 | 0.0 | Adam | 0.8601896 | 0.8601896 | 37.046498 | 2127658.0 |
| 3 | 5-15-17-5 | 5-5-5-8 | 1 | 0.0 | Adagrad | 0.8744005 | 0.8744005 | 22.886237 | 2127628.0 |
| 3 | 17-5-5-15 | 5-5-5-8 | 1 | 0.0 | Adagrad | 0.8526878 | 0.8526878 | 36.199945 | 2127658.0 |
| 3 | 5-15-17-5 | 5-5-5-8 | 1 | 0.0 | RMSprop | 0.8625971 | 0.8625971 | 32.129415 | 2127628.0 |
| 3 | 17-5-5-15 | 5-5-5-8 | 1 | 0.0 | RMSprop | 0.8626473 | 0.8626473 | 44.410112 | 2127658.0 |
| 3 | 5-15-17-5 | 5-5-5-8 | 1 | 0.2 | Adam | 0.8653906 | 0.8653906 | 35.539935 | 2127628.0 |
| 3 | 17-5-5-15 | 5-5-5-8 | 1 | 0.2 | Adam | 0.8739289 | 0.8739289 | 36.660056 | 2127658.0 |
| 3 | 5-15-17-5 | 5-5-5-8 | 1 | 0.2 | Adagrad | 0.8706513 | 0.8706513 | 26.056677 | 2127628.0 |
| 3 | 17-5-5-15 | 5-5-5-8 | 1 | 0.2 | Adagrad | 0.8651893 | 0.8651893 | 29.569399 | 2127658.0 |
| 3 | 5-15-17-5 | 5-5-5-8 | 1 | 0.2 | RMSprop | 0.8604169 | 0.8604169 | 32.826830 | 2127628.0 |
| 3 | 17-5-5-15 | 5-5-5-8 | 1 | 0.2 | RMSprop | 0.8840671 | 0.8840671 | 33.830417 | 2127658.0 |
| 3 | 5-15-17-5 | 5-5-5-8 | 1 | 0.4 | Adam | 0.8670480 | 0.8670480 | 34.538679 | 2127628.0 |
| 3 | 17-5-5-15 | 5-5-5-8 | 1 | 0.4 | Adam | 0.8969776 | 0.8969776 | 28.544586 | 2127658.0 |
| 3 | 5-15-17-5 | 5-5-5-8 | 1 | 0.4 | Adagrad | 0.8696794 | 0.8696794 | 29.985646 | 2127628.0 |
| 3 | 17-5-5-15 | 5-5-5-8 | 1 | 0.4 | Adagrad | 0.8677545 | 0.8677545 | 25.926790 | 2127658.0 |
| 3 | 5-15-17-5 | 5-5-5-8 | 1 | 0.4 | RMSprop | 0.8899492 | 0.8899492 | 35.707505 | 2127628.0 |
| 3 | 17-5-5-15 | 5-5-5-8 | 1 | 0.4 | RMSprop | 0.8606931 | 0.8606931 | 42.594387 | 2127658.0 |
| 3 | 5-15-17-5 | 5-5-5-8 | 2 | 0.0 | Adam | 0.8320022 | 0.8320022 | 47.742574 | 2128131.0 |
| 3 | 17-5-5-15 | 5-5-5-8 | 2 | 0.0 | Adam | 0.8319766 | 0.8319766 | 46.194755 | 2128191.0 |
| 3 | 5-15-17-5 | 5-5-5-8 | 2 | 0.0 | Adagrad | 0.8296303 | 0.8296303 | 37.953018 | 2128131.0 |
| 3 | 17-5-5-15 | 5-5-5-8 | 2 | 0.0 | Adagrad | 0.8348337 | 0.8348337 | 40.194902 | 2128191.0 |
| 3 | 5-15-17-5 | 5-5-5-8 | 2 | 0.0 | RMSprop | 0.8341067 | 0.8341067 | 46.637981 | 2128131.0 |
| 3 | 17-5-5-15 | 5-5-5-8 | 2 | 0.0 | RMSprop | 0.8350019 | 0.8350019 | 50.913669 | 2128191.0 |
| 3 | 5-15-17-5 | 5-5-5-8 | 2 | 0.2 | Adam | 0.8249120 | 0.8249120 | 51.396962 | 2128131.0 |
| 3 | 17-5-5-15 | 5-5-5-8 | 2 | 0.2 | Adam | 0.8243794 | 0.8243794 | 52.267236 | 2128191.0 |
| 3 | 5-15-17-5 | 5-5-5-8 | 2 | 0.2 | Adagrad | 0.8303641 | 0.8303641 | 48.060060 | 2128131.0 |
| 3 | 17-5-5-15 | 5-5-5-8 | 2 | 0.2 | Adagrad | 0.8399219 | 0.8399219 | 45.378590 | 2128191.0 |
| 3 | 5-15-17-5 | 5-5-5-8 | 2 | 0.2 | RMSprop | 0.8258010 | 0.8258010 | 60.716879 | 2128131.0 |
| 3 | 17-5-5-15 | 5-5-5-8 | 2 | 0.2 | RMSprop | 0.8363326 | 0.8363326 | 53.627203 | 2128191.0 |
| 3 | 5-15-17-5 | 5-5-5-8 | 2 | 0.4 | Adam | 0.8299048 | 0.8299048 | 57.649663 | 2128131.0 |
| 3 | 17-5-5-15 | 5-5-5-8 | 2 | 0.4 | Adam | 0.8456641 | 0.8456641 | 50.344902 | 2128191.0 |
| 3 | 5-15-17-5 | 5-5-5-8 | 2 | 0.4 | Adagrad | 0.8507030 | 0.8507030 | 39.187719 | 2128131.0 |
| 3 | 17-5-5-15 | 5-5-5-8 | 2 | 0.4 | Adagrad | 0.8533602 | 0.8533602 | 40.868687 | 2128191.0 |
| 3 | 5-15-17-5 | 5-5-5-8 | 2 | 0.4 | RMSprop | 0.8346083 | 0.8346083 | 54.465837 | 2128131.0 |
| 3 | 17-5-5-15 | 5-5-5-8 | 2 | 0.4 | RMSprop | 0.8444903 | 0.8444903 | 58.586103 | 2128191.0 |
| 3 | 5-15-17-5 | 5-5-5-8 | 3 | 0.0 | Adam | 0.8232366 | 0.8232366 | 59.332632 | 2128634.0 |
| 3 | 17-5-5-15 | 5-5-5-8 | 3 | 0.0 | Adam | 0.8254235 | 0.8254235 | 64.984696 | 2128724.0 |
| 3 | 5-15-17-5 | 5-5-5-8 | 3 | 0.0 | Adagrad | 0.8201848 | 0.8201848 | 50.831497 | 2128634.0 |
| 3 | 17-5-5-15 | 5-5-5-8 | 3 | 0.0 | Adagrad | 0.8264617 | 0.8264617 | 50.179021 | 2128724.0 |
| 3 | 5-15-17-5 | 5-5-5-8 | 3 | 0.0 | RMSprop | 0.8235102 | 0.8235102 | 65.627047 | 2128634.0 |
| 3 | 17-5-5-15 | 5-5-5-8 | 3 | 0.0 | RMSprop | 0.8214787 | 0.8214787 | 59.938118 | 2128724.0 |
| 3 | 5-15-17-5 | 5-5-5-8 | 3 | 0.2 | Adam | 0.8211466 | 0.8211466 | 72.833161 | 2128634.0 |
| 3 | 17-5-5-15 | 5-5-5-8 | 3 | 0.2 | Adam | 0.8211435 | 0.8211435 | 69.705675 | 2128724.0 |
| 3 | 5-15-17-5 | 5-5-5-8 | 3 | 0.2 | Adagrad | 0.8210537 | 0.8210537 | 55.655519 | 2128634.0 |
| 3 | 17-5-5-15 | 5-5-5-8 | 3 | 0.2 | Adagrad | 0.8262423 | 0.8262423 | 59.887060 | 2128724.0 |
| 3 | 5-15-17-5 | 5-5-5-8 | 3 | 0.2 | RMSprop | 0.8224717 | 0.8224717 | 71.862454 | 2128634.0 |
| 3 | 17-5-5-15 | 5-5-5-8 | 3 | 0.2 | RMSprop | 0.8220413 | 0.8220413 | 75.155448 | 2128724.0 |
| 3 | 5-15-17-5 | 5-5-5-8 | 3 | 0.4 | Adam | 0.8298309 | 0.8298309 | 66.749060 | 2128634.0 |
| 3 | 17-5-5-15 | 5-5-5-8 | 3 | 0.4 | Adam | 0.8270921 | 0.8270921 | 79.218791 | 2128724.0 |
| 3 | 5-15-17-5 | 5-5-5-8 | 3 | 0.4 | Adagrad | 0.8353531 | 0.8353531 | 60.933920 | 2128634.0 |
| 3 | 17-5-5-15 | 5-5-5-8 | 3 | 0.4 | Adagrad | 0.8347341 | 0.8347341 | 69.261689 | 2128724.0 |
| 3 | 5-15-17-5 | 5-5-5-8 | 3 | 0.4 | RMSprop | 0.8234837 | 0.8234837 | 78.534419 | 2128634.0 |
| 3 | 17-5-5-15 | 5-5-5-8 | 3 | 0.4 | RMSprop | 0.8367251 | 0.8367251 | 69.156352 | 2128724.0 |
