| 2 | 5-15-17-5 | 5-5-5-4 | 10 | 0.0 | Adam | 0.8114455 | 0.8114455 | 99.561914 | 1318085.0 |
| 2 | 17-5-5-15 | 5-5-5-4 | 10 | 0.0 | Adam | 0.8176829 | 0.8176829 | 101.70733 | 1317985.0 |
| 2 | 5-15-17-5 | 5-5-5-4 | 10 | 0.0 | Adagrad | 0.7997638 | 0.7997638 | 96.303253 | 1318085.0 |
| 2 | 17-5-5-15 | 5-5-5-4 | 10 | 0.0 | Adagrad | 0.8120138 | 0.8120138 | 89.060046 | 1317985.0 |
| 2 | 5-15-17-5 | 5-5-5-4 | 10 | 0.0 | RMSprop | 0.8129305 | 0.8129305 | 95.751409 | 1318085.0 |
| 2 | 17-5-5-15 | 5-5-5-4 | 10 | 0.0 | RMSprop | 0.8113707 | 0.8113707 | 104.21290 | 1317985.0 |
| 2 | 5-15-17-5 | 5-5-5-4 | 10 | 0.2 | Adam | 0.8038779 | 0.8038779 | 113.25123 | 1318085.0 |
| 2 | 17-5-5-15 | 5-5-5-4 | 10 | 0.2 | Adam | 0.8099293 | 0.8099293 | 107.00126 | 1317985.0 |
| 2 | 5-15-17-5 | 5-5-5-4 | 10 | 0.2 | Adagrad | 0.8035812 | 0.8035812 | 100.85484 | 1318085.0 |
| 2 | 17-5-5-15 | 5-5-5-4 | 10 | 0.2 | Adagrad | 0.8099639 | 0.8099639 | 96.211625 | 1317985.0 |
| 2 | 5-15-17-5 | 5-5-5-4 | 10 | 0.2 | RMSprop | 0.8133730 | 0.8133730 | 100.98504 | 1318085.0 |
| 2 | 17-5-5-15 | 5-5-5-4 | 10 | 0.2 | RMSprop | 0.8127378 | 0.8127378 | 106.66898 | 1317985.0 |
| 2 | 5-15-17-5 | 5-5-5-4 | 10 | 0.4 | Adam | 0.8038285 | 0.8038285 | 124.37477 | 1318085.0 |
| 2 | 17-5-5-15 | 5-5-5-4 | 10 | 0.4 | Adam | 0.8169915 | 0.8169915 | 109.19454 | 1317985.0 |
| 2 | 5-15-17-5 | 5-5-5-4 | 10 | 0.4 | Adagrad | 0.8099751 | 0.8099751 | 107.94612 | 1318085.0 |
| 2 | 17-5-5-15 | 5-5-5-4 | 10 | 0.4 | Adagrad | 0.8164936 | 0.8164935 | 107.10824 | 1317985.0 |
| 2 | 5-15-17-5 | 5-5-5-4 | 10 | 0.4 | RMSprop | 0.8084905 | 0.8084905 | 131.28115 | 1318085.0 |
| 2 | 17-5-5-15 | 5-5-5-4 | 10 | 0.4 | RMSprop | 0.8229580 | 0.8229581 | 114.71917 | 1317985.0 |
| 3 | 5-15-17-5 | 5-5-5-4 | 1 | 0.0 | Adam | 0.8606335 | 0.8606335 | 32.289374 | 1065012.0 |
| 3 | 17-5-5-15 | 5-5-5-4 | 1 | 0.0 | Adam | 0.8517616 | 0.8517616 | 30.050261 | 1065002.0 |
| 3 | 5-15-17-5 | 5-5-5-4 | 1 | 0.0 | Adagrad | 0.8617945 | 0.8617945 | 28.957280 | 1065012.0 |
| 3 | 17-5-5-15 | 5-5-5-4 | 1 | 0.0 | Adagrad | 0.8640888 | 0.8640888 | 25.345074 | 1065002.0 |
| 3 | 5-15-17-5 | 5-5-5-4 | 1 | 0.0 | RMSprop | 0.8697579 | 0.8697579 | 26.048518 | 1065012.0 |
| 3 | 17-5-5-15 | 5-5-5-4 | 1 | 0.0 | RMSprop | 0.8537267 | 0.8537267 | 32.989071 | 1065002.0 |
| 3 | 5-15-17-5 | 5-5-5-4 | 1 | 0.2 | Adam | 0.8664494 | 0.8664494 | 28.870186 | 1065012.0 |
| 3 | 17-5-5-15 | 5-5-5-4 | 1 | 0.2 | Adam | 0.8662902 | 0.8662902 | 29.073485 | 1065002.0 |
| 3 | 5-15-17-5 | 5-5-5-4 | 1 | 0.2 | Adagrad | 0.8664791 | 0.8664792 | 23.491875 | 1065012.0 |
| 3 | 17-5-5-15 | 5-5-5-4 | 1 | 0.2 | Adagrad | 0.8914289 | 0.8914289 | 23.273081 | 1065002.0 |
| 3 | 5-15-17-5 | 5-5-5-4 | 1 | 0.2 | RMSprop | 0.8648339 | 0.8648339 | 35.379872 | 1065012.0 |
| 3 | 17-5-5-15 | 5-5-5-4 | 1 | 0.2 | RMSprop | 0.8636527 | 0.8636527 | 30.003231 | 1065002.0 |
| 3 | 5-15-17-5 | 5-5-5-4 | 1 | 0.4 | Adam | 0.8863840 | 0.8863840 | 24.346482 | 1065012.0 |
| 3 | 17-5-5-15 | 5-5-5-4 | 1 | 0.4 | Adam | 0.8816620 | 0.8816620 | 27.574674 | 1065002.0 |
| 3 | 5-15-17-5 | 5-5-5-4 | 1 | 0.4 | Adagrad | 0.8718931 | 0.8718931 | 24.848814 | 1065012.0 |
| 3 | 17-5-5-15 | 5-5-5-4 | 1 | 0.4 | Adagrad | 0.8690923 | 0.8690923 | 27.382520 | 1065002.0 |
| 3 | 5-15-17-5 | 5-5-5-4 | 1 | 0.4 | RMSprop | 0.8697460 | 0.8697460 | 32.601372 | 1065012.0 |
| 3 | 17-5-5-15 | 5-5-5-4 | 1 | 0.4 | RMSprop | 0.8948057 | 0.8948057 | 30.822482 | 1065002.0 |
| 3 | 5-15-17-5 | 5-5-5-4 | 2 | 0.0 | Adam | 0.8321021 | 0.8321021 | 38.879082 | 1065399.0 |
| 3 | 17-5-5-15 | 5-5-5-4 | 2 | 0.0 | Adam | 0.8380769 | 0.8380769 | 43.908536 | 1065379.0 |
| 3 | 5-15-17-5 | 5-5-5-4 | 2 | 0.0 | Adagrad | 0.8236421 | 0.8236421 | 36.435130 | 1065399.0 |
| 3 | 17-5-5-15 | 5-5-5-4 | 2 | 0.0 | Adagrad | 0.8434316 | 0.8434316 | 31.538322 | 1065379.0 |
| 3 | 5-15-17-5 | 5-5-5-4 | 2 | 0.0 | RMSprop | 0.8405953 | 0.8405953 | 37.297467 | 1065399.0 |
| 3 | 17-5-5-15 | 5-5-5-4 | 2 | 0.0 | RMSprop | 0.8321567 | 0.8321567 | 48.144301 | 1065379.0 |
| 3 | 5-15-17-5 | 5-5-5-4 | 2 | 0.2 | Adam | 0.8240316 | 0.8240316 | 48.529265 | 1065399.0 |
| 3 | 17-5-5-15 | 5-5-5-4 | 2 | 0.2 | Adam | 0.8354074 | 0.8354074 | 44.005797 | 1065379.0 |
| 3 | 5-15-17-5 | 5-5-5-4 | 2 | 0.2 | Adagrad | 0.8286680 | 0.8286680 | 45.919199 | 1065399.0 |
| 3 | 17-5-5-15 | 5-5-5-4 | 2 | 0.2 | Adagrad | 0.8340674 | 0.8340674 | 44.123558 | 1065379.0 |
| 3 | 5-15-17-5 | 5-5-5-4 | 2 | 0.2 | RMSprop | 0.8364066 | 0.8364066 | 46.701024 | 1065399.0 |
| 3 | 17-5-5-15 | 5-5-5-4 | 2 | 0.2 | RMSprop | 0.8424816 | 0.8424816 | 51.671773 | 1065379.0 |
| 3 | 5-15-17-5 | 5-5-5-4 | 2 | 0.4 | Adam | 0.8318234 | 0.8318234 | 52.906968 | 1065399.0 |
| 3 | 17-5-5-15 | 5-5-5-4 | 2 | 0.4 | Adam | 0.8487185 | 0.8487185 | 42.109199 | 1065379.0 |
| 3 | 5-15-17-5 | 5-5-5-4 | 2 | 0.4 | Adagrad | 0.8526132 | 0.8526132 | 33.921155 | 1065399.0 |
| 3 | 17-5-5-15 | 5-5-5-4 | 2 | 0.4 | Adagrad | 0.8596228 | 0.8596228 | 37.895911 | 1065379.0 |
| 3 | 5-15-17-5 | 5-5-5-4 | 2 | 0.4 | RMSprop | 0.8437100 | 0.8437100 | 47.608647 | 1065399.0 |
| 3 | 17-5-5-15 | 5-5-5-4 | 2 | 0.4 | RMSprop | 0.8362655 | 0.8362655 | 53.869013 | 1065379.0 |
| 3 | 5-15-17-5 | 5-5-5-4 | 3 | 0.0 | Adam | 0.8253152 | 0.8253152 | 53.074780 | 1065786.0 |
| 3 | 17-5-5-15 | 5-5-5-4 | 3 | 0.0 | Adam | 0.8334376 | 0.8334376 | 46.976806 | 1065756.0 |
| 3 | 5-15-17-5 | 5-5-5-4 | 3 | 0.0 | Adagrad | 0.8281019 | 0.8281019 | 42.053031 | 1065786.0 |
| 3 | 17-5-5-15 | 5-5-5-4 | 3 | 0.0 | Adagrad | 0.8275585 | 0.8275585 | 45.954109 | 1065756.0 |
| 3 | 5-15-17-5 | 5-5-5-4 | 3 | 0.0 | RMSprop | 0.8263688 | 0.8263688 | 53.416765 | 1065786.0 |
| 3 | 17-5-5-15 | 5-5-5-4 | 3 | 0.0 | RMSprop | 0.8236135 | 0.8236135 | 50.112754 | 1065756.0 |
| 3 | 5-15-17-5 | 5-5-5-4 | 3 | 0.2 | Adam | 0.8197831 | 0.8197831 | 55.821437 | 1065786.0 |
| 3 | 17-5-5-15 | 5-5-5-4 | 3 | 0.2 | Adam | 0.8341955 | 0.8341955 | 44.075968 | 1065756.0 |
| 3 | 5-15-17-5 | 5-5-5-4 | 3 | 0.2 | Adagrad | 0.8320764 | 0.8320765 | 43.210821 | 1065786.0 |
| 3 | 17-5-5-15 | 5-5-5-4 | 3 | 0.2 | Adagrad | 0.8261173 | 0.8261173 | 50.634707 | 1065756.0 |
| 3 | 5-15-17-5 | 5-5-5-4 | 3 | 0.2 | RMSprop | 0.8250481 | 0.8250481 | 57.101595 | 1065786.0 |
| 3 | 17-5-5-15 | 5-5-5-4 | 3 | 0.2 | RMSprop | 0.8246161 | 0.8246161 | 57.680677 | 1065756.0 |
| 3 | 5-15-17-5 | 5-5-5-4 | 3 | 0.4 | Adam | 0.8256466 | 0.8256466 | 53.872293 | 1065786.0 |
| 3 | 17-5-5-15 | 5-5-5-4 | 3 | 0.4 | Adam | 0.8500521 | 0.8500521 | 44.067107 | 1065756.0 |
| 3 | 5-15-17-5 | 5-5-5-4 | 3 | 0.4 | Adagrad | 0.8386326 | 0.8386326 | 48.087286 | 1065786.0 |
| 3 | 17-5-5-15 | 5-5-5-4 | 3 | 0.4 | Adagrad | 0.8537840 | 0.8537840 | 34.973182 | 1065756.0 |
| 3 | 5-15-17-5 | 5-5-5-4 | 3 | 0.4 | RMSprop | 0.8428049 | 0.8428049 | 45.986477 | 1065786.0 |
| 3 | 17-5-5-15 | 5-5-5-4 | 3 | 0.4 | RMSprop | 0.8409685 | 0.8409685 | 50.264558 | 1065756.0 |
