| 1 | 5-15-17-5 | 5-5-5-4 | 8 | 0.0 | Adam | 0.8323205 | 0.8323205 | 52.212222 | 1567265.0 |
| 1 | 17-5-5-15 | 5-5-5-4 | 8 | 0.0 | Adam | 0.8357538 | 0.8357537 | 50.224789 | 1567185.0 |
| 1 | 5-15-17-5 | 5-5-5-4 | 8 | 0.0 | Adagrad | 0.8182478 | 0.8182478 | 49.723892 | 1567265.0 |
| 1 | 17-5-5-15 | 5-5-5-4 | 8 | 0.0 | Adagrad | 0.8309538 | 0.8309538 | 47.387473 | 1567185.0 |
| 1 | 5-15-17-5 | 5-5-5-4 | 8 | 0.0 | RMSprop | 0.8230600 | 0.8230600 | 49.560706 | 1567265.0 |
| 1 | 17-5-5-15 | 5-5-5-4 | 8 | 0.0 | RMSprop | 0.8327117 | 0.8327117 | 51.130029 | 1567185.0 |
| 1 | 5-15-17-5 | 5-5-5-4 | 8 | 0.2 | Adam | 0.8104171 | 0.8104171 | 55.485868 | 1567265.0 |
| 1 | 17-5-5-15 | 5-5-5-4 | 8 | 0.2 | Adam | 0.8299273 | 0.8299273 | 52.775883 | 1567185.0 |
| 1 | 5-15-17-5 | 5-5-5-4 | 8 | 0.2 | Adagrad | 0.8054708 | 0.8054708 | 53.612197 | 1567265.0 |
| 1 | 17-5-5-15 | 5-5-5-4 | 8 | 0.2 | Adagrad | 0.8247362 | 0.8247362 | 52.920166 | 1567185.0 |
| 1 | 5-15-17-5 | 5-5-5-4 | 8 | 0.2 | RMSprop | 0.8222347 | 0.8222347 | 57.259295 | 1567265.0 |
| 1 | 17-5-5-15 | 5-5-5-4 | 8 | 0.2 | RMSprop | 0.8243115 | 0.8243115 | 59.383416 | 1567185.0 |
| 1 | 5-15-17-5 | 5-5-5-4 | 8 | 0.4 | Adam | 0.8080944 | 0.8080944 | 64.412005 | 1567265.0 |
| 1 | 17-5-5-15 | 5-5-5-4 | 8 | 0.4 | Adam | 0.8243539 | 0.8243539 | 71.676964 | 1567185.0 |
| 1 | 5-15-17-5 | 5-5-5-4 | 8 | 0.4 | Adagrad | 0.7988621 | 0.7988621 | 60.636328 | 1567265.0 |
| 1 | 17-5-5-15 | 5-5-5-4 | 8 | 0.4 | Adagrad | 0.8199067 | 0.8199067 | 60.660910 | 1567185.0 |
| 1 | 5-15-17-5 | 5-5-5-4 | 8 | 0.4 | RMSprop | 0.8041837 | 0.8041837 | 70.536812 | 1567265.0 |
| 1 | 17-5-5-15 | 5-5-5-4 | 8 | 0.4 | RMSprop | 0.8227305 | 0.8227305 | 62.494798 | 1567185.0 |
| 1 | 5-15-17-5 | 5-5-5-4 | 9 | 0.0 | Adam | 0.8264819 | 0.8264819 | 56.802033 | 1567470.0 |
| 1 | 17-5-5-15 | 5-5-5-4 | 9 | 0.0 | Adam | 0.8362811 | 0.8362811 | 55.302641 | 1567380.0 |
| 1 | 5-15-17-5 | 5-5-5-4 | 9 | 0.0 | Adagrad | 0.8087228 | 0.8087228 | 53.791001 | 1567470.0 |
| 1 | 17-5-5-15 | 5-5-5-4 | 9 | 0.0 | Adagrad | 0.8320469 | 0.8320469 | 54.393669 | 1567380.0 |
| 1 | 5-15-17-5 | 5-5-5-4 | 9 | 0.0 | RMSprop | 0.8221972 | 0.8221972 | 57.510124 | 1567470.0 |
| 1 | 17-5-5-15 | 5-5-5-4 | 9 | 0.0 | RMSprop | 0.8286806 | 0.8286806 | 51.987251 | 1567380.0 |
| 1 | 5-15-17-5 | 5-5-5-4 | 9 | 0.2 | Adam | 0.8141024 | 0.8141024 | 64.744185 | 1567470.0 |
| 1 | 17-5-5-15 | 5-5-5-4 | 9 | 0.2 | Adam | 0.8328350 | 0.8328350 | 61.606533 | 1567380.0 |
| 1 | 5-15-17-5 | 5-5-5-4 | 9 | 0.2 | Adagrad | 0.8092274 | 0.8092274 | 63.270418 | 1567470.0 |
| 1 | 17-5-5-15 | 5-5-5-4 | 9 | 0.2 | Adagrad | 0.8219040 | 0.8219040 | 64.380196 | 1567380.0 |
| 1 | 5-15-17-5 | 5-5-5-4 | 9 | 0.2 | RMSprop | 0.8120725 | 0.8120725 | 63.382899 | 1567470.0 |
| 1 | 17-5-5-15 | 5-5-5-4 | 9 | 0.2 | RMSprop | 0.8292219 | 0.8292219 | 56.265005 | 1567380.0 |
| 1 | 5-15-17-5 | 5-5-5-4 | 9 | 0.4 | Adam | 0.8094649 | 0.8094649 | 75.536756 | 1567470.0 |
| 1 | 17-5-5-15 | 5-5-5-4 | 9 | 0.4 | Adam | 0.8191655 | 0.8191655 | 74.260641 | 1567380.0 |
| 1 | 5-15-17-5 | 5-5-5-4 | 9 | 0.4 | Adagrad | 0.8003773 | 0.8003773 | 67.675843 | 1567470.0 |
| 1 | 17-5-5-15 | 5-5-5-4 | 9 | 0.4 | Adagrad | 0.8200341 | 0.8200341 | 62.255187 | 1567380.0 |
| 1 | 5-15-17-5 | 5-5-5-4 | 9 | 0.4 | RMSprop | 0.8016021 | 0.8016021 | 81.340689 | 1567470.0 |
| 1 | 17-5-5-15 | 5-5-5-4 | 9 | 0.4 | RMSprop | 0.8207486 | 0.8207486 | 63.923640 | 1567380.0 |
| 1 | 5-15-17-5 | 5-5-5-4 | 10 | 0.0 | Adam | 0.8179512 | 0.8179512 | 56.234170 | 1567675.0 |
| 1 | 17-5-5-15 | 5-5-5-4 | 10 | 0.0 | Adam | 0.8293567 | 0.8293567 | 59.497955 | 1567575.0 |
| 1 | 5-15-17-5 | 5-5-5-4 | 10 | 0.0 | Adagrad | 0.8109871 | 0.8109871 | 62.504187 | 1567675.0 |
| 1 | 17-5-5-15 | 5-5-5-4 | 10 | 0.0 | Adagrad | 0.8266603 | 0.8266602 | 64.754734 | 1567575.0 |
| 1 | 5-15-17-5 | 5-5-5-4 | 10 | 0.0 | RMSprop | 0.8229227 | 0.8229228 | 56.813982 | 1567675.0 |
| 1 | 17-5-5-15 | 5-5-5-4 | 10 | 0.0 | RMSprop | 0.8230057 | 0.8230057 | 56.655327 | 1567575.0 |
| 1 | 5-15-17-5 | 5-5-5-4 | 10 | 0.2 | Adam | 0.8123910 | 0.8123910 | 68.297911 | 1567675.0 |
| 1 | 17-5-5-15 | 5-5-5-4 | 10 | 0.2 | Adam | 0.8394355 | 0.8394355 | 61.534353 | 1567575.0 |
| 1 | 5-15-17-5 | 5-5-5-4 | 10 | 0.2 | Adagrad | 0.8046605 | 0.8046604 | 70.163774 | 1567675.0 |
| 1 | 17-5-5-15 | 5-5-5-4 | 10 | 0.2 | Adagrad | 0.8112497 | 0.8112497 | 67.697704 | 1567575.0 |
| 1 | 5-15-17-5 | 5-5-5-4 | 10 | 0.2 | RMSprop | 0.8181087 | 0.8181087 | 66.150149 | 1567675.0 |
| 1 | 17-5-5-15 | 5-5-5-4 | 10 | 0.2 | RMSprop | 0.8259687 | 0.8259687 | 65.991249 | 1567575.0 |
| 1 | 5-15-17-5 | 5-5-5-4 | 10 | 0.4 | Adam | 0.8056962 | 0.8056962 | 85.351676 | 1567675.0 |
| 1 | 17-5-5-15 | 5-5-5-4 | 10 | 0.4 | Adam | 0.8281352 | 0.8281352 | 74.261849 | 1567575.0 |
| 1 | 5-15-17-5 | 5-5-5-4 | 10 | 0.4 | Adagrad | 0.8021392 | 0.8021392 | 71.518081 | 1567675.0 |
| 1 | 17-5-5-15 | 5-5-5-4 | 10 | 0.4 | Adagrad | 0.8173756 | 0.8173756 | 70.999410 | 1567575.0 |
| 1 | 5-15-17-5 | 5-5-5-4 | 10 | 0.4 | RMSprop | 0.8104399 | 0.8104399 | 79.877843 | 1567675.0 |
| 1 | 17-5-5-15 | 5-5-5-4 | 10 | 0.4 | RMSprop | 0.8185888 | 0.8185888 | 84.368529 | 1567575.0 |
| 2 | 5-15-17-5 | 5-5-5-4 | 1 | 0.0 | Adam | 0.8673174 | 0.8673174 | 27.175362 | 1315421.0 |
| 2 | 17-5-5-15 | 5-5-5-4 | 1 | 0.0 | Adam | 0.8562277 | 0.8562277 | 31.135023 | 1315411.0 |
| 2 | 5-15-17-5 | 5-5-5-4 | 1 | 0.0 | Adagrad | 0.8806313 | 0.8806313 | 18.253244 | 1315421.0 |
| 2 | 17-5-5-15 | 5-5-5-4 | 1 | 0.0 | Adagrad | 0.8485514 | 0.8485514 | 27.249730 | 1315411.0 |
| 2 | 5-15-17-5 | 5-5-5-4 | 1 | 0.0 | RMSprop | 0.8757418 | 0.8757418 | 21.713797 | 1315421.0 |
| 2 | 17-5-5-15 | 5-5-5-4 | 1 | 0.0 | RMSprop | 0.8574235 | 0.8574235 | 28.020128 | 1315411.0 |
| 2 | 5-15-17-5 | 5-5-5-4 | 1 | 0.2 | Adam | 0.8663640 | 0.8663640 | 25.188385 | 1315421.0 |
| 2 | 17-5-5-15 | 5-5-5-4 | 1 | 0.2 | Adam | 0.8493551 | 0.8493551 | 33.105661 | 1315411.0 |
| 2 | 5-15-17-5 | 5-5-5-4 | 1 | 0.2 | Adagrad | 0.8673962 | 0.8673962 | 19.351670 | 1315421.0 |
| 2 | 17-5-5-15 | 5-5-5-4 | 1 | 0.2 | Adagrad | 0.8718409 | 0.8718409 | 22.605068 | 1315411.0 |
| 2 | 5-15-17-5 | 5-5-5-4 | 1 | 0.2 | RMSprop | 0.8676816 | 0.8676816 | 27.854919 | 1315421.0 |
| 2 | 17-5-5-15 | 5-5-5-4 | 1 | 0.2 | RMSprop | 0.8568561 | 0.8568561 | 32.551206 | 1315411.0 |
| 2 | 5-15-17-5 | 5-5-5-4 | 1 | 0.4 | Adam | 0.8764410 | 0.8764410 | 26.125439 | 1315421.0 |
| 2 | 17-5-5-15 | 5-5-5-4 | 1 | 0.4 | Adam | 0.8586249 | 0.8586249 | 28.260657 | 1315411.0 |
| 2 | 5-15-17-5 | 5-5-5-4 | 1 | 0.4 | Adagrad | 0.8720379 | 0.8720379 | 19.252617 | 1315421.0 |
| 2 | 17-5-5-15 | 5-5-5-4 | 1 | 0.4 | Adagrad | 0.8695859 | 0.8695859 | 23.813557 | 1315411.0 |
| 2 | 5-15-17-5 | 5-5-5-4 | 1 | 0.4 | RMSprop | 0.8610841 | 0.8610841 | 30.484364 | 1315421.0 |
| 2 | 17-5-5-15 | 5-5-5-4 | 1 | 0.4 | RMSprop | 0.8634867 | 0.8634867 | 28.802265 | 1315411.0 |
