| 4 | 0-0-0-0 | 5-5-5-4 | 3 | 0.0 | Adam | 0.8223626 | 0.8223626 | 27.012007 | 4503398.0 |
| 4 | 0-0-0-0 | 5-5-5-4 | 3 | 0.0 | Adagrad | 0.8213828 | 0.8213828 | 20.055177 | 4503398.0 |
| 4 | 0-0-0-0 | 5-5-5-4 | 3 | 0.0 | RMSprop | 0.8299149 | 0.8299149 | 23.689418 | 4503398.0 |
| 4 | 0-0-0-0 | 5-5-5-4 | 3 | 0.2 | Adam | 0.8159791 | 0.8159791 | 30.409705 | 4503398.0 |
| 4 | 0-0-0-0 | 5-5-5-4 | 3 | 0.2 | Adagrad | 0.8055885 | 0.8055885 | 30.062197 | 4503398.0 |
| 4 | 0-0-0-0 | 5-5-5-4 | 3 | 0.2 | RMSprop | 0.8200191 | 0.8200191 | 25.981245 | 4503398.0 |
| 4 | 0-0-0-0 | 5-5-5-4 | 3 | 0.4 | Adam | 0.8094206 | 0.8094206 | 36.103287 | 4503398.0 |
| 4 | 0-0-0-0 | 5-5-5-4 | 3 | 0.4 | Adagrad | 0.8180394 | 0.8180394 | 30.968209 | 4503398.0 |
| 4 | 0-0-0-0 | 5-5-5-4 | 3 | 0.4 | RMSprop | 0.8143711 | 0.8143711 | 30.403381 | 4503398.0 |
| 4 | 0-0-0-0 | 5-5-5-4 | 4 | 0.0 | Adam | 0.8158912 | 0.8158912 | 26.968251 | 4503489.0 |
| 4 | 0-0-0-0 | 5-5-5-4 | 4 | 0.0 | Adagrad | 0.8086038 | 0.8086038 | 21.505677 | 4503489.0 |
| 4 | 0-0-0-0 | 5-5-5-4 | 4 | 0.0 | RMSprop | 0.8252932 | 0.8252932 | 23.354063 | 4503489.0 |
| 4 | 0-0-0-0 | 5-5-5-4 | 4 | 0.2 | Adam | 0.8158565 | 0.8158565 | 29.016030 | 4503489.0 |
| 4 | 0-0-0-0 | 5-5-5-4 | 4 | 0.2 | Adagrad | 0.8071143 | 0.8071143 | 26.737071 | 4503489.0 |
| 4 | 0-0-0-0 | 5-5-5-4 | 4 | 0.2 | RMSprop | 0.8119136 | 0.8119136 | 27.489421 | 4503489.0 |
| 4 | 0-0-0-0 | 5-5-5-4 | 4 | 0.4 | Adam | 0.8110045 | 0.8110045 | 33.829810 | 4503489.0 |
| 4 | 0-0-0-0 | 5-5-5-4 | 4 | 0.4 | Adagrad | 0.8147549 | 0.8147549 | 33.421514 | 4503489.0 |
| 4 | 0-0-0-0 | 5-5-5-4 | 4 | 0.4 | RMSprop | 0.8085204 | 0.8085204 | 34.618441 | 4503489.0 |
| 4 | 0-0-0-0 | 5-5-5-4 | 5 | 0.0 | Adam | 0.8138361 | 0.8138361 | 25.850376 | 4503580.0 |
| 4 | 0-0-0-0 | 5-5-5-4 | 5 | 0.0 | Adagrad | 0.8095496 | 0.8095496 | 23.622882 | 4503580.0 |
| 4 | 0-0-0-0 | 5-5-5-4 | 5 | 0.0 | RMSprop | 0.8229463 | 0.8229463 | 24.372515 | 4503580.0 |
| 4 | 0-0-0-0 | 5-5-5-4 | 5 | 0.2 | Adam | 0.8097216 | 0.8097216 | 31.763557 | 4503580.0 |
| 4 | 0-0-0-0 | 5-5-5-4 | 5 | 0.2 | Adagrad | 0.8012823 | 0.8012823 | 28.697461 | 4503580.0 |
| 4 | 0-0-0-0 | 5-5-5-4 | 5 | 0.2 | RMSprop | 0.8097692 | 0.8097692 | 28.730734 | 4503580.0 |
| 4 | 0-0-0-0 | 5-5-5-4 | 5 | 0.4 | Adam | 0.8106496 | 0.8106496 | 34.046004 | 4503580.0 |
| 4 | 0-0-0-0 | 5-5-5-4 | 5 | 0.4 | Adagrad | 0.8058420 | 0.8058420 | 34.598909 | 4503580.0 |
| 4 | 0-0-0-0 | 5-5-5-4 | 5 | 0.4 | RMSprop | 0.8121373 | 0.8121373 | 36.109444 | 4503580.0 |
| 4 | 0-0-0-0 | 5-5-5-4 | 6 | 0.0 | Adam | 0.8212038 | 0.8212038 | 25.332980 | 4503671.0 |
| 4 | 0-0-0-0 | 5-5-5-4 | 6 | 0.0 | Adagrad | 0.8046138 | 0.8046138 | 24.749553 | 4503671.0 |
| 4 | 0-0-0-0 | 5-5-5-4 | 6 | 0.0 | RMSprop | 0.8264902 | 0.8264902 | 24.481385 | 4503671.0 |
| 4 | 0-0-0-0 | 5-5-5-4 | 6 | 0.2 | Adam | 0.8145932 | 0.8145933 | 30.087735 | 4503671.0 |
| 4 | 0-0-0-0 | 5-5-5-4 | 6 | 0.2 | Adagrad | 0.8044717 | 0.8044717 | 29.129200 | 4503671.0 |
| 4 | 0-0-0-0 | 5-5-5-4 | 6 | 0.2 | RMSprop | 0.8138964 | 0.8138963 | 31.081192 | 4503671.0 |
| 4 | 0-0-0-0 | 5-5-5-4 | 6 | 0.4 | Adam | 0.8080357 | 0.8080357 | 37.158494 | 4503671.0 |
| 4 | 0-0-0-0 | 5-5-5-4 | 6 | 0.4 | Adagrad | 0.7998738 | 0.7998738 | 36.183260 | 4503671.0 |
| 4 | 0-0-0-0 | 5-5-5-4 | 6 | 0.4 | RMSprop | 0.8052667 | 0.8052667 | 32.343549 | 4503671.0 |
| 4 | 0-0-0-0 | 5-5-5-4 | 7 | 0.0 | Adam | 0.8190663 | 0.8190663 | 30.925421 | 4503762.0 |
| 4 | 0-0-0-0 | 5-5-5-4 | 7 | 0.0 | Adagrad | 0.8058514 | 0.8058514 | 26.476113 | 4503762.0 |
| 4 | 0-0-0-0 | 5-5-5-4 | 7 | 0.0 | RMSprop | 0.8174324 | 0.8174324 | 25.904991 | 4503762.0 |
| 4 | 0-0-0-0 | 5-5-5-4 | 7 | 0.2 | Adam | 0.8131192 | 0.8131192 | 29.327082 | 4503762.0 |
| 4 | 0-0-0-0 | 5-5-5-4 | 7 | 0.2 | Adagrad | 0.8015615 | 0.8015615 | 29.840849 | 4503762.0 |
| 4 | 0-0-0-0 | 5-5-5-4 | 7 | 0.2 | RMSprop | 0.8085071 | 0.8085071 | 30.557299 | 4503762.0 |
| 4 | 0-0-0-0 | 5-5-5-4 | 7 | 0.4 | Adam | 0.8112638 | 0.8112638 | 33.922880 | 4503762.0 |
| 4 | 0-0-0-0 | 5-5-5-4 | 7 | 0.4 | Adagrad | 0.8028412 | 0.8028412 | 34.143317 | 4503762.0 |
| 4 | 0-0-0-0 | 5-5-5-4 | 7 | 0.4 | RMSprop | 0.8041276 | 0.8041276 | 36.862929 | 4503762.0 |
| 4 | 0-0-0-0 | 5-5-5-4 | 8 | 0.0 | Adam | 0.8268315 | 0.8268315 | 28.744917 | 4503853.0 |
| 4 | 0-0-0-0 | 5-5-5-4 | 8 | 0.0 | Adagrad | 0.8037324 | 0.8037324 | 26.992407 | 4503853.0 |
| 4 | 0-0-0-0 | 5-5-5-4 | 8 | 0.0 | RMSprop | 0.8160237 | 0.8160237 | 27.791001 | 4503853.0 |
| 4 | 0-0-0-0 | 5-5-5-4 | 8 | 0.2 | Adam | 0.8054416 | 0.8054416 | 32.241437 | 4503853.0 |
| 4 | 0-0-0-0 | 5-5-5-4 | 8 | 0.2 | Adagrad | 0.7971697 | 0.7971697 | 31.028300 | 4503853.0 |
| 4 | 0-0-0-0 | 5-5-5-4 | 8 | 0.2 | RMSprop | 0.8018186 | 0.8018186 | 31.816460 | 4503853.0 |
| 4 | 0-0-0-0 | 5-5-5-4 | 8 | 0.4 | Adam | 0.8048563 | 0.8048563 | 39.004117 | 4503853.0 |
| 4 | 0-0-0-0 | 5-5-5-4 | 8 | 0.4 | Adagrad | 0.7994590 | 0.7994590 | 37.768324 | 4503853.0 |
| 4 | 0-0-0-0 | 5-5-5-4 | 8 | 0.4 | RMSprop | 0.8038844 | 0.8038844 | 36.103310 | 4503853.0 |
| 4 | 0-0-0-0 | 5-5-5-4 | 9 | 0.0 | Adam | 0.8129655 | 0.8129655 | 30.901210 | 4503944.0 |
| 4 | 0-0-0-0 | 5-5-5-4 | 9 | 0.0 | Adagrad | 0.8065460 | 0.8065460 | 27.997372 | 4503944.0 |
| 4 | 0-0-0-0 | 5-5-5-4 | 9 | 0.0 | RMSprop | 0.8206145 | 0.8206145 | 26.949377 | 4503944.0 |
| 4 | 0-0-0-0 | 5-5-5-4 | 9 | 0.2 | Adam | 0.8035123 | 0.8035123 | 31.487259 | 4503944.0 |
| 4 | 0-0-0-0 | 5-5-5-4 | 9 | 0.2 | Adagrad | 0.7991788 | 0.7991788 | 33.662123 | 4503944.0 |
| 4 | 0-0-0-0 | 5-5-5-4 | 9 | 0.2 | RMSprop | 0.8128451 | 0.8128451 | 31.858075 | 4503944.0 |
| 4 | 0-0-0-0 | 5-5-5-4 | 9 | 0.4 | Adam | 0.8100248 | 0.8100248 | 34.678147 | 4503944.0 |
| 4 | 0-0-0-0 | 5-5-5-4 | 9 | 0.4 | Adagrad | 0.7980019 | 0.7980018 | 38.425274 | 4503944.0 |
| 4 | 0-0-0-0 | 5-5-5-4 | 9 | 0.4 | RMSprop | 0.8051734 | 0.8051734 | 36.872530 | 4503944.0 |
| 4 | 0-0-0-0 | 5-5-5-4 | 10 | 0.0 | Adam | 0.8212873 | 0.8212872 | 30.922866 | 4504035.0 |
| 4 | 0-0-0-0 | 5-5-5-4 | 10 | 0.0 | Adagrad | 0.8008338 | 0.8008338 | 29.417546 | 4504035.0 |
| 4 | 0-0-0-0 | 5-5-5-4 | 10 | 0.0 | RMSprop | 0.8162404 | 0.8162404 | 29.827689 | 4504035.0 |
| 4 | 0-0-0-0 | 5-5-5-4 | 10 | 0.2 | Adam | 0.8122347 | 0.8122347 | 37.308781 | 4504035.0 |
| 4 | 0-0-0-0 | 5-5-5-4 | 10 | 0.2 | Adagrad | 0.8006791 | 0.8006791 | 34.065292 | 4504035.0 |
| 4 | 0-0-0-0 | 5-5-5-4 | 10 | 0.2 | RMSprop | 0.8052614 | 0.8052614 | 33.809398 | 4504035.0 |
| 4 | 0-0-0-0 | 5-5-5-4 | 10 | 0.4 | Adam | 0.8101916 | 0.8101916 | 39.579761 | 4504035.0 |
| 4 | 0-0-0-0 | 5-5-5-4 | 10 | 0.4 | Adagrad | 0.7966715 | 0.7966715 | 38.851238 | 4504035.0 |
| 4 | 0-0-0-0 | 5-5-5-4 | 10 | 0.4 | RMSprop | 0.8064626 | 0.8064626 | 38.901828 | 4504035.0 |
