| 0 | 0-0-0-0 | 0-0-0-0 | 1 | 0.0 | Adam | 0.8337842 | 0.8337842 | 38.178175 | 10505125. |
| 0 | 0-0-0-0 | 0-0-0-0 | 1 | 0.0 | Adagrad | 0.8361539 | 0.8361539 | 28.204824 | 10505125. |
| 0 | 0-0-0-0 | 0-0-0-0 | 1 | 0.0 | RMSprop | 0.8556351 | 0.8556351 | 32.951249 | 10505125. |
| 0 | 0-0-0-0 | 0-0-0-0 | 1 | 0.2 | Adam | 0.8390344 | 0.8390344 | 41.865941 | 10505125. |
| 0 | 0-0-0-0 | 0-0-0-0 | 1 | 0.2 | Adagrad | 0.8259746 | 0.8259746 | 47.973151 | 10505125. |
| 0 | 0-0-0-0 | 0-0-0-0 | 1 | 0.2 | RMSprop | 0.8891969 | 0.8891969 | 31.934924 | 10505125. |
| 0 | 0-0-0-0 | 0-0-0-0 | 1 | 0.4 | Adam | 0.9081596 | 0.9081596 | 33.328982 | 10505125. |
| 0 | 0-0-0-0 | 0-0-0-0 | 1 | 0.4 | Adagrad | 0.9704595 | 0.9704595 | 17.964153 | 10505125. |
| 0 | 0-0-0-0 | 0-0-0-0 | 1 | 0.4 | RMSprop | 0.9415867 | 0.9415867 | 28.158911 | 10505125. |
| 0 | 0-0-0-0 | 0-0-0-0 | 2 | 0.0 | Adam | 0.8276211 | 0.8276211 | 40.145330 | 10505125. |
| 0 | 0-0-0-0 | 0-0-0-0 | 2 | 0.0 | Adagrad | 0.8306214 | 0.8306214 | 33.666816 | 10505125. |
| 0 | 0-0-0-0 | 0-0-0-0 | 2 | 0.0 | RMSprop | 0.8470390 | 0.8470390 | 35.403305 | 10505125. |
| 0 | 0-0-0-0 | 0-0-0-0 | 2 | 0.2 | Adam | 0.8389750 | 0.8389750 | 49.285863 | 10505125. |
| 0 | 0-0-0-0 | 0-0-0-0 | 2 | 0.2 | Adagrad | 0.8284910 | 0.8284910 | 53.932848 | 10505125. |
| 0 | 0-0-0-0 | 0-0-0-0 | 2 | 0.2 | RMSprop | 0.8627129 | 0.8627129 | 46.186072 | 10505125. |
| 0 | 0-0-0-0 | 0-0-0-0 | 2 | 0.4 | Adam | 0.9186887 | 0.9186888 | 34.409651 | 10505125. |
| 0 | 0-0-0-0 | 0-0-0-0 | 2 | 0.4 | Adagrad | 0.9716976 | 0.9716976 | 23.247242 | 10505125. |
| 0 | 0-0-0-0 | 0-0-0-0 | 2 | 0.4 | RMSprop | 0.9520714 | 0.9520714 | 37.755489 | 10505125. |
| 0 | 0-0-0-0 | 0-0-0-0 | 3 | 0.0 | Adam | 0.8297979 | 0.8297979 | 41.899294 | 10505125. |
| 0 | 0-0-0-0 | 0-0-0-0 | 3 | 0.0 | Adagrad | 0.8419095 | 0.8419095 | 34.122274 | 10505125. |
| 0 | 0-0-0-0 | 0-0-0-0 | 3 | 0.0 | RMSprop | 0.8555784 | 0.8555784 | 36.130015 | 10505125. |
| 0 | 0-0-0-0 | 0-0-0-0 | 3 | 0.2 | Adam | 0.8473941 | 0.8473941 | 47.175994 | 10505125. |
| 0 | 0-0-0-0 | 0-0-0-0 | 3 | 0.2 | Adagrad | 0.8300276 | 0.8300276 | 52.028580 | 10505125. |
| 0 | 0-0-0-0 | 0-0-0-0 | 3 | 0.2 | RMSprop | 0.8678076 | 0.8678076 | 44.633378 | 10505125. |
| 0 | 0-0-0-0 | 0-0-0-0 | 3 | 0.4 | Adam | 0.9035585 | 0.9035585 | 43.939578 | 10505125. |
| 0 | 0-0-0-0 | 0-0-0-0 | 3 | 0.4 | Adagrad | 0.9708084 | 0.9708084 | 21.121951 | 10505125. |
| 0 | 0-0-0-0 | 0-0-0-0 | 3 | 0.4 | RMSprop | 0.9526285 | 0.9526285 | 31.625866 | 10505125. |
| 0 | 0-0-0-0 | 0-0-0-0 | 4 | 0.0 | Adam | 0.8330612 | 0.8330612 | 38.966163 | 10505125. |
| 0 | 0-0-0-0 | 0-0-0-0 | 4 | 0.0 | Adagrad | 0.8227277 | 0.8227277 | 32.152366 | 10505125. |
| 0 | 0-0-0-0 | 0-0-0-0 | 4 | 0.0 | RMSprop | 0.8466786 | 0.8466786 | 34.270616 | 10505125. |
| 0 | 0-0-0-0 | 0-0-0-0 | 4 | 0.2 | Adam | 0.8532129 | 0.8532129 | 43.302729 | 10505125. |
| 0 | 0-0-0-0 | 0-0-0-0 | 4 | 0.2 | Adagrad | 0.8423847 | 0.8423847 | 38.512671 | 10505125. |
| 0 | 0-0-0-0 | 0-0-0-0 | 4 | 0.2 | RMSprop | 0.8725928 | 0.8725928 | 39.180607 | 10505125. |
| 0 | 0-0-0-0 | 0-0-0-0 | 4 | 0.4 | Adam | 0.9200151 | 0.9200151 | 32.910209 | 10505125. |
| 0 | 0-0-0-0 | 0-0-0-0 | 4 | 0.4 | Adagrad | 0.9551383 | 0.9551383 | 27.305243 | 10505125. |
| 0 | 0-0-0-0 | 0-0-0-0 | 4 | 0.4 | RMSprop | 0.9582026 | 0.9582026 | 23.604644 | 10505125. |
| 0 | 0-0-0-0 | 0-0-0-0 | 5 | 0.0 | Adam | 0.8330116 | 0.8330116 | 37.448549 | 10505125. |
| 0 | 0-0-0-0 | 0-0-0-0 | 5 | 0.0 | Adagrad | 0.8319678 | 0.8319678 | 30.525514 | 10505125. |
| 0 | 0-0-0-0 | 0-0-0-0 | 5 | 0.0 | RMSprop | 0.8529404 | 0.8529404 | 38.306277 | 10505125. |
| 0 | 0-0-0-0 | 0-0-0-0 | 5 | 0.2 | Adam | 0.8428377 | 0.8428377 | 41.822516 | 10505125. |
| 0 | 0-0-0-0 | 0-0-0-0 | 5 | 0.2 | Adagrad | 0.8336983 | 0.8336983 | 45.368074 | 10505125. |
| 0 | 0-0-0-0 | 0-0-0-0 | 5 | 0.2 | RMSprop | 0.8731871 | 0.8731871 | 35.576670 | 10505125. |
| 0 | 0-0-0-0 | 0-0-0-0 | 5 | 0.4 | Adam | 0.9166140 | 0.9166140 | 30.568383 | 10505125. |
| 0 | 0-0-0-0 | 0-0-0-0 | 5 | 0.4 | Adagrad | 0.9738277 | 0.9738277 | 16.251939 | 10505125. |
| 0 | 0-0-0-0 | 0-0-0-0 | 5 | 0.4 | RMSprop | 0.9472406 | 0.9472406 | 25.763510 | 10505125. |
| 0 | 0-0-0-0 | 0-0-0-0 | 6 | 0.0 | Adam | 0.8362847 | 0.8362847 | 35.025987 | 10505125. |
| 0 | 0-0-0-0 | 0-0-0-0 | 6 | 0.0 | Adagrad | 0.8340239 | 0.8340239 | 27.580096 | 10505125. |
| 0 | 0-0-0-0 | 0-0-0-0 | 6 | 0.0 | RMSprop | 0.8493241 | 0.8493241 | 31.654024 | 10505125. |
| 0 | 0-0-0-0 | 0-0-0-0 | 6 | 0.2 | Adam | 0.8464611 | 0.8464611 | 38.166632 | 10505125. |
| 0 | 0-0-0-0 | 0-0-0-0 | 6 | 0.2 | Adagrad | 0.8204456 | 0.8204456 | 42.594453 | 10505125. |
| 0 | 0-0-0-0 | 0-0-0-0 | 6 | 0.2 | RMSprop | 0.8868415 | 0.8868415 | 30.881645 | 10505125. |
| 0 | 0-0-0-0 | 0-0-0-0 | 6 | 0.4 | Adam | 0.9194337 | 0.9194337 | 30.722117 | 10505125. |
| 0 | 0-0-0-0 | 0-0-0-0 | 6 | 0.4 | Adagrad | 0.9683789 | 0.9683789 | 16.943937 | 10505125. |
| 0 | 0-0-0-0 | 0-0-0-0 | 6 | 0.4 | RMSprop | 0.9569784 | 0.9569784 | 27.020649 | 10505125. |
| 0 | 0-0-0-0 | 0-0-0-0 | 7 | 0.0 | Adam | 0.8379651 | 0.8379651 | 27.254765 | 10505125. |
| 0 | 0-0-0-0 | 0-0-0-0 | 7 | 0.0 | Adagrad | 0.8259397 | 0.8259397 | 28.107594 | 10505125. |
| 0 | 0-0-0-0 | 0-0-0-0 | 7 | 0.0 | RMSprop | 0.8521012 | 0.8521012 | 27.429257 | 10505125. |
| 0 | 0-0-0-0 | 0-0-0-0 | 7 | 0.2 | Adam | 0.8599527 | 0.8599527 | 34.856132 | 10505125. |
| 0 | 0-0-0-0 | 0-0-0-0 | 7 | 0.2 | Adagrad | 0.8355093 | 0.8355093 | 41.409799 | 10505125. |
| 0 | 0-0-0-0 | 0-0-0-0 | 7 | 0.2 | RMSprop | 0.8698546 | 0.8698546 | 34.023509 | 10505125. |
| 0 | 0-0-0-0 | 0-0-0-0 | 7 | 0.4 | Adam | 0.9175967 | 0.9175967 | 25.195058 | 10505125. |
| 0 | 0-0-0-0 | 0-0-0-0 | 7 | 0.4 | Adagrad | 0.9709719 | 0.9709719 | 16.887555 | 10505125. |
| 0 | 0-0-0-0 | 0-0-0-0 | 7 | 0.4 | RMSprop | 0.9487210 | 0.9487210 | 23.072195 | 10505125. |
| 0 | 0-0-0-0 | 0-0-0-0 | 8 | 0.0 | Adam | 0.8325249 | 0.8325249 | 31.146037 | 10505125. |
| 0 | 0-0-0-0 | 0-0-0-0 | 8 | 0.0 | Adagrad | 0.8305184 | 0.8305184 | 31.036911 | 10505125. |
| 0 | 0-0-0-0 | 0-0-0-0 | 8 | 0.0 | RMSprop | 0.8492025 | 0.8492025 | 28.055866 | 10505125. |
| 0 | 0-0-0-0 | 0-0-0-0 | 8 | 0.2 | Adam | 0.8398721 | 0.8398721 | 37.756714 | 10505125. |
| 0 | 0-0-0-0 | 0-0-0-0 | 8 | 0.2 | Adagrad | 0.8328824 | 0.8328824 | 36.208581 | 10505125. |
| 0 | 0-0-0-0 | 0-0-0-0 | 8 | 0.2 | RMSprop | 0.8784476 | 0.8784476 | 37.245344 | 10505125. |
| 0 | 0-0-0-0 | 0-0-0-0 | 8 | 0.4 | Adam | 0.9307694 | 0.9307694 | 23.438123 | 10505125. |
| 0 | 0-0-0-0 | 0-0-0-0 | 8 | 0.4 | Adagrad | 0.9506623 | 0.9506623 | 24.307992 | 10505125. |
| 0 | 0-0-0-0 | 0-0-0-0 | 8 | 0.4 | RMSprop | 0.9465822 | 0.9465822 | 23.756775 | 10505125. |
| 0 | 0-0-0-0 | 0-0-0-0 | 9 | 0.0 | Adam | 0.8288473 | 0.8288473 | 35.003255 | 10505125. |
| 0 | 0-0-0-0 | 0-0-0-0 | 9 | 0.0 | Adagrad | 0.8239883 | 0.8239883 | 34.133364 | 10505125. |
| 0 | 0-0-0-0 | 0-0-0-0 | 9 | 0.0 | RMSprop | 0.8489142 | 0.8489142 | 32.278173 | 10505125. |
| 0 | 0-0-0-0 | 0-0-0-0 | 9 | 0.2 | Adam | 0.8491106 | 0.8491106 | 46.257172 | 10505125. |
| 0 | 0-0-0-0 | 0-0-0-0 | 9 | 0.2 | Adagrad | 0.8270812 | 0.8270812 | 47.434759 | 10505125. |
| 0 | 0-0-0-0 | 0-0-0-0 | 9 | 0.2 | RMSprop | 0.8631440 | 0.8631440 | 41.184539 | 10505125. |
| 0 | 0-0-0-0 | 0-0-0-0 | 9 | 0.4 | Adam | 0.9286580 | 0.9286580 | 32.906723 | 10505125. |
| 0 | 0-0-0-0 | 0-0-0-0 | 9 | 0.4 | Adagrad | 0.9676729 | 0.9676729 | 19.584681 | 10505125. |
| 0 | 0-0-0-0 | 0-0-0-0 | 9 | 0.4 | RMSprop | 0.9539912 | 0.9539912 | 22.582466 | 10505125. |
| 0 | 0-0-0-0 | 0-0-0-0 | 10 | 0.0 | Adam | 0.8333675 | 0.8333675 | 37.591098 | 10505125. |
| 0 | 0-0-0-0 | 0-0-0-0 | 10 | 0.0 | Adagrad | 0.8388799 | 0.8388799 | 33.944544 | 10505125. |
| 0 | 0-0-0-0 | 0-0-0-0 | 10 | 0.0 | RMSprop | 0.8637601 | 0.8637601 | 32.138678 | 10505125. |
| 0 | 0-0-0-0 | 0-0-0-0 | 10 | 0.2 | Adam | 0.8392515 | 0.8392515 | 47.985623 | 10505125. |
| 0 | 0-0-0-0 | 0-0-0-0 | 10 | 0.2 | Adagrad | 0.8381623 | 0.8381622 | 37.884377 | 10505125. |
| 0 | 0-0-0-0 | 0-0-0-0 | 10 | 0.2 | RMSprop | 0.8739312 | 0.8739312 | 36.058063 | 10505125. |
| 0 | 0-0-0-0 | 0-0-0-0 | 10 | 0.4 | Adam | 0.9257107 | 0.9257107 | 29.342169 | 10505125. |
| 0 | 0-0-0-0 | 0-0-0-0 | 10 | 0.4 | Adagrad | 0.9430121 | 0.9430121 | 30.912767 | 10505125. |
| 0 | 0-0-0-0 | 0-0-0-0 | 10 | 0.4 | RMSprop | 0.9471112 | 0.9471112 | 28.515629 | 10505125. |
| 1 | 5-15-17-5 | 5-5-5-8 | 1 | 0.0 | Adam | 0.8852364 | 0.8852364 | 20.692667 | 4129350.0 |
| 1 | 17-5-5-15 | 5-5-5-8 | 1 | 0.0 | Adam | 0.8797998 | 0.8797998 | 32.810872 | 4129380.0 |
| 1 | 5-15-17-5 | 5-5-5-8 | 1 | 0.0 | Adagrad | 0.8854499 | 0.8854499 | 19.488915 | 4129350.0 |
| 1 | 17-5-5-15 | 5-5-5-8 | 1 | 0.0 | Adagrad | 0.9142248 | 0.9142247 | 25.298662 | 4129380.0 |
| 1 | 5-15-17-5 | 5-5-5-8 | 1 | 0.0 | RMSprop | 0.8863742 | 0.8863742 | 17.886598 | 4129350.0 |
| 1 | 17-5-5-15 | 5-5-5-8 | 1 | 0.0 | RMSprop | 0.8915191 | 0.8915192 | 31.968132 | 4129380.0 |
| 1 | 5-15-17-5 | 5-5-5-8 | 1 | 0.2 | Adam | 0.8752781 | 0.8752781 | 24.224101 | 4129350.0 |
| 1 | 17-5-5-15 | 5-5-5-8 | 1 | 0.2 | Adam | 0.8761465 | 0.8761464 | 32.021734 | 4129380.0 |
| 1 | 5-15-17-5 | 5-5-5-8 | 1 | 0.2 | Adagrad | 0.8687415 | 0.8687415 | 24.723722 | 4129350.0 |
| 1 | 17-5-5-15 | 5-5-5-8 | 1 | 0.2 | Adagrad | 0.8776234 | 0.8776234 | 26.249337 | 4129380.0 |
| 1 | 5-15-17-5 | 5-5-5-8 | 1 | 0.2 | RMSprop | 0.8794566 | 0.8794566 | 21.630741 | 4129350.0 |
| 1 | 17-5-5-15 | 5-5-5-8 | 1 | 0.2 | RMSprop | 0.8790696 | 0.8790696 | 31.718567 | 4129380.0 |
| 1 | 5-15-17-5 | 5-5-5-8 | 1 | 0.4 | Adam | 0.8600410 | 0.8600410 | 24.444384 | 4129350.0 |
| 1 | 17-5-5-15 | 5-5-5-8 | 1 | 0.4 | Adam | 0.8759121 | 0.8759121 | 33.715077 | 4129380.0 |
| 1 | 5-15-17-5 | 5-5-5-8 | 1 | 0.4 | Adagrad | 0.8462153 | 0.8462153 | 24.927897 | 4129350.0 |
| 1 | 17-5-5-15 | 5-5-5-8 | 1 | 0.4 | Adagrad | 0.8660738 | 0.8660737 | 40.536351 | 4129380.0 |
| 1 | 5-15-17-5 | 5-5-5-8 | 1 | 0.4 | RMSprop | 0.8676793 | 0.8676793 | 27.926397 | 4129350.0 |
| 1 | 17-5-5-15 | 5-5-5-8 | 1 | 0.4 | RMSprop | 0.8666752 | 0.8666752 | 40.302706 | 4129380.0 |
| 1 | 5-15-17-5 | 5-5-5-8 | 2 | 0.0 | Adam | 0.8647579 | 0.8647579 | 24.089719 | 4129575.0 |
| 1 | 17-5-5-15 | 5-5-5-8 | 2 | 0.0 | Adam | 0.8870402 | 0.8870402 | 31.578402 | 4129635.0 |
| 1 | 5-15-17-5 | 5-5-5-8 | 2 | 0.0 | Adagrad | 0.8516426 | 0.8516426 | 23.874473 | 4129575.0 |
| 1 | 17-5-5-15 | 5-5-5-8 | 2 | 0.0 | Adagrad | 0.8977078 | 0.8977078 | 30.450419 | 4129635.0 |
| 1 | 5-15-17-5 | 5-5-5-8 | 2 | 0.0 | RMSprop | 0.8625823 | 0.8625822 | 24.594440 | 4129575.0 |
| 1 | 17-5-5-15 | 5-5-5-8 | 2 | 0.0 | RMSprop | 0.8724863 | 0.8724863 | 31.092009 | 4129635.0 |
| 1 | 5-15-17-5 | 5-5-5-8 | 2 | 0.2 | Adam | 0.8502493 | 0.8502493 | 29.424809 | 4129575.0 |
| 1 | 17-5-5-15 | 5-5-5-8 | 2 | 0.2 | Adam | 0.8585124 | 0.8585124 | 32.537363 | 4129635.0 |
| 1 | 5-15-17-5 | 5-5-5-8 | 2 | 0.2 | Adagrad | 0.8503004 | 0.8503004 | 26.398328 | 4129575.0 |
| 1 | 17-5-5-15 | 5-5-5-8 | 2 | 0.2 | Adagrad | 0.8749101 | 0.8749101 | 31.343781 | 4129635.0 |
| 1 | 5-15-17-5 | 5-5-5-8 | 2 | 0.2 | RMSprop | 0.8552064 | 0.8552063 | 27.645179 | 4129575.0 |
| 1 | 17-5-5-15 | 5-5-5-8 | 2 | 0.2 | RMSprop | 0.8550262 | 0.8550262 | 33.144657 | 4129635.0 |
| 1 | 5-15-17-5 | 5-5-5-8 | 2 | 0.4 | Adam | 0.8403906 | 0.8403906 | 35.095605 | 4129575.0 |
| 1 | 17-5-5-15 | 5-5-5-8 | 2 | 0.4 | Adam | 0.8552498 | 0.8552498 | 42.802928 | 4129635.0 |
| 1 | 5-15-17-5 | 5-5-5-8 | 2 | 0.4 | Adagrad | 0.8304864 | 0.8304864 | 33.263822 | 4129575.0 |
| 1 | 17-5-5-15 | 5-5-5-8 | 2 | 0.4 | Adagrad | 0.8606973 | 0.8606973 | 36.789804 | 4129635.0 |
| 1 | 5-15-17-5 | 5-5-5-8 | 2 | 0.4 | RMSprop | 0.8376777 | 0.8376777 | 32.976148 | 4129575.0 |
| 1 | 17-5-5-15 | 5-5-5-8 | 2 | 0.4 | RMSprop | 0.8562211 | 0.8562211 | 37.325340 | 4129635.0 |
| 1 | 5-15-17-5 | 5-5-5-8 | 3 | 0.0 | Adam | 0.8553801 | 0.8553801 | 31.773054 | 4129800.0 |
| 1 | 17-5-5-15 | 5-5-5-8 | 3 | 0.0 | Adam | 0.8695949 | 0.8695949 | 34.785430 | 4129890.0 |
| 1 | 5-15-17-5 | 5-5-5-8 | 3 | 0.0 | Adagrad | 0.8374645 | 0.8374645 | 31.400344 | 4129800.0 |
| 1 | 17-5-5-15 | 5-5-5-8 | 3 | 0.0 | Adagrad | 0.8656870 | 0.8656870 | 32.681954 | 4129890.0 |
| 1 | 5-15-17-5 | 5-5-5-8 | 3 | 0.0 | RMSprop | 0.8538699 | 0.8538699 | 27.387227 | 4129800.0 |
| 1 | 17-5-5-15 | 5-5-5-8 | 3 | 0.0 | RMSprop | 0.8607465 | 0.8607465 | 38.192071 | 4129890.0 |
| 1 | 5-15-17-5 | 5-5-5-8 | 3 | 0.2 | Adam | 0.8499718 | 0.8499718 | 35.956604 | 4129800.0 |
| 1 | 17-5-5-15 | 5-5-5-8 | 3 | 0.2 | Adam | 0.8654725 | 0.8654725 | 37.431246 | 4129890.0 |
| 1 | 5-15-17-5 | 5-5-5-8 | 3 | 0.2 | Adagrad | 0.8307659 | 0.8307659 | 32.263288 | 4129800.0 |
| 1 | 17-5-5-15 | 5-5-5-8 | 3 | 0.2 | Adagrad | 0.8493852 | 0.8493852 | 34.218080 | 4129890.0 |
| 1 | 5-15-17-5 | 5-5-5-8 | 3 | 0.2 | RMSprop | 0.8363701 | 0.8363701 | 31.540886 | 4129800.0 |
| 1 | 17-5-5-15 | 5-5-5-8 | 3 | 0.2 | RMSprop | 0.8579969 | 0.8579969 | 34.701938 | 4129890.0 |
| 1 | 5-15-17-5 | 5-5-5-8 | 3 | 0.4 | Adam | 0.8257387 | 0.8257387 | 39.098405 | 4129800.0 |
| 1 | 17-5-5-15 | 5-5-5-8 | 3 | 0.4 | Adam | 0.8384705 | 0.8384705 | 43.931219 | 4129890.0 |
| 1 | 5-15-17-5 | 5-5-5-8 | 3 | 0.4 | Adagrad | 0.8259947 | 0.8259947 | 34.265519 | 4129800.0 |
| 1 | 17-5-5-15 | 5-5-5-8 | 3 | 0.4 | Adagrad | 0.8450495 | 0.8450495 | 39.735548 | 4129890.0 |
| 1 | 5-15-17-5 | 5-5-5-8 | 3 | 0.4 | RMSprop | 0.8297951 | 0.8297951 | 41.041854 | 4129800.0 |
| 1 | 17-5-5-15 | 5-5-5-8 | 3 | 0.4 | RMSprop | 0.8606507 | 0.8606507 | 39.049721 | 4129890.0 |
| 1 | 5-15-17-5 | 5-5-5-8 | 4 | 0.0 | Adam | 0.8349739 | 0.8349739 | 39.730590 | 4130025.0 |
| 1 | 17-5-5-15 | 5-5-5-8 | 4 | 0.0 | Adam | 0.8558303 | 0.8558303 | 37.079259 | 4130145.0 |
| 1 | 5-15-17-5 | 5-5-5-8 | 4 | 0.0 | Adagrad | 0.8369650 | 0.8369650 | 37.931369 | 4130025.0 |
| 1 | 17-5-5-15 | 5-5-5-8 | 4 | 0.0 | Adagrad | 0.8655999 | 0.8655999 | 42.968543 | 4130145.0 |
| 1 | 5-15-17-5 | 5-5-5-8 | 4 | 0.0 | RMSprop | 0.8498021 | 0.8498021 | 36.028185 | 4130025.0 |
| 1 | 17-5-5-15 | 5-5-5-8 | 4 | 0.0 | RMSprop | 0.8808916 | 0.8808916 | 34.062217 | 4130145.0 |
| 1 | 5-15-17-5 | 5-5-5-8 | 4 | 0.2 | Adam | 0.8298019 | 0.8298019 | 46.369066 | 4130025.0 |
| 1 | 17-5-5-15 | 5-5-5-8 | 4 | 0.2 | Adam | 0.8585332 | 0.8585332 | 45.032577 | 4130145.0 |
| 1 | 5-15-17-5 | 5-5-5-8 | 4 | 0.2 | Adagrad | 0.8218281 | 0.8218281 | 41.545934 | 4130025.0 |
| 1 | 17-5-5-15 | 5-5-5-8 | 4 | 0.2 | Adagrad | 0.8525509 | 0.8525509 | 40.724484 | 4130145.0 |
| 1 | 5-15-17-5 | 5-5-5-8 | 4 | 0.2 | RMSprop | 0.8353271 | 0.8353271 | 40.073779 | 4130025.0 |
| 1 | 17-5-5-15 | 5-5-5-8 | 4 | 0.2 | RMSprop | 0.8678993 | 0.8678993 | 43.934561 | 4130145.0 |
| 1 | 5-15-17-5 | 5-5-5-8 | 4 | 0.4 | Adam | 0.8253198 | 0.8253198 | 43.209221 | 4130025.0 |
| 1 | 17-5-5-15 | 5-5-5-8 | 4 | 0.4 | Adam | 0.8494323 | 0.8494323 | 48.942177 | 4130145.0 |
| 1 | 5-15-17-5 | 5-5-5-8 | 4 | 0.4 | Adagrad | 0.8239016 | 0.8239016 | 44.781508 | 4130025.0 |
| 1 | 17-5-5-15 | 5-5-5-8 | 4 | 0.4 | Adagrad | 0.8271913 | 0.8271913 | 48.682276 | 4130145.0 |
| 1 | 5-15-17-5 | 5-5-5-8 | 4 | 0.4 | RMSprop | 0.8248453 | 0.8248453 | 46.439184 | 4130025.0 |
| 1 | 17-5-5-15 | 5-5-5-8 | 4 | 0.4 | RMSprop | 0.8422078 | 0.8422078 | 48.445384 | 4130145.0 |
| 1 | 5-15-17-5 | 5-5-5-8 | 5 | 0.0 | Adam | 0.8331573 | 0.8331573 | 45.131631 | 4130250.0 |
| 1 | 17-5-5-15 | 5-5-5-8 | 5 | 0.0 | Adam | 0.8609545 | 0.8609545 | 43.861671 | 4130400.0 |
| 1 | 5-15-17-5 | 5-5-5-8 | 5 | 0.0 | Adagrad | 0.8232170 | 0.8232170 | 47.372525 | 4130250.0 |
| 1 | 17-5-5-15 | 5-5-5-8 | 5 | 0.0 | Adagrad | 0.8560452 | 0.8560452 | 43.964595 | 4130400.0 |
| 1 | 5-15-17-5 | 5-5-5-8 | 5 | 0.0 | RMSprop | 0.8402357 | 0.8402357 | 43.826480 | 4130250.0 |
| 1 | 17-5-5-15 | 5-5-5-8 | 5 | 0.0 | RMSprop | 0.8575580 | 0.8575580 | 43.056299 | 4130400.0 |
| 1 | 5-15-17-5 | 5-5-5-8 | 5 | 0.2 | Adam | 0.8271281 | 0.8271281 | 44.579589 | 4130250.0 |
| 1 | 17-5-5-15 | 5-5-5-8 | 5 | 0.2 | Adam | 0.8436376 | 0.8436376 | 53.032507 | 4130400.0 |
| 1 | 5-15-17-5 | 5-5-5-8 | 5 | 0.2 | Adagrad | 0.8153670 | 0.8153670 | 52.540701 | 4130250.0 |
| 1 | 17-5-5-15 | 5-5-5-8 | 5 | 0.2 | Adagrad | 0.8414123 | 0.8414123 | 41.956084 | 4130400.0 |
| 1 | 5-15-17-5 | 5-5-5-8 | 5 | 0.2 | RMSprop | 0.8262106 | 0.8262106 | 43.300844 | 4130250.0 |
| 1 | 17-5-5-15 | 5-5-5-8 | 5 | 0.2 | RMSprop | 0.8430407 | 0.8430407 | 41.907277 | 4130400.0 |
| 1 | 5-15-17-5 | 5-5-5-8 | 5 | 0.4 | Adam | 0.8260872 | 0.8260872 | 52.210885 | 4130250.0 |
| 1 | 17-5-5-15 | 5-5-5-8 | 5 | 0.4 | Adam | 0.8490106 | 0.8490106 | 54.726374 | 4130400.0 |
| 1 | 5-15-17-5 | 5-5-5-8 | 5 | 0.4 | Adagrad | 0.8186366 | 0.8186366 | 56.695295 | 4130250.0 |
| 1 | 17-5-5-15 | 5-5-5-8 | 5 | 0.4 | Adagrad | 0.8323518 | 0.8323518 | 50.036647 | 4130400.0 |
| 1 | 5-15-17-5 | 5-5-5-8 | 5 | 0.4 | RMSprop | 0.8322105 | 0.8322105 | 54.152964 | 4130250.0 |
| 1 | 17-5-5-15 | 5-5-5-8 | 5 | 0.4 | RMSprop | 0.8408586 | 0.8408586 | 54.655779 | 4130400.0 |
| 1 | 5-15-17-5 | 5-5-5-8 | 6 | 0.0 | Adam | 0.8371488 | 0.8371488 | 52.236402 | 4130475.0 |
| 1 | 17-5-5-15 | 5-5-5-8 | 6 | 0.0 | Adam | 0.8438938 | 0.8438938 | 51.696027 | 4130655.0 |
| 1 | 5-15-17-5 | 5-5-5-8 | 6 | 0.0 | Adagrad | 0.8137500 | 0.8137500 | 53.063984 | 4130475.0 |
| 1 | 17-5-5-15 | 5-5-5-8 | 6 | 0.0 | Adagrad | 0.8488420 | 0.8488420 | 56.468188 | 4130655.0 |
| 1 | 5-15-17-5 | 5-5-5-8 | 6 | 0.0 | RMSprop | 0.8338695 | 0.8338695 | 51.471462 | 4130475.0 |
| 1 | 17-5-5-15 | 5-5-5-8 | 6 | 0.0 | RMSprop | 0.8620984 | 0.8620984 | 49.082156 | 4130655.0 |
| 1 | 5-15-17-5 | 5-5-5-8 | 6 | 0.2 | Adam | 0.8254059 | 0.8254059 | 50.995288 | 4130475.0 |
| 1 | 17-5-5-15 | 5-5-5-8 | 6 | 0.2 | Adam | 0.8414623 | 0.8414623 | 54.790778 | 4130655.0 |
| 1 | 5-15-17-5 | 5-5-5-8 | 6 | 0.2 | Adagrad | 0.8127289 | 0.8127289 | 56.087182 | 4130475.0 |
| 1 | 17-5-5-15 | 5-5-5-8 | 6 | 0.2 | Adagrad | 0.8375602 | 0.8375602 | 53.672889 | 4130655.0 |
| 1 | 5-15-17-5 | 5-5-5-8 | 6 | 0.2 | RMSprop | 0.8269427 | 0.8269427 | 57.111530 | 4130475.0 |
| 1 | 17-5-5-15 | 5-5-5-8 | 6 | 0.2 | RMSprop | 0.8481238 | 0.8481238 | 63.335000 | 4130655.0 |
| 1 | 5-15-17-5 | 5-5-5-8 | 6 | 0.4 | Adam | 0.8255674 | 0.8255674 | 57.397526 | 4130475.0 |
| 1 | 17-5-5-15 | 5-5-5-8 | 6 | 0.4 | Adam | 0.8379003 | 0.8379003 | 59.398794 | 4130655.0 |
| 1 | 5-15-17-5 | 5-5-5-8 | 6 | 0.4 | Adagrad | 0.8050386 | 0.8050386 | 56.140972 | 4130475.0 |
| 1 | 17-5-5-15 | 5-5-5-8 | 6 | 0.4 | Adagrad | 0.8420939 | 0.8420939 | 54.151058 | 4130655.0 |
| 1 | 5-15-17-5 | 5-5-5-8 | 6 | 0.4 | RMSprop | 0.8207385 | 0.8207385 | 56.959229 | 4130475.0 |
| 1 | 17-5-5-15 | 5-5-5-8 | 6 | 0.4 | RMSprop | 0.8394163 | 0.8394163 | 54.292675 | 4130655.0 |
| 1 | 5-15-17-5 | 5-5-5-8 | 7 | 0.0 | Adam | 0.8281353 | 0.8281353 | 54.646646 | 4130700.0 |
| 1 | 17-5-5-15 | 5-5-5-8 | 7 | 0.0 | Adam | 0.8394927 | 0.8394927 | 55.579191 | 4130910.0 |
| 1 | 5-15-17-5 | 5-5-5-8 | 7 | 0.0 | Adagrad | 0.8273865 | 0.8273865 | 61.519620 | 4130700.0 |
| 1 | 17-5-5-15 | 5-5-5-8 | 7 | 0.0 | Adagrad | 0.8487611 | 0.8487611 | 57.193382 | 4130910.0 |
| 1 | 5-15-17-5 | 5-5-5-8 | 7 | 0.0 | RMSprop | 0.8233832 | 0.8233832 | 61.212984 | 4130700.0 |
| 1 | 17-5-5-15 | 5-5-5-8 | 7 | 0.0 | RMSprop | 0.8509177 | 0.8509177 | 61.659413 | 4130910.0 |
| 1 | 5-15-17-5 | 5-5-5-8 | 7 | 0.2 | Adam | 0.8244838 | 0.8244838 | 56.035302 | 4130700.0 |
| 1 | 17-5-5-15 | 5-5-5-8 | 7 | 0.2 | Adam | 0.8402326 | 0.8402326 | 60.669184 | 4130910.0 |
| 1 | 5-15-17-5 | 5-5-5-8 | 7 | 0.2 | Adagrad | 0.8138325 | 0.8138325 | 67.592934 | 4130700.0 |
| 1 | 17-5-5-15 | 5-5-5-8 | 7 | 0.2 | Adagrad | 0.8380756 | 0.8380756 | 58.328464 | 4130910.0 |
| 1 | 5-15-17-5 | 5-5-5-8 | 7 | 0.2 | RMSprop | 0.8286293 | 0.8286293 | 58.998354 | 4130700.0 |
| 1 | 17-5-5-15 | 5-5-5-8 | 7 | 0.2 | RMSprop | 0.8436520 | 0.8436520 | 58.301308 | 4130910.0 |
| 1 | 5-15-17-5 | 5-5-5-8 | 7 | 0.4 | Adam | 0.8163808 | 0.8163808 | 67.396429 | 4130700.0 |
| 1 | 17-5-5-15 | 5-5-5-8 | 7 | 0.4 | Adam | 0.8368548 | 0.8368548 | 56.338624 | 4130910.0 |
| 1 | 5-15-17-5 | 5-5-5-8 | 7 | 0.4 | Adagrad | 0.8024903 | 0.8024903 | 73.178731 | 4130700.0 |
| 1 | 17-5-5-15 | 5-5-5-8 | 7 | 0.4 | Adagrad | 0.8312099 | 0.8312099 | 63.185604 | 4130910.0 |
| 1 | 5-15-17-5 | 5-5-5-8 | 7 | 0.4 | RMSprop | 0.8131575 | 0.8131575 | 64.458150 | 4130700.0 |
| 1 | 17-5-5-15 | 5-5-5-8 | 7 | 0.4 | RMSprop | 0.8386810 | 0.8386810 | 63.459911 | 4130910.0 |
| 1 | 5-15-17-5 | 5-5-5-8 | 8 | 0.0 | Adam | 0.8255932 | 0.8255932 | 64.648495 | 4130925.0 |
| 1 | 17-5-5-15 | 5-5-5-8 | 8 | 0.0 | Adam | 0.8474212 | 0.8474212 | 58.203705 | 4131165.0 |
| 1 | 5-15-17-5 | 5-5-5-8 | 8 | 0.0 | Adagrad | 0.8135104 | 0.8135104 | 68.053910 | 4130925.0 |
| 1 | 17-5-5-15 | 5-5-5-8 | 8 | 0.0 | Adagrad | 0.8383861 | 0.8383861 | 62.935482 | 4131165.0 |
| 1 | 5-15-17-5 | 5-5-5-8 | 8 | 0.0 | RMSprop | 0.8292618 | 0.8292618 | 60.422737 | 4130925.0 |
| 1 | 17-5-5-15 | 5-5-5-8 | 8 | 0.0 | RMSprop | 0.8510872 | 0.8510872 | 55.479669 | 4131165.0 |
| 1 | 5-15-17-5 | 5-5-5-8 | 8 | 0.2 | Adam | 0.8187395 | 0.8187395 | 66.862697 | 4130925.0 |
| 1 | 17-5-5-15 | 5-5-5-8 | 8 | 0.2 | Adam | 0.8363608 | 0.8363608 | 78.578846 | 4131165.0 |
| 1 | 5-15-17-5 | 5-5-5-8 | 8 | 0.2 | Adagrad | 0.8120717 | 0.8120717 | 69.629727 | 4130925.0 |
| 1 | 17-5-5-15 | 5-5-5-8 | 8 | 0.2 | Adagrad | 0.8335498 | 0.8335498 | 69.803523 | 4131165.0 |
| 1 | 5-15-17-5 | 5-5-5-8 | 8 | 0.2 | RMSprop | 0.8205869 | 0.8205869 | 65.994733 | 4130925.0 |
| 1 | 17-5-5-15 | 5-5-5-8 | 8 | 0.2 | RMSprop | 0.8426965 | 0.8426965 | 64.046058 | 4131165.0 |
| 1 | 5-15-17-5 | 5-5-5-8 | 8 | 0.4 | Adam | 0.8101137 | 0.8101137 | 74.214707 | 4130925.0 |
| 1 | 17-5-5-15 | 5-5-5-8 | 8 | 0.4 | Adam | 0.8436963 | 0.8436963 | 72.792658 | 4131165.0 |
| 1 | 5-15-17-5 | 5-5-5-8 | 8 | 0.4 | Adagrad | 0.8116331 | 0.8116331 | 78.353912 | 4130925.0 |
| 1 | 17-5-5-15 | 5-5-5-8 | 8 | 0.4 | Adagrad | 0.8293806 | 0.8293806 | 68.687744 | 4131165.0 |
| 1 | 5-15-17-5 | 5-5-5-8 | 8 | 0.4 | RMSprop | 0.8121106 | 0.8121106 | 79.741024 | 4130925.0 |
| 1 | 17-5-5-15 | 5-5-5-8 | 8 | 0.4 | RMSprop | 0.8305893 | 0.8305893 | 71.356815 | 4131165.0 |
| 1 | 5-15-17-5 | 5-5-5-8 | 9 | 0.0 | Adam | 0.8282930 | 0.8282930 | 71.590376 | 4131150.0 |
| 1 | 17-5-5-15 | 5-5-5-8 | 9 | 0.0 | Adam | 0.8349880 | 0.8349880 | 72.526208 | 4131420.0 |
| 1 | 5-15-17-5 | 5-5-5-8 | 9 | 0.0 | Adagrad | 0.8141864 | 0.8141865 | 79.954175 | 4131150.0 |
| 1 | 17-5-5-15 | 5-5-5-8 | 9 | 0.0 | Adagrad | 0.8349457 | 0.8349457 | 73.669431 | 4131420.0 |
| 1 | 5-15-17-5 | 5-5-5-8 | 9 | 0.0 | RMSprop | 0.8283610 | 0.8283610 | 86.523336 | 4131150.0 |
| 1 | 17-5-5-15 | 5-5-5-8 | 9 | 0.0 | RMSprop | 0.8431465 | 0.8431465 | 76.216481 | 4131420.0 |
| 1 | 5-15-17-5 | 5-5-5-8 | 9 | 0.2 | Adam | 0.8212562 | 0.8212562 | 73.539960 | 4131150.0 |
| 1 | 17-5-5-15 | 5-5-5-8 | 9 | 0.2 | Adam | 0.8396007 | 0.8396007 | 69.669397 | 4131420.0 |
| 1 | 5-15-17-5 | 5-5-5-8 | 9 | 0.2 | Adagrad | 0.8098686 | 0.8098686 | 81.087015 | 4131150.0 |
| 1 | 17-5-5-15 | 5-5-5-8 | 9 | 0.2 | Adagrad | 0.8245188 | 0.8245188 | 72.228768 | 4131420.0 |
| 1 | 5-15-17-5 | 5-5-5-8 | 9 | 0.2 | RMSprop | 0.8145879 | 0.8145879 | 78.029978 | 4131150.0 |
| 1 | 17-5-5-15 | 5-5-5-8 | 9 | 0.2 | RMSprop | 0.8488894 | 0.8488894 | 73.695084 | 4131420.0 |
| 1 | 5-15-17-5 | 5-5-5-8 | 9 | 0.4 | Adam | 0.8168459 | 0.8168459 | 87.018467 | 4131150.0 |
| 1 | 17-5-5-15 | 5-5-5-8 | 9 | 0.4 | Adam | 0.8406727 | 0.8406727 | 93.501185 | 4131420.0 |
| 1 | 5-15-17-5 | 5-5-5-8 | 9 | 0.4 | Adagrad | 0.8055735 | 0.8055735 | 96.808297 | 4131150.0 |
| 1 | 17-5-5-15 | 5-5-5-8 | 9 | 0.4 | Adagrad | 0.8212822 | 0.8212822 | 85.415224 | 4131420.0 |
| 1 | 5-15-17-5 | 5-5-5-8 | 9 | 0.4 | RMSprop | 0.8181834 | 0.8181834 | 89.208693 | 4131150.0 |
| 1 | 17-5-5-15 | 5-5-5-8 | 9 | 0.4 | RMSprop | 0.8259521 | 0.8259521 | 88.176642 | 4131420.0 |
| 1 | 5-15-17-5 | 5-5-5-8 | 10 | 0.0 | Adam | 0.8340251 | 0.8340251 | 68.655265 | 4131375.0 |
| 1 | 17-5-5-15 | 5-5-5-8 | 10 | 0.0 | Adam | 0.8342896 | 0.8342896 | 73.571044 | 4131675.0 |
| 1 | 5-15-17-5 | 5-5-5-8 | 10 | 0.0 | Adagrad | 0.8069899 | 0.8069899 | 76.284257 | 4131375.0 |
| 1 | 17-5-5-15 | 5-5-5-8 | 10 | 0.0 | Adagrad | 0.8282507 | 0.8282507 | 80.278211 | 4131675.0 |
| 1 | 5-15-17-5 | 5-5-5-8 | 10 | 0.0 | RMSprop | 0.8230297 | 0.8230297 | 72.734229 | 4131375.0 |
| 1 | 17-5-5-15 | 5-5-5-8 | 10 | 0.0 | RMSprop | 0.8317558 | 0.8317558 | 70.771181 | 4131675.0 |
| 1 | 5-15-17-5 | 5-5-5-8 | 10 | 0.2 | Adam | 0.8162451 | 0.8162451 | 85.256882 | 4131375.0 |
| 1 | 17-5-5-15 | 5-5-5-8 | 10 | 0.2 | Adam | 0.8293699 | 0.8293699 | 76.282907 | 4131675.0 |
| 1 | 5-15-17-5 | 5-5-5-8 | 10 | 0.2 | Adagrad | 0.8112687 | 0.8112687 | 84.599935 | 4131375.0 |
| 1 | 17-5-5-15 | 5-5-5-8 | 10 | 0.2 | Adagrad | 0.8266711 | 0.8266711 | 90.542914 | 4131675.0 |
| 1 | 5-15-17-5 | 5-5-5-8 | 10 | 0.2 | RMSprop | 0.8220466 | 0.8220466 | 88.284567 | 4131375.0 |
| 1 | 17-5-5-15 | 5-5-5-8 | 10 | 0.2 | RMSprop | 0.8401201 | 0.8401200 | 80.102460 | 4131675.0 |
| 1 | 5-15-17-5 | 5-5-5-8 | 10 | 0.4 | Adam | 0.8129858 | 0.8129858 | 88.655591 | 4131375.0 |
| 1 | 17-5-5-15 | 5-5-5-8 | 10 | 0.4 | Adam | 0.8236083 | 0.8236083 | 95.488402 | 4131675.0 |
| 1 | 5-15-17-5 | 5-5-5-8 | 10 | 0.4 | Adagrad | 0.8046844 | 0.8046844 | 95.411192 | 4131375.0 |
| 1 | 17-5-5-15 | 5-5-5-8 | 10 | 0.4 | Adagrad | 0.8236642 | 0.8236642 | 83.390229 | 4131675.0 |
| 1 | 5-15-17-5 | 5-5-5-8 | 10 | 0.4 | RMSprop | 0.8138999 | 0.8138999 | 82.191221 | 4131375.0 |
| 1 | 17-5-5-15 | 5-5-5-8 | 10 | 0.4 | RMSprop | 0.8244989 | 0.8244989 | 83.018589 | 4131675.0 |
| 2 | 5-15-17-5 | 5-5-5-8 | 1 | 0.0 | Adam | 0.8963417 | 0.8963417 | 20.610659 | 3128489.0 |
| 2 | 17-5-5-15 | 5-5-5-8 | 1 | 0.0 | Adam | 0.8627937 | 0.8627937 | 32.429519 | 3128519.0 |
| 2 | 5-15-17-5 | 5-5-5-8 | 1 | 0.0 | Adagrad | 0.8823095 | 0.8823095 | 22.182802 | 3128489.0 |
| 2 | 17-5-5-15 | 5-5-5-8 | 1 | 0.0 | Adagrad | 0.8673527 | 0.8673527 | 28.461738 | 3128519.0 |
| 2 | 5-15-17-5 | 5-5-5-8 | 1 | 0.0 | RMSprop | 0.8782371 | 0.8782371 | 22.264694 | 3128489.0 |
| 2 | 17-5-5-15 | 5-5-5-8 | 1 | 0.0 | RMSprop | 0.8622734 | 0.8622734 | 33.699701 | 3128519.0 |
| 2 | 5-15-17-5 | 5-5-5-8 | 1 | 0.2 | Adam | 0.8643851 | 0.8643851 | 31.140806 | 3128489.0 |
| 2 | 17-5-5-15 | 5-5-5-8 | 1 | 0.2 | Adam | 0.8439462 | 0.8439462 | 33.968737 | 3128519.0 |
| 2 | 5-15-17-5 | 5-5-5-8 | 1 | 0.2 | Adagrad | 0.8633485 | 0.8633485 | 27.953382 | 3128489.0 |
| 2 | 17-5-5-15 | 5-5-5-8 | 1 | 0.2 | Adagrad | 0.8637549 | 0.8637549 | 32.365689 | 3128519.0 |
| 2 | 5-15-17-5 | 5-5-5-8 | 1 | 0.2 | RMSprop | 0.8897805 | 0.8897805 | 28.642250 | 3128489.0 |
| 2 | 17-5-5-15 | 5-5-5-8 | 1 | 0.2 | RMSprop | 0.8439271 | 0.8439271 | 37.442615 | 3128519.0 |
| 2 | 5-15-17-5 | 5-5-5-8 | 1 | 0.4 | Adam | 0.8623450 | 0.8623450 | 37.623395 | 3128489.0 |
| 2 | 17-5-5-15 | 5-5-5-8 | 1 | 0.4 | Adam | 0.8556610 | 0.8556610 | 39.641542 | 3128519.0 |
| 2 | 5-15-17-5 | 5-5-5-8 | 1 | 0.4 | Adagrad | 0.8662805 | 0.8662805 | 24.209262 | 3128489.0 |
| 2 | 17-5-5-15 | 5-5-5-8 | 1 | 0.4 | Adagrad | 0.8678090 | 0.8678090 | 30.427819 | 3128519.0 |
| 2 | 5-15-17-5 | 5-5-5-8 | 1 | 0.4 | RMSprop | 0.8618288 | 0.8618289 | 38.896665 | 3128489.0 |
| 2 | 17-5-5-15 | 5-5-5-8 | 1 | 0.4 | RMSprop | 0.8592702 | 0.8592702 | 33.858336 | 3128519.0 |
| 2 | 5-15-17-5 | 5-5-5-8 | 2 | 0.0 | Adam | 0.8502141 | 0.8502141 | 38.110960 | 3128853.0 |
| 2 | 17-5-5-15 | 5-5-5-8 | 2 | 0.0 | Adam | 0.8457640 | 0.8457640 | 42.100318 | 3128913.0 |
| 2 | 5-15-17-5 | 5-5-5-8 | 2 | 0.0 | Adagrad | 0.8327425 | 0.8327425 | 34.145475 | 3128853.0 |
| 2 | 17-5-5-15 | 5-5-5-8 | 2 | 0.0 | Adagrad | 0.8487642 | 0.8487642 | 35.060775 | 3128913.0 |
| 2 | 5-15-17-5 | 5-5-5-8 | 2 | 0.0 | RMSprop | 0.8479125 | 0.8479125 | 37.281991 | 3128853.0 |
| 2 | 17-5-5-15 | 5-5-5-8 | 2 | 0.0 | RMSprop | 0.8527262 | 0.8527262 | 40.456275 | 3128913.0 |
| 2 | 5-15-17-5 | 5-5-5-8 | 2 | 0.2 | Adam | 0.8393230 | 0.8393230 | 38.970317 | 3128853.0 |
| 2 | 17-5-5-15 | 5-5-5-8 | 2 | 0.2 | Adam | 0.8359835 | 0.8359835 | 44.411098 | 3128913.0 |
| 2 | 5-15-17-5 | 5-5-5-8 | 2 | 0.2 | Adagrad | 0.8310393 | 0.8310393 | 40.271729 | 3128853.0 |
| 2 | 17-5-5-15 | 5-5-5-8 | 2 | 0.2 | Adagrad | 0.8364488 | 0.8364488 | 40.519570 | 3128913.0 |
| 2 | 5-15-17-5 | 5-5-5-8 | 2 | 0.2 | RMSprop | 0.8309189 | 0.8309189 | 41.513797 | 3128853.0 |
| 2 | 17-5-5-15 | 5-5-5-8 | 2 | 0.2 | RMSprop | 0.8384937 | 0.8384937 | 47.218626 | 3128913.0 |
| 2 | 5-15-17-5 | 5-5-5-8 | 2 | 0.4 | Adam | 0.8291210 | 0.8291210 | 49.753488 | 3128853.0 |
| 2 | 17-5-5-15 | 5-5-5-8 | 2 | 0.4 | Adam | 0.8375593 | 0.8375593 | 53.136920 | 3128913.0 |
| 2 | 5-15-17-5 | 5-5-5-8 | 2 | 0.4 | Adagrad | 0.8358326 | 0.8358326 | 41.602609 | 3128853.0 |
| 2 | 17-5-5-15 | 5-5-5-8 | 2 | 0.4 | Adagrad | 0.8409937 | 0.8409937 | 45.387356 | 3128913.0 |
| 2 | 5-15-17-5 | 5-5-5-8 | 2 | 0.4 | RMSprop | 0.8264034 | 0.8264034 | 53.553262 | 3128853.0 |
| 2 | 17-5-5-15 | 5-5-5-8 | 2 | 0.4 | RMSprop | 0.8354448 | 0.8354448 | 55.733097 | 3128913.0 |
| 2 | 5-15-17-5 | 5-5-5-8 | 3 | 0.0 | Adam | 0.8382587 | 0.8382587 | 41.640094 | 3129217.0 |
| 2 | 17-5-5-15 | 5-5-5-8 | 3 | 0.0 | Adam | 0.8391334 | 0.8391333 | 43.667394 | 3129307.0 |
| 2 | 5-15-17-5 | 5-5-5-8 | 3 | 0.0 | Adagrad | 0.8241196 | 0.8241196 | 36.026164 | 3129217.0 |
| 2 | 17-5-5-15 | 5-5-5-8 | 3 | 0.0 | Adagrad | 0.8315890 | 0.8315889 | 42.717853 | 3129307.0 |
| 2 | 5-15-17-5 | 5-5-5-8 | 3 | 0.0 | RMSprop | 0.8484138 | 0.8484137 | 37.335276 | 3129217.0 |
| 2 | 17-5-5-15 | 5-5-5-8 | 3 | 0.0 | RMSprop | 0.8315759 | 0.8315759 | 50.980940 | 3129307.0 |
| 2 | 5-15-17-5 | 5-5-5-8 | 3 | 0.2 | Adam | 0.8298503 | 0.8298503 | 54.895428 | 3129217.0 |
| 2 | 17-5-5-15 | 5-5-5-8 | 3 | 0.2 | Adam | 0.8332391 | 0.8332391 | 51.083764 | 3129307.0 |
| 2 | 5-15-17-5 | 5-5-5-8 | 3 | 0.2 | Adagrad | 0.8307427 | 0.8307427 | 41.608161 | 3129217.0 |
| 2 | 17-5-5-15 | 5-5-5-8 | 3 | 0.2 | Adagrad | 0.8348865 | 0.8348865 | 43.096928 | 3129307.0 |
| 2 | 5-15-17-5 | 5-5-5-8 | 3 | 0.2 | RMSprop | 0.8314089 | 0.8314089 | 52.068069 | 3129217.0 |
| 2 | 17-5-5-15 | 5-5-5-8 | 3 | 0.2 | RMSprop | 0.8288459 | 0.8288459 | 47.790999 | 3129307.0 |
| 2 | 5-15-17-5 | 5-5-5-8 | 3 | 0.4 | Adam | 0.8278817 | 0.8278817 | 54.077558 | 3129217.0 |
| 2 | 17-5-5-15 | 5-5-5-8 | 3 | 0.4 | Adam | 0.8311063 | 0.8311063 | 52.333550 | 3129307.0 |
| 2 | 5-15-17-5 | 5-5-5-8 | 3 | 0.4 | Adagrad | 0.8224211 | 0.8224211 | 51.977381 | 3129217.0 |
| 2 | 17-5-5-15 | 5-5-5-8 | 3 | 0.4 | Adagrad | 0.8322943 | 0.8322943 | 51.092482 | 3129307.0 |
| 2 | 5-15-17-5 | 5-5-5-8 | 3 | 0.4 | RMSprop | 0.8242157 | 0.8242157 | 56.942202 | 3129217.0 |
| 2 | 17-5-5-15 | 5-5-5-8 | 3 | 0.4 | RMSprop | 0.8318193 | 0.8318193 | 65.861494 | 3129307.0 |
| 2 | 5-15-17-5 | 5-5-5-8 | 4 | 0.0 | Adam | 0.8325331 | 0.8325331 | 54.336210 | 3129581.0 |
| 2 | 17-5-5-15 | 5-5-5-8 | 4 | 0.0 | Adam | 0.8314770 | 0.8314771 | 62.488752 | 3129701.0 |
| 2 | 5-15-17-5 | 5-5-5-8 | 4 | 0.0 | Adagrad | 0.8250806 | 0.8250806 | 49.587259 | 3129581.0 |
| 2 | 17-5-5-15 | 5-5-5-8 | 4 | 0.0 | Adagrad | 0.8284976 | 0.8284976 | 55.887655 | 3129701.0 |
| 2 | 5-15-17-5 | 5-5-5-8 | 4 | 0.0 | RMSprop | 0.8375546 | 0.8375546 | 63.219404 | 3129581.0 |
| 2 | 17-5-5-15 | 5-5-5-8 | 4 | 0.0 | RMSprop | 0.8317145 | 0.8317145 | 54.872668 | 3129701.0 |
| 2 | 5-15-17-5 | 5-5-5-8 | 4 | 0.2 | Adam | 0.8245954 | 0.8245954 | 65.061203 | 3129581.0 |
| 2 | 17-5-5-15 | 5-5-5-8 | 4 | 0.2 | Adam | 0.8242462 | 0.8242462 | 66.091804 | 3129701.0 |
| 2 | 5-15-17-5 | 5-5-5-8 | 4 | 0.2 | Adagrad | 0.8181508 | 0.8181508 | 55.211671 | 3129581.0 |
| 2 | 17-5-5-15 | 5-5-5-8 | 4 | 0.2 | Adagrad | 0.8242553 | 0.8242553 | 58.720640 | 3129701.0 |
| 2 | 5-15-17-5 | 5-5-5-8 | 4 | 0.2 | RMSprop | 0.8212802 | 0.8212802 | 63.647544 | 3129581.0 |
| 2 | 17-5-5-15 | 5-5-5-8 | 4 | 0.2 | RMSprop | 0.8278828 | 0.8278828 | 58.886482 | 3129701.0 |
| 2 | 5-15-17-5 | 5-5-5-8 | 4 | 0.4 | Adam | 0.8194328 | 0.8194328 | 81.709400 | 3129581.0 |
| 2 | 17-5-5-15 | 5-5-5-8 | 4 | 0.4 | Adam | 0.8246703 | 0.8246703 | 73.834265 | 3129701.0 |
| 2 | 5-15-17-5 | 5-5-5-8 | 4 | 0.4 | Adagrad | 0.8103772 | 0.8103772 | 58.875185 | 3129581.0 |
| 2 | 17-5-5-15 | 5-5-5-8 | 4 | 0.4 | Adagrad | 0.8303074 | 0.8303074 | 51.648796 | 3129701.0 |
| 2 | 5-15-17-5 | 5-5-5-8 | 4 | 0.4 | RMSprop | 0.8186437 | 0.8186437 | 76.841115 | 3129581.0 |
| 2 | 17-5-5-15 | 5-5-5-8 | 4 | 0.4 | RMSprop | 0.8258346 | 0.8258346 | 67.564161 | 3129701.0 |
| 2 | 5-15-17-5 | 5-5-5-8 | 5 | 0.0 | Adam | 0.8266332 | 0.8266332 | 60.167867 | 3129945.0 |
| 2 | 17-5-5-15 | 5-5-5-8 | 5 | 0.0 | Adam | 0.8237619 | 0.8237619 | 63.432997 | 3130095.0 |
| 2 | 5-15-17-5 | 5-5-5-8 | 5 | 0.0 | Adagrad | 0.8226939 | 0.8226939 | 55.068325 | 3129945.0 |
| 2 | 17-5-5-15 | 5-5-5-8 | 5 | 0.0 | Adagrad | 0.8231103 | 0.8231103 | 54.112322 | 3130095.0 |
| 2 | 5-15-17-5 | 5-5-5-8 | 5 | 0.0 | RMSprop | 0.8213445 | 0.8213445 | 62.734596 | 3129945.0 |
| 2 | 17-5-5-15 | 5-5-5-8 | 5 | 0.0 | RMSprop | 0.8199480 | 0.8199480 | 64.310754 | 3130095.0 |
| 2 | 5-15-17-5 | 5-5-5-8 | 5 | 0.2 | Adam | 0.8134185 | 0.8134185 | 70.310515 | 3129945.0 |
| 2 | 17-5-5-15 | 5-5-5-8 | 5 | 0.2 | Adam | 0.8252876 | 0.8252876 | 65.329873 | 3130095.0 |
| 2 | 5-15-17-5 | 5-5-5-8 | 5 | 0.2 | Adagrad | 0.8199476 | 0.8199476 | 58.950574 | 3129945.0 |
| 2 | 17-5-5-15 | 5-5-5-8 | 5 | 0.2 | Adagrad | 0.8222838 | 0.8222838 | 61.647918 | 3130095.0 |
| 2 | 5-15-17-5 | 5-5-5-8 | 5 | 0.2 | RMSprop | 0.8150825 | 0.8150825 | 67.938458 | 3129945.0 |
| 2 | 17-5-5-15 | 5-5-5-8 | 5 | 0.2 | RMSprop | 0.8153924 | 0.8153924 | 83.181895 | 3130095.0 |
| 2 | 5-15-17-5 | 5-5-5-8 | 5 | 0.4 | Adam | 0.8099561 | 0.8099561 | 81.782778 | 3129945.0 |
| 2 | 17-5-5-15 | 5-5-5-8 | 5 | 0.4 | Adam | 0.8242973 | 0.8242973 | 75.130073 | 3130095.0 |
| 2 | 5-15-17-5 | 5-5-5-8 | 5 | 0.4 | Adagrad | 0.8096842 | 0.8096842 | 79.700552 | 3129945.0 |
| 2 | 17-5-5-15 | 5-5-5-8 | 5 | 0.4 | Adagrad | 0.8257366 | 0.8257366 | 69.174168 | 3130095.0 |
| 2 | 5-15-17-5 | 5-5-5-8 | 5 | 0.4 | RMSprop | 0.8078929 | 0.8078929 | 97.818568 | 3129945.0 |
| 2 | 17-5-5-15 | 5-5-5-8 | 5 | 0.4 | RMSprop | 0.8217050 | 0.8217050 | 73.893178 | 3130095.0 |
| 2 | 5-15-17-5 | 5-5-5-8 | 6 | 0.0 | Adam | 0.8167677 | 0.8167677 | 73.641827 | 3130309.0 |
| 2 | 17-5-5-15 | 5-5-5-8 | 6 | 0.0 | Adam | 0.8233991 | 0.8233991 | 79.727404 | 3130489.0 |
| 2 | 5-15-17-5 | 5-5-5-8 | 6 | 0.0 | Adagrad | 0.8085129 | 0.8085129 | 70.825071 | 3130309.0 |
| 2 | 17-5-5-15 | 5-5-5-8 | 6 | 0.0 | Adagrad | 0.8203093 | 0.8203093 | 62.880642 | 3130489.0 |
| 2 | 5-15-17-5 | 5-5-5-8 | 6 | 0.0 | RMSprop | 0.8183563 | 0.8183563 | 67.754785 | 3130309.0 |
| 2 | 17-5-5-15 | 5-5-5-8 | 6 | 0.0 | RMSprop | 0.8118638 | 0.8118637 | 81.883845 | 3130489.0 |
| 2 | 5-15-17-5 | 5-5-5-8 | 6 | 0.2 | Adam | 0.8125295 | 0.8125295 | 78.493070 | 3130309.0 |
| 2 | 17-5-5-15 | 5-5-5-8 | 6 | 0.2 | Adam | 0.8233595 | 0.8233595 | 80.207441 | 3130489.0 |
| 2 | 5-15-17-5 | 5-5-5-8 | 6 | 0.2 | Adagrad | 0.8124649 | 0.8124649 | 72.951813 | 3130309.0 |
| 2 | 17-5-5-15 | 5-5-5-8 | 6 | 0.2 | Adagrad | 0.8189628 | 0.8189628 | 68.507106 | 3130489.0 |
| 2 | 5-15-17-5 | 5-5-5-8 | 6 | 0.2 | RMSprop | 0.8188999 | 0.8188999 | 77.798651 | 3130309.0 |
| 2 | 17-5-5-15 | 5-5-5-8 | 6 | 0.2 | RMSprop | 0.8182832 | 0.8182832 | 81.582165 | 3130489.0 |
| 2 | 5-15-17-5 | 5-5-5-8 | 6 | 0.4 | Adam | 0.8089078 | 0.8089078 | 93.606906 | 3130309.0 |
| 2 | 17-5-5-15 | 5-5-5-8 | 6 | 0.4 | Adam | 0.8218062 | 0.8218062 | 85.799664 | 3130489.0 |
| 2 | 5-15-17-5 | 5-5-5-8 | 6 | 0.4 | Adagrad | 0.8099313 | 0.8099313 | 94.589587 | 3130309.0 |
| 2 | 17-5-5-15 | 5-5-5-8 | 6 | 0.4 | Adagrad | 0.8210337 | 0.8210337 | 83.226301 | 3130489.0 |
| 2 | 5-15-17-5 | 5-5-5-8 | 6 | 0.4 | RMSprop | 0.8191152 | 0.8191152 | 83.503920 | 3130309.0 |
| 2 | 17-5-5-15 | 5-5-5-8 | 6 | 0.4 | RMSprop | 0.8158251 | 0.8158251 | 88.626463 | 3130489.0 |
| 2 | 5-15-17-5 | 5-5-5-8 | 7 | 0.0 | Adam | 0.8175742 | 0.8175742 | 85.418170 | 3130673.0 |
| 2 | 17-5-5-15 | 5-5-5-8 | 7 | 0.0 | Adam | 0.8182657 | 0.8182657 | 83.332342 | 3130883.0 |
| 2 | 5-15-17-5 | 5-5-5-8 | 7 | 0.0 | Adagrad | 0.8195281 | 0.8195281 | 73.503977 | 3130673.0 |
| 2 | 17-5-5-15 | 5-5-5-8 | 7 | 0.0 | Adagrad | 0.8133097 | 0.8133097 | 88.252784 | 3130883.0 |
| 2 | 5-15-17-5 | 5-5-5-8 | 7 | 0.0 | RMSprop | 0.8216082 | 0.8216082 | 79.781720 | 3130673.0 |
| 2 | 17-5-5-15 | 5-5-5-8 | 7 | 0.0 | RMSprop | 0.8175072 | 0.8175072 | 84.534988 | 3130883.0 |
| 2 | 5-15-17-5 | 5-5-5-8 | 7 | 0.2 | Adam | 0.8096581 | 0.8096580 | 97.134838 | 3130673.0 |
| 2 | 17-5-5-15 | 5-5-5-8 | 7 | 0.2 | Adam | 0.8171828 | 0.8171828 | 87.243435 | 3130883.0 |
| 2 | 5-15-17-5 | 5-5-5-8 | 7 | 0.2 | Adagrad | 0.7979991 | 0.7979991 | 100.67020 | 3130673.0 |
| 2 | 17-5-5-15 | 5-5-5-8 | 7 | 0.2 | Adagrad | 0.8181135 | 0.8181135 | 77.394364 | 3130883.0 |
| 2 | 5-15-17-5 | 5-5-5-8 | 7 | 0.2 | RMSprop | 0.8073183 | 0.8073183 | 97.170662 | 3130673.0 |
| 2 | 17-5-5-15 | 5-5-5-8 | 7 | 0.2 | RMSprop | 0.8112351 | 0.8112351 | 94.726848 | 3130883.0 |
| 2 | 5-15-17-5 | 5-5-5-8 | 7 | 0.4 | Adam | 0.8069998 | 0.8069998 | 105.19154 | 3130673.0 |
| 2 | 17-5-5-15 | 5-5-5-8 | 7 | 0.4 | Adam | 0.8187231 | 0.8187231 | 93.682964 | 3130883.0 |
| 2 | 5-15-17-5 | 5-5-5-8 | 7 | 0.4 | Adagrad | 0.8121448 | 0.8121448 | 106.76981 | 3130673.0 |
| 2 | 17-5-5-15 | 5-5-5-8 | 7 | 0.4 | Adagrad | 0.8145864 | 0.8145864 | 101.09321 | 3130883.0 |
| 2 | 5-15-17-5 | 5-5-5-8 | 7 | 0.4 | RMSprop | 0.8039331 | 0.8039331 | 102.29058 | 3130673.0 |
| 2 | 17-5-5-15 | 5-5-5-8 | 7 | 0.4 | RMSprop | 0.8045293 | 0.8045293 | 114.92932 | 3130883.0 |
| 2 | 5-15-17-5 | 5-5-5-8 | 8 | 0.0 | Adam | 0.8184792 | 0.8184792 | 92.684297 | 3131037.0 |
| 2 | 17-5-5-15 | 5-5-5-8 | 8 | 0.0 | Adam | 0.8170328 | 0.8170328 | 91.581753 | 3131277.0 |
| 2 | 5-15-17-5 | 5-5-5-8 | 8 | 0.0 | Adagrad | 0.8082620 | 0.8082620 | 87.444867 | 3131037.0 |
| 2 | 17-5-5-15 | 5-5-5-8 | 8 | 0.0 | Adagrad | 0.8195808 | 0.8195808 | 77.405159 | 3131277.0 |
| 2 | 5-15-17-5 | 5-5-5-8 | 8 | 0.0 | RMSprop | 0.8168859 | 0.8168859 | 99.141916 | 3131037.0 |
| 2 | 17-5-5-15 | 5-5-5-8 | 8 | 0.0 | RMSprop | 0.8220856 | 0.8220856 | 90.976690 | 3131277.0 |
| 2 | 5-15-17-5 | 5-5-5-8 | 8 | 0.2 | Adam | 0.8071127 | 0.8071127 | 103.97721 | 3131037.0 |
| 2 | 17-5-5-15 | 5-5-5-8 | 8 | 0.2 | Adam | 0.8166708 | 0.8166708 | 96.930149 | 3131277.0 |
| 2 | 5-15-17-5 | 5-5-5-8 | 8 | 0.2 | Adagrad | 0.8121741 | 0.8121741 | 105.14159 | 3131037.0 |
| 2 | 17-5-5-15 | 5-5-5-8 | 8 | 0.2 | Adagrad | 0.8213922 | 0.8213922 | 79.190870 | 3131277.0 |
| 2 | 5-15-17-5 | 5-5-5-8 | 8 | 0.2 | RMSprop | 0.8074095 | 0.8074095 | 111.27517 | 3131037.0 |
| 2 | 17-5-5-15 | 5-5-5-8 | 8 | 0.2 | RMSprop | 0.8251302 | 0.8251302 | 90.000673 | 3131277.0 |
| 2 | 5-15-17-5 | 5-5-5-8 | 8 | 0.4 | Adam | 0.8072882 | 0.8072882 | 110.39101 | 3131037.0 |
| 2 | 17-5-5-15 | 5-5-5-8 | 8 | 0.4 | Adam | 0.8170039 | 0.8170039 | 108.61468 | 3131277.0 |
| 2 | 5-15-17-5 | 5-5-5-8 | 8 | 0.4 | Adagrad | 0.8129112 | 0.8129112 | 106.28133 | 3131037.0 |
| 2 | 17-5-5-15 | 5-5-5-8 | 8 | 0.4 | Adagrad | 0.8165142 | 0.8165142 | 97.635437 | 3131277.0 |
| 2 | 5-15-17-5 | 5-5-5-8 | 8 | 0.4 | RMSprop | 0.8122406 | 0.8122406 | 113.34891 | 3131037.0 |
| 2 | 17-5-5-15 | 5-5-5-8 | 8 | 0.4 | RMSprop | 0.8116667 | 0.8116667 | 115.58737 | 3131277.0 |
| 2 | 5-15-17-5 | 5-5-5-8 | 9 | 0.0 | Adam | 0.8143074 | 0.8143074 | 107.16357 | 3131401.0 |
| 2 | 17-5-5-15 | 5-5-5-8 | 9 | 0.0 | Adam | 0.8201199 | 0.8201199 | 99.677603 | 3131671.0 |
| 2 | 5-15-17-5 | 5-5-5-8 | 9 | 0.0 | Adagrad | 0.8134799 | 0.8134799 | 87.096061 | 3131401.0 |
| 2 | 17-5-5-15 | 5-5-5-8 | 9 | 0.0 | Adagrad | 0.8127192 | 0.8127192 | 89.617036 | 3131671.0 |
| 2 | 5-15-17-5 | 5-5-5-8 | 9 | 0.0 | RMSprop | 0.8155909 | 0.8155909 | 120.88586 | 3131401.0 |
| 2 | 17-5-5-15 | 5-5-5-8 | 9 | 0.0 | RMSprop | 0.8116363 | 0.8116363 | 100.34059 | 3131671.0 |
| 2 | 5-15-17-5 | 5-5-5-8 | 9 | 0.2 | Adam | 0.8061725 | 0.8061725 | 110.78120 | 3131401.0 |
| 2 | 17-5-5-15 | 5-5-5-8 | 9 | 0.2 | Adam | 0.8109047 | 0.8109047 | 109.97030 | 3131671.0 |
| 2 | 5-15-17-5 | 5-5-5-8 | 9 | 0.2 | Adagrad | 0.8075718 | 0.8075718 | 105.17593 | 3131401.0 |
| 2 | 17-5-5-15 | 5-5-5-8 | 9 | 0.2 | Adagrad | 0.8114906 | 0.8114906 | 94.654476 | 3131671.0 |
| 2 | 5-15-17-5 | 5-5-5-8 | 9 | 0.2 | RMSprop | 0.8048370 | 0.8048370 | 114.15817 | 3131401.0 |
| 2 | 17-5-5-15 | 5-5-5-8 | 9 | 0.2 | RMSprop | 0.8098551 | 0.8098551 | 110.71797 | 3131671.0 |
| 2 | 5-15-17-5 | 5-5-5-8 | 9 | 0.4 | Adam | 0.8047089 | 0.8047089 | 131.64584 | 3131401.0 |
| 2 | 17-5-5-15 | 5-5-5-8 | 9 | 0.4 | Adam | 0.8083449 | 0.8083449 | 113.16269 | 3131671.0 |
| 2 | 5-15-17-5 | 5-5-5-8 | 9 | 0.4 | Adagrad | 0.8057375 | 0.8057375 | 105.95453 | 3131401.0 |
| 2 | 17-5-5-15 | 5-5-5-8 | 9 | 0.4 | Adagrad | 0.8118760 | 0.8118760 | 110.86753 | 3131671.0 |
| 2 | 5-15-17-5 | 5-5-5-8 | 9 | 0.4 | RMSprop | 0.8077882 | 0.8077882 | 131.48613 | 3131401.0 |
| 2 | 17-5-5-15 | 5-5-5-8 | 9 | 0.4 | RMSprop | 0.8161246 | 0.8161245 | 117.33563 | 3131671.0 |
| 2 | 5-15-17-5 | 5-5-5-8 | 10 | 0.0 | Adam | 0.8106895 | 0.8106895 | 124.10846 | 3131765.0 |
| 2 | 17-5-5-15 | 5-5-5-8 | 10 | 0.0 | Adam | 0.8185116 | 0.8185116 | 122.58910 | 3132065.0 |
| 2 | 5-15-17-5 | 5-5-5-8 | 10 | 0.0 | Adagrad | 0.8067817 | 0.8067817 | 109.27867 | 3131765.0 |
| 2 | 17-5-5-15 | 5-5-5-8 | 10 | 0.0 | Adagrad | 0.8154003 | 0.8154003 | 103.19990 | 3132065.0 |
| 2 | 5-15-17-5 | 5-5-5-8 | 10 | 0.0 | RMSprop | 0.8044472 | 0.8044471 | 117.96523 | 3131765.0 |
| 2 | 17-5-5-15 | 5-5-5-8 | 10 | 0.0 | RMSprop | 0.8102335 | 0.8102335 | 123.85829 | 3132065.0 |
| 2 | 5-15-17-5 | 5-5-5-8 | 10 | 0.2 | Adam | 0.8038896 | 0.8038896 | 129.40292 | 3131765.0 |
| 2 | 17-5-5-15 | 5-5-5-8 | 10 | 0.2 | Adam | 0.8115833 | 0.8115833 | 127.15915 | 3132065.0 |
| 2 | 5-15-17-5 | 5-5-5-8 | 10 | 0.2 | Adagrad | 0.8054618 | 0.8054618 | 120.50934 | 3131765.0 |
| 2 | 17-5-5-15 | 5-5-5-8 | 10 | 0.2 | Adagrad | 0.8095192 | 0.8095192 | 117.78553 | 3132065.0 |
| 2 | 5-15-17-5 | 5-5-5-8 | 10 | 0.2 | RMSprop | 0.8057258 | 0.8057258 | 132.09242 | 3131765.0 |
| 2 | 17-5-5-15 | 5-5-5-8 | 10 | 0.2 | RMSprop | 0.8023207 | 0.8023207 | 131.39251 | 3132065.0 |
| 2 | 5-15-17-5 | 5-5-5-8 | 10 | 0.4 | Adam | 0.8055748 | 0.8055748 | 132.25384 | 3131765.0 |
| 2 | 17-5-5-15 | 5-5-5-8 | 10 | 0.4 | Adam | 0.8140050 | 0.8140050 | 136.71014 | 3132065.0 |
| 2 | 5-15-17-5 | 5-5-5-8 | 10 | 0.4 | Adagrad | 0.8040100 | 0.8040100 | 127.00041 | 3131765.0 |
| 2 | 17-5-5-15 | 5-5-5-8 | 10 | 0.4 | Adagrad | 0.8141784 | 0.8141784 | 130.14854 | 3132065.0 |
| 2 | 5-15-17-5 | 5-5-5-8 | 10 | 0.4 | RMSprop | 0.8088745 | 0.8088745 | 132.94093 | 3131765.0 |
| 2 | 17-5-5-15 | 5-5-5-8 | 10 | 0.4 | RMSprop | 0.8175767 | 0.8175767 | 128.01366 | 3132065.0 |
| 3 | 5-15-17-5 | 5-5-5-8 | 1 | 0.0 | Adam | 0.8632171 | 0.8632171 | 32.952305 | 2127628.0 |
| 3 | 17-5-5-15 | 5-5-5-8 | 1 | 0.0 | Adam | 0.8601896 | 0.8601896 | 37.046498 | 2127658.0 |
| 3 | 5-15-17-5 | 5-5-5-8 | 1 | 0.0 | Adagrad | 0.8744005 | 0.8744005 | 22.886237 | 2127628.0 |
| 3 | 17-5-5-15 | 5-5-5-8 | 1 | 0.0 | Adagrad | 0.8526878 | 0.8526878 | 36.199945 | 2127658.0 |
| 3 | 5-15-17-5 | 5-5-5-8 | 1 | 0.0 | RMSprop | 0.8625971 | 0.8625971 | 32.129415 | 2127628.0 |
| 3 | 17-5-5-15 | 5-5-5-8 | 1 | 0.0 | RMSprop | 0.8626473 | 0.8626473 | 44.410112 | 2127658.0 |
| 3 | 5-15-17-5 | 5-5-5-8 | 1 | 0.2 | Adam | 0.8653906 | 0.8653906 | 35.539935 | 2127628.0 |
| 3 | 17-5-5-15 | 5-5-5-8 | 1 | 0.2 | Adam | 0.8739289 | 0.8739289 | 36.660056 | 2127658.0 |
| 3 | 5-15-17-5 | 5-5-5-8 | 1 | 0.2 | Adagrad | 0.8706513 | 0.8706513 | 26.056677 | 2127628.0 |
| 3 | 17-5-5-15 | 5-5-5-8 | 1 | 0.2 | Adagrad | 0.8651893 | 0.8651893 | 29.569399 | 2127658.0 |
| 3 | 5-15-17-5 | 5-5-5-8 | 1 | 0.2 | RMSprop | 0.8604169 | 0.8604169 | 32.826830 | 2127628.0 |
| 3 | 17-5-5-15 | 5-5-5-8 | 1 | 0.2 | RMSprop | 0.8840671 | 0.8840671 | 33.830417 | 2127658.0 |
| 3 | 5-15-17-5 | 5-5-5-8 | 1 | 0.4 | Adam | 0.8670480 | 0.8670480 | 34.538679 | 2127628.0 |
| 3 | 17-5-5-15 | 5-5-5-8 | 1 | 0.4 | Adam | 0.8969776 | 0.8969776 | 28.544586 | 2127658.0 |
| 3 | 5-15-17-5 | 5-5-5-8 | 1 | 0.4 | Adagrad | 0.8696794 | 0.8696794 | 29.985646 | 2127628.0 |
| 3 | 17-5-5-15 | 5-5-5-8 | 1 | 0.4 | Adagrad | 0.8677545 | 0.8677545 | 25.926790 | 2127658.0 |
| 3 | 5-15-17-5 | 5-5-5-8 | 1 | 0.4 | RMSprop | 0.8899492 | 0.8899492 | 35.707505 | 2127628.0 |
| 3 | 17-5-5-15 | 5-5-5-8 | 1 | 0.4 | RMSprop | 0.8606931 | 0.8606931 | 42.594387 | 2127658.0 |
| 3 | 5-15-17-5 | 5-5-5-8 | 2 | 0.0 | Adam | 0.8320022 | 0.8320022 | 47.742574 | 2128131.0 |
| 3 | 17-5-5-15 | 5-5-5-8 | 2 | 0.0 | Adam | 0.8319766 | 0.8319766 | 46.194755 | 2128191.0 |
| 3 | 5-15-17-5 | 5-5-5-8 | 2 | 0.0 | Adagrad | 0.8296303 | 0.8296303 | 37.953018 | 2128131.0 |
| 3 | 17-5-5-15 | 5-5-5-8 | 2 | 0.0 | Adagrad | 0.8348337 | 0.8348337 | 40.194902 | 2128191.0 |
| 3 | 5-15-17-5 | 5-5-5-8 | 2 | 0.0 | RMSprop | 0.8341067 | 0.8341067 | 46.637981 | 2128131.0 |
| 3 | 17-5-5-15 | 5-5-5-8 | 2 | 0.0 | RMSprop | 0.8350019 | 0.8350019 | 50.913669 | 2128191.0 |
| 3 | 5-15-17-5 | 5-5-5-8 | 2 | 0.2 | Adam | 0.8249120 | 0.8249120 | 51.396962 | 2128131.0 |
| 3 | 17-5-5-15 | 5-5-5-8 | 2 | 0.2 | Adam | 0.8243794 | 0.8243794 | 52.267236 | 2128191.0 |
| 3 | 5-15-17-5 | 5-5-5-8 | 2 | 0.2 | Adagrad | 0.8303641 | 0.8303641 | 48.060060 | 2128131.0 |
| 3 | 17-5-5-15 | 5-5-5-8 | 2 | 0.2 | Adagrad | 0.8399219 | 0.8399219 | 45.378590 | 2128191.0 |
| 3 | 5-15-17-5 | 5-5-5-8 | 2 | 0.2 | RMSprop | 0.8258010 | 0.8258010 | 60.716879 | 2128131.0 |
| 3 | 17-5-5-15 | 5-5-5-8 | 2 | 0.2 | RMSprop | 0.8363326 | 0.8363326 | 53.627203 | 2128191.0 |
| 3 | 5-15-17-5 | 5-5-5-8 | 2 | 0.4 | Adam | 0.8299048 | 0.8299048 | 57.649663 | 2128131.0 |
| 3 | 17-5-5-15 | 5-5-5-8 | 2 | 0.4 | Adam | 0.8456641 | 0.8456641 | 50.344902 | 2128191.0 |
| 3 | 5-15-17-5 | 5-5-5-8 | 2 | 0.4 | Adagrad | 0.8507030 | 0.8507030 | 39.187719 | 2128131.0 |
| 3 | 17-5-5-15 | 5-5-5-8 | 2 | 0.4 | Adagrad | 0.8533602 | 0.8533602 | 40.868687 | 2128191.0 |
| 3 | 5-15-17-5 | 5-5-5-8 | 2 | 0.4 | RMSprop | 0.8346083 | 0.8346083 | 54.465837 | 2128131.0 |
| 3 | 17-5-5-15 | 5-5-5-8 | 2 | 0.4 | RMSprop | 0.8444903 | 0.8444903 | 58.586103 | 2128191.0 |
| 3 | 5-15-17-5 | 5-5-5-8 | 3 | 0.0 | Adam | 0.8232366 | 0.8232366 | 59.332632 | 2128634.0 |
| 3 | 17-5-5-15 | 5-5-5-8 | 3 | 0.0 | Adam | 0.8254235 | 0.8254235 | 64.984696 | 2128724.0 |
| 3 | 5-15-17-5 | 5-5-5-8 | 3 | 0.0 | Adagrad | 0.8201848 | 0.8201848 | 50.831497 | 2128634.0 |
| 3 | 17-5-5-15 | 5-5-5-8 | 3 | 0.0 | Adagrad | 0.8264617 | 0.8264617 | 50.179021 | 2128724.0 |
| 3 | 5-15-17-5 | 5-5-5-8 | 3 | 0.0 | RMSprop | 0.8235102 | 0.8235102 | 65.627047 | 2128634.0 |
| 3 | 17-5-5-15 | 5-5-5-8 | 3 | 0.0 | RMSprop | 0.8214787 | 0.8214787 | 59.938118 | 2128724.0 |
| 3 | 5-15-17-5 | 5-5-5-8 | 3 | 0.2 | Adam | 0.8211466 | 0.8211466 | 72.833161 | 2128634.0 |
| 3 | 17-5-5-15 | 5-5-5-8 | 3 | 0.2 | Adam | 0.8211435 | 0.8211435 | 69.705675 | 2128724.0 |
| 3 | 5-15-17-5 | 5-5-5-8 | 3 | 0.2 | Adagrad | 0.8210537 | 0.8210537 | 55.655519 | 2128634.0 |
| 3 | 17-5-5-15 | 5-5-5-8 | 3 | 0.2 | Adagrad | 0.8262423 | 0.8262423 | 59.887060 | 2128724.0 |
| 3 | 5-15-17-5 | 5-5-5-8 | 3 | 0.2 | RMSprop | 0.8224717 | 0.8224717 | 71.862454 | 2128634.0 |
| 3 | 17-5-5-15 | 5-5-5-8 | 3 | 0.2 | RMSprop | 0.8220413 | 0.8220413 | 75.155448 | 2128724.0 |
| 3 | 5-15-17-5 | 5-5-5-8 | 3 | 0.4 | Adam | 0.8298309 | 0.8298309 | 66.749060 | 2128634.0 |
| 3 | 17-5-5-15 | 5-5-5-8 | 3 | 0.4 | Adam | 0.8270921 | 0.8270921 | 79.218791 | 2128724.0 |
| 3 | 5-15-17-5 | 5-5-5-8 | 3 | 0.4 | Adagrad | 0.8353531 | 0.8353531 | 60.933920 | 2128634.0 |
| 3 | 17-5-5-15 | 5-5-5-8 | 3 | 0.4 | Adagrad | 0.8347341 | 0.8347341 | 69.261689 | 2128724.0 |
| 3 | 5-15-17-5 | 5-5-5-8 | 3 | 0.4 | RMSprop | 0.8234837 | 0.8234837 | 78.534419 | 2128634.0 |
| 3 | 17-5-5-15 | 5-5-5-8 | 3 | 0.4 | RMSprop | 0.8367251 | 0.8367251 | 69.156352 | 2128724.0 |
| 3 | 5-15-17-5 | 5-5-5-8 | 4 | 0.0 | Adam | 0.8193298 | 0.8193298 | 118.78855 | 2129137.0 |
| 3 | 17-5-5-15 | 5-5-5-8 | 4 | 0.0 | Adam | 0.8138876 | 0.8138876 | 123.31691 | 2129257.0 |
| 3 | 5-15-17-5 | 5-5-5-8 | 4 | 0.0 | Adagrad | 0.8216244 | 0.8216244 | 94.541981 | 2129137.0 |
| 3 | 17-5-5-15 | 5-5-5-8 | 4 | 0.0 | Adagrad | 0.8228692 | 0.8228692 | 97.470617 | 2129257.0 |
| 3 | 5-15-17-5 | 5-5-5-8 | 4 | 0.0 | RMSprop | 0.8134081 | 0.8134081 | 129.33059 | 2129137.0 |
| 3 | 17-5-5-15 | 5-5-5-8 | 4 | 0.0 | RMSprop | 0.8140425 | 0.8140425 | 130.32669 | 2129257.0 |
| 3 | 5-15-17-5 | 5-5-5-8 | 4 | 0.2 | Adam | 0.8136554 | 0.8136554 | 131.03236 | 2129137.0 |
| 3 | 17-5-5-15 | 5-5-5-8 | 4 | 0.2 | Adam | 0.8224788 | 0.8224788 | 124.82198 | 2129257.0 |
| 3 | 5-15-17-5 | 5-5-5-8 | 4 | 0.2 | Adagrad | 0.8144392 | 0.8144392 | 131.44207 | 2129137.0 |
| 3 | 17-5-5-15 | 5-5-5-8 | 4 | 0.2 | Adagrad | 0.8243306 | 0.8243306 | 109.73439 | 2129257.0 |
| 3 | 5-15-17-5 | 5-5-5-8 | 4 | 0.2 | RMSprop | 0.8168289 | 0.8168289 | 146.40664 | 2129137.0 |
| 3 | 17-5-5-15 | 5-5-5-8 | 4 | 0.2 | RMSprop | 0.8173263 | 0.8173263 | 156.57127 | 2129257.0 |
| 3 | 5-15-17-5 | 5-5-5-8 | 4 | 0.4 | Adam | 0.8184499 | 0.8184499 | 160.42840 | 2129137.0 |
| 3 | 17-5-5-15 | 5-5-5-8 | 4 | 0.4 | Adam | 0.8274642 | 0.8274642 | 138.20524 | 2129257.0 |
| 3 | 5-15-17-5 | 5-5-5-8 | 4 | 0.4 | Adagrad | 0.8260299 | 0.8260299 | 129.68094 | 2129137.0 |
| 3 | 17-5-5-15 | 5-5-5-8 | 4 | 0.4 | Adagrad | 0.8351944 | 0.8351944 | 113.83823 | 2129257.0 |
| 3 | 5-15-17-5 | 5-5-5-8 | 4 | 0.4 | RMSprop | 0.8211426 | 0.8211426 | 154.98433 | 2129137.0 |
| 3 | 17-5-5-15 | 5-5-5-8 | 4 | 0.4 | RMSprop | 0.8302950 | 0.8302950 | 144.54932 | 2129257.0 |
| 3 | 5-15-17-5 | 5-5-5-8 | 5 | 0.0 | Adam | 0.8190160 | 0.8190159 | 141.02002 | 2129640.0 |
| 3 | 17-5-5-15 | 5-5-5-8 | 5 | 0.0 | Adam | 0.8178879 | 0.8178879 | 135.20121 | 2129790.0 |
| 3 | 5-15-17-5 | 5-5-5-8 | 5 | 0.0 | Adagrad | 0.8118947 | 0.8118947 | 128.69929 | 2129640.0 |
| 3 | 17-5-5-15 | 5-5-5-8 | 5 | 0.0 | Adagrad | 0.8142614 | 0.8142614 | 132.05158 | 2129790.0 |
| 3 | 5-15-17-5 | 5-5-5-8 | 5 | 0.0 | RMSprop | 0.8138495 | 0.8138495 | 140.89064 | 2129640.0 |
| 3 | 17-5-5-15 | 5-5-5-8 | 5 | 0.0 | RMSprop | 0.8144950 | 0.8144950 | 159.48856 | 2129790.0 |
| 3 | 5-15-17-5 | 5-5-5-8 | 5 | 0.2 | Adam | 0.8135093 | 0.8135093 | 163.45558 | 2129640.0 |
| 3 | 17-5-5-15 | 5-5-5-8 | 5 | 0.2 | Adam | 0.8096340 | 0.8096340 | 171.12285 | 2129790.0 |
| 3 | 5-15-17-5 | 5-5-5-8 | 5 | 0.2 | Adagrad | 0.8146674 | 0.8146674 | 137.75798 | 2129640.0 |
| 3 | 17-5-5-15 | 5-5-5-8 | 5 | 0.2 | Adagrad | 0.8265429 | 0.8265430 | 126.34407 | 2129790.0 |
| 3 | 5-15-17-5 | 5-5-5-8 | 5 | 0.2 | RMSprop | 0.8181757 | 0.8181757 | 162.17567 | 2129640.0 |
| 3 | 17-5-5-15 | 5-5-5-8 | 5 | 0.2 | RMSprop | 0.8230579 | 0.8230579 | 168.02832 | 2129790.0 |
| 3 | 5-15-17-5 | 5-5-5-8 | 5 | 0.4 | Adam | 0.8188002 | 0.8188002 | 173.35225 | 2129640.0 |
| 3 | 17-5-5-15 | 5-5-5-8 | 5 | 0.4 | Adam | 0.8135427 | 0.8135427 | 197.65496 | 2129790.0 |
| 3 | 5-15-17-5 | 5-5-5-8 | 5 | 0.4 | Adagrad | 0.8238405 | 0.8238405 | 151.41077 | 2129640.0 |
| 3 | 17-5-5-15 | 5-5-5-8 | 5 | 0.4 | Adagrad | 0.8226095 | 0.8226095 | 159.53962 | 2129790.0 |
| 3 | 5-15-17-5 | 5-5-5-8 | 5 | 0.4 | RMSprop | 0.8271676 | 0.8271676 | 170.36473 | 2129640.0 |
| 3 | 17-5-5-15 | 5-5-5-8 | 5 | 0.4 | RMSprop | 0.8302804 | 0.8302804 | 159.93461 | 2129790.0 |
| 3 | 5-15-17-5 | 5-5-5-8 | 6 | 0.0 | Adam | 0.8123692 | 0.8123692 | 156.89928 | 2130143.0 |
| 3 | 17-5-5-15 | 5-5-5-8 | 6 | 0.0 | Adam | 0.8170487 | 0.8170487 | 161.83432 | 2130323.0 |
| 3 | 5-15-17-5 | 5-5-5-8 | 6 | 0.0 | Adagrad | 0.8035594 | 0.8035594 | 153.84935 | 2130143.0 |
| 3 | 17-5-5-15 | 5-5-5-8 | 6 | 0.0 | Adagrad | 0.8137698 | 0.8137698 | 138.27794 | 2130323.0 |
| 3 | 5-15-17-5 | 5-5-5-8 | 6 | 0.0 | RMSprop | 0.8098491 | 0.8098491 | 190.66252 | 2130143.0 |
| 3 | 17-5-5-15 | 5-5-5-8 | 6 | 0.0 | RMSprop | 0.8152096 | 0.8152096 | 158.84664 | 2130323.0 |
| 3 | 5-15-17-5 | 5-5-5-8 | 6 | 0.2 | Adam | 0.8109031 | 0.8109031 | 188.28101 | 2130143.0 |
| 3 | 17-5-5-15 | 5-5-5-8 | 6 | 0.2 | Adam | 0.8140099 | 0.8140099 | 169.91755 | 2130323.0 |
| 3 | 5-15-17-5 | 5-5-5-8 | 6 | 0.2 | Adagrad | 0.8115937 | 0.8115937 | 152.56008 | 2130143.0 |
| 3 | 17-5-5-15 | 5-5-5-8 | 6 | 0.2 | Adagrad | 0.8140115 | 0.8140115 | 157.72953 | 2130323.0 |
| 3 | 5-15-17-5 | 5-5-5-8 | 6 | 0.2 | RMSprop | 0.8157864 | 0.8157864 | 198.16670 | 2130143.0 |
| 3 | 17-5-5-15 | 5-5-5-8 | 6 | 0.2 | RMSprop | 0.8159305 | 0.8159305 | 185.36023 | 2130323.0 |
| 3 | 5-15-17-5 | 5-5-5-8 | 6 | 0.4 | Adam | 0.8207024 | 0.8207024 | 182.36187 | 2130143.0 |
| 3 | 17-5-5-15 | 5-5-5-8 | 6 | 0.4 | Adam | 0.8265152 | 0.8265152 | 175.04723 | 2130323.0 |
| 3 | 5-15-17-5 | 5-5-5-8 | 6 | 0.4 | Adagrad | 0.8223524 | 0.8223524 | 162.59903 | 2130143.0 |
| 3 | 17-5-5-15 | 5-5-5-8 | 6 | 0.4 | Adagrad | 0.8331708 | 0.8331708 | 157.11245 | 2130323.0 |
| 3 | 5-15-17-5 | 5-5-5-8 | 6 | 0.4 | RMSprop | 0.8250852 | 0.8250852 | 189.81170 | 2130143.0 |
| 3 | 17-5-5-15 | 5-5-5-8 | 6 | 0.4 | RMSprop | 0.8141902 | 0.8141902 | 209.27592 | 2130323.0 |
| 3 | 5-15-17-5 | 5-5-5-8 | 7 | 0.0 | Adam | 0.8038547 | 0.8038547 | 209.83896 | 2130646.0 |
| 3 | 17-5-5-15 | 5-5-5-8 | 7 | 0.0 | Adam | 0.8063502 | 0.8063502 | 179.25864 | 2130856.0 |
| 3 | 5-15-17-5 | 5-5-5-8 | 7 | 0.0 | Adagrad | 0.8018612 | 0.8018612 | 183.08751 | 2130646.0 |
| 3 | 17-5-5-15 | 5-5-5-8 | 7 | 0.0 | Adagrad | 0.8084425 | 0.8084425 | 161.75419 | 2130856.0 |
| 3 | 5-15-17-5 | 5-5-5-8 | 7 | 0.0 | RMSprop | 0.8052901 | 0.8052901 | 203.06904 | 2130646.0 |
| 3 | 17-5-5-15 | 5-5-5-8 | 7 | 0.0 | RMSprop | 0.8130157 | 0.8130156 | 197.57290 | 2130856.0 |
| 3 | 5-15-17-5 | 5-5-5-8 | 7 | 0.2 | Adam | 0.8074026 | 0.8074026 | 224.36196 | 2130646.0 |
| 3 | 17-5-5-15 | 5-5-5-8 | 7 | 0.2 | Adam | 0.8175994 | 0.8175994 | 193.11930 | 2130856.0 |
| 3 | 5-15-17-5 | 5-5-5-8 | 7 | 0.2 | Adagrad | 0.8127348 | 0.8127348 | 181.69777 | 2130646.0 |
| 3 | 17-5-5-15 | 5-5-5-8 | 7 | 0.2 | Adagrad | 0.8172850 | 0.8172850 | 179.27157 | 2130856.0 |
| 3 | 5-15-17-5 | 5-5-5-8 | 7 | 0.2 | RMSprop | 0.8059638 | 0.8059638 | 236.61745 | 2130646.0 |
| 3 | 17-5-5-15 | 5-5-5-8 | 7 | 0.2 | RMSprop | 0.8204078 | 0.8204078 | 205.49462 | 2130856.0 |
| 3 | 5-15-17-5 | 5-5-5-8 | 7 | 0.4 | Adam | 0.8123549 | 0.8123549 | 230.19029 | 2130646.0 |
| 3 | 17-5-5-15 | 5-5-5-8 | 7 | 0.4 | Adam | 0.8325734 | 0.8325734 | 179.46096 | 2130856.0 |
| 3 | 5-15-17-5 | 5-5-5-8 | 7 | 0.4 | Adagrad | 0.8220620 | 0.8220620 | 189.55316 | 2130646.0 |
| 3 | 17-5-5-15 | 5-5-5-8 | 7 | 0.4 | Adagrad | 0.8306266 | 0.8306266 | 168.02533 | 2130856.0 |
| 3 | 5-15-17-5 | 5-5-5-8 | 7 | 0.4 | RMSprop | 0.8199833 | 0.8199833 | 257.34287 | 2130646.0 |
| 3 | 17-5-5-15 | 5-5-5-8 | 7 | 0.4 | RMSprop | 0.8260276 | 0.8260276 | 224.23976 | 2130856.0 |
| 3 | 5-15-17-5 | 5-5-5-8 | 8 | 0.0 | Adam | 0.8080542 | 0.8080542 | 213.55287 | 2131149.0 |
| 3 | 17-5-5-15 | 5-5-5-8 | 8 | 0.0 | Adam | 0.8090841 | 0.8090841 | 224.01320 | 2131389.0 |
| 3 | 5-15-17-5 | 5-5-5-8 | 8 | 0.0 | Adagrad | 0.8004178 | 0.8004178 | 209.66254 | 2131149.0 |
| 3 | 17-5-5-15 | 5-5-5-8 | 8 | 0.0 | Adagrad | 0.8095032 | 0.8095032 | 211.07666 | 2131389.0 |
| 3 | 5-15-17-5 | 5-5-5-8 | 8 | 0.0 | RMSprop | 0.8016070 | 0.8016070 | 253.97655 | 2131149.0 |
| 3 | 17-5-5-15 | 5-5-5-8 | 8 | 0.0 | RMSprop | 0.8095589 | 0.8095589 | 238.41155 | 2131389.0 |
| 3 | 5-15-17-5 | 5-5-5-8 | 8 | 0.2 | Adam | 0.8075646 | 0.8075646 | 249.77020 | 2131149.0 |
| 3 | 17-5-5-15 | 5-5-5-8 | 8 | 0.2 | Adam | 0.8137767 | 0.8137767 | 229.71148 | 2131389.0 |
| 3 | 5-15-17-5 | 5-5-5-8 | 8 | 0.2 | Adagrad | 0.8148493 | 0.8148493 | 219.14159 | 2131149.0 |
| 3 | 17-5-5-15 | 5-5-5-8 | 8 | 0.2 | Adagrad | 0.8139105 | 0.8139105 | 205.50517 | 2131389.0 |
| 3 | 5-15-17-5 | 5-5-5-8 | 8 | 0.2 | RMSprop | 0.8180726 | 0.8180726 | 239.85652 | 2131149.0 |
| 3 | 17-5-5-15 | 5-5-5-8 | 8 | 0.2 | RMSprop | 0.8130666 | 0.8130666 | 236.62345 | 2131389.0 |
| 3 | 5-15-17-5 | 5-5-5-8 | 8 | 0.4 | Adam | 0.8172032 | 0.8172032 | 246.87377 | 2131149.0 |
| 3 | 17-5-5-15 | 5-5-5-8 | 8 | 0.4 | Adam | 0.8294687 | 0.8294687 | 228.06522 | 2131389.0 |
| 3 | 5-15-17-5 | 5-5-5-8 | 8 | 0.4 | Adagrad | 0.8254136 | 0.8254136 | 224.01046 | 2131149.0 |
| 3 | 17-5-5-15 | 5-5-5-8 | 8 | 0.4 | Adagrad | 0.8259871 | 0.8259871 | 216.63327 | 2131389.0 |
| 3 | 5-15-17-5 | 5-5-5-8 | 8 | 0.4 | RMSprop | 0.8188673 | 0.8188673 | 264.88804 | 2131149.0 |
| 3 | 17-5-5-15 | 5-5-5-8 | 8 | 0.4 | RMSprop | 0.8306071 | 0.8306071 | 241.73090 | 2131389.0 |
| 3 | 5-15-17-5 | 5-5-5-8 | 9 | 0.0 | Adam | 0.8092834 | 0.8092834 | 240.20920 | 2131652.0 |
| 3 | 17-5-5-15 | 5-5-5-8 | 9 | 0.0 | Adam | 0.8109479 | 0.8109479 | 245.14133 | 2131922.0 |
| 3 | 5-15-17-5 | 5-5-5-8 | 9 | 0.0 | Adagrad | 0.8055935 | 0.8055935 | 204.94493 | 2131652.0 |
| 3 | 17-5-5-15 | 5-5-5-8 | 9 | 0.0 | Adagrad | 0.8049896 | 0.8049896 | 209.77182 | 2131922.0 |
| 3 | 5-15-17-5 | 5-5-5-8 | 9 | 0.0 | RMSprop | 0.8069745 | 0.8069745 | 255.14720 | 2131652.0 |
| 3 | 17-5-5-15 | 5-5-5-8 | 9 | 0.0 | RMSprop | 0.8131255 | 0.8131255 | 252.42076 | 2131922.0 |
| 3 | 5-15-17-5 | 5-5-5-8 | 9 | 0.2 | Adam | 0.8023320 | 0.8023320 | 278.82736 | 2131652.0 |
| 3 | 17-5-5-15 | 5-5-5-8 | 9 | 0.2 | Adam | 0.8135178 | 0.8135178 | 252.99113 | 2131922.0 |
| 3 | 5-15-17-5 | 5-5-5-8 | 9 | 0.2 | Adagrad | 0.8177759 | 0.8177759 | 209.32683 | 2131652.0 |
| 3 | 17-5-5-15 | 5-5-5-8 | 9 | 0.2 | Adagrad | 0.8166552 | 0.8166552 | 249.14823 | 2131922.0 |
| 3 | 5-15-17-5 | 5-5-5-8 | 9 | 0.2 | RMSprop | 0.8030018 | 0.8030018 | 294.17181 | 2131652.0 |
| 3 | 17-5-5-15 | 5-5-5-8 | 9 | 0.2 | RMSprop | 0.8108437 | 0.8108437 | 307.44806 | 2131922.0 |
| 3 | 5-15-17-5 | 5-5-5-8 | 9 | 0.4 | Adam | 0.8169965 | 0.8169965 | 264.83980 | 2131652.0 |
| 3 | 17-5-5-15 | 5-5-5-8 | 9 | 0.4 | Adam | 0.8189767 | 0.8189767 | 253.74415 | 2131922.0 |
| 3 | 5-15-17-5 | 5-5-5-8 | 9 | 0.4 | Adagrad | 0.8240533 | 0.8240533 | 225.04812 | 2131652.0 |
| 3 | 17-5-5-15 | 5-5-5-8 | 9 | 0.4 | Adagrad | 0.8347163 | 0.8347163 | 197.69304 | 2131922.0 |
| 3 | 5-15-17-5 | 5-5-5-8 | 9 | 0.4 | RMSprop | 0.8231160 | 0.8231160 | 275.16177 | 2131652.0 |
| 3 | 17-5-5-15 | 5-5-5-8 | 9 | 0.4 | RMSprop | 0.8215931 | 0.8215931 | 299.90600 | 2131922.0 |
| 3 | 5-15-17-5 | 5-5-5-8 | 10 | 0.0 | Adam | 0.8037111 | 0.8037111 | 276.24957 | 2132155.0 |
| 3 | 17-5-5-15 | 5-5-5-8 | 10 | 0.0 | Adam | 0.8112895 | 0.8112895 | 244.14788 | 2132455.0 |
| 3 | 5-15-17-5 | 5-5-5-8 | 10 | 0.0 | Adagrad | 0.8079313 | 0.8079313 | 241.83496 | 2132155.0 |
| 3 | 17-5-5-15 | 5-5-5-8 | 10 | 0.0 | Adagrad | 0.8089929 | 0.8089929 | 222.99496 | 2132455.0 |
| 3 | 5-15-17-5 | 5-5-5-8 | 10 | 0.0 | RMSprop | 0.7998092 | 0.7998092 | 296.36925 | 2132155.0 |
| 3 | 17-5-5-15 | 5-5-5-8 | 10 | 0.0 | RMSprop | 0.8047796 | 0.8047796 | 296.61066 | 2132455.0 |
| 3 | 5-15-17-5 | 5-5-5-8 | 10 | 0.2 | Adam | 0.8016544 | 0.8016544 | 318.27559 | 2132155.0 |
| 3 | 17-5-5-15 | 5-5-5-8 | 10 | 0.2 | Adam | 0.8176239 | 0.8176239 | 250.90873 | 2132455.0 |
| 3 | 5-15-17-5 | 5-5-5-8 | 10 | 0.2 | Adagrad | 0.8154069 | 0.8154069 | 227.05660 | 2132155.0 |
| 3 | 17-5-5-15 | 5-5-5-8 | 10 | 0.2 | Adagrad | 0.8129190 | 0.8129190 | 280.56716 | 2132455.0 |
| 3 | 5-15-17-5 | 5-5-5-8 | 10 | 0.2 | RMSprop | 0.8056130 | 0.8056130 | 348.40217 | 2132155.0 |
| 3 | 17-5-5-15 | 5-5-5-8 | 10 | 0.2 | RMSprop | 0.8225832 | 0.8225832 | 260.58329 | 2132455.0 |
| 3 | 5-15-17-5 | 5-5-5-8 | 10 | 0.4 | Adam | 0.8167827 | 0.8167827 | 291.49414 | 2132155.0 |
| 3 | 17-5-5-15 | 5-5-5-8 | 10 | 0.4 | Adam | 0.8085810 | 0.8085810 | 326.52549 | 2132455.0 |
| 3 | 5-15-17-5 | 5-5-5-8 | 10 | 0.4 | Adagrad | 0.8228339 | 0.8228339 | 273.37959 | 2132155.0 |
| 3 | 17-5-5-15 | 5-5-5-8 | 10 | 0.4 | Adagrad | 0.8221677 | 0.8221677 | 276.60422 | 2132455.0 |
| 3 | 5-15-17-5 | 5-5-5-8 | 10 | 0.4 | RMSprop | 0.8243908 | 0.8243908 | 267.97170 | 2132155.0 |
| 3 | 17-5-5-15 | 5-5-5-8 | 10 | 0.4 | RMSprop | 0.8258100 | 0.8258099 | 301.79913 | 2132455.0 |
| 4 | 0-0-0-0 | 5-5-5-8 | 1 | 0.0 | Adam | 0.8250797 | 0.8250797 | 60.771163 | 9504264.0 |
| 4 | 0-0-0-0 | 5-5-5-8 | 1 | 0.0 | Adagrad | 0.8515020 | 0.8515020 | 67.867350 | 9504264.0 |
| 4 | 0-0-0-0 | 5-5-5-8 | 1 | 0.0 | RMSprop | 0.8294803 | 0.8294803 | 55.441401 | 9504264.0 |
| 4 | 0-0-0-0 | 5-5-5-8 | 1 | 0.2 | Adam | 0.8237756 | 0.8237756 | 64.034651 | 9504264.0 |
| 4 | 0-0-0-0 | 5-5-5-8 | 1 | 0.2 | Adagrad | 0.8265892 | 0.8265891 | 81.051064 | 9504264.0 |
| 4 | 0-0-0-0 | 5-5-5-8 | 1 | 0.2 | RMSprop | 0.8252593 | 0.8252593 | 61.058303 | 9504264.0 |
| 4 | 0-0-0-0 | 5-5-5-8 | 1 | 0.4 | Adam | 0.8261328 | 0.8261328 | 65.587538 | 9504264.0 |
| 4 | 0-0-0-0 | 5-5-5-8 | 1 | 0.4 | Adagrad | 0.8455727 | 0.8455727 | 79.765796 | 9504264.0 |
| 4 | 0-0-0-0 | 5-5-5-8 | 1 | 0.4 | RMSprop | 0.8262950 | 0.8262950 | 67.665112 | 9504264.0 |
| 4 | 0-0-0-0 | 5-5-5-8 | 2 | 0.0 | Adam | 0.8307047 | 0.8307047 | 48.754089 | 9504403.0 |
| 4 | 0-0-0-0 | 5-5-5-8 | 2 | 0.0 | Adagrad | 0.8271106 | 0.8271106 | 53.770790 | 9504403.0 |
| 4 | 0-0-0-0 | 5-5-5-8 | 2 | 0.0 | RMSprop | 0.8354498 | 0.8354498 | 50.899712 | 9504403.0 |
| 4 | 0-0-0-0 | 5-5-5-8 | 2 | 0.2 | Adam | 0.8187539 | 0.8187539 | 56.744827 | 9504403.0 |
| 4 | 0-0-0-0 | 5-5-5-8 | 2 | 0.2 | Adagrad | 0.8164309 | 0.8164309 | 64.131917 | 9504403.0 |
| 4 | 0-0-0-0 | 5-5-5-8 | 2 | 0.2 | RMSprop | 0.8215208 | 0.8215208 | 54.685868 | 9504403.0 |
| 4 | 0-0-0-0 | 5-5-5-8 | 2 | 0.4 | Adam | 0.8101605 | 0.8101606 | 71.646959 | 9504403.0 |
| 4 | 0-0-0-0 | 5-5-5-8 | 2 | 0.4 | Adagrad | 0.8272380 | 0.8272380 | 63.781240 | 9504403.0 |
| 4 | 0-0-0-0 | 5-5-5-8 | 2 | 0.4 | RMSprop | 0.8178133 | 0.8178133 | 62.874548 | 9504403.0 |
| 4 | 0-0-0-0 | 5-5-5-8 | 3 | 0.0 | Adam | 0.8179778 | 0.8179778 | 59.033044 | 9504542.0 |
| 4 | 0-0-0-0 | 5-5-5-8 | 3 | 0.0 | Adagrad | 0.8134390 | 0.8134390 | 55.978572 | 9504542.0 |
| 4 | 0-0-0-0 | 5-5-5-8 | 3 | 0.0 | RMSprop | 0.8282859 | 0.8282859 | 50.108469 | 9504542.0 |
| 4 | 0-0-0-0 | 5-5-5-8 | 3 | 0.2 | Adam | 0.8187925 | 0.8187925 | 57.642399 | 9504542.0 |
| 4 | 0-0-0-0 | 5-5-5-8 | 3 | 0.2 | Adagrad | 0.8076031 | 0.8076031 | 71.781798 | 9504542.0 |
| 4 | 0-0-0-0 | 5-5-5-8 | 3 | 0.2 | RMSprop | 0.8217205 | 0.8217205 | 60.755794 | 9504542.0 |
| 4 | 0-0-0-0 | 5-5-5-8 | 3 | 0.4 | Adam | 0.8101423 | 0.8101423 | 72.436169 | 9504542.0 |
| 4 | 0-0-0-0 | 5-5-5-8 | 3 | 0.4 | Adagrad | 0.8181074 | 0.8181074 | 74.179065 | 9504542.0 |
| 4 | 0-0-0-0 | 5-5-5-8 | 3 | 0.4 | RMSprop | 0.8103784 | 0.8103784 | 65.766652 | 9504542.0 |
| 4 | 0-0-0-0 | 5-5-5-8 | 4 | 0.0 | Adam | 0.8237696 | 0.8237696 | 50.407900 | 9504681.0 |
| 4 | 0-0-0-0 | 5-5-5-8 | 4 | 0.0 | Adagrad | 0.8196448 | 0.8196448 | 55.120247 | 9504681.0 |
| 4 | 0-0-0-0 | 5-5-5-8 | 4 | 0.0 | RMSprop | 0.8194676 | 0.8194676 | 55.123589 | 9504681.0 |
| 4 | 0-0-0-0 | 5-5-5-8 | 4 | 0.2 | Adam | 0.8143478 | 0.8143478 | 57.757623 | 9504681.0 |
| 4 | 0-0-0-0 | 5-5-5-8 | 4 | 0.2 | Adagrad | 0.8073584 | 0.8073584 | 70.508821 | 9504681.0 |
| 4 | 0-0-0-0 | 5-5-5-8 | 4 | 0.2 | RMSprop | 0.8197796 | 0.8197796 | 53.298707 | 9504681.0 |
| 4 | 0-0-0-0 | 5-5-5-8 | 4 | 0.4 | Adam | 0.8062079 | 0.8062079 | 73.218744 | 9504681.0 |
| 4 | 0-0-0-0 | 5-5-5-8 | 4 | 0.4 | Adagrad | 0.8154584 | 0.8154584 | 67.257195 | 9504681.0 |
| 4 | 0-0-0-0 | 5-5-5-8 | 4 | 0.4 | RMSprop | 0.8116298 | 0.8116298 | 71.376238 | 9504681.0 |
| 4 | 0-0-0-0 | 5-5-5-8 | 5 | 0.0 | Adam | 0.8251190 | 0.8251190 | 58.000006 | 9504820.0 |
| 4 | 0-0-0-0 | 5-5-5-8 | 5 | 0.0 | Adagrad | 0.8076687 | 0.8076687 | 53.907500 | 9504820.0 |
| 4 | 0-0-0-0 | 5-5-5-8 | 5 | 0.0 | RMSprop | 0.8278867 | 0.8278867 | 48.703513 | 9504820.0 |
| 4 | 0-0-0-0 | 5-5-5-8 | 5 | 0.2 | Adam | 0.8123807 | 0.8123807 | 63.822631 | 9504820.0 |
| 4 | 0-0-0-0 | 5-5-5-8 | 5 | 0.2 | Adagrad | 0.8012503 | 0.8012503 | 71.908643 | 9504820.0 |
| 4 | 0-0-0-0 | 5-5-5-8 | 5 | 0.2 | RMSprop | 0.8176188 | 0.8176189 | 56.629981 | 9504820.0 |
| 4 | 0-0-0-0 | 5-5-5-8 | 5 | 0.4 | Adam | 0.8074314 | 0.8074314 | 71.594570 | 9504820.0 |
| 4 | 0-0-0-0 | 5-5-5-8 | 5 | 0.4 | Adagrad | 0.8025388 | 0.8025388 | 79.748900 | 9504820.0 |
| 4 | 0-0-0-0 | 5-5-5-8 | 5 | 0.4 | RMSprop | 0.8092300 | 0.8092300 | 61.880346 | 9504820.0 |
| 4 | 0-0-0-0 | 5-5-5-8 | 6 | 0.0 | Adam | 0.8149947 | 0.8149947 | 60.667933 | 9504959.0 |
| 4 | 0-0-0-0 | 5-5-5-8 | 6 | 0.0 | Adagrad | 0.8074361 | 0.8074361 | 55.531164 | 9504959.0 |
| 4 | 0-0-0-0 | 5-5-5-8 | 6 | 0.0 | RMSprop | 0.8211907 | 0.8211907 | 60.072980 | 9504959.0 |
| 4 | 0-0-0-0 | 5-5-5-8 | 6 | 0.2 | Adam | 0.8114755 | 0.8114755 | 67.535922 | 9504959.0 |
| 4 | 0-0-0-0 | 5-5-5-8 | 6 | 0.2 | Adagrad | 0.8034918 | 0.8034918 | 71.601085 | 9504959.0 |
| 4 | 0-0-0-0 | 5-5-5-8 | 6 | 0.2 | RMSprop | 0.8129032 | 0.8129032 | 56.274988 | 9504959.0 |
| 4 | 0-0-0-0 | 5-5-5-8 | 6 | 0.4 | Adam | 0.8102560 | 0.8102560 | 67.154211 | 9504959.0 |
| 4 | 0-0-0-0 | 5-5-5-8 | 6 | 0.4 | Adagrad | 0.8038658 | 0.8038658 | 76.525405 | 9504959.0 |
| 4 | 0-0-0-0 | 5-5-5-8 | 6 | 0.4 | RMSprop | 0.8041813 | 0.8041813 | 72.690424 | 9504959.0 |
| 4 | 0-0-0-0 | 5-5-5-8 | 7 | 0.0 | Adam | 0.8188420 | 0.8188420 | 62.755441 | 9505098.0 |
| 4 | 0-0-0-0 | 5-5-5-8 | 7 | 0.0 | Adagrad | 0.7992267 | 0.7992267 | 57.889912 | 9505098.0 |
| 4 | 0-0-0-0 | 5-5-5-8 | 7 | 0.0 | RMSprop | 0.8355896 | 0.8355896 | 49.886672 | 9505098.0 |
| 4 | 0-0-0-0 | 5-5-5-8 | 7 | 0.2 | Adam | 0.8104586 | 0.8104586 | 61.680374 | 9505098.0 |
| 4 | 0-0-0-0 | 5-5-5-8 | 7 | 0.2 | Adagrad | 0.8023496 | 0.8023496 | 72.373506 | 9505098.0 |
| 4 | 0-0-0-0 | 5-5-5-8 | 7 | 0.2 | RMSprop | 0.8084052 | 0.8084052 | 64.647132 | 9505098.0 |
| 4 | 0-0-0-0 | 5-5-5-8 | 7 | 0.4 | Adam | 0.8006511 | 0.8006511 | 74.320922 | 9505098.0 |
| 4 | 0-0-0-0 | 5-5-5-8 | 7 | 0.4 | Adagrad | 0.7990494 | 0.7990494 | 87.180852 | 9505098.0 |
| 4 | 0-0-0-0 | 5-5-5-8 | 7 | 0.4 | RMSprop | 0.8098157 | 0.8098157 | 72.477671 | 9505098.0 |
| 4 | 0-0-0-0 | 5-5-5-8 | 8 | 0.0 | Adam | 0.8147353 | 0.8147353 | 56.384233 | 9505237.0 |
| 4 | 0-0-0-0 | 5-5-5-8 | 8 | 0.0 | Adagrad | 0.8053608 | 0.8053608 | 61.267319 | 9505237.0 |
| 4 | 0-0-0-0 | 5-5-5-8 | 8 | 0.0 | RMSprop | 0.8178774 | 0.8178774 | 57.463793 | 9505237.0 |
| 4 | 0-0-0-0 | 5-5-5-8 | 8 | 0.2 | Adam | 0.8185757 | 0.8185757 | 73.622626 | 9505237.0 |
| 4 | 0-0-0-0 | 5-5-5-8 | 8 | 0.2 | Adagrad | 0.8095475 | 0.8095475 | 68.577548 | 9505237.0 |
| 4 | 0-0-0-0 | 5-5-5-8 | 8 | 0.2 | RMSprop | 0.8160452 | 0.8160452 | 61.080489 | 9505237.0 |
| 4 | 0-0-0-0 | 5-5-5-8 | 8 | 0.4 | Adam | 0.8062876 | 0.8062876 | 72.978645 | 9505237.0 |
| 4 | 0-0-0-0 | 5-5-5-8 | 8 | 0.4 | Adagrad | 0.8021576 | 0.8021576 | 82.514437 | 9505237.0 |
| 4 | 0-0-0-0 | 5-5-5-8 | 8 | 0.4 | RMSprop | 0.8082249 | 0.8082249 | 70.655608 | 9505237.0 |
| 4 | 0-0-0-0 | 5-5-5-8 | 9 | 0.0 | Adam | 0.8120856 | 0.8120856 | 64.978675 | 9505376.0 |
| 4 | 0-0-0-0 | 5-5-5-8 | 9 | 0.0 | Adagrad | 0.8021603 | 0.8021603 | 55.427067 | 9505376.0 |
| 4 | 0-0-0-0 | 5-5-5-8 | 9 | 0.0 | RMSprop | 0.8213455 | 0.8213455 | 58.938500 | 9505376.0 |
| 4 | 0-0-0-0 | 5-5-5-8 | 9 | 0.2 | Adam | 0.8075963 | 0.8075963 | 70.599265 | 9505376.0 |
| 4 | 0-0-0-0 | 5-5-5-8 | 9 | 0.2 | Adagrad | 0.7992600 | 0.7992600 | 72.652921 | 9505376.0 |
| 4 | 0-0-0-0 | 5-5-5-8 | 9 | 0.2 | RMSprop | 0.8218365 | 0.8218365 | 64.607055 | 9505376.0 |
| 4 | 0-0-0-0 | 5-5-5-8 | 9 | 0.4 | Adam | 0.8117009 | 0.8117009 | 73.919628 | 9505376.0 |
| 4 | 0-0-0-0 | 5-5-5-8 | 9 | 0.4 | Adagrad | 0.8005074 | 0.8005075 | 74.058165 | 9505376.0 |
| 4 | 0-0-0-0 | 5-5-5-8 | 9 | 0.4 | RMSprop | 0.8084788 | 0.8084788 | 74.322512 | 9505376.0 |
| 4 | 0-0-0-0 | 5-5-5-8 | 10 | 0.0 | Adam | 0.8140354 | 0.8140354 | 64.915179 | 9505515.0 |
| 4 | 0-0-0-0 | 5-5-5-8 | 10 | 0.0 | Adagrad | 0.7986526 | 0.7986527 | 65.774946 | 9505515.0 |
| 4 | 0-0-0-0 | 5-5-5-8 | 10 | 0.0 | RMSprop | 0.8234789 | 0.8234789 | 58.857898 | 9505515.0 |
| 4 | 0-0-0-0 | 5-5-5-8 | 10 | 0.2 | Adam | 0.8205340 | 0.8205340 | 61.676712 | 9505515.0 |
| 4 | 0-0-0-0 | 5-5-5-8 | 10 | 0.2 | Adagrad | 0.8029661 | 0.8029661 | 78.821323 | 9505515.0 |
| 4 | 0-0-0-0 | 5-5-5-8 | 10 | 0.2 | RMSprop | 0.8130916 | 0.8130916 | 71.503891 | 9505515.0 |
| 4 | 0-0-0-0 | 5-5-5-8 | 10 | 0.4 | Adam | 0.8098011 | 0.8098011 | 76.668374 | 9505515.0 |
| 4 | 0-0-0-0 | 5-5-5-8 | 10 | 0.4 | Adagrad | 0.8007656 | 0.8007657 | 78.430949 | 9505515.0 |
| 4 | 0-0-0-0 | 5-5-5-8 | 10 | 0.4 | RMSprop | 0.7999866 | 0.7999866 | 76.410962 | 9505515.0 |
