0 0-0 0-0 0-0 0-0 9 0 Adam 500
0 0-0 0-0 0-0 0-0 9 0 Adagrad 500
0 0-0 0-0 0-0 0-0 9 0 RMSprop 500
0 0-0 0-0 0-0 0-0 9 0.2 Adam 500
0 0-0 0-0 0-0 0-0 9 0.2 Adagrad 500
0 0-0 0-0 0-0 0-0 9 0.2 RMSprop 500
0 0-0 0-0 0-0 0-0 9 0.4 Adam 500
0 0-0 0-0 0-0 0-0 9 0.4 Adagrad 500
0 0-0 0-0 0-0 0-0 9 0.4 RMSprop 500
0 0-0 0-0 0-0 0-0 10 0 Adam 500
0 0-0 0-0 0-0 0-0 10 0 Adagrad 500
0 0-0 0-0 0-0 0-0 10 0 RMSprop 500
0 0-0 0-0 0-0 0-0 10 0.2 Adam 500
0 0-0 0-0 0-0 0-0 10 0.2 Adagrad 500
0 0-0 0-0 0-0 0-0 10 0.2 RMSprop 500
0 0-0 0-0 0-0 0-0 10 0.4 Adam 500
0 0-0 0-0 0-0 0-0 10 0.4 Adagrad 500
0 0-0 0-0 0-0 0-0 10 0.4 RMSprop 500
1 5-15 17-5 5-5 5-4 1 0 Adam 500
1 17-5 5-15 5-5 5-4 1 0 Adam 500
1 5-15 17-5 5-5 5-4 1 0 Adagrad 500
1 17-5 5-15 5-5 5-4 1 0 Adagrad 500
1 5-15 17-5 5-5 5-4 1 0 RMSprop 500
1 17-5 5-15 5-5 5-4 1 0 RMSprop 500
1 5-15 17-5 5-5 5-4 1 0.2 Adam 500
1 17-5 5-15 5-5 5-4 1 0.2 Adam 500
1 5-15 17-5 5-5 5-4 1 0.2 Adagrad 500
1 17-5 5-15 5-5 5-4 1 0.2 Adagrad 500
1 5-15 17-5 5-5 5-4 1 0.2 RMSprop 500
1 17-5 5-15 5-5 5-4 1 0.2 RMSprop 500
1 5-15 17-5 5-5 5-4 1 0.4 Adam 500
1 17-5 5-15 5-5 5-4 1 0.4 Adam 500
1 5-15 17-5 5-5 5-4 1 0.4 Adagrad 500
1 17-5 5-15 5-5 5-4 1 0.4 Adagrad 500
1 5-15 17-5 5-5 5-4 1 0.4 RMSprop 500
1 17-5 5-15 5-5 5-4 1 0.4 RMSprop 500
1 5-15 17-5 5-5 5-4 2 0 Adam 500
1 17-5 5-15 5-5 5-4 2 0 Adam 500
1 5-15 17-5 5-5 5-4 2 0 Adagrad 500
1 17-5 5-15 5-5 5-4 2 0 Adagrad 500
1 5-15 17-5 5-5 5-4 2 0 RMSprop 500
1 17-5 5-15 5-5 5-4 2 0 RMSprop 500
1 5-15 17-5 5-5 5-4 2 0.2 Adam 500
1 17-5 5-15 5-5 5-4 2 0.2 Adam 500
1 5-15 17-5 5-5 5-4 2 0.2 Adagrad 500
1 17-5 5-15 5-5 5-4 2 0.2 Adagrad 500
1 5-15 17-5 5-5 5-4 2 0.2 RMSprop 500
1 17-5 5-15 5-5 5-4 2 0.2 RMSprop 500
1 5-15 17-5 5-5 5-4 2 0.4 Adam 500
1 17-5 5-15 5-5 5-4 2 0.4 Adam 500
1 5-15 17-5 5-5 5-4 2 0.4 Adagrad 500
1 17-5 5-15 5-5 5-4 2 0.4 Adagrad 500
1 5-15 17-5 5-5 5-4 2 0.4 RMSprop 500
1 17-5 5-15 5-5 5-4 2 0.4 RMSprop 500
1 5-15 17-5 5-5 5-4 3 0 Adam 500
1 17-5 5-15 5-5 5-4 3 0 Adam 500
1 5-15 17-5 5-5 5-4 3 0 Adagrad 500
1 17-5 5-15 5-5 5-4 3 0 Adagrad 500
1 5-15 17-5 5-5 5-4 3 0 RMSprop 500
1 17-5 5-15 5-5 5-4 3 0 RMSprop 500
1 5-15 17-5 5-5 5-4 3 0.2 Adam 500
1 17-5 5-15 5-5 5-4 3 0.2 Adam 500
1 5-15 17-5 5-5 5-4 3 0.2 Adagrad 500
1 17-5 5-15 5-5 5-4 3 0.2 Adagrad 500
1 5-15 17-5 5-5 5-4 3 0.2 RMSprop 500
1 17-5 5-15 5-5 5-4 3 0.2 RMSprop 500
1 5-15 17-5 5-5 5-4 3 0.4 Adam 500
1 17-5 5-15 5-5 5-4 3 0.4 Adam 500
1 5-15 17-5 5-5 5-4 3 0.4 Adagrad 500
1 17-5 5-15 5-5 5-4 3 0.4 Adagrad 500
1 5-15 17-5 5-5 5-4 3 0.4 RMSprop 500
1 17-5 5-15 5-5 5-4 3 0.4 RMSprop 500
