1 5-15 17-5 5-5 5-8 8 0 Adam 1000
1 17-5 5-15 5-5 5-8 8 0 Adam 1000
1 5-15 17-5 5-5 5-8 8 0 Adagrad 1000
1 17-5 5-15 5-5 5-8 8 0 Adagrad 1000
1 5-15 17-5 5-5 5-8 8 0 RMSprop 1000
1 17-5 5-15 5-5 5-8 8 0 RMSprop 1000
1 5-15 17-5 5-5 5-8 8 0.2 Adam 1000
1 17-5 5-15 5-5 5-8 8 0.2 Adam 1000
1 5-15 17-5 5-5 5-8 8 0.2 Adagrad 1000
1 17-5 5-15 5-5 5-8 8 0.2 Adagrad 1000
1 5-15 17-5 5-5 5-8 8 0.2 RMSprop 1000
1 17-5 5-15 5-5 5-8 8 0.2 RMSprop 1000
1 5-15 17-5 5-5 5-8 8 0.4 Adam 1000
1 17-5 5-15 5-5 5-8 8 0.4 Adam 1000
1 5-15 17-5 5-5 5-8 8 0.4 Adagrad 1000
1 17-5 5-15 5-5 5-8 8 0.4 Adagrad 1000
1 5-15 17-5 5-5 5-8 8 0.4 RMSprop 1000
1 17-5 5-15 5-5 5-8 8 0.4 RMSprop 1000
1 5-15 17-5 5-5 5-8 9 0 Adam 1000
1 17-5 5-15 5-5 5-8 9 0 Adam 1000
1 5-15 17-5 5-5 5-8 9 0 Adagrad 1000
1 17-5 5-15 5-5 5-8 9 0 Adagrad 1000
1 5-15 17-5 5-5 5-8 9 0 RMSprop 1000
1 17-5 5-15 5-5 5-8 9 0 RMSprop 1000
1 5-15 17-5 5-5 5-8 9 0.2 Adam 1000
1 17-5 5-15 5-5 5-8 9 0.2 Adam 1000
1 5-15 17-5 5-5 5-8 9 0.2 Adagrad 1000
1 17-5 5-15 5-5 5-8 9 0.2 Adagrad 1000
1 5-15 17-5 5-5 5-8 9 0.2 RMSprop 1000
1 17-5 5-15 5-5 5-8 9 0.2 RMSprop 1000
1 5-15 17-5 5-5 5-8 9 0.4 Adam 1000
1 17-5 5-15 5-5 5-8 9 0.4 Adam 1000
1 5-15 17-5 5-5 5-8 9 0.4 Adagrad 1000
1 17-5 5-15 5-5 5-8 9 0.4 Adagrad 1000
1 5-15 17-5 5-5 5-8 9 0.4 RMSprop 1000
1 17-5 5-15 5-5 5-8 9 0.4 RMSprop 1000
1 5-15 17-5 5-5 5-8 10 0 Adam 1000
1 17-5 5-15 5-5 5-8 10 0 Adam 1000
1 5-15 17-5 5-5 5-8 10 0 Adagrad 1000
1 17-5 5-15 5-5 5-8 10 0 Adagrad 1000
1 5-15 17-5 5-5 5-8 10 0 RMSprop 1000
1 17-5 5-15 5-5 5-8 10 0 RMSprop 1000
1 5-15 17-5 5-5 5-8 10 0.2 Adam 1000
1 17-5 5-15 5-5 5-8 10 0.2 Adam 1000
1 5-15 17-5 5-5 5-8 10 0.2 Adagrad 1000
1 17-5 5-15 5-5 5-8 10 0.2 Adagrad 1000
1 5-15 17-5 5-5 5-8 10 0.2 RMSprop 1000
1 17-5 5-15 5-5 5-8 10 0.2 RMSprop 1000
1 5-15 17-5 5-5 5-8 10 0.4 Adam 1000
1 17-5 5-15 5-5 5-8 10 0.4 Adam 1000
1 5-15 17-5 5-5 5-8 10 0.4 Adagrad 1000
1 17-5 5-15 5-5 5-8 10 0.4 Adagrad 1000
1 5-15 17-5 5-5 5-8 10 0.4 RMSprop 1000
1 17-5 5-15 5-5 5-8 10 0.4 RMSprop 1000
2 5-15 17-5 5-5 5-8 1 0 Adam 1000
2 17-5 5-15 5-5 5-8 1 0 Adam 1000
2 5-15 17-5 5-5 5-8 1 0 Adagrad 1000
2 17-5 5-15 5-5 5-8 1 0 Adagrad 1000
2 5-15 17-5 5-5 5-8 1 0 RMSprop 1000
2 17-5 5-15 5-5 5-8 1 0 RMSprop 1000
2 5-15 17-5 5-5 5-8 1 0.2 Adam 1000
2 17-5 5-15 5-5 5-8 1 0.2 Adam 1000
2 5-15 17-5 5-5 5-8 1 0.2 Adagrad 1000
2 17-5 5-15 5-5 5-8 1 0.2 Adagrad 1000
2 5-15 17-5 5-5 5-8 1 0.2 RMSprop 1000
2 17-5 5-15 5-5 5-8 1 0.2 RMSprop 1000
2 5-15 17-5 5-5 5-8 1 0.4 Adam 1000
2 17-5 5-15 5-5 5-8 1 0.4 Adam 1000
2 5-15 17-5 5-5 5-8 1 0.4 Adagrad 1000
2 17-5 5-15 5-5 5-8 1 0.4 Adagrad 1000
2 5-15 17-5 5-5 5-8 1 0.4 RMSprop 1000
2 17-5 5-15 5-5 5-8 1 0.4 RMSprop 1000
