2 5-15 17-5 5-5 5-4 10 0 Adam 500
2 17-5 5-15 5-5 5-4 10 0 Adam 500
2 5-15 17-5 5-5 5-4 10 0 Adagrad 500
2 17-5 5-15 5-5 5-4 10 0 Adagrad 500
2 5-15 17-5 5-5 5-4 10 0 RMSprop 500
2 17-5 5-15 5-5 5-4 10 0 RMSprop 500
2 5-15 17-5 5-5 5-4 10 0.2 Adam 500
2 17-5 5-15 5-5 5-4 10 0.2 Adam 500
2 5-15 17-5 5-5 5-4 10 0.2 Adagrad 500
2 17-5 5-15 5-5 5-4 10 0.2 Adagrad 500
2 5-15 17-5 5-5 5-4 10 0.2 RMSprop 500
2 17-5 5-15 5-5 5-4 10 0.2 RMSprop 500
2 5-15 17-5 5-5 5-4 10 0.4 Adam 500
2 17-5 5-15 5-5 5-4 10 0.4 Adam 500
2 5-15 17-5 5-5 5-4 10 0.4 Adagrad 500
2 17-5 5-15 5-5 5-4 10 0.4 Adagrad 500
2 5-15 17-5 5-5 5-4 10 0.4 RMSprop 500
2 17-5 5-15 5-5 5-4 10 0.4 RMSprop 500
3 5-15 17-5 5-5 5-4 1 0 Adam 500
3 17-5 5-15 5-5 5-4 1 0 Adam 500
3 5-15 17-5 5-5 5-4 1 0 Adagrad 500
3 17-5 5-15 5-5 5-4 1 0 Adagrad 500
3 5-15 17-5 5-5 5-4 1 0 RMSprop 500
3 17-5 5-15 5-5 5-4 1 0 RMSprop 500
3 5-15 17-5 5-5 5-4 1 0.2 Adam 500
3 17-5 5-15 5-5 5-4 1 0.2 Adam 500
3 5-15 17-5 5-5 5-4 1 0.2 Adagrad 500
3 17-5 5-15 5-5 5-4 1 0.2 Adagrad 500
3 5-15 17-5 5-5 5-4 1 0.2 RMSprop 500
3 17-5 5-15 5-5 5-4 1 0.2 RMSprop 500
3 5-15 17-5 5-5 5-4 1 0.4 Adam 500
3 17-5 5-15 5-5 5-4 1 0.4 Adam 500
3 5-15 17-5 5-5 5-4 1 0.4 Adagrad 500
3 17-5 5-15 5-5 5-4 1 0.4 Adagrad 500
3 5-15 17-5 5-5 5-4 1 0.4 RMSprop 500
3 17-5 5-15 5-5 5-4 1 0.4 RMSprop 500
3 5-15 17-5 5-5 5-4 2 0 Adam 500
3 17-5 5-15 5-5 5-4 2 0 Adam 500
3 5-15 17-5 5-5 5-4 2 0 Adagrad 500
3 17-5 5-15 5-5 5-4 2 0 Adagrad 500
3 5-15 17-5 5-5 5-4 2 0 RMSprop 500
3 17-5 5-15 5-5 5-4 2 0 RMSprop 500
3 5-15 17-5 5-5 5-4 2 0.2 Adam 500
3 17-5 5-15 5-5 5-4 2 0.2 Adam 500
3 5-15 17-5 5-5 5-4 2 0.2 Adagrad 500
3 17-5 5-15 5-5 5-4 2 0.2 Adagrad 500
3 5-15 17-5 5-5 5-4 2 0.2 RMSprop 500
3 17-5 5-15 5-5 5-4 2 0.2 RMSprop 500
3 5-15 17-5 5-5 5-4 2 0.4 Adam 500
3 17-5 5-15 5-5 5-4 2 0.4 Adam 500
3 5-15 17-5 5-5 5-4 2 0.4 Adagrad 500
3 17-5 5-15 5-5 5-4 2 0.4 Adagrad 500
3 5-15 17-5 5-5 5-4 2 0.4 RMSprop 500
3 17-5 5-15 5-5 5-4 2 0.4 RMSprop 500
3 5-15 17-5 5-5 5-4 3 0 Adam 500
3 17-5 5-15 5-5 5-4 3 0 Adam 500
3 5-15 17-5 5-5 5-4 3 0 Adagrad 500
3 17-5 5-15 5-5 5-4 3 0 Adagrad 500
3 5-15 17-5 5-5 5-4 3 0 RMSprop 500
3 17-5 5-15 5-5 5-4 3 0 RMSprop 500
3 5-15 17-5 5-5 5-4 3 0.2 Adam 500
3 17-5 5-15 5-5 5-4 3 0.2 Adam 500
3 5-15 17-5 5-5 5-4 3 0.2 Adagrad 500
3 17-5 5-15 5-5 5-4 3 0.2 Adagrad 500
3 5-15 17-5 5-5 5-4 3 0.2 RMSprop 500
3 17-5 5-15 5-5 5-4 3 0.2 RMSprop 500
3 5-15 17-5 5-5 5-4 3 0.4 Adam 500
3 17-5 5-15 5-5 5-4 3 0.4 Adam 500
3 5-15 17-5 5-5 5-4 3 0.4 Adagrad 500
3 17-5 5-15 5-5 5-4 3 0.4 Adagrad 500
3 5-15 17-5 5-5 5-4 3 0.4 RMSprop 500
3 17-5 5-15 5-5 5-4 3 0.4 RMSprop 500
