| 2-2-14-14 | 5-5-8-4 | 1-6-1-1-1
 | 5 | 2.30099291907 | 11.35 | 104.562470913 |
| 2-2-14-14 | 5-5-8-4 | 1-6-1-2-1
 | 5 | 2.30096072325 | 11.35 | 102.423266172 |
| 2-2-14-14 | 5-5-8-4 | 1-6-1-3-1
 | 5 | 0.198615785571 | 94.2 | 101.536949873 |
| 2-2-14-14 | 5-5-8-4 | 1-6-1-4-1
 | 5 | 0.193248108816 | 94.5 | 104.425267935 |
| 2-2-14-14 | 5-5-8-4 | 1-6-1-5-1
 | 5 | 0.201794263534 | 94.2 | 109.284447908 |
| 2-2-14-14 | 5-5-8-4 | 1-6-1-6-1
 | 5 | 0.177591371962 | 94.89 | 109.909769058 |
| 2-2-14-14 | 5-5-8-4 | 1-6-1-7-1
 | 5 | 0.19217660397 | 94.31 | 112.163840055 |
| 2-2-14-14 | 5-5-8-4 | 1-6-1-8-1
 | 5 | 0.220828615483 | 93.64 | 112.418955803 |
| 2-2-14-14 | 5-5-8-4 | 1-6-1-9-1
 | 5 | 0.20519598066 | 94.0 | 117.385545015 |
| 2-2-14-14 | 5-5-8-4 | 1-6-1-10-1
 | 5 | 0.214679915963 | 93.75 | 113.227113962 |
| 2-2-14-14 | 5-5-8-4 | 1-6-2-1-1
 | 5 | 2.30100403289 | 11.35 | 100.39606905 |
| 2-2-14-14 | 5-5-8-4 | 1-6-2-2-1
 | 5 | 2.2956579852 | 11.35 | 98.2993869781 |
| 2-2-14-14 | 5-5-8-4 | 1-6-2-3-1
 | 5 | 2.00240461123 | 30.82 | 105.033160925 |
| 2-2-14-14 | 5-5-8-4 | 1-6-2-4-1
 | 5 | 0.17941119881 | 94.74 | 108.32677412 |
| 2-2-14-14 | 5-5-8-4 | 1-6-2-5-1
 | 5 | 0.198280966592 | 94.25 | 111.779397964 |
| 2-2-14-14 | 5-5-8-4 | 1-6-2-6-1
 | 5 | 0.18870502489 | 94.46 | 113.040972948 |
| 2-2-14-14 | 5-5-8-4 | 1-6-2-7-1
 | 5 | 0.21706442364 | 93.65 | 117.576977968 |
| 2-2-14-14 | 5-5-8-4 | 1-6-2-8-1
 | 5 | 0.191153414457 | 94.49 | 116.426457882 |
| 2-2-14-14 | 5-5-8-4 | 1-6-2-9-1
 | 5 | 0.19292126307 | 94.08 | 113.280540943 |
| 2-2-14-14 | 5-5-8-4 | 1-6-2-10-1
 | 5 | 0.197882031849 | 94.28 | 116.970679045 |
| 2-2-14-14 | 5-5-8-4 | 1-6-3-1-1
 | 5 | 2.30102505198 | 11.35 | 105.397335052 |
| 2-2-14-14 | 5-5-8-4 | 1-6-3-2-1
 | 5 | 1.43918723595 | 53.95 | 103.428803921 |
| 2-2-14-14 | 5-5-8-4 | 1-6-3-3-1
 | 5 | 2.25237110312 | 25.86 | 106.365242004 |
| 2-2-14-14 | 5-5-8-4 | 1-6-3-4-1
 | 5 | 2.30087299169 | 11.35 | 107.795328856 |
| 2-2-14-14 | 5-5-8-4 | 1-6-3-5-1
 | 5 | 0.167582251503 | 95.13 | 114.389368057 |
| 2-2-14-14 | 5-5-8-4 | 1-6-3-6-1
 | 5 | 0.170654888579 | 94.79 | 113.382201195 |
| 2-2-14-14 | 5-5-8-4 | 1-6-3-7-1
 | 5 | 0.19543312486 | 94.2 | 106.755878925 |
| 2-2-14-14 | 5-5-8-4 | 1-6-3-8-1
 | 5 | 0.209192365481 | 93.88 | 120.649312973 |
| 2-2-14-14 | 5-5-8-4 | 1-6-3-9-1
 | 5 | 0.199560081348 | 94.19 | 119.569121838 |
| 2-2-14-14 | 5-5-8-4 | 1-6-3-10-1
 | 5 | 0.204673936693 | 93.81 | 117.810954094 |
| 2-2-14-14 | 5-5-8-4 | 1-6-4-1-1
 | 5 | 2.30099625299 | 11.35 | 103.468910933 |
| 2-2-14-14 | 5-5-8-4 | 1-6-4-2-1
 | 5 | 2.0995627356 | 23.85 | 107.104876041 |
| 2-2-14-14 | 5-5-8-4 | 1-6-4-3-1
 | 5 | 2.28571782071 | 11.35 | 102.973142862 |
| 2-2-14-14 | 5-5-8-4 | 1-6-4-4-1
 | 5 | 2.30086485342 | 11.35 | 107.564822912 |
| 2-2-14-14 | 5-5-8-4 | 1-6-4-5-1
 | 5 | 2.28953542812 | 11.35 | 111.094902992 |
| 2-2-14-14 | 5-5-8-4 | 1-6-4-6-1
 | 5 | 0.177006883458 | 94.69 | 115.484624863 |
| 2-2-14-14 | 5-5-8-4 | 1-6-4-7-1
 | 5 | 0.191458668707 | 94.47 | 116.145371914 |
| 2-2-14-14 | 5-5-8-4 | 1-6-4-8-1
 | 5 | 0.186104850882 | 94.65 | 117.379205942 |
| 2-2-14-14 | 5-5-8-4 | 1-6-4-9-1
 | 5 | 0.191519208285 | 94.37 | 119.272915125 |
| 2-2-14-14 | 5-5-8-4 | 1-6-4-10-1
 | 5 | 0.171673726085 | 94.9 | 130.55292511 |
| 2-2-14-14 | 5-5-8-4 | 1-6-5-1-1
 | 5 | 2.30099043681 | 11.35 | 101.90414691 |
| 2-2-14-14 | 5-5-8-4 | 1-6-5-2-1
 | 5 | 2.19582320839 | 28.19 | 106.068180084 |
| 2-2-14-14 | 5-5-8-4 | 1-6-5-3-1
 | 5 | 0.325892934212 | 90.78 | 109.795210123 |
| 2-2-14-14 | 5-5-8-4 | 1-6-5-4-1
 | 5 | 2.28583893448 | 11.35 | 110.930585146 |
| 2-2-14-14 | 5-5-8-4 | 1-6-5-5-1
 | 5 | 0.748591091085 | 77.1 | 112.919855833 |
| 2-2-14-14 | 5-5-8-4 | 1-6-5-6-1
 | 5 | 2.29479213712 | 11.35 | 115.254273891 |
| 2-2-14-14 | 5-5-8-4 | 1-6-5-7-1
 | 5 | 0.17554463011 | 94.79 | 117.957320929 |
| 2-2-14-14 | 5-5-8-4 | 1-6-5-8-1
 | 5 | 0.169425285055 | 95.12 | 119.355700016 |
| 2-2-14-14 | 5-5-8-4 | 1-6-5-9-1
 | 5 | 0.177258280764 | 94.77 | 119.965979815 |
| 2-2-14-14 | 5-5-8-4 | 1-6-5-10-1
 | 5 | 0.184699116226 | 94.69 | 126.000418901 |
| 2-2-14-14 | 5-5-8-4 | 1-6-6-1-1
 | 5 | 2.30101177142 | 11.35 | 100.554441929 |
| 2-2-14-14 | 5-5-8-4 | 1-6-6-2-1
 | 5 | 0.643361748855 | 80.96 | 108.810560942 |
| 2-2-14-14 | 5-5-8-4 | 1-6-6-3-1
 | 5 | 2.27736816286 | 11.72 | 108.761603832 |
| 2-2-14-14 | 5-5-8-4 | 1-6-6-4-1
 | 5 | 2.24251655697 | 25.72 | 112.544739008 |
| 2-2-14-14 | 5-5-8-4 | 1-6-6-5-1
 | 5 | 0.455772184329 | 87.31 | 113.489685059 |
| 2-2-14-14 | 5-5-8-4 | 1-6-6-6-1
 | 5 | 2.11425339265 | 36.6 | 109.562794924 |
| 2-2-14-14 | 5-5-8-4 | 1-6-6-7-1
 | 5 | 0.469981609725 | 86.4 | 119.617390871 |
| 2-2-14-14 | 5-5-8-4 | 1-6-6-8-1
 | 5 | 0.175319914482 | 94.82 | 118.296357155 |
| 2-2-14-14 | 5-5-8-4 | 1-6-6-9-1
 | 5 | 0.173186746964 | 94.9 | 126.314846039 |
| 2-2-14-14 | 5-5-8-4 | 1-6-6-10-1
 | 5 | 0.181294876997 | 94.59 | 127.45872283 |
| 2-2-14-14 | 5-5-8-4 | 1-6-7-1-1
 | 5 | 2.301005537 | 11.35 | 105.928529024 |
| 2-2-14-14 | 5-5-8-4 | 1-6-7-2-1
 | 5 | 0.788086562462 | 76.5 | 105.229631901 |
| 2-2-14-14 | 5-5-8-4 | 1-6-7-3-1
 | 5 | 1.20073437552 | 62.34 | 107.872233868 |
| 2-2-14-14 | 5-5-8-4 | 1-6-7-4-1
 | 5 | 1.17152843495 | 64.02 | 115.025706053 |
| 2-2-14-14 | 5-5-8-4 | 1-6-7-5-1
 | 5 | 2.29989176716 | 11.35 | 116.645666122 |
| 2-2-14-14 | 5-5-8-4 | 1-6-7-6-1
 | 5 | 1.77835592196 | 41.97 | 117.952476025 |
| 2-2-14-14 | 5-5-8-4 | 1-6-7-7-1
 | 5 | 0.4708226284 | 86.3 | 119.049237967 |
| 2-2-14-14 | 5-5-8-4 | 1-6-7-8-1
 | 5 | 0.346322504313 | 90.5 | 124.680027008 |
| 2-2-14-14 | 5-5-8-4 | 1-6-7-9-1
 | 5 | 0.181502284037 | 94.46 | 111.947353125 |
| 2-2-14-14 | 5-5-8-4 | 1-6-7-10-1
 | 5 | 0.172815335843 | 94.81 | 130.630180836 |
| 2-2-14-14 | 5-5-8-4 | 1-6-8-1-1
 | 5 | 2.30101563988 | 11.35 | 106.664150953 |
| 2-2-14-14 | 5-5-8-4 | 1-6-8-2-1
 | 5 | 1.71300783342 | 46.78 | 107.034880877 |
| 2-2-14-14 | 5-5-8-4 | 1-6-8-3-1
 | 5 | 0.290674799277 | 91.79 | 109.273955107 |
| 2-2-14-14 | 5-5-8-4 | 1-6-8-4-1
 | 5 | 0.605347645545 | 82.3 | 115.291004896 |
| 2-2-14-14 | 5-5-8-4 | 1-6-8-5-1
 | 5 | 1.97769342924 | 29.96 | 113.34444809 |
| 2-2-14-14 | 5-5-8-4 | 1-6-8-6-1
 | 5 | 0.385802323133 | 89.04 | 117.100743055 |
| 2-2-14-14 | 5-5-8-4 | 1-6-8-7-1
 | 5 | 0.827081651321 | 75.65 | 122.704280138 |
| 2-2-14-14 | 5-5-8-4 | 1-6-8-8-1
 | 5 | 0.827494972807 | 75.92 | 125.908709049 |
| 2-2-14-14 | 5-5-8-4 | 1-6-8-9-1
 | 5 | 0.904287646634 | 73.23 | 129.779006004 |
| 2-2-14-14 | 5-5-8-4 | 1-6-8-10-1
 | 5 | 0.148028335259 | 95.62 | 129.005378962 |
| 2-2-14-14 | 5-5-8-4 | 1-6-9-1-1
 | 5 | 2.30102141626 | 11.35 | 104.927786112 |
| 2-2-14-14 | 5-5-8-4 | 1-6-9-2-1
 | 5 | 0.275484316832 | 92.55 | 106.761093855 |
| 2-2-14-14 | 5-5-8-4 | 1-6-9-3-1
 | 5 | 1.01353133343 | 68.0 | 115.232566118 |
| 2-2-14-14 | 5-5-8-4 | 1-6-9-4-1
 | 5 | 1.04199961458 | 65.98 | 110.792469978 |
| 2-2-14-14 | 5-5-8-4 | 1-6-9-5-1
 | 5 | 0.44153499302 | 87.72 | 118.052429914 |
| 2-2-14-14 | 5-5-8-4 | 1-6-9-6-1
 | 5 | 1.55298854013 | 53.62 | 124.307564974 |
| 2-2-14-14 | 5-5-8-4 | 1-6-9-7-1
 | 5 | 2.27138693288 | 13.85 | 121.009508133 |
| 2-2-14-14 | 5-5-8-4 | 1-6-9-8-1
 | 5 | 0.686841705089 | 78.8 | 127.047307968 |
| 2-2-14-14 | 5-5-8-4 | 1-6-9-9-1
 | 5 | 0.394262351392 | 89.02 | 130.323148012 |
| 2-2-14-14 | 5-5-8-4 | 1-6-9-10-1
 | 5 | 1.0338199695 | 69.05 | 137.810344934 |
| 2-2-14-14 | 5-5-8-4 | 1-6-10-1-1
 | 5 | 2.30104412135 | 11.35 | 105.736505032 |
| 2-2-14-14 | 5-5-8-4 | 1-6-10-2-1
 | 5 | 2.11884757239 | 25.41 | 105.268232107 |
| 2-2-14-14 | 5-5-8-4 | 1-6-10-3-1
 | 5 | 2.3007960995 | 11.35 | 104.799133062 |
| 2-2-14-14 | 5-5-8-4 | 1-6-10-4-1
 | 5 | 0.367074938864 | 89.35 | 107.125144005 |
| 2-2-14-14 | 5-5-8-4 | 1-6-10-5-1
 | 5 | 0.344891151436 | 90.22 | 105.049549103 |
| 2-2-14-14 | 5-5-8-4 | 1-6-10-6-1
 | 5 | 0.352451027202 | 89.73 | 106.595414877 |
| 2-2-14-14 | 5-5-8-4 | 1-6-10-7-1
 | 5 | 0.488877822497 | 86.21 | 109.890039921 |
| 2-2-14-14 | 5-5-8-4 | 1-6-10-8-1
 | 5 | 0.39677060737 | 89.22 | 104.244684935 |
| 2-2-14-14 | 5-5-8-4 | 1-6-10-9-1
 | 5 | 0.407509598342 | 88.63 | 106.510179996 |
| 2-2-14-14 | 5-5-8-4 | 1-6-10-10-1
 | 5 | 0.840065287406 | 76.71 | 119.410970926 |
