| 2-2-14-14 | 5-5-8-4 | 1-8-1-1-1
 | 5 | 2.30100027678 | 11.35 | 85.394562006 |
| 2-2-14-14 | 5-5-8-4 | 1-8-1-2-1
 | 5 | 0.996420654175 | 69.48 | 80.1861050129 |
| 2-2-14-14 | 5-5-8-4 | 1-8-1-3-1
 | 5 | 0.168620419353 | 95.26 | 81.6430470943 |
| 2-2-14-14 | 5-5-8-4 | 1-8-1-4-1
 | 5 | 0.184787206131 | 94.63 | 82.1673240662 |
| 2-2-14-14 | 5-5-8-4 | 1-8-1-5-1
 | 5 | 0.176985230603 | 94.98 | 83.6465749741 |
| 2-2-14-14 | 5-5-8-4 | 1-8-1-6-1
 | 5 | 0.204868634787 | 93.96 | 84.9407060146 |
| 2-2-14-14 | 5-5-8-4 | 1-8-1-7-1
 | 5 | 0.204320064819 | 94.15 | 86.165678978 |
| 2-2-14-14 | 5-5-8-4 | 1-8-1-8-1
 | 5 | 0.20933132125 | 94.17 | 87.2027049065 |
| 2-2-14-14 | 5-5-8-4 | 1-8-1-9-1
 | 5 | 0.216265072292 | 93.66 | 88.5891730785 |
| 2-2-14-14 | 5-5-8-4 | 1-8-1-10-1
 | 5 | 0.184308126044 | 94.59 | 89.3984460831 |
| 2-2-14-14 | 5-5-8-4 | 1-8-2-1-1
 | 5 | 2.30101168433 | 11.35 | 79.3477520943 |
| 2-2-14-14 | 5-5-8-4 | 1-8-2-2-1
 | 5 | 2.30087351862 | 11.35 | 80.3494420052 |
| 2-2-14-14 | 5-5-8-4 | 1-8-2-3-1
 | 5 | 2.29881147182 | 11.35 | 81.889731884 |
| 2-2-14-14 | 5-5-8-4 | 1-8-2-4-1
 | 5 | 2.29690123725 | 11.35 | 82.8223919868 |
| 2-2-14-14 | 5-5-8-4 | 1-8-2-5-1
 | 5 | 0.17679267629 | 94.71 | 84.8995289803 |
| 2-2-14-14 | 5-5-8-4 | 1-8-2-6-1
 | 5 | 0.201785262977 | 93.9 | 85.9360599518 |
| 2-2-14-14 | 5-5-8-4 | 1-8-2-7-1
 | 5 | 0.186568023699 | 94.58 | 87.8220500946 |
| 2-2-14-14 | 5-5-8-4 | 1-8-2-8-1
 | 5 | 0.191485458657 | 94.33 | 88.9062509537 |
| 2-2-14-14 | 5-5-8-4 | 1-8-2-9-1
 | 5 | 0.183588583654 | 94.69 | 90.7524490356 |
| 2-2-14-14 | 5-5-8-4 | 1-8-2-10-1
 | 5 | 0.193107761514 | 94.53 | 91.6115090847 |
| 2-2-14-14 | 5-5-8-4 | 1-8-3-1-1
 | 5 | 2.30100619337 | 11.35 | 80.5331120491 |
| 2-2-14-14 | 5-5-8-4 | 1-8-3-2-1
 | 5 | 2.29176560044 | 11.35 | 81.90239501 |
| 2-2-14-14 | 5-5-8-4 | 1-8-3-3-1
 | 5 | 2.29220129826 | 11.35 | 83.5411429405 |
| 2-2-14-14 | 5-5-8-4 | 1-8-3-4-1
 | 5 | 2.29133214516 | 11.35 | 84.7885758877 |
| 2-2-14-14 | 5-5-8-4 | 1-8-3-5-1
 | 5 | 2.29666719894 | 11.35 | 86.1751470566 |
| 2-2-14-14 | 5-5-8-4 | 1-8-3-6-1
 | 5 | 0.164284999886 | 95.18 | 88.2133080959 |
| 2-2-14-14 | 5-5-8-4 | 1-8-3-7-1
 | 5 | 0.187872972196 | 94.6 | 89.8077449799 |
| 2-2-14-14 | 5-5-8-4 | 1-8-3-8-1
 | 5 | 0.185259584822 | 94.55 | 91.1470048428 |
| 2-2-14-14 | 5-5-8-4 | 1-8-3-9-1
 | 5 | 0.180832726012 | 94.56 | 92.7718260288 |
| 2-2-14-14 | 5-5-8-4 | 1-8-3-10-1
 | 5 | 0.163191287325 | 95.24 | 94.2396039963 |
| 2-2-14-14 | 5-5-8-4 | 1-8-4-1-1
 | 5 | 2.30100657093 | 11.35 | 81.3622150421 |
| 2-2-14-14 | 5-5-8-4 | 1-8-4-2-1
 | 5 | 2.30071167833 | 11.35 | 88.7364530563 |
| 2-2-14-14 | 5-5-8-4 | 1-8-4-3-1
 | 5 | 0.44851876715 | 87.24 | 90.849105835 |
| 2-2-14-14 | 5-5-8-4 | 1-8-4-4-1
 | 5 | 2.30069436345 | 11.35 | 92.146846056 |
| 2-2-14-14 | 5-5-8-4 | 1-8-4-5-1
 | 5 | 2.29435319312 | 11.35 | 94.6987757683 |
| 2-2-14-14 | 5-5-8-4 | 1-8-4-6-1
 | 5 | 2.28912274624 | 11.35 | 95.8568809032 |
| 2-2-14-14 | 5-5-8-4 | 1-8-4-7-1
 | 5 | 0.321727537819 | 90.78 | 98.204554081 |
| 2-2-14-14 | 5-5-8-4 | 1-8-4-8-1
 | 5 | 0.152854141034 | 95.58 | 99.7565090656 |
| 2-2-14-14 | 5-5-8-4 | 1-8-4-9-1
 | 5 | 0.197737485135 | 94.24 | 102.727845907 |
| 2-2-14-14 | 5-5-8-4 | 1-8-4-10-1
 | 5 | 0.162813567502 | 95.2 | 103.546030998 |
| 2-2-14-14 | 5-5-8-4 | 1-8-5-1-1
 | 5 | 2.30097905489 | 11.35 | 88.6870088577 |
| 2-2-14-14 | 5-5-8-4 | 1-8-5-2-1
 | 5 | 1.09054424324 | 64.08 | 90.6670570374 |
| 2-2-14-14 | 5-5-8-4 | 1-8-5-3-1
 | 5 | 1.21672076652 | 63.31 | 92.8639810085 |
| 2-2-14-14 | 5-5-8-4 | 1-8-5-4-1
 | 5 | 1.66999385141 | 48.65 | 94.1946680546 |
| 2-2-14-14 | 5-5-8-4 | 1-8-5-5-1
 | 5 | 2.30076970978 | 11.35 | 96.111825943 |
| 2-2-14-14 | 5-5-8-4 | 1-8-5-6-1
 | 5 | 0.707936020549 | 77.92 | 98.3145320415 |
| 2-2-14-14 | 5-5-8-4 | 1-8-5-7-1
 | 5 | 1.66939213186 | 53.27 | 100.251936913 |
| 2-2-14-14 | 5-5-8-4 | 1-8-5-8-1
 | 5 | 0.713496282814 | 77.91 | 102.38906002 |
| 2-2-14-14 | 5-5-8-4 | 1-8-5-9-1
 | 5 | 0.187834800076 | 94.47 | 104.552195072 |
| 2-2-14-14 | 5-5-8-4 | 1-8-5-10-1
 | 5 | 0.147933086931 | 95.54 | 105.912002802 |
| 2-2-14-14 | 5-5-8-4 | 1-8-6-1-1
 | 5 | 2.30102034243 | 11.35 | 89.5980520248 |
| 2-2-14-14 | 5-5-8-4 | 1-8-6-2-1
 | 5 | 0.535043823106 | 84.75 | 92.5493199825 |
| 2-2-14-14 | 5-5-8-4 | 1-8-6-3-1
 | 5 | 0.969206589719 | 69.38 | 93.7647259235 |
| 2-2-14-14 | 5-5-8-4 | 1-8-6-4-1
 | 5 | 1.12377069936 | 65.72 | 95.7460610867 |
| 2-2-14-14 | 5-5-8-4 | 1-8-6-5-1
 | 5 | 0.726553119624 | 77.05 | 97.757871151 |
| 2-2-14-14 | 5-5-8-4 | 1-8-6-6-1
 | 5 | 0.822859693298 | 75.33 | 99.7477259636 |
| 2-2-14-14 | 5-5-8-4 | 1-8-6-7-1
 | 5 | 0.426423538034 | 88.02 | 102.127274036 |
| 2-2-14-14 | 5-5-8-4 | 1-8-6-8-1
 | 5 | 0.648778617858 | 80.15 | 103.325562954 |
| 2-2-14-14 | 5-5-8-4 | 1-8-6-9-1
 | 5 | 0.356403555913 | 90.25 | 105.763596058 |
| 2-2-14-14 | 5-5-8-4 | 1-8-6-10-1
 | 5 | 1.71251296873 | 41.98 | 107.446068048 |
| 2-2-14-14 | 5-5-8-4 | 1-8-7-1-1
 | 5 | 2.30098674894 | 11.35 | 90.7569730282 |
| 2-2-14-14 | 5-5-8-4 | 1-8-7-2-1
 | 5 | 0.595138840238 | 82.38 | 93.4294519424 |
| 2-2-14-14 | 5-5-8-4 | 1-8-7-3-1
 | 5 | 2.23735589535 | 21.68 | 95.7160661221 |
| 2-2-14-14 | 5-5-8-4 | 1-8-7-4-1
 | 5 | 1.39881325293 | 56.18 | 97.3171420097 |
| 2-2-14-14 | 5-5-8-4 | 1-8-7-5-1
 | 5 | 1.12110793815 | 65.67 | 99.9128670692 |
| 2-2-14-14 | 5-5-8-4 | 1-8-7-6-1
 | 5 | 0.412997494122 | 87.83 | 101.730951071 |
| 2-2-14-14 | 5-5-8-4 | 1-8-7-7-1
 | 5 | 1.69515340804 | 44.5 | 99.0161879063 |
| 2-2-14-14 | 5-5-8-4 | 1-8-7-8-1
 | 5 | 0.304771804737 | 91.15 | 99.0465779305 |
| 2-2-14-14 | 5-5-8-4 | 1-8-7-9-1
 | 5 | 0.549549123234 | 84.51 | 100.957489967 |
| 2-2-14-14 | 5-5-8-4 | 1-8-7-10-1
 | 5 | 1.13029874137 | 62.66 | 111.286419868 |
| 2-2-14-14 | 5-5-8-4 | 1-8-8-1-1
 | 5 | 2.30100624735 | 11.35 | 85.3040628433 |
| 2-2-14-14 | 5-5-8-4 | 1-8-8-2-1
 | 5 | 0.954389762225 | 69.62 | 87.8830521107 |
| 2-2-14-14 | 5-5-8-4 | 1-8-8-3-1
 | 5 | 0.375051724353 | 89.19 | 89.8531708717 |
| 2-2-14-14 | 5-5-8-4 | 1-8-8-4-1
 | 5 | 0.307681148464 | 91.41 | 91.6268019676 |
| 2-2-14-14 | 5-5-8-4 | 1-8-8-5-1
 | 5 | 0.302758034158 | 91.27 | 94.368142128 |
| 2-2-14-14 | 5-5-8-4 | 1-8-8-6-1
 | 5 | 2.18575929764 | 32.42 | 96.1726429462 |
| 2-2-14-14 | 5-5-8-4 | 1-8-8-7-1
 | 5 | 0.332737637134 | 90.68 | 98.0002439022 |
| 2-2-14-14 | 5-5-8-4 | 1-8-8-8-1
 | 5 | 0.497613610657 | 85.85 | 100.781877995 |
| 2-2-14-14 | 5-5-8-4 | 1-8-8-9-1
 | 5 | 0.592771646946 | 82.97 | 102.98230505 |
| 2-2-14-14 | 5-5-8-4 | 1-8-8-10-1
 | 5 | 0.529913399842 | 84.22 | 105.023602009 |
| 2-2-14-14 | 5-5-8-4 | 1-8-9-1-1
 | 5 | 2.30097062514 | 11.35 | 86.6027131081 |
| 2-2-14-14 | 5-5-8-4 | 1-8-9-2-1
 | 5 | 1.51645788148 | 50.9 | 88.9459218979 |
| 2-2-14-14 | 5-5-8-4 | 1-8-9-3-1
 | 5 | 1.71423449788 | 45.88 | 91.1982550621 |
| 2-2-14-14 | 5-5-8-4 | 1-8-9-4-1
 | 5 | 2.24842804804 | 25.83 | 93.4407451153 |
| 2-2-14-14 | 5-5-8-4 | 1-8-9-5-1
 | 5 | 1.59417406099 | 48.23 | 95.7754588127 |
| 2-2-14-14 | 5-5-8-4 | 1-8-9-6-1
 | 5 | 0.767349548456 | 76.37 | 98.2232439518 |
| 2-2-14-14 | 5-5-8-4 | 1-8-9-7-1
 | 5 | 0.387408722225 | 88.82 | 100.951254129 |
| 2-2-14-14 | 5-5-8-4 | 1-8-9-8-1
 | 5 | 1.99282572542 | 26.88 | 102.668483019 |
| 2-2-14-14 | 5-5-8-4 | 1-8-9-9-1
 | 5 | 0.409127315275 | 88.32 | 105.454495907 |
| 2-2-14-14 | 5-5-8-4 | 1-8-9-10-1
 | 5 | 0.353111320412 | 90.2 | 107.309440136 |
| 2-2-14-14 | 5-5-8-4 | 1-8-10-1-1
 | 5 | 2.30102458174 | 11.35 | 87.2261781693 |
| 2-2-14-14 | 5-5-8-4 | 1-8-10-2-1
 | 5 | 0.292672196192 | 91.57 | 90.1820070744 |
| 2-2-14-14 | 5-5-8-4 | 1-8-10-3-1
 | 5 | 0.421883607759 | 88.01 | 92.8727397919 |
| 2-2-14-14 | 5-5-8-4 | 1-8-10-4-1
 | 5 | 0.354662564203 | 90.13 | 95.0714359283 |
| 2-2-14-14 | 5-5-8-4 | 1-8-10-5-1
 | 5 | 0.56570228484 | 83.1 | 97.4286730289 |
| 2-2-14-14 | 5-5-8-4 | 1-8-10-6-1
 | 5 | 0.35382688456 | 89.95 | 99.9907999039 |
| 2-2-14-14 | 5-5-8-4 | 1-8-10-7-1
 | 5 | 2.10051497881 | 39.49 | 102.374102831 |
| 2-2-14-14 | 5-5-8-4 | 1-8-10-8-1
 | 5 | 0.514052468177 | 85.33 | 104.365505934 |
| 2-2-14-14 | 5-5-8-4 | 1-8-10-9-1
 | 5 | 0.339795039853 | 90.37 | 105.005233049 |
| 2-2-14-14 | 5-5-8-4 | 1-8-10-10-1
 | 5 | 0.331733388048 | 90.77 | 103.251930952 |
