| 2-2-14-14 | 5-5-8-4 | 1-9-1-1-1
 | 5 | 2.30101652448 | 11.35 | 86.9878330231 |
| 2-2-14-14 | 5-5-8-4 | 1-9-1-2-1
 | 5 | 2.30051053297 | 11.35 | 81.8709630966 |
| 2-2-14-14 | 5-5-8-4 | 1-9-1-3-1
 | 5 | 2.30024990245 | 11.35 | 83.1436891556 |
| 2-2-14-14 | 5-5-8-4 | 1-9-1-4-1
 | 5 | 0.171213058985 | 94.97 | 84.7057709694 |
| 2-2-14-14 | 5-5-8-4 | 1-9-1-5-1
 | 5 | 0.1907100421 | 94.19 | 85.6056010723 |
| 2-2-14-14 | 5-5-8-4 | 1-9-1-6-1
 | 5 | 0.177851307827 | 94.83 | 86.7994408607 |
| 2-2-14-14 | 5-5-8-4 | 1-9-1-7-1
 | 5 | 0.186045680925 | 94.66 | 87.9693431854 |
| 2-2-14-14 | 5-5-8-4 | 1-9-1-8-1
 | 5 | 0.203910910875 | 94.36 | 89.2575750351 |
| 2-2-14-14 | 5-5-8-4 | 1-9-1-9-1
 | 5 | 0.198284212497 | 94.25 | 91.0668530464 |
| 2-2-14-14 | 5-5-8-4 | 1-9-1-10-1
 | 5 | 0.200159724118 | 94.13 | 91.9362659454 |
| 2-2-14-14 | 5-5-8-4 | 1-9-2-1-1
 | 5 | 2.30098048288 | 11.35 | 81.1737449169 |
| 2-2-14-14 | 5-5-8-4 | 1-9-2-2-1
 | 5 | 2.30097514624 | 11.35 | 82.820554018 |
| 2-2-14-14 | 5-5-8-4 | 1-9-2-3-1
 | 5 | 2.29905547559 | 11.35 | 84.3900969028 |
| 2-2-14-14 | 5-5-8-4 | 1-9-2-4-1
 | 5 | 2.30094455255 | 11.35 | 85.2279200554 |
| 2-2-14-14 | 5-5-8-4 | 1-9-2-5-1
 | 5 | 0.171362503464 | 94.99 | 86.9699399471 |
| 2-2-14-14 | 5-5-8-4 | 1-9-2-6-1
 | 5 | 0.190412594228 | 94.48 | 88.4950060844 |
| 2-2-14-14 | 5-5-8-4 | 1-9-2-7-1
 | 5 | 0.184816000333 | 94.38 | 90.2321021557 |
| 2-2-14-14 | 5-5-8-4 | 1-9-2-8-1
 | 5 | 0.196821521972 | 94.17 | 91.367606163 |
| 2-2-14-14 | 5-5-8-4 | 1-9-2-9-1
 | 5 | 0.205213285738 | 94.03 | 92.5471320152 |
| 2-2-14-14 | 5-5-8-4 | 1-9-2-10-1
 | 5 | 0.176427308851 | 94.71 | 102.630837917 |
| 2-2-14-14 | 5-5-8-4 | 1-9-3-1-1
 | 5 | 2.30107614282 | 11.35 | 82.7561042309 |
| 2-2-14-14 | 5-5-8-4 | 1-9-3-2-1
 | 5 | 2.30104703602 | 11.35 | 83.9745109081 |
| 2-2-14-14 | 5-5-8-4 | 1-9-3-3-1
 | 5 | 2.20129838492 | 22.67 | 85.9697339535 |
| 2-2-14-14 | 5-5-8-4 | 1-9-3-4-1
 | 5 | 0.411587693774 | 88.23 | 87.3575742245 |
| 2-2-14-14 | 5-5-8-4 | 1-9-3-5-1
 | 5 | 0.705013268032 | 77.85 | 89.0242371559 |
| 2-2-14-14 | 5-5-8-4 | 1-9-3-6-1
 | 5 | 2.29484664774 | 11.35 | 90.1527271271 |
| 2-2-14-14 | 5-5-8-4 | 1-9-3-7-1
 | 5 | 0.165353686233 | 95.07 | 92.033135891 |
| 2-2-14-14 | 5-5-8-4 | 1-9-3-8-1
 | 5 | 0.180890541781 | 94.72 | 93.7958409786 |
| 2-2-14-14 | 5-5-8-4 | 1-9-3-9-1
 | 5 | 0.174549526546 | 94.76 | 95.3509571552 |
| 2-2-14-14 | 5-5-8-4 | 1-9-3-10-1
 | 5 | 0.188937582069 | 94.61 | 104.477561951 |
| 2-2-14-14 | 5-5-8-4 | 1-9-4-1-1
 | 5 | 2.30100295238 | 11.35 | 88.9203031063 |
| 2-2-14-14 | 5-5-8-4 | 1-9-4-2-1
 | 5 | 0.482803956719 | 85.26 | 91.9915959835 |
| 2-2-14-14 | 5-5-8-4 | 1-9-4-3-1
 | 5 | 2.27104253628 | 18.79 | 93.4084289074 |
| 2-2-14-14 | 5-5-8-4 | 1-9-4-4-1
 | 5 | 2.29843519838 | 11.35 | 94.621368885 |
| 2-2-14-14 | 5-5-8-4 | 1-9-4-5-1
 | 5 | 0.502766406363 | 85.67 | 96.7834711075 |
| 2-2-14-14 | 5-5-8-4 | 1-9-4-6-1
 | 5 | 2.26204994782 | 19.77 | 98.3908650875 |
| 2-2-14-14 | 5-5-8-4 | 1-9-4-7-1
 | 5 | 0.271976620491 | 92.29 | 100.231909037 |
| 2-2-14-14 | 5-5-8-4 | 1-9-4-8-1
 | 5 | 0.511816688395 | 84.53 | 101.931976795 |
| 2-2-14-14 | 5-5-8-4 | 1-9-4-9-1
 | 5 | 0.174729890195 | 94.96 | 103.931234121 |
| 2-2-14-14 | 5-5-8-4 | 1-9-4-10-1
 | 5 | 0.169867599788 | 94.93 | 114.154813051 |
| 2-2-14-14 | 5-5-8-4 | 1-9-5-1-1
 | 5 | 2.30102756566 | 11.35 | 91.5311291218 |
| 2-2-14-14 | 5-5-8-4 | 1-9-5-2-1
 | 5 | 1.59257569802 | 44.19 | 93.6165411472 |
| 2-2-14-14 | 5-5-8-4 | 1-9-5-3-1
 | 5 | 2.30072914228 | 11.35 | 94.8076241016 |
| 2-2-14-14 | 5-5-8-4 | 1-9-5-4-1
 | 5 | 2.23921735701 | 28.01 | 97.045178175 |
| 2-2-14-14 | 5-5-8-4 | 1-9-5-5-1
 | 5 | 1.4355362131 | 52.6 | 98.7671539783 |
| 2-2-14-14 | 5-5-8-4 | 1-9-5-6-1
 | 5 | 0.671436425569 | 79.96 | 101.044979095 |
| 2-2-14-14 | 5-5-8-4 | 1-9-5-7-1
 | 5 | 2.21375007386 | 43.05 | 103.124499083 |
| 2-2-14-14 | 5-5-8-4 | 1-9-5-8-1
 | 5 | 0.833703864589 | 75.3 | 105.02008009 |
| 2-2-14-14 | 5-5-8-4 | 1-9-5-9-1
 | 5 | 0.805855880464 | 77.8 | 106.516180992 |
| 2-2-14-14 | 5-5-8-4 | 1-9-5-10-1
 | 5 | 0.16531515874 | 95.22 | 108.856744051 |
| 2-2-14-14 | 5-5-8-4 | 1-9-6-1-1
 | 5 | 2.30101858717 | 11.35 | 93.006403923 |
| 2-2-14-14 | 5-5-8-4 | 1-9-6-2-1
 | 5 | 0.243675507604 | 92.99 | 94.8103840351 |
| 2-2-14-14 | 5-5-8-4 | 1-9-6-3-1
 | 5 | 0.574205504698 | 83.27 | 96.9078221321 |
| 2-2-14-14 | 5-5-8-4 | 1-9-6-4-1
 | 5 | 0.428822711405 | 87.84 | 98.3236460686 |
| 2-2-14-14 | 5-5-8-4 | 1-9-6-5-1
 | 5 | 0.6566725329 | 79.37 | 100.554383993 |
| 2-2-14-14 | 5-5-8-4 | 1-9-6-6-1
 | 5 | 0.74609607351 | 77.0 | 102.649272919 |
| 2-2-14-14 | 5-5-8-4 | 1-9-6-7-1
 | 5 | 1.52260155205 | 64.92 | 104.714190006 |
| 2-2-14-14 | 5-5-8-4 | 1-9-6-8-1
 | 5 | 0.509612477115 | 85.32 | 106.409320116 |
| 2-2-14-14 | 5-5-8-4 | 1-9-6-9-1
 | 5 | 2.04073864078 | 34.59 | 108.604187965 |
| 2-2-14-14 | 5-5-8-4 | 1-9-6-10-1
 | 5 | 0.615187179835 | 81.37 | 120.67966485 |
| 2-2-14-14 | 5-5-8-4 | 1-9-7-1-1
 | 5 | 2.30102760332 | 11.35 | 95.0133299828 |
| 2-2-14-14 | 5-5-8-4 | 1-9-7-2-1
 | 5 | 0.600933466974 | 82.31 | 96.6289329529 |
| 2-2-14-14 | 5-5-8-4 | 1-9-7-3-1
 | 5 | 0.459241882015 | 86.6 | 99.043022871 |
| 2-2-14-14 | 5-5-8-4 | 1-9-7-4-1
 | 5 | 0.524761417655 | 84.58 | 100.590675831 |
| 2-2-14-14 | 5-5-8-4 | 1-9-7-5-1
 | 5 | 0.328214326326 | 90.88 | 100.829777002 |
| 2-2-14-14 | 5-5-8-4 | 1-9-7-6-1
 | 5 | 0.948436869995 | 71.11 | 97.7608401775 |
| 2-2-14-14 | 5-5-8-4 | 1-9-7-7-1
 | 5 | 0.76771412927 | 76.36 | 100.180589914 |
| 2-2-14-14 | 5-5-8-4 | 1-9-7-8-1
 | 5 | 1.27653211058 | 63.01 | 101.246537209 |
| 2-2-14-14 | 5-5-8-4 | 1-9-7-9-1
 | 5 | 0.320207094863 | 90.96 | 103.81593585 |
| 2-2-14-14 | 5-5-8-4 | 1-9-7-10-1
 | 5 | 0.565627818339 | 83.16 | 113.69253397 |
| 2-2-14-14 | 5-5-8-4 | 1-9-8-1-1
 | 5 | 2.30099731734 | 11.35 | 88.1120369434 |
| 2-2-14-14 | 5-5-8-4 | 1-9-8-2-1
 | 5 | 1.88674498807 | 31.39 | 90.7160899639 |
| 2-2-14-14 | 5-5-8-4 | 1-9-8-3-1
 | 5 | 0.2358859788 | 93.26 | 93.0819621086 |
| 2-2-14-14 | 5-5-8-4 | 1-9-8-4-1
 | 5 | 0.53016266825 | 84.32 | 94.6453278065 |
| 2-2-14-14 | 5-5-8-4 | 1-9-8-5-1
 | 5 | 0.479444021219 | 86.44 | 97.0642211437 |
| 2-2-14-14 | 5-5-8-4 | 1-9-8-6-1
 | 5 | 0.360855533975 | 89.87 | 99.4671270847 |
| 2-2-14-14 | 5-5-8-4 | 1-9-8-7-1
 | 5 | 0.692349451835 | 78.81 | 101.800065041 |
| 2-2-14-14 | 5-5-8-4 | 1-9-8-8-1
 | 5 | 0.42173404558 | 87.7 | 103.503004074 |
| 2-2-14-14 | 5-5-8-4 | 1-9-8-9-1
 | 5 | 0.822079510222 | 75.22 | 105.737933159 |
| 2-2-14-14 | 5-5-8-4 | 1-9-8-10-1
 | 5 | 0.470921442191 | 85.96 | 116.526081085 |
| 2-2-14-14 | 5-5-8-4 | 1-9-9-1-1
 | 5 | 2.30101677126 | 11.35 | 89.4046518803 |
| 2-2-14-14 | 5-5-8-4 | 1-9-9-2-1
 | 5 | 1.71306217269 | 43.23 | 92.1334009171 |
| 2-2-14-14 | 5-5-8-4 | 1-9-9-3-1
 | 5 | 0.93829868376 | 71.28 | 94.5847718716 |
| 2-2-14-14 | 5-5-8-4 | 1-9-9-4-1
 | 5 | 0.434223195102 | 87.98 | 96.4390799999 |
| 2-2-14-14 | 5-5-8-4 | 1-9-9-5-1
 | 5 | 0.517936310604 | 85.23 | 99.2120189667 |
| 2-2-14-14 | 5-5-8-4 | 1-9-9-6-1
 | 5 | 0.493002319594 | 85.89 | 101.462832928 |
| 2-2-14-14 | 5-5-8-4 | 1-9-9-7-1
 | 5 | 1.77916155422 | 36.1 | 103.782926083 |
| 2-2-14-14 | 5-5-8-4 | 1-9-9-8-1
 | 5 | 0.333305288742 | 90.8 | 105.856411934 |
| 2-2-14-14 | 5-5-8-4 | 1-9-9-9-1
 | 5 | 0.252986084972 | 93.02 | 116.912788868 |
| 2-2-14-14 | 5-5-8-4 | 1-9-9-10-1
 | 5 | 0.280632158219 | 92.08 | 110.612223864 |
| 2-2-14-14 | 5-5-8-4 | 1-9-10-1-1
 | 5 | 2.30099855749 | 11.35 | 90.2611300945 |
| 2-2-14-14 | 5-5-8-4 | 1-9-10-2-1
 | 5 | 0.758815427606 | 76.22 | 93.2254841328 |
| 2-2-14-14 | 5-5-8-4 | 1-9-10-3-1
 | 5 | 1.21117309818 | 63.0 | 95.6900849342 |
| 2-2-14-14 | 5-5-8-4 | 1-9-10-4-1
 | 5 | 0.263307426177 | 92.47 | 97.9258720875 |
| 2-2-14-14 | 5-5-8-4 | 1-9-10-5-1
 | 5 | 0.310150652086 | 91.18 | 100.459933996 |
| 2-2-14-14 | 5-5-8-4 | 1-9-10-6-1
 | 5 | 0.516979470795 | 85.3 | 102.552134037 |
| 2-2-14-14 | 5-5-8-4 | 1-9-10-7-1
 | 5 | 0.492674170534 | 85.66 | 99.1865022182 |
| 2-2-14-14 | 5-5-8-4 | 1-9-10-8-1
 | 5 | 0.509782221708 | 84.79 | 99.2109179497 |
| 2-2-14-14 | 5-5-8-4 | 1-9-10-9-1
 | 5 | 0.265994686081 | 92.03 | 100.870646 |
| 2-2-14-14 | 5-5-8-4 | 1-9-10-10-1
 | 5 | 0.332232779519 | 90.54 | 110.978991032 |
