| 2-2-14-14 | 5-5-8-4 | 1-10-1-1-1 | 5 | 2.30099836445 | 11.35 | 115.874706984 |
| 2-2-14-14 | 5-5-8-4 | 1-10-1-2-1 | 5 | 2.28946955714 | 11.35 | 114.424245834 |
| 2-2-14-14 | 5-5-8-4 | 1-10-1-3-1 | 5 | 2.30085683194 | 11.35 | 111.557584047 |
| 2-2-14-14 | 5-5-8-4 | 1-10-1-4-1 | 5 | 0.186721710997 | 94.56 | 116.488173962 |
| 2-2-14-14 | 5-5-8-4 | 1-10-1-5-1 | 5 | 0.18242106102 | 94.64 | 121.54298687 |
| 2-2-14-14 | 5-5-8-4 | 1-10-1-6-1 | 5 | 0.212141112131 | 93.76 | 122.232676983 |
| 2-2-14-14 | 5-5-8-4 | 1-10-1-7-1 | 5 | 0.188608815555 | 94.75 | 131.989189148 |
| 2-2-14-14 | 5-5-8-4 | 1-10-1-8-1 | 5 | 0.190464919278 | 94.53 | 125.385097027 |
| 2-2-14-14 | 5-5-8-4 | 1-10-1-9-1 | 5 | 0.19328017698 | 94.43 | 137.30804801 |
| 2-2-14-14 | 5-5-8-4 | 1-10-1-10-1 | 5 | 0.206133882583 | 94.09 | 120.384618998 |
| 2-2-14-14 | 5-5-8-4 | 1-10-2-1-1 | 5 | 2.30103610503 | 11.35 | 109.544611931 |
| 2-2-14-14 | 5-5-8-4 | 1-10-2-2-1 | 5 | 2.30102609775 | 11.35 | 115.433509111 |
| 2-2-14-14 | 5-5-8-4 | 1-10-2-3-1 | 5 | 2.16330398499 | 24.14 | 115.180386066 |
| 2-2-14-14 | 5-5-8-4 | 1-10-2-4-1 | 5 | 0.394386552884 | 88.84 | 123.665941 |
| 2-2-14-14 | 5-5-8-4 | 1-10-2-5-1 | 5 | 1.25767429996 | 58.91 | 119.995937109 |
| 2-2-14-14 | 5-5-8-4 | 1-10-2-6-1 | 5 | 0.166461906148 | 95.14 | 127.053025961 |
| 2-2-14-14 | 5-5-8-4 | 1-10-2-7-1 | 5 | 0.167152792544 | 95.26 | 124.10986495 |
| 2-2-14-14 | 5-5-8-4 | 1-10-2-8-1 | 5 | 0.166816480748 | 95.15 | 125.80325985 |
| 2-2-14-14 | 5-5-8-4 | 1-10-2-9-1 | 5 | 0.198423024337 | 94.07 | 126.683670998 |
| 2-2-14-14 | 5-5-8-4 | 1-10-2-10-1 | 5 | 0.190813036791 | 94.42 | 131.931809187 |
| 2-2-14-14 | 5-5-8-4 | 1-10-3-1-1 | 5 | 2.30102371472 | 11.35 | 114.233368158 |
| 2-2-14-14 | 5-5-8-4 | 1-10-3-2-1 | 5 | 2.30086133561 | 11.35 | 115.563526869 |
| 2-2-14-14 | 5-5-8-4 | 1-10-3-3-1 | 5 | 2.10463078224 | 22.02 | 118.144138098 |
| 2-2-14-14 | 5-5-8-4 | 1-10-3-4-1 | 5 | 0.61127009803 | 82.04 | 120.32493186 |
| 2-2-14-14 | 5-5-8-4 | 1-10-3-5-1 | 5 | 1.39297720654 | 60.46 | 120.422872066 |
| 2-2-14-14 | 5-5-8-4 | 1-10-3-6-1 | 5 | 1.35901192991 | 59.57 | 120.450487852 |
| 2-2-14-14 | 5-5-8-4 | 1-10-3-7-1 | 5 | 2.01240362748 | 30.8 | 125.918889999 |
| 2-2-14-14 | 5-5-8-4 | 1-10-3-8-1 | 5 | 0.16853483775 | 95.0 | 132.82199192 |
| 2-2-14-14 | 5-5-8-4 | 1-10-3-9-1 | 5 | 0.180153276148 | 94.84 | 128.50546217 |
| 2-2-14-14 | 5-5-8-4 | 1-10-3-10-1 | 5 | 0.200579281073 | 94.16 | 136.218508005 |
| 2-2-14-14 | 5-5-8-4 | 1-10-4-1-1 | 5 | 2.30099373293 | 11.35 | 113.757632971 |
| 2-2-14-14 | 5-5-8-4 | 1-10-4-2-1 | 5 | 2.30089826898 | 11.35 | 116.690818071 |
| 2-2-14-14 | 5-5-8-4 | 1-10-4-3-1 | 5 | 2.27706379197 | 18.63 | 118.066313982 |
| 2-2-14-14 | 5-5-8-4 | 1-10-4-4-1 | 5 | 1.44530050802 | 57.1 | 124.222148895 |
| 2-2-14-14 | 5-5-8-4 | 1-10-4-5-1 | 5 | 0.505340255561 | 85.26 | 123.911746025 |
| 2-2-14-14 | 5-5-8-4 | 1-10-4-6-1 | 5 | 1.51210799516 | 53.84 | 126.523384809 |
| 2-2-14-14 | 5-5-8-4 | 1-10-4-7-1 | 5 | 0.413549632551 | 88.1 | 129.363449097 |
| 2-2-14-14 | 5-5-8-4 | 1-10-4-8-1 | 5 | 0.287388932897 | 91.44 | 132.930807114 |
| 2-2-14-14 | 5-5-8-4 | 1-10-4-9-1 | 5 | 0.184405568097 | 94.74 | 135.720225096 |
| 2-2-14-14 | 5-5-8-4 | 1-10-4-10-1 | 5 | 0.155791851015 | 95.27 | 140.195204973 |
| 2-2-14-14 | 5-5-8-4 | 1-10-5-1-1 | 5 | 2.30103533244 | 11.35 | 117.000041962 |
| 2-2-14-14 | 5-5-8-4 | 1-10-5-2-1 | 5 | 2.2964576329 | 11.35 | 118.198364973 |
| 2-2-14-14 | 5-5-8-4 | 1-10-5-3-1 | 5 | 0.348638783171 | 90.25 | 122.358262062 |
| 2-2-14-14 | 5-5-8-4 | 1-10-5-4-1 | 5 | 0.748146441079 | 77.64 | 123.047751904 |
| 2-2-14-14 | 5-5-8-4 | 1-10-5-5-1 | 5 | 0.287884943471 | 92.1 | 125.252338886 |
| 2-2-14-14 | 5-5-8-4 | 1-10-5-6-1 | 5 | 0.710349744456 | 78.3 | 126.20737505 |
| 2-2-14-14 | 5-5-8-4 | 1-10-5-7-1 | 5 | 2.19547009226 | 28.47 | 126.099272966 |
| 2-2-14-14 | 5-5-8-4 | 1-10-5-8-1 | 5 | 2.27324899307 | 19.36 | 141.784631968 |
| 2-2-14-14 | 5-5-8-4 | 1-10-5-9-1 | 5 | 0.259632495923 | 92.64 | 139.164139032 |
| 2-2-14-14 | 5-5-8-4 | 1-10-5-10-1 | 5 | 0.323183328277 | 90.86 | 135.493464947 |
| 2-2-14-14 | 5-5-8-4 | 1-10-6-1-1 | 5 | 2.30100341228 | 11.35 | 119.773200989 |
| 2-2-14-14 | 5-5-8-4 | 1-10-6-2-1 | 5 | 2.30088026283 | 11.35 | 117.463076115 |
| 2-2-14-14 | 5-5-8-4 | 1-10-6-3-1 | 5 | 0.403724425799 | 88.62 | 112.853822947 |
| 2-2-14-14 | 5-5-8-4 | 1-10-6-4-1 | 5 | 0.455069625512 | 86.81 | 124.914602995 |
| 2-2-14-14 | 5-5-8-4 | 1-10-6-5-1 | 5 | 0.785052008507 | 75.9 | 124.255727053 |
| 2-2-14-14 | 5-5-8-4 | 1-10-6-6-1 | 5 | 2.07185227041 | 25.4 | 123.072911978 |
| 2-2-14-14 | 5-5-8-4 | 1-10-6-7-1 | 5 | 2.23931873562 | 24.98 | 133.332724094 |
| 2-2-14-14 | 5-5-8-4 | 1-10-6-8-1 | 5 | 0.481528720919 | 85.79 | 143.596116066 |
| 2-2-14-14 | 5-5-8-4 | 1-10-6-9-1 | 5 | 2.16120323088 | 29.53 | 142.823035955 |
| 2-2-14-14 | 5-5-8-4 | 1-10-6-10-1 | 5 | 0.292731137777 | 91.64 | 142.750694036 |
| 2-2-14-14 | 5-5-8-4 | 1-10-7-1-1 | 5 | 2.30104379308 | 11.35 | 117.649410009 |
| 2-2-14-14 | 5-5-8-4 | 1-10-7-2-1 | 5 | 0.375883649598 | 89.38 | 121.537964821 |
| 2-2-14-14 | 5-5-8-4 | 1-10-7-3-1 | 5 | 0.586143481354 | 83.06 | 123.762710094 |
| 2-2-14-14 | 5-5-8-4 | 1-10-7-4-1 | 5 | 0.406645897375 | 88.77 | 122.349891901 |
| 2-2-14-14 | 5-5-8-4 | 1-10-7-5-1 | 5 | 0.615790117188 | 81.72 | 127.467107058 |
| 2-2-14-14 | 5-5-8-4 | 1-10-7-6-1 | 5 | 0.949578848162 | 70.74 | 126.541752815 |
| 2-2-14-14 | 5-5-8-4 | 1-10-7-7-1 | 5 | 0.417789878013 | 87.83 | 134.235955954 |
| 2-2-14-14 | 5-5-8-4 | 1-10-7-8-1 | 5 | 2.16576330497 | 32.49 | 143.584594965 |
| 2-2-14-14 | 5-5-8-4 | 1-10-7-9-1 | 5 | 1.88139738417 | 31.7 | 137.550655127 |
| 2-2-14-14 | 5-5-8-4 | 1-10-7-10-1 | 5 | 0.372242105701 | 89.97 | 146.059131861 |
| 2-2-14-14 | 5-5-8-4 | 1-10-8-1-1 | 5 | 2.30099254769 | 11.35 | 118.335322142 |
| 2-2-14-14 | 5-5-8-4 | 1-10-8-2-1 | 5 | 2.0912617933 | 27.0 | 116.421536922 |
| 2-2-14-14 | 5-5-8-4 | 1-10-8-3-1 | 5 | 0.220100989816 | 93.64 | 116.996265888 |
| 2-2-14-14 | 5-5-8-4 | 1-10-8-4-1 | 5 | 0.210048125212 | 93.78 | 128.251538992 |
| 2-2-14-14 | 5-5-8-4 | 1-10-8-5-1 | 5 | 0.412727345761 | 88.16 | 130.936532974 |
| 2-2-14-14 | 5-5-8-4 | 1-10-8-6-1 | 5 | 0.652617236255 | 80.73 | 133.542965889 |
| 2-2-14-14 | 5-5-8-4 | 1-10-8-7-1 | 5 | 0.240740299512 | 93.19 | 132.511474133 |
| 2-2-14-14 | 5-5-8-4 | 1-10-8-8-1 | 5 | 2.28415930033 | 11.36 | 139.183632135 |
| 2-2-14-14 | 5-5-8-4 | 1-10-8-9-1 | 5 | 0.359781955721 | 89.72 | 140.536707163 |
| 2-2-14-14 | 5-5-8-4 | 1-10-8-10-1 | 5 | 0.253239278369 | 92.87 | 152.286822081 |
| 2-2-14-14 | 5-5-8-4 | 1-10-9-1-1 | 5 | 2.30100234929 | 11.35 | 122.152047157 |
| 2-2-14-14 | 5-5-8-4 | 1-10-9-2-1 | 5 | 1.93166255245 | 24.78 | 118.43719697 |
| 2-2-14-14 | 5-5-8-4 | 1-10-9-3-1 | 5 | 0.607115782183 | 81.51 | 124.673180103 |
| 2-2-14-14 | 5-5-8-4 | 1-10-9-4-1 | 5 | 0.468416911604 | 86.57 | 127.363466024 |
| 2-2-14-14 | 5-5-8-4 | 1-10-9-5-1 | 5 | 0.251733986151 | 92.9 | 127.289375067 |
| 2-2-14-14 | 5-5-8-4 | 1-10-9-6-1 | 5 | 0.451066509775 | 87.19 | 128.754389048 |
| 2-2-14-14 | 5-5-8-4 | 1-10-9-7-1 | 5 | 0.332583394195 | 90.56 | 125.59027791 |
| 2-2-14-14 | 5-5-8-4 | 1-10-9-8-1 | 5 | 1.75465111321 | 36.54 | 134.277313948 |
| 2-2-14-14 | 5-5-8-4 | 1-10-9-9-1 | 5 | 0.474636491853 | 86.21 | 132.737509966 |
| 2-2-14-14 | 5-5-8-4 | 1-10-9-10-1 | 5 | 0.517183422472 | 84.6 | 133.342077017 |
| 2-2-14-14 | 5-5-8-4 | 1-10-10-1-1 | 5 | 2.30102437161 | 11.35 | 102.801685095 |
| 2-2-14-14 | 5-5-8-4 | 1-10-10-2-1 | 5 | 0.482449187688 | 86.12 | 98.2655677795 |
| 2-2-14-14 | 5-5-8-4 | 1-10-10-3-1 | 5 | 0.254426180608 | 92.65 | 99.9319550991 |
| 2-2-14-14 | 5-5-8-4 | 1-10-10-4-1 | 5 | 0.341728618266 | 90.46 | 102.754239082 |
| 2-2-14-14 | 5-5-8-4 | 1-10-10-5-1 | 5 | 0.344389846771 | 90.22 | 107.779145002 |
| 2-2-14-14 | 5-5-8-4 | 1-10-10-6-1 | 5 | 0.303557255594 | 91.37 | 100.593220949 |
| 2-2-14-14 | 5-5-8-4 | 1-10-10-7-1 | 5 | 0.348821968355 | 90.06 | 111.510551929 |
| 2-2-14-14 | 5-5-8-4 | 1-10-10-8-1 | 5 | 0.323602752988 | 90.76 | 113.238799095 |
| 2-2-14-14 | 5-5-8-4 | 1-10-10-9-1 | 5 | 0.32566055245 | 90.97 | 114.382040977 |
| 2-2-14-14 | 5-5-8-4 | 1-10-10-10-1 | 5 | 0.576385035185 | 82.86 | 117.386474133 |
| 2-2-14-14 | 5-5-8-4 | 1-1-1-1-1 | 5 | 2.06614744417 | 32.82 | 87.5153870583 |
| 2-2-14-14 | 5-5-8-4 | 1-1-1-2-1 | 5 | 0.219595941879 | 93.59 | 89.2901518345 |
| 2-2-14-14 | 5-5-8-4 | 1-1-1-3-1 | 5 | 0.633561644211 | 80.04 | 94.2813310623 |
| 2-2-14-14 | 5-5-8-4 | 1-1-1-4-1 | 5 | 2.30080380613 | 11.35 | 94.6379630566 |
| 2-2-14-14 | 5-5-8-4 | 1-1-1-5-1 | 5 | 0.217313089651 | 93.69 | 99.7674460411 |
| 2-2-14-14 | 5-5-8-4 | 1-1-1-6-1 | 5 | 0.248549335392 | 92.74 | 101.531747818 |
| 2-2-14-14 | 5-5-8-4 | 1-1-1-7-1 | 5 | 1.21425764955 | 67.44 | 101.81992507 |
| 2-2-14-14 | 5-5-8-4 | 1-1-1-8-1 | 5 | 2.29484216391 | 11.35 | 102.985185146 |
| 2-2-14-14 | 5-5-8-4 | 1-1-1-9-1 | 5 | 0.309582479661 | 91.33 | 103.618098021 |
| 2-2-14-14 | 5-5-8-4 | 1-1-1-10-1 | 5 | 2.0484574462 | 34.02 | 109.140394926 |
| 2-2-14-14 | 5-5-8-4 | 1-1-2-1-1 | 5 | 0.457046291494 | 87.1 | 87.4099030495 |
| 2-2-14-14 | 5-5-8-4 | 1-1-2-2-1 | 5 | 2.27918992924 | 11.36 | 90.4304668903 |
| 2-2-14-14 | 5-5-8-4 | 1-1-2-3-1 | 5 | 0.283342896171 | 91.94 | 90.1470808983 |
| 2-2-14-14 | 5-5-8-4 | 1-1-2-4-1 | 5 | 0.387238921994 | 88.67 | 94.3500518799 |
| 2-2-14-14 | 5-5-8-4 | 1-1-2-5-1 | 5 | 2.29330027415 | 11.35 | 98.043956995 |
| 2-2-14-14 | 5-5-8-4 | 1-1-2-6-1 | 5 | 2.29455929592 | 11.35 | 98.0548660755 |
| 2-2-14-14 | 5-5-8-4 | 1-1-2-7-1 | 5 | 1.26340014315 | 62.26 | 104.459606886 |
| 2-2-14-14 | 5-5-8-4 | 1-1-2-8-1 | 5 | 0.337017190008 | 90.27 | 105.454452991 |
| 2-2-14-14 | 5-5-8-4 | 1-1-2-9-1 | 5 | 0.270108111312 | 92.38 | 107.154371977 |
| 2-2-14-14 | 5-5-8-4 | 1-1-2-10-1 | 5 | 0.47641785706 | 85.95 | 108.02014184 |
| 2-2-14-14 | 5-5-8-4 | 1-1-3-1-1 | 5 | 0.254030561035 | 92.86 | 87.4182991982 |
| 2-2-14-14 | 5-5-8-4 | 1-1-3-2-1 | 5 | 2.19382573382 | 30.17 | 90.0869371891 |
| 2-2-14-14 | 5-5-8-4 | 1-1-3-3-1 | 5 | 0.458957573681 | 86.83 | 93.7252988815 |
| 2-2-14-14 | 5-5-8-4 | 1-1-3-4-1 | 5 | 0.837407368395 | 74.15 | 96.2262639999 |
| 2-2-14-14 | 5-5-8-4 | 1-1-3-5-1 | 5 | 0.278788124862 | 92.19 | 98.8507499695 |
| 2-2-14-14 | 5-5-8-4 | 1-1-3-6-1 | 5 | 0.35054496606 | 90.11 | 100.692331076 |
| 2-2-14-14 | 5-5-8-4 | 1-1-3-7-1 | 5 | 0.37350916506 | 89.04 | 100.729517221 |
| 2-2-14-14 | 5-5-8-4 | 1-1-3-8-1 | 5 | 0.352032018591 | 90.22 | 105.335882902 |
| 2-2-14-14 | 5-5-8-4 | 1-1-3-9-1 | 5 | 2.27708929374 | 11.35 | 105.539398909 |
| 2-2-14-14 | 5-5-8-4 | 1-1-3-10-1 | 5 | 0.843771403657 | 73.66 | 101.179345131 |
| 2-2-14-14 | 5-5-8-4 | 1-1-4-1-1 | 5 | 0.594883745612 | 82.22 | 92.8989977837 |
| 2-2-14-14 | 5-5-8-4 | 1-1-4-2-1 | 5 | 0.208593422083 | 93.93 | 95.112844944 |
| 2-2-14-14 | 5-5-8-4 | 1-1-4-3-1 | 5 | 0.275420068184 | 92.17 | 94.8677639961 |
| 2-2-14-14 | 5-5-8-4 | 1-1-4-4-1 | 5 | 0.289151870418 | 91.84 | 96.0861029625 |
| 2-2-14-14 | 5-5-8-4 | 1-1-4-5-1 | 5 | 0.195122393663 | 94.45 | 102.664407015 |
| 2-2-14-14 | 5-5-8-4 | 1-1-4-6-1 | 5 | 2.26298930958 | 19.53 | 103.277613163 |
| 2-2-14-14 | 5-5-8-4 | 1-1-4-7-1 | 5 | 0.259989120698 | 92.68 | 102.658798933 |
| 2-2-14-14 | 5-5-8-4 | 1-1-4-8-1 | 5 | 2.24693554025 | 25.24 | 107.29027009 |
| 2-2-14-14 | 5-5-8-4 | 1-1-4-9-1 | 5 | 0.314074269183 | 90.92 | 105.686319113 |
| 2-2-14-14 | 5-5-8-4 | 1-1-4-10-1 | 5 | 0.231329392766 | 93.41 | 112.756489038 |
| 2-2-14-14 | 5-5-8-4 | 1-1-5-1-1 | 5 | 2.30105632402 | 11.35 | 91.9476950169 |
| 2-2-14-14 | 5-5-8-4 | 1-1-5-2-1 | 5 | 0.218772313452 | 93.72 | 95.1790430546 |
| 2-2-14-14 | 5-5-8-4 | 1-1-5-3-1 | 5 | 0.199830734244 | 93.97 | 96.3418278694 |
| 2-2-14-14 | 5-5-8-4 | 1-1-5-4-1 | 5 | 0.2468984413 | 92.68 | 97.0374228954 |
| 2-2-14-14 | 5-5-8-4 | 1-1-5-5-1 | 5 | 0.192450640903 | 94.43 | 100.30209589 |
| 2-2-14-14 | 5-5-8-4 | 1-1-5-6-1 | 5 | 0.290591976746 | 91.78 | 100.440219164 |
| 2-2-14-14 | 5-5-8-4 | 1-1-5-7-1 | 5 | 0.261581744082 | 92.58 | 104.530506134 |
| 2-2-14-14 | 5-5-8-4 | 1-1-5-8-1 | 5 | 0.245121918125 | 92.9 | 108.338664055 |
| 2-2-14-14 | 5-5-8-4 | 1-1-5-9-1 | 5 | 0.272262019264 | 92.28 | 112.499450922 |
| 2-2-14-14 | 5-5-8-4 | 1-1-5-10-1 | 5 | 0.293227735989 | 91.67 | 115.432514191 |
| 2-2-14-14 | 5-5-8-4 | 1-1-6-1-1 | 5 | 1.10434696226 | 63.66 | 93.0003528595 |
| 2-2-14-14 | 5-5-8-4 | 1-1-6-2-1 | 5 | 0.179446313387 | 94.7 | 94.1980690956 |
| 2-2-14-14 | 5-5-8-4 | 1-1-6-3-1 | 5 | 0.225609815752 | 93.16 | 96.9175410271 |
| 2-2-14-14 | 5-5-8-4 | 1-1-6-4-1 | 5 | 0.23135342086 | 93.22 | 98.2890179157 |
| 2-2-14-14 | 5-5-8-4 | 1-1-6-5-1 | 5 | 0.278197115128 | 91.92 | 98.9624300003 |
| 2-2-14-14 | 5-5-8-4 | 1-1-6-6-1 | 5 | 0.241427798049 | 93.11 | 106.162338972 |
| 2-2-14-14 | 5-5-8-4 | 1-1-6-7-1 | 5 | 0.550993527557 | 83.32 | 106.85917592 |
| 2-2-14-14 | 5-5-8-4 | 1-1-6-8-1 | 5 | 0.279538072576 | 91.75 | 108.287548065 |
| 2-2-14-14 | 5-5-8-4 | 1-1-6-9-1 | 5 | 0.278173790431 | 91.85 | 111.997624159 |
| 2-2-14-14 | 5-5-8-4 | 1-1-6-10-1 | 5 | 2.29230284172 | 11.35 | 116.292215109 |
| 2-2-14-14 | 5-5-8-4 | 1-1-7-1-1 | 5 | 2.29746346864 | 11.35 | 92.656468153 |
| 2-2-14-14 | 5-5-8-4 | 1-1-7-2-1 | 5 | 0.181699921464 | 94.53 | 91.1392371655 |
| 2-2-14-14 | 5-5-8-4 | 1-1-7-3-1 | 5 | 0.230725069816 | 93.44 | 91.3805019855 |
| 2-2-14-14 | 5-5-8-4 | 1-1-7-4-1 | 5 | 0.18574730404 | 94.41 | 99.9302279949 |
| 2-2-14-14 | 5-5-8-4 | 1-1-7-5-1 | 5 | 0.290032311027 | 91.91 | 101.413105965 |
| 2-2-14-14 | 5-5-8-4 | 1-1-7-6-1 | 5 | 0.24556407029 | 93.02 | 102.386271954 |
| 2-2-14-14 | 5-5-8-4 | 1-1-7-7-1 | 5 | 0.225256936801 | 93.36 | 110.838775873 |
| 2-2-14-14 | 5-5-8-4 | 1-1-7-8-1 | 5 | 0.339298120174 | 90.49 | 112.338181973 |
| 2-2-14-14 | 5-5-8-4 | 1-1-7-9-1 | 5 | 2.28069252166 | 16.5 | 115.711867094 |
| 2-2-14-14 | 5-5-8-4 | 1-1-7-10-1 | 5 | 0.337464915278 | 90.11 | 115.288271904 |
| 2-2-14-14 | 5-5-8-4 | 1-1-8-1-1 | 5 | 1.11205633215 | 70.24 | 90.6157679558 |
| 2-2-14-14 | 5-5-8-4 | 1-1-8-2-1 | 5 | 0.234005176833 | 93.3 | 97.3143899441 |
| 2-2-14-14 | 5-5-8-4 | 1-1-8-3-1 | 5 | 0.171068193713 | 95.19 | 101.768499136 |
| 2-2-14-14 | 5-5-8-4 | 1-1-8-4-1 | 5 | 0.18767510005 | 94.63 | 102.741168022 |
| 2-2-14-14 | 5-5-8-4 | 1-1-8-5-1 | 5 | 0.258420820379 | 92.56 | 104.549971819 |
| 2-2-14-14 | 5-5-8-4 | 1-1-8-6-1 | 5 | 0.313719407169 | 90.84 | 106.675336838 |
| 2-2-14-14 | 5-5-8-4 | 1-1-8-7-1 | 5 | 0.327068686479 | 90.32 | 113.226341009 |
| 2-2-14-14 | 5-5-8-4 | 1-1-8-8-1 | 5 | 0.181326231851 | 94.79 | 107.894519806 |
| 2-2-14-14 | 5-5-8-4 | 1-1-8-9-1 | 5 | 0.213249919838 | 93.92 | 109.230811119 |
| 2-2-14-14 | 5-5-8-4 | 1-1-8-10-1 | 5 | 0.290759660776 | 91.69 | 119.64214015 |
| 2-2-14-14 | 5-5-8-4 | 1-1-9-1-1 | 5 | 0.566522997085 | 83.68 | 97.4279789925 |
| 2-2-14-14 | 5-5-8-4 | 1-1-9-2-1 | 5 | 0.177079619135 | 94.59 | 102.154925108 |
| 2-2-14-14 | 5-5-8-4 | 1-1-9-3-1 | 5 | 0.167471890346 | 95.38 | 100.029253006 |
| 2-2-14-14 | 5-5-8-4 | 1-1-9-4-1 | 5 | 0.183765115309 | 94.7 | 105.571062803 |
| 2-2-14-14 | 5-5-8-4 | 1-1-9-5-1 | 5 | 0.203954811787 | 93.93 | 100.858487844 |
| 2-2-14-14 | 5-5-8-4 | 1-1-9-6-1 | 5 | 0.221061104084 | 93.71 | 107.744837046 |
| 2-2-14-14 | 5-5-8-4 | 1-1-9-7-1 | 5 | 0.221804231422 | 93.48 | 112.118475199 |
| 2-2-14-14 | 5-5-8-4 | 1-1-9-8-1 | 5 | 0.262991251713 | 92.48 | 115.931110144 |
| 2-2-14-14 | 5-5-8-4 | 1-1-9-9-1 | 5 | 0.238325020297 | 93.11 | 118.849812984 |
| 2-2-14-14 | 5-5-8-4 | 1-1-9-10-1 | 5 | 0.242903770316 | 92.8 | 122.076134205 |
| 2-2-14-14 | 5-5-8-4 | 1-1-10-1-1 | 5 | 2.30096216493 | 11.35 | 94.9373641014 |
| 2-2-14-14 | 5-5-8-4 | 1-1-10-2-1 | 5 | 0.269429625533 | 92.05 | 97.7380669117 |
| 2-2-14-14 | 5-5-8-4 | 1-1-10-3-1 | 5 | 0.188585951065 | 94.4 | 99.4165439606 |
| 2-2-14-14 | 5-5-8-4 | 1-1-10-4-1 | 5 | 0.178873236767 | 94.5 | 104.301823854 |
| 2-2-14-14 | 5-5-8-4 | 1-1-10-5-1 | 5 | 0.246922005602 | 92.61 | 112.804098129 |
| 2-2-14-14 | 5-5-8-4 | 1-1-10-6-1 | 5 | 0.208132313257 | 93.85 | 110.103513956 |
| 2-2-14-14 | 5-5-8-4 | 1-1-10-7-1 | 5 | 0.222447599918 | 93.42 | 117.870676994 |
| 2-2-14-14 | 5-5-8-4 | 1-1-10-8-1 | 5 | 0.334256642271 | 89.97 | 115.171818018 |
| 2-2-14-14 | 5-5-8-4 | 1-1-10-9-1 | 5 | 0.308687904231 | 91.73 | 122.690989971 |
| 2-2-14-14 | 5-5-8-4 | 1-1-10-10-1 | 5 | 0.213357546223 | 93.71 | 123.524610996 |
| 2-2-14-14 | 5-5-8-4 | 1-2-1-1-1 | 5 | 0.242771615451 | 93.14 | 86.2265210152 |
| 2-2-14-14 | 5-5-8-4 | 1-2-1-2-1 | 5 | 0.210830486013 | 93.9 | 92.4995789528 |
| 2-2-14-14 | 5-5-8-4 | 1-2-1-3-1 | 5 | 0.235412443374 | 93.17 | 96.5406110287 |
| 2-2-14-14 | 5-5-8-4 | 1-2-1-4-1 | 5 | 0.30060340978 | 91.91 | 94.5776081085 |
| 2-2-14-14 | 5-5-8-4 | 1-2-1-5-1 | 5 | 0.256928178667 | 92.97 | 98.0769472122 |
| 2-2-14-14 | 5-5-8-4 | 1-2-1-6-1 | 5 | 0.394483646063 | 88.78 | 102.724834919 |
| 2-2-14-14 | 5-5-8-4 | 1-2-1-7-1 | 5 | 0.308395633395 | 91.28 | 104.035987139 |
| 2-2-14-14 | 5-5-8-4 | 1-2-1-8-1 | 5 | 0.229028111197 | 93.75 | 105.119775057 |
| 2-2-14-14 | 5-5-8-4 | 1-2-1-9-1 | 5 | 0.362762092785 | 90.1 | 108.326715946 |
| 2-2-14-14 | 5-5-8-4 | 1-2-1-10-1 | 5 | 2.11287595647 | 39.83 | 109.610732079 |
| 2-2-14-14 | 5-5-8-4 | 1-2-2-1-1 | 5 | 2.29916956617 | 11.35 | 94.0906319618 |
| 2-2-14-14 | 5-5-8-4 | 1-2-2-2-1 | 5 | 0.18182687811 | 94.43 | 92.4272911549 |
| 2-2-14-14 | 5-5-8-4 | 1-2-2-3-1 | 5 | 0.258587462736 | 92.75 | 92.7970850468 |
| 2-2-14-14 | 5-5-8-4 | 1-2-2-4-1 | 5 | 0.205785488763 | 94.03 | 96.04657197 |
| 2-2-14-14 | 5-5-8-4 | 1-2-2-5-1 | 5 | 0.237063560496 | 93.19 | 98.6777598858 |
| 2-2-14-14 | 5-5-8-4 | 1-2-2-6-1 | 5 | 0.296311179212 | 91.74 | 100.478713989 |
| 2-2-14-14 | 5-5-8-4 | 1-2-2-7-1 | 5 | 0.203940763456 | 94.17 | 103.125084162 |
| 2-2-14-14 | 5-5-8-4 | 1-2-2-8-1 | 5 | 0.295245206341 | 91.82 | 107.502467155 |
| 2-2-14-14 | 5-5-8-4 | 1-2-2-9-1 | 5 | 0.272204552523 | 92.37 | 107.982044935 |
| 2-2-14-14 | 5-5-8-4 | 1-2-2-10-1 | 5 | 0.262650082292 | 92.49 | 108.028447866 |
| 2-2-14-14 | 5-5-8-4 | 1-2-3-1-1 | 5 | 2.30100346125 | 11.35 | 90.3888151646 |
| 2-2-14-14 | 5-5-8-4 | 1-2-3-2-1 | 5 | 0.314878785905 | 90.82 | 93.5642280579 |
| 2-2-14-14 | 5-5-8-4 | 1-2-3-3-1 | 5 | 0.24526801521 | 92.88 | 95.4838399887 |
| 2-2-14-14 | 5-5-8-4 | 1-2-3-4-1 | 5 | 0.200378034104 | 94.13 | 96.861538887 |
| 2-2-14-14 | 5-5-8-4 | 1-2-3-5-1 | 5 | 0.305428920322 | 91.35 | 100.026983976 |
| 2-2-14-14 | 5-5-8-4 | 1-2-3-6-1 | 5 | 0.217881430708 | 93.74 | 102.007637024 |
| 2-2-14-14 | 5-5-8-4 | 1-2-3-7-1 | 5 | 0.395343347427 | 88.56 | 106.109063148 |
| 2-2-14-14 | 5-5-8-4 | 1-2-3-8-1 | 5 | 0.257187498538 | 92.71 | 106.765089989 |
| 2-2-14-14 | 5-5-8-4 | 1-2-3-9-1 | 5 | 0.257640149347 | 92.56 | 100.838572979 |
| 2-2-14-14 | 5-5-8-4 | 1-2-3-10-1 | 5 | 0.346113097393 | 90.09 | 112.942667961 |
| 2-2-14-14 | 5-5-8-4 | 1-2-4-1-1 | 5 | 2.30101198876 | 11.35 | 91.9777059555 |
| 2-2-14-14 | 5-5-8-4 | 1-2-4-2-1 | 5 | 0.204143374339 | 93.89 | 97.5063791275 |
| 2-2-14-14 | 5-5-8-4 | 1-2-4-3-1 | 5 | 0.228712120733 | 93.37 | 97.5053629875 |
| 2-2-14-14 | 5-5-8-4 | 1-2-4-4-1 | 5 | 0.215903951965 | 93.59 | 100.126132965 |
| 2-2-14-14 | 5-5-8-4 | 1-2-4-5-1 | 5 | 0.201171092201 | 93.97 | 105.034574986 |
| 2-2-14-14 | 5-5-8-4 | 1-2-4-6-1 | 5 | 0.194708272289 | 94.38 | 102.050668955 |
| 2-2-14-14 | 5-5-8-4 | 1-2-4-7-1 | 5 | 0.20837033943 | 94.02 | 109.046197176 |
| 2-2-14-14 | 5-5-8-4 | 1-2-4-8-1 | 5 | 0.19220972594 | 94.18 | 106.811798811 |
| 2-2-14-14 | 5-5-8-4 | 1-2-4-9-1 | 5 | 0.223537948965 | 93.45 | 110.206762075 |
| 2-2-14-14 | 5-5-8-4 | 1-2-4-10-1 | 5 | 0.224911977001 | 93.41 | 113.53727293 |
| 2-2-14-14 | 5-5-8-4 | 1-2-5-1-1 | 5 | 1.64404755865 | 42.48 | 92.6533899307 |
| 2-2-14-14 | 5-5-8-4 | 1-2-5-2-1 | 5 | 2.26113368227 | 20.9 | 96.1955680847 |
| 2-2-14-14 | 5-5-8-4 | 1-2-5-3-1 | 5 | 0.21883196403 | 93.52 | 96.2082931995 |
| 2-2-14-14 | 5-5-8-4 | 1-2-5-4-1 | 5 | 0.196566422985 | 94.27 | 103.704454184 |
| 2-2-14-14 | 5-5-8-4 | 1-2-5-5-1 | 5 | 0.242180352661 | 92.97 | 99.8975028992 |
| 2-2-14-14 | 5-5-8-4 | 1-2-5-6-1 | 5 | 0.204959651192 | 93.96 | 106.143821955 |
| 2-2-14-14 | 5-5-8-4 | 1-2-5-7-1 | 5 | 0.20720460866 | 93.99 | 106.799312115 |
| 2-2-14-14 | 5-5-8-4 | 1-2-5-8-1 | 5 | 0.211227542676 | 93.79 | 110.231614828 |
| 2-2-14-14 | 5-5-8-4 | 1-2-5-9-1 | 5 | 0.226781381824 | 93.71 | 112.58115983 |
| 2-2-14-14 | 5-5-8-4 | 1-2-5-10-1 | 5 | 0.210336452904 | 94.09 | 114.776993036 |
| 2-2-14-14 | 5-5-8-4 | 1-2-6-1-1 | 5 | 2.00493637891 | 30.03 | 93.8358769417 |
| 2-2-14-14 | 5-5-8-4 | 1-2-6-2-1 | 5 | 2.29983635819 | 11.35 | 95.9122738838 |
| 2-2-14-14 | 5-5-8-4 | 1-2-6-3-1 | 5 | 0.192625215091 | 94.6 | 100.812551975 |
| 2-2-14-14 | 5-5-8-4 | 1-2-6-4-1 | 5 | 0.164098082528 | 94.99 | 100.177026033 |
| 2-2-14-14 | 5-5-8-4 | 1-2-6-5-1 | 5 | 0.194695417308 | 94.38 | 105.172997952 |
| 2-2-14-14 | 5-5-8-4 | 1-2-6-6-1 | 5 | 0.228931162645 | 93.4 | 104.403160095 |
| 2-2-14-14 | 5-5-8-4 | 1-2-6-7-1 | 5 | 0.209954860922 | 93.69 | 111.878882885 |
| 2-2-14-14 | 5-5-8-4 | 1-2-6-8-1 | 5 | 0.201590969252 | 94.03 | 110.39300108 |
| 2-2-14-14 | 5-5-8-4 | 1-2-6-9-1 | 5 | 0.199042761966 | 94.18 | 115.66979599 |
| 2-2-14-14 | 5-5-8-4 | 1-2-6-10-1 | 5 | 0.276522768733 | 92.24 | 119.654134035 |
| 2-2-14-14 | 5-5-8-4 | 1-2-7-1-1 | 5 | 2.12990941797 | 27.4 | 94.6211838722 |
| 2-2-14-14 | 5-5-8-4 | 1-2-7-2-1 | 5 | 2.30102389757 | 11.35 | 94.6537060738 |
| 2-2-14-14 | 5-5-8-4 | 1-2-7-3-1 | 5 | 0.160917662648 | 95.17 | 103.305682182 |
| 2-2-14-14 | 5-5-8-4 | 1-2-7-4-1 | 5 | 0.19793950688 | 94.08 | 101.826406002 |
| 2-2-14-14 | 5-5-8-4 | 1-2-7-5-1 | 5 | 0.243423340718 | 92.87 | 98.914427042 |
| 2-2-14-14 | 5-5-8-4 | 1-2-7-6-1 | 5 | 0.16804560192 | 95.02 | 110.443113089 |
| 2-2-14-14 | 5-5-8-4 | 1-2-7-7-1 | 5 | 0.172626187444 | 95.21 | 113.726952076 |
| 2-2-14-14 | 5-5-8-4 | 1-2-7-8-1 | 5 | 0.19440357672 | 94.21 | 115.473180056 |
| 2-2-14-14 | 5-5-8-4 | 1-2-7-9-1 | 5 | 0.240849029471 | 93.02 | 119.350013971 |
| 2-2-14-14 | 5-5-8-4 | 1-2-7-10-1 | 5 | 0.209656084878 | 93.8 | 114.744765997 |
| 2-2-14-14 | 5-5-8-4 | 1-2-8-1-1 | 5 | 0.404364441907 | 88.56 | 96.8411879539 |
| 2-2-14-14 | 5-5-8-4 | 1-2-8-2-1 | 5 | 2.2966962981 | 11.35 | 100.816600084 |
| 2-2-14-14 | 5-5-8-4 | 1-2-8-3-1 | 5 | 2.29791545199 | 11.35 | 104.502872944 |
| 2-2-14-14 | 5-5-8-4 | 1-2-8-4-1 | 5 | 0.191004615614 | 94.27 | 104.743791103 |
| 2-2-14-14 | 5-5-8-4 | 1-2-8-5-1 | 5 | 0.186989799077 | 94.61 | 105.394128799 |
| 2-2-14-14 | 5-5-8-4 | 1-2-8-6-1 | 5 | 0.192736257427 | 94.35 | 114.30112195 |
| 2-2-14-14 | 5-5-8-4 | 1-2-8-7-1 | 5 | 0.187731278841 | 94.37 | 112.953334808 |
| 2-2-14-14 | 5-5-8-4 | 1-2-8-8-1 | 5 | 0.222127755572 | 93.62 | 102.266896963 |
| 2-2-14-14 | 5-5-8-4 | 1-2-8-9-1 | 5 | 0.202884959376 | 93.9 | 123.655192137 |
| 2-2-14-14 | 5-5-8-4 | 1-2-8-10-1 | 5 | 0.213267596278 | 93.57 | 122.786737919 |
| 2-2-14-14 | 5-5-8-4 | 1-2-9-1-1 | 5 | 0.568223721206 | 83.55 | 101.952701092 |
| 2-2-14-14 | 5-5-8-4 | 1-2-9-2-1 | 5 | 2.29881649741 | 11.35 | 101.743391037 |
| 2-2-14-14 | 5-5-8-4 | 1-2-9-3-1 | 5 | 1.20774160794 | 64.27 | 106.913093805 |
| 2-2-14-14 | 5-5-8-4 | 1-2-9-4-1 | 5 | 0.164527684452 | 94.97 | 102.363644123 |
| 2-2-14-14 | 5-5-8-4 | 1-2-9-5-1 | 5 | 0.17513253428 | 94.75 | 105.836980104 |
| 2-2-14-14 | 5-5-8-4 | 1-2-9-6-1 | 5 | 0.178209311964 | 94.71 | 114.808716059 |
| 2-2-14-14 | 5-5-8-4 | 1-2-9-7-1 | 5 | 0.175924124865 | 94.69 | 115.917855978 |
| 2-2-14-14 | 5-5-8-4 | 1-2-9-8-1 | 5 | 0.220736449596 | 93.79 | 120.481410027 |
| 2-2-14-14 | 5-5-8-4 | 1-2-9-9-1 | 5 | 0.217717667319 | 93.6 | 120.817067146 |
| 2-2-14-14 | 5-5-8-4 | 1-2-9-10-1 | 5 | 0.203416059388 | 94.0 | 122.283072948 |
| 2-2-14-14 | 5-5-8-4 | 1-2-10-1-1 | 5 | 1.67497940012 | 43.26 | 101.726628065 |
| 2-2-14-14 | 5-5-8-4 | 1-2-10-2-1 | 5 | 0.374709848189 | 89.29 | 97.3484840393 |
| 2-2-14-14 | 5-5-8-4 | 1-2-10-3-1 | 5 | 0.31385926228 | 90.93 | 107.715990782 |
| 2-2-14-14 | 5-5-8-4 | 1-2-10-4-1 | 5 | 0.189043278123 | 94.63 | 109.574455976 |
| 2-2-14-14 | 5-5-8-4 | 1-2-10-5-1 | 5 | 0.176280368308 | 94.85 | 113.14519906 |
| 2-2-14-14 | 5-5-8-4 | 1-2-10-6-1 | 5 | 0.187580821057 | 94.53 | 111.903982162 |
| 2-2-14-14 | 5-5-8-4 | 1-2-10-7-1 | 5 | 0.18399376896 | 94.43 | 119.623652935 |
| 2-2-14-14 | 5-5-8-4 | 1-2-10-8-1 | 5 | 0.174324728933 | 94.99 | 118.865844011 |
| 2-2-14-14 | 5-5-8-4 | 1-2-10-9-1 | 5 | 0.192724123154 | 94.47 | 117.947673082 |
| 2-2-14-14 | 5-5-8-4 | 1-2-10-10-1 | 5 | 0.251731996959 | 92.63 | 124.178807974 |
| 2-2-14-14 | 5-5-8-4 | 1-3-1-1-1 | 5 | 2.30097222645 | 11.35 | 91.6181571484 |
| 2-2-14-14 | 5-5-8-4 | 1-3-1-2-1 | 5 | 0.189446147216 | 94.44 | 96.5483219624 |
| 2-2-14-14 | 5-5-8-4 | 1-3-1-3-1 | 5 | 0.208618996905 | 93.93 | 96.1423780918 |
| 2-2-14-14 | 5-5-8-4 | 1-3-1-4-1 | 5 | 0.186066902329 | 94.39 | 98.8830890656 |
| 2-2-14-14 | 5-5-8-4 | 1-3-1-5-1 | 5 | 0.216747484 | 93.84 | 104.393073082 |
| 2-2-14-14 | 5-5-8-4 | 1-3-1-6-1 | 5 | 0.222427967086 | 93.83 | 103.672587872 |
| 2-2-14-14 | 5-5-8-4 | 1-3-1-7-1 | 5 | 0.229208142722 | 93.38 | 104.958236933 |
| 2-2-14-14 | 5-5-8-4 | 1-3-1-8-1 | 5 | 0.252822689827 | 92.63 | 107.434239149 |
| 2-2-14-14 | 5-5-8-4 | 1-3-1-9-1 | 5 | 0.261041291275 | 92.74 | 108.772490978 |
| 2-2-14-14 | 5-5-8-4 | 1-3-1-10-1 | 5 | 0.746283492369 | 77.52 | 110.448546886 |
| 2-2-14-14 | 5-5-8-4 | 1-3-2-1-1 | 5 | 2.08947717723 | 23.11 | 90.2052950859 |
| 2-2-14-14 | 5-5-8-4 | 1-3-2-2-1 | 5 | 0.202471360791 | 94.2 | 92.8277928829 |
| 2-2-14-14 | 5-5-8-4 | 1-3-2-3-1 | 5 | 0.219156122703 | 93.72 | 95.1119740009 |
| 2-2-14-14 | 5-5-8-4 | 1-3-2-4-1 | 5 | 0.209769014664 | 93.97 | 100.777463913 |
| 2-2-14-14 | 5-5-8-4 | 1-3-2-5-1 | 5 | 0.224366769264 | 93.53 | 102.539734125 |
| 2-2-14-14 | 5-5-8-4 | 1-3-2-6-1 | 5 | 0.255112942159 | 92.61 | 106.189033031 |
| 2-2-14-14 | 5-5-8-4 | 1-3-2-7-1 | 5 | 0.179711966603 | 94.57 | 106.98845005 |
| 2-2-14-14 | 5-5-8-4 | 1-3-2-8-1 | 5 | 0.206750208359 | 93.94 | 111.075383902 |
| 2-2-14-14 | 5-5-8-4 | 1-3-2-9-1 | 5 | 0.236414592478 | 93.31 | 111.339059114 |
| 2-2-14-14 | 5-5-8-4 | 1-3-2-10-1 | 5 | 0.217880016227 | 93.44 | 109.470847845 |
| 2-2-14-14 | 5-5-8-4 | 1-3-3-1-1 | 5 | 2.16966727975 | 24.35 | 90.6057429314 |
| 2-2-14-14 | 5-5-8-4 | 1-3-3-2-1 | 5 | 1.99309850018 | 31.19 | 95.9272799492 |
| 2-2-14-14 | 5-5-8-4 | 1-3-3-3-1 | 5 | 0.193571697665 | 94.3 | 99.1793999672 |
| 2-2-14-14 | 5-5-8-4 | 1-3-3-4-1 | 5 | 0.177073312283 | 94.85 | 101.789422989 |
| 2-2-14-14 | 5-5-8-4 | 1-3-3-5-1 | 5 | 0.19606027642 | 94.45 | 103.055707932 |
| 2-2-14-14 | 5-5-8-4 | 1-3-3-6-1 | 5 | 0.22169838702 | 93.48 | 106.556153059 |
| 2-2-14-14 | 5-5-8-4 | 1-3-3-7-1 | 5 | 0.229619155178 | 93.65 | 108.155827045 |
| 2-2-14-14 | 5-5-8-4 | 1-3-3-8-1 | 5 | 0.222577243289 | 93.74 | 106.7339468 |
| 2-2-14-14 | 5-5-8-4 | 1-3-3-9-1 | 5 | 0.244597621934 | 93.07 | 107.690130949 |
| 2-2-14-14 | 5-5-8-4 | 1-3-3-10-1 | 5 | 0.235653264187 | 93.27 | 112.175229073 |
| 2-2-14-14 | 5-5-8-4 | 1-3-4-1-1 | 5 | 2.30098317976 | 11.35 | 94.8300120831 |
| 2-2-14-14 | 5-5-8-4 | 1-3-4-2-1 | 5 | 2.30010056944 | 11.35 | 95.0046670437 |
| 2-2-14-14 | 5-5-8-4 | 1-3-4-3-1 | 5 | 0.18547645224 | 94.49 | 98.6857008934 |
| 2-2-14-14 | 5-5-8-4 | 1-3-4-4-1 | 5 | 0.193798204053 | 94.37 | 102.196178913 |
| 2-2-14-14 | 5-5-8-4 | 1-3-4-5-1 | 5 | 0.207683755976 | 93.92 | 105.032648802 |
| 2-2-14-14 | 5-5-8-4 | 1-3-4-6-1 | 5 | 0.211896973947 | 93.79 | 104.105062008 |
| 2-2-14-14 | 5-5-8-4 | 1-3-4-7-1 | 5 | 0.201658218697 | 94.35 | 110.654271841 |
| 2-2-14-14 | 5-5-8-4 | 1-3-4-8-1 | 5 | 0.248261421583 | 92.96 | 110.773835897 |
| 2-2-14-14 | 5-5-8-4 | 1-3-4-9-1 | 5 | 0.231131445439 | 93.31 | 113.297261 |
| 2-2-14-14 | 5-5-8-4 | 1-3-4-10-1 | 5 | 0.201360906905 | 94.13 | 115.926105022 |
| 2-2-14-14 | 5-5-8-4 | 1-3-5-1-1 | 5 | 2.30024163831 | 11.35 | 97.0850880146 |
| 2-2-14-14 | 5-5-8-4 | 1-3-5-2-1 | 5 | 0.392742074931 | 88.96 | 97.1769928932 |
| 2-2-14-14 | 5-5-8-4 | 1-3-5-3-1 | 5 | 2.29436977488 | 11.35 | 99.0115971565 |
| 2-2-14-14 | 5-5-8-4 | 1-3-5-4-1 | 5 | 0.179131725611 | 94.63 | 100.14911294 |
| 2-2-14-14 | 5-5-8-4 | 1-3-5-5-1 | 5 | 0.187274223712 | 94.56 | 106.158154964 |
| 2-2-14-14 | 5-5-8-4 | 1-3-5-6-1 | 5 | 0.214933543061 | 93.73 | 108.766953945 |
| 2-2-14-14 | 5-5-8-4 | 1-3-5-7-1 | 5 | 0.173205368887 | 94.86 | 111.426156044 |
| 2-2-14-14 | 5-5-8-4 | 1-3-5-8-1 | 5 | 0.214016991878 | 93.53 | 114.608616114 |
| 2-2-14-14 | 5-5-8-4 | 1-3-5-9-1 | 5 | 0.202270599361 | 94.01 | 115.715523958 |
| 2-2-14-14 | 5-5-8-4 | 1-3-5-10-1 | 5 | 0.216267436476 | 93.54 | 116.637260914 |
| 2-2-14-14 | 5-5-8-4 | 1-3-6-1-1 | 5 | 0.190230793565 | 94.45 | 96.7168500423 |
| 2-2-14-14 | 5-5-8-4 | 1-3-6-2-1 | 5 | 2.26161606576 | 21.07 | 96.6225168705 |
| 2-2-14-14 | 5-5-8-4 | 1-3-6-3-1 | 5 | 2.11067508193 | 29.89 | 99.0278279781 |
| 2-2-14-14 | 5-5-8-4 | 1-3-6-4-1 | 5 | 0.198986180019 | 94.16 | 104.1264081 |
| 2-2-14-14 | 5-5-8-4 | 1-3-6-5-1 | 5 | 0.17667318729 | 94.64 | 108.995960951 |
| 2-2-14-14 | 5-5-8-4 | 1-3-6-6-1 | 5 | 0.182248203466 | 94.59 | 107.427971125 |
| 2-2-14-14 | 5-5-8-4 | 1-3-6-7-1 | 5 | 0.19610620754 | 94.12 | 111.9815979 |
| 2-2-14-14 | 5-5-8-4 | 1-3-6-8-1 | 5 | 0.21513916167 | 93.88 | 115.531725168 |
| 2-2-14-14 | 5-5-8-4 | 1-3-6-9-1 | 5 | 0.230036906953 | 93.34 | 116.052403927 |
| 2-2-14-14 | 5-5-8-4 | 1-3-6-10-1 | 5 | 0.193218969787 | 93.99 | 113.861557961 |
| 2-2-14-14 | 5-5-8-4 | 1-3-7-1-1 | 5 | 0.704955563329 | 78.69 | 99.0179238319 |
| 2-2-14-14 | 5-5-8-4 | 1-3-7-2-1 | 5 | 2.29809934939 | 11.35 | 97.2784769535 |
| 2-2-14-14 | 5-5-8-4 | 1-3-7-3-1 | 5 | 2.30056407422 | 11.35 | 98.0503098965 |
| 2-2-14-14 | 5-5-8-4 | 1-3-7-4-1 | 5 | 1.92235991881 | 46.9 | 107.643823862 |
| 2-2-14-14 | 5-5-8-4 | 1-3-7-5-1 | 5 | 0.167277648652 | 95.07 | 110.250244141 |
| 2-2-14-14 | 5-5-8-4 | 1-3-7-6-1 | 5 | 0.161470301388 | 95.3 | 111.020632029 |
| 2-2-14-14 | 5-5-8-4 | 1-3-7-7-1 | 5 | 0.198370203796 | 94.17 | 114.274932861 |
| 2-2-14-14 | 5-5-8-4 | 1-3-7-8-1 | 5 | 0.21198289119 | 93.81 | 113.060279846 |
| 2-2-14-14 | 5-5-8-4 | 1-3-7-9-1 | 5 | 0.178242513336 | 94.82 | 117.57884407 |
| 2-2-14-14 | 5-5-8-4 | 1-3-7-10-1 | 5 | 0.187593702914 | 94.41 | 123.77899003 |
| 2-2-14-14 | 5-5-8-4 | 1-3-8-1-1 | 5 | 0.739354876228 | 77.03 | 100.396883965 |
| 2-2-14-14 | 5-5-8-4 | 1-3-8-2-1 | 5 | 0.4826333783 | 86.24 | 99.5925519466 |
| 2-2-14-14 | 5-5-8-4 | 1-3-8-3-1 | 5 | 0.380674091131 | 89.44 | 102.921349049 |
| 2-2-14-14 | 5-5-8-4 | 1-3-8-4-1 | 5 | 2.30095664081 | 11.35 | 107.162889004 |
| 2-2-14-14 | 5-5-8-4 | 1-3-8-5-1 | 5 | 0.196597799077 | 94.11 | 105.745377064 |
| 2-2-14-14 | 5-5-8-4 | 1-3-8-6-1 | 5 | 0.177982336933 | 94.87 | 113.028975964 |
| 2-2-14-14 | 5-5-8-4 | 1-3-8-7-1 | 5 | 0.195373649174 | 94.29 | 115.448545933 |
| 2-2-14-14 | 5-5-8-4 | 1-3-8-8-1 | 5 | 0.17607726852 | 94.86 | 117.629522085 |
| 2-2-14-14 | 5-5-8-4 | 1-3-8-9-1 | 5 | 0.190753414917 | 94.4 | 119.616127968 |
| 2-2-14-14 | 5-5-8-4 | 1-3-8-10-1 | 5 | 0.195855164388 | 94.29 | 125.887346983 |
| 2-2-14-14 | 5-5-8-4 | 1-3-9-1-1 | 5 | 0.658261957343 | 79.78 | 96.361066103 |
| 2-2-14-14 | 5-5-8-4 | 1-3-9-2-1 | 5 | 2.24766673564 | 26.26 | 100.902643919 |
| 2-2-14-14 | 5-5-8-4 | 1-3-9-3-1 | 5 | 2.27471142394 | 22.05 | 100.792825937 |
| 2-2-14-14 | 5-5-8-4 | 1-3-9-4-1 | 5 | 1.33064560506 | 69.46 | 111.109465122 |
| 2-2-14-14 | 5-5-8-4 | 1-3-9-5-1 | 5 | 2.2892638295 | 11.35 | 112.867990017 |
| 2-2-14-14 | 5-5-8-4 | 1-3-9-6-1 | 5 | 0.170722738936 | 94.95 | 116.515808105 |
| 2-2-14-14 | 5-5-8-4 | 1-3-9-7-1 | 5 | 0.160609774655 | 95.19 | 115.117349863 |
| 2-2-14-14 | 5-5-8-4 | 1-3-9-8-1 | 5 | 0.166707193848 | 95.19 | 119.581927061 |
| 2-2-14-14 | 5-5-8-4 | 1-3-9-9-1 | 5 | 0.182309900804 | 94.73 | 121.064466 |
| 2-2-14-14 | 5-5-8-4 | 1-3-9-10-1 | 5 | 0.187295414133 | 94.39 | 124.928848028 |
| 2-2-14-14 | 5-5-8-4 | 1-3-10-1-1 | 5 | 0.552331212566 | 83.74 | 106.52272296 |
| 2-2-14-14 | 5-5-8-4 | 1-3-10-2-1 | 5 | 1.96168944004 | 27.45 | 106.887991905 |
| 2-2-14-14 | 5-5-8-4 | 1-3-10-3-1 | 5 | 2.18935941156 | 27.2 | 105.480788946 |
| 2-2-14-14 | 5-5-8-4 | 1-3-10-4-1 | 5 | 1.28990761357 | 63.85 | 110.172802925 |
| 2-2-14-14 | 5-5-8-4 | 1-3-10-5-1 | 5 | 0.688264180955 | 79.59 | 113.499790907 |
| 2-2-14-14 | 5-5-8-4 | 1-3-10-6-1 | 5 | 0.206668757624 | 94.17 | 116.338644028 |
| 2-2-14-14 | 5-5-8-4 | 1-3-10-7-1 | 5 | 0.164859600337 | 95.08 | 114.773562908 |
| 2-2-14-14 | 5-5-8-4 | 1-3-10-8-1 | 5 | 0.167172636961 | 94.9 | 123.918575048 |
| 2-2-14-14 | 5-5-8-4 | 1-3-10-9-1 | 5 | 0.172890442901 | 94.88 | 119.256211996 |
| 2-2-14-14 | 5-5-8-4 | 1-3-10-10-1 | 5 | 0.186263590548 | 94.46 | 117.876685858 |
| 2-2-14-14 | 5-5-8-4 | 1-4-1-1-1 | 5 | 2.30097192485 | 11.35 | 91.9082250595 |
| 2-2-14-14 | 5-5-8-4 | 1-4-1-2-1 | 5 | 0.222871022926 | 93.52 | 94.6323280334 |
| 2-2-14-14 | 5-5-8-4 | 1-4-1-3-1 | 5 | 0.218306977441 | 93.73 | 97.3624308109 |
| 2-2-14-14 | 5-5-8-4 | 1-4-1-4-1 | 5 | 0.173730386187 | 94.91 | 99.163713932 |
| 2-2-14-14 | 5-5-8-4 | 1-4-1-5-1 | 5 | 0.220886959596 | 93.62 | 101.539714098 |
| 2-2-14-14 | 5-5-8-4 | 1-4-1-6-1 | 5 | 0.216231821325 | 93.66 | 105.911731958 |
| 2-2-14-14 | 5-5-8-4 | 1-4-1-7-1 | 5 | 0.208556702218 | 93.94 | 107.432682991 |
| 2-2-14-14 | 5-5-8-4 | 1-4-1-8-1 | 5 | 0.210151617233 | 93.88 | 110.785097837 |
| 2-2-14-14 | 5-5-8-4 | 1-4-1-9-1 | 5 | 0.256779183539 | 92.75 | 108.528917074 |
| 2-2-14-14 | 5-5-8-4 | 1-4-1-10-1 | 5 | 0.247572021107 | 92.95 | 113.601550102 |
| 2-2-14-14 | 5-5-8-4 | 1-4-2-1-1 | 5 | 2.30101396854 | 11.35 | 90.7756531239 |
| 2-2-14-14 | 5-5-8-4 | 1-4-2-2-1 | 5 | 2.27809567738 | 11.71 | 94.7072379589 |
| 2-2-14-14 | 5-5-8-4 | 1-4-2-3-1 | 5 | 0.193676655777 | 94.34 | 96.2370669842 |
| 2-2-14-14 | 5-5-8-4 | 1-4-2-4-1 | 5 | 0.20756713469 | 93.73 | 102.017431974 |
| 2-2-14-14 | 5-5-8-4 | 1-4-2-5-1 | 5 | 0.271783525574 | 92.59 | 101.725850105 |
| 2-2-14-14 | 5-5-8-4 | 1-4-2-6-1 | 5 | 0.209975230157 | 94.09 | 105.95520401 |
| 2-2-14-14 | 5-5-8-4 | 1-4-2-7-1 | 5 | 0.221929290738 | 93.72 | 107.121508837 |
| 2-2-14-14 | 5-5-8-4 | 1-4-2-8-1 | 5 | 0.216144285047 | 93.71 | 110.671445847 |
| 2-2-14-14 | 5-5-8-4 | 1-4-2-9-1 | 5 | 0.212622822484 | 93.95 | 110.191671133 |
| 2-2-14-14 | 5-5-8-4 | 1-4-2-10-1 | 5 | 0.213371525673 | 93.84 | 108.839461803 |
| 2-2-14-14 | 5-5-8-4 | 1-4-3-1-1 | 5 | 1.96928693844 | 26.43 | 94.6568892002 |
| 2-2-14-14 | 5-5-8-4 | 1-4-3-2-1 | 5 | 2.29991452847 | 11.35 | 96.9382300377 |
| 2-2-14-14 | 5-5-8-4 | 1-4-3-3-1 | 5 | 0.194592541789 | 94.48 | 99.936743021 |
| 2-2-14-14 | 5-5-8-4 | 1-4-3-4-1 | 5 | 0.171337124437 | 94.93 | 102.080497026 |
| 2-2-14-14 | 5-5-8-4 | 1-4-3-5-1 | 5 | 0.199007082889 | 94.16 | 104.880078793 |
| 2-2-14-14 | 5-5-8-4 | 1-4-3-6-1 | 5 | 0.209394465565 | 93.99 | 106.754631996 |
| 2-2-14-14 | 5-5-8-4 | 1-4-3-7-1 | 5 | 0.188823815789 | 94.48 | 109.626199007 |
| 2-2-14-14 | 5-5-8-4 | 1-4-3-8-1 | 5 | 0.228468048154 | 93.45 | 111.895305157 |
| 2-2-14-14 | 5-5-8-4 | 1-4-3-9-1 | 5 | 0.216573800933 | 93.82 | 109.22675395 |
| 2-2-14-14 | 5-5-8-4 | 1-4-3-10-1 | 5 | 0.202158754682 | 94.23 | 118.83338809 |
| 2-2-14-14 | 5-5-8-4 | 1-4-4-1-1 | 5 | 0.331142386828 | 90.84 | 98.4005441666 |
| 2-2-14-14 | 5-5-8-4 | 1-4-4-2-1 | 5 | 2.29907647629 | 11.35 | 97.6363289356 |
| 2-2-14-14 | 5-5-8-4 | 1-4-4-3-1 | 5 | 2.3001551403 | 11.35 | 101.417108059 |
| 2-2-14-14 | 5-5-8-4 | 1-4-4-4-1 | 5 | 0.202127408575 | 94.19 | 106.132134199 |
| 2-2-14-14 | 5-5-8-4 | 1-4-4-5-1 | 5 | 0.179703326371 | 94.73 | 105.673312902 |
| 2-2-14-14 | 5-5-8-4 | 1-4-4-6-1 | 5 | 0.181260907186 | 94.83 | 107.199322939 |
| 2-2-14-14 | 5-5-8-4 | 1-4-4-7-1 | 5 | 0.193578478855 | 94.33 | 107.921983004 |
| 2-2-14-14 | 5-5-8-4 | 1-4-4-8-1 | 5 | 0.190078569968 | 94.33 | 114.419288874 |
| 2-2-14-14 | 5-5-8-4 | 1-4-4-9-1 | 5 | 0.197640073245 | 94.25 | 117.381792068 |
| 2-2-14-14 | 5-5-8-4 | 1-4-4-10-1 | 5 | 0.177261670219 | 94.86 | 118.537279844 |
| 2-2-14-14 | 5-5-8-4 | 1-4-5-1-1 | 5 | 2.3008360125 | 11.35 | 98.092867136 |
| 2-2-14-14 | 5-5-8-4 | 1-4-5-2-1 | 5 | 0.711652969286 | 78.39 | 97.946816206 |
| 2-2-14-14 | 5-5-8-4 | 1-4-5-3-1 | 5 | 2.28379063644 | 11.35 | 102.847630978 |
| 2-2-14-14 | 5-5-8-4 | 1-4-5-4-1 | 5 | 2.30094566239 | 11.35 | 102.252619982 |
| 2-2-14-14 | 5-5-8-4 | 1-4-5-5-1 | 5 | 0.168400601297 | 95.34 | 107.943996906 |
| 2-2-14-14 | 5-5-8-4 | 1-4-5-6-1 | 5 | 0.196394495374 | 94.09 | 107.593612194 |
| 2-2-14-14 | 5-5-8-4 | 1-4-5-7-1 | 5 | 0.176767740412 | 94.92 | 112.98725009 |
| 2-2-14-14 | 5-5-8-4 | 1-4-5-8-1 | 5 | 0.186170195165 | 94.76 | 115.581839085 |
| 2-2-14-14 | 5-5-8-4 | 1-4-5-9-1 | 5 | 0.199040500331 | 94.07 | 117.970925808 |
| 2-2-14-14 | 5-5-8-4 | 1-4-5-10-1 | 5 | 0.241909987996 | 93.08 | 117.579035997 |
| 2-2-14-14 | 5-5-8-4 | 1-4-6-1-1 | 5 | 2.29526518375 | 11.35 | 99.3992311954 |
| 2-2-14-14 | 5-5-8-4 | 1-4-6-2-1 | 5 | 0.601666963086 | 81.57 | 100.228296995 |
| 2-2-14-14 | 5-5-8-4 | 1-4-6-3-1 | 5 | 0.426146027014 | 87.85 | 100.852404118 |
| 2-2-14-14 | 5-5-8-4 | 1-4-6-4-1 | 5 | 2.30057935203 | 11.35 | 108.29555583 |
| 2-2-14-14 | 5-5-8-4 | 1-4-6-5-1 | 5 | 2.04593141709 | 43.2 | 110.779127121 |
| 2-2-14-14 | 5-5-8-4 | 1-4-6-6-1 | 5 | 0.175929644856 | 94.84 | 109.055952072 |
| 2-2-14-14 | 5-5-8-4 | 1-4-6-7-1 | 5 | 0.168230242337 | 94.91 | 116.441555023 |
| 2-2-14-14 | 5-5-8-4 | 1-4-6-8-1 | 5 | 0.196542392653 | 94.37 | 117.550545931 |
| 2-2-14-14 | 5-5-8-4 | 1-4-6-9-1 | 5 | 0.202823138509 | 94.1 | 116.61845994 |
| 2-2-14-14 | 5-5-8-4 | 1-4-6-10-1 | 5 | 0.171012731201 | 95.21 | 116.530170202 |
| 2-2-14-14 | 5-5-8-4 | 1-4-7-1-1 | 5 | 1.94642525349 | 32.32 | 101.780035973 |
| 2-2-14-14 | 5-5-8-4 | 1-4-7-2-1 | 5 | 0.83945013555 | 74.52 | 101.731612921 |
| 2-2-14-14 | 5-5-8-4 | 1-4-7-3-1 | 5 | 0.715939758349 | 77.13 | 101.558715105 |
| 2-2-14-14 | 5-5-8-4 | 1-4-7-4-1 | 5 | 2.22765855405 | 30.73 | 109.085407019 |
| 2-2-14-14 | 5-5-8-4 | 1-4-7-5-1 | 5 | 0.424850967828 | 87.5 | 111.148746967 |
| 2-2-14-14 | 5-5-8-4 | 1-4-7-6-1 | 5 | 0.185565730941 | 94.54 | 113.878326893 |
| 2-2-14-14 | 5-5-8-4 | 1-4-7-7-1 | 5 | 0.182392444342 | 94.69 | 115.019469023 |
| 2-2-14-14 | 5-5-8-4 | 1-4-7-8-1 | 5 | 0.18896933216 | 94.51 | 113.193516016 |
| 2-2-14-14 | 5-5-8-4 | 1-4-7-9-1 | 5 | 0.194652972597 | 94.32 | 121.781649828 |
| 2-2-14-14 | 5-5-8-4 | 1-4-7-10-1 | 5 | 0.178196785232 | 94.84 | 123.624798059 |
| 2-2-14-14 | 5-5-8-4 | 1-4-8-1-1 | 5 | 0.383560364881 | 88.23 | 100.628823042 |
| 2-2-14-14 | 5-5-8-4 | 1-4-8-2-1 | 5 | 0.735548756508 | 77.62 | 101.176692963 |
| 2-2-14-14 | 5-5-8-4 | 1-4-8-3-1 | 5 | 1.67474461431 | 46.04 | 103.362979889 |
| 2-2-14-14 | 5-5-8-4 | 1-4-8-4-1 | 5 | 0.959801667284 | 70.18 | 109.986177921 |
| 2-2-14-14 | 5-5-8-4 | 1-4-8-5-1 | 5 | 1.76815401045 | 41.23 | 97.9970238209 |
| 2-2-14-14 | 5-5-8-4 | 1-4-8-6-1 | 5 | 0.585714953931 | 82.62 | 117.448297977 |
| 2-2-14-14 | 5-5-8-4 | 1-4-8-7-1 | 5 | 0.204243983847 | 94.08 | 118.274396181 |
| 2-2-14-14 | 5-5-8-4 | 1-4-8-8-1 | 5 | 0.188096405715 | 94.43 | 119.405912876 |
| 2-2-14-14 | 5-5-8-4 | 1-4-8-9-1 | 5 | 0.180543627607 | 94.49 | 118.678290844 |
| 2-2-14-14 | 5-5-8-4 | 1-4-8-10-1 | 5 | 0.186752439882 | 94.53 | 125.877252817 |
| 2-2-14-14 | 5-5-8-4 | 1-4-9-1-1 | 5 | 1.52085464361 | 48.59 | 96.996076107 |
| 2-2-14-14 | 5-5-8-4 | 1-4-9-2-1 | 5 | 0.476573402418 | 85.47 | 99.675219059 |
| 2-2-14-14 | 5-5-8-4 | 1-4-9-3-1 | 5 | 1.58551844505 | 43.32 | 109.587568998 |
| 2-2-14-14 | 5-5-8-4 | 1-4-9-4-1 | 5 | 1.62403949845 | 48.62 | 112.662723064 |
| 2-2-14-14 | 5-5-8-4 | 1-4-9-5-1 | 5 | 2.26755663843 | 19.89 | 114.302314043 |
| 2-2-14-14 | 5-5-8-4 | 1-4-9-6-1 | 5 | 2.25000897785 | 22.88 | 115.12846303 |
| 2-2-14-14 | 5-5-8-4 | 1-4-9-7-1 | 5 | 2.23978912679 | 21.83 | 117.51650095 |
| 2-2-14-14 | 5-5-8-4 | 1-4-9-8-1 | 5 | 0.156982225217 | 95.5 | 115.352415085 |
| 2-2-14-14 | 5-5-8-4 | 1-4-9-9-1 | 5 | 0.16306092871 | 95.21 | 126.009151936 |
| 2-2-14-14 | 5-5-8-4 | 1-4-9-10-1 | 5 | 0.168812062247 | 95.13 | 129.734668016 |
| 2-2-14-14 | 5-5-8-4 | 1-4-10-1-1 | 5 | 1.80233344774 | 34.19 | 101.040079832 |
| 2-2-14-14 | 5-5-8-4 | 1-4-10-2-1 | 5 | 0.653252809108 | 79.98 | 106.059190035 |
| 2-2-14-14 | 5-5-8-4 | 1-4-10-3-1 | 5 | 0.90392480321 | 71.06 | 104.03606391 |
| 2-2-14-14 | 5-5-8-4 | 1-4-10-4-1 | 5 | 2.28016248081 | 11.35 | 111.069545984 |
| 2-2-14-14 | 5-5-8-4 | 1-4-10-5-1 | 5 | 2.11204526039 | 36.0 | 114.564229965 |
| 2-2-14-14 | 5-5-8-4 | 1-4-10-6-1 | 5 | 2.22883632823 | 26.68 | 114.885204077 |
| 2-2-14-14 | 5-5-8-4 | 1-4-10-7-1 | 5 | 2.22369646068 | 27.43 | 118.458645105 |
| 2-2-14-14 | 5-5-8-4 | 1-4-10-8-1 | 5 | 0.157171742222 | 95.34 | 119.394281864 |
| 2-2-14-14 | 5-5-8-4 | 1-4-10-9-1 | 5 | 0.17218351021 | 95.0 | 116.831836939 |
| 2-2-14-14 | 5-5-8-4 | 1-4-10-10-1 | 5 | 0.154220199408 | 95.5 | 118.786454916 |
| 2-2-14-14 | 5-5-8-4 | 1-5-1-1-1 | 5 | 2.30102418922 | 11.35 | 105.777895927 |
| 2-2-14-14 | 5-5-8-4 | 1-5-1-2-1 | 5 | 0.168508829755 | 95.1 | 102.071206093 |
| 2-2-14-14 | 5-5-8-4 | 1-5-1-3-1 | 5 | 0.185321832283 | 94.61 | 102.080675125 |
| 2-2-14-14 | 5-5-8-4 | 1-5-1-4-1 | 5 | 0.187708912614 | 94.42 | 103.902444839 |
| 2-2-14-14 | 5-5-8-4 | 1-5-1-5-1 | 5 | 0.218098711808 | 93.8 | 110.414319992 |
| 2-2-14-14 | 5-5-8-4 | 1-5-1-6-1 | 5 | 0.21994161444 | 93.73 | 111.654817104 |
| 2-2-14-14 | 5-5-8-4 | 1-5-1-7-1 | 5 | 0.198180666926 | 94.04 | 112.533365011 |
| 2-2-14-14 | 5-5-8-4 | 1-5-1-8-1 | 5 | 0.212619673944 | 93.71 | 113.292229891 |
| 2-2-14-14 | 5-5-8-4 | 1-5-1-9-1 | 5 | 0.222204241699 | 93.7 | 115.433109999 |
| 2-2-14-14 | 5-5-8-4 | 1-5-1-10-1 | 5 | 0.212622484234 | 93.57 | 118.221335888 |
| 2-2-14-14 | 5-5-8-4 | 1-5-2-1-1 | 5 | 2.30093820181 | 11.35 | 99.5111038685 |
| 2-2-14-14 | 5-5-8-4 | 1-5-2-2-1 | 5 | 2.30075626259 | 11.35 | 98.3469488621 |
| 2-2-14-14 | 5-5-8-4 | 1-5-2-3-1 | 5 | 0.180680607052 | 94.56 | 105.89915204 |
| 2-2-14-14 | 5-5-8-4 | 1-5-2-4-1 | 5 | 0.193248676445 | 94.32 | 105.837457895 |
| 2-2-14-14 | 5-5-8-4 | 1-5-2-5-1 | 5 | 0.206835872307 | 93.98 | 111.318070889 |
| 2-2-14-14 | 5-5-8-4 | 1-5-2-6-1 | 5 | 0.192676471212 | 94.31 | 111.483306885 |
| 2-2-14-14 | 5-5-8-4 | 1-5-2-7-1 | 5 | 0.245302379382 | 92.9 | 115.162123919 |
| 2-2-14-14 | 5-5-8-4 | 1-5-2-8-1 | 5 | 0.200408402806 | 94.19 | 114.542732 |
| 2-2-14-14 | 5-5-8-4 | 1-5-2-9-1 | 5 | 0.204698064042 | 93.84 | 111.404368877 |
| 2-2-14-14 | 5-5-8-4 | 1-5-2-10-1 | 5 | 0.212478712467 | 93.74 | 112.324569941 |
| 2-2-14-14 | 5-5-8-4 | 1-5-3-1-1 | 5 | 2.30100770536 | 11.35 | 101.587435961 |
| 2-2-14-14 | 5-5-8-4 | 1-5-3-2-1 | 5 | 2.26926693485 | 19.38 | 103.670500994 |
| 2-2-14-14 | 5-5-8-4 | 1-5-3-3-1 | 5 | 2.29871870378 | 11.35 | 105.64724803 |
| 2-2-14-14 | 5-5-8-4 | 1-5-3-4-1 | 5 | 0.196519572428 | 94.38 | 108.706907988 |
| 2-2-14-14 | 5-5-8-4 | 1-5-3-5-1 | 5 | 0.189826312795 | 94.41 | 111.04536891 |
| 2-2-14-14 | 5-5-8-4 | 1-5-3-6-1 | 5 | 0.186441942145 | 94.58 | 112.624230146 |
| 2-2-14-14 | 5-5-8-4 | 1-5-3-7-1 | 5 | 0.180914937426 | 94.65 | 108.975420237 |
| 2-2-14-14 | 5-5-8-4 | 1-5-3-8-1 | 5 | 0.181928650917 | 94.75 | 115.058819056 |
| 2-2-14-14 | 5-5-8-4 | 1-5-3-9-1 | 5 | 0.210145464411 | 93.9 | 114.615228176 |
| 2-2-14-14 | 5-5-8-4 | 1-5-3-10-1 | 5 | 0.222263025984 | 93.56 | 121.321264982 |
| 2-2-14-14 | 5-5-8-4 | 1-5-4-1-1 | 5 | 2.30094891953 | 11.35 | 99.0656580925 |
| 2-2-14-14 | 5-5-8-4 | 1-5-4-2-1 | 5 | 2.19929494522 | 28.29 | 104.476979017 |
| 2-2-14-14 | 5-5-8-4 | 1-5-4-3-1 | 5 | 2.30081064044 | 11.35 | 107.90494895 |
| 2-2-14-14 | 5-5-8-4 | 1-5-4-4-1 | 5 | 2.29904662699 | 11.35 | 104.629909992 |
| 2-2-14-14 | 5-5-8-4 | 1-5-4-5-1 | 5 | 0.161093371809 | 95.19 | 111.378407001 |
| 2-2-14-14 | 5-5-8-4 | 1-5-4-6-1 | 5 | 0.171678012093 | 95.05 | 109.467431068 |
| 2-2-14-14 | 5-5-8-4 | 1-5-4-7-1 | 5 | 0.178055262919 | 94.71 | 116.768107176 |
| 2-2-14-14 | 5-5-8-4 | 1-5-4-8-1 | 5 | 0.195995562863 | 94.05 | 118.503097773 |
| 2-2-14-14 | 5-5-8-4 | 1-5-4-9-1 | 5 | 0.181429830701 | 94.74 | 117.77884388 |
| 2-2-14-14 | 5-5-8-4 | 1-5-4-10-1 | 5 | 0.174622811994 | 94.88 | 120.337000847 |
| 2-2-14-14 | 5-5-8-4 | 1-5-5-1-1 | 5 | 2.30099483237 | 11.35 | 102.444177866 |
| 2-2-14-14 | 5-5-8-4 | 1-5-5-2-1 | 5 | 2.07489806105 | 28.91 | 101.820977211 |
| 2-2-14-14 | 5-5-8-4 | 1-5-5-3-1 | 5 | 2.2994665103 | 11.35 | 103.919660091 |
| 2-2-14-14 | 5-5-8-4 | 1-5-5-4-1 | 5 | 2.3007194531 | 11.35 | 106.826663017 |
| 2-2-14-14 | 5-5-8-4 | 1-5-5-5-1 | 5 | 1.53872099509 | 47.47 | 113.492223024 |
| 2-2-14-14 | 5-5-8-4 | 1-5-5-6-1 | 5 | 0.172198560717 | 94.85 | 116.38002491 |
| 2-2-14-14 | 5-5-8-4 | 1-5-5-7-1 | 5 | 0.188309344941 | 94.6 | 118.02345705 |
| 2-2-14-14 | 5-5-8-4 | 1-5-5-8-1 | 5 | 0.191452479272 | 94.53 | 119.103089094 |
| 2-2-14-14 | 5-5-8-4 | 1-5-5-9-1 | 5 | 0.177981673295 | 94.74 | 120.041872025 |
| 2-2-14-14 | 5-5-8-4 | 1-5-5-10-1 | 5 | 0.190395887148 | 94.58 | 132.889350891 |
| 2-2-14-14 | 5-5-8-4 | 1-5-6-1-1 | 5 | 2.30081924733 | 11.35 | 103.849935055 |
| 2-2-14-14 | 5-5-8-4 | 1-5-6-2-1 | 5 | 2.3006285794 | 11.35 | 109.607409954 |
| 2-2-14-14 | 5-5-8-4 | 1-5-6-3-1 | 5 | 0.513302365162 | 85.3 | 107.154906034 |
| 2-2-14-14 | 5-5-8-4 | 1-5-6-4-1 | 5 | 1.99171303669 | 36.22 | 112.134928942 |
| 2-2-14-14 | 5-5-8-4 | 1-5-6-5-1 | 5 | 0.365276842225 | 89.88 | 113.572788954 |
| 2-2-14-14 | 5-5-8-4 | 1-5-6-6-1 | 5 | 2.17211577464 | 32.85 | 118.929806948 |
| 2-2-14-14 | 5-5-8-4 | 1-5-6-7-1 | 5 | 0.191138987707 | 94.43 | 118.916642904 |
| 2-2-14-14 | 5-5-8-4 | 1-5-6-8-1 | 5 | 0.166597244819 | 94.89 | 115.441197872 |
| 2-2-14-14 | 5-5-8-4 | 1-5-6-9-1 | 5 | 0.195647551915 | 94.22 | 120.572443962 |
| 2-2-14-14 | 5-5-8-4 | 1-5-6-10-1 | 5 | 0.21327387472 | 93.63 | 124.27274394 |
| 2-2-14-14 | 5-5-8-4 | 1-5-7-1-1 | 5 | 2.30095635699 | 11.35 | 97.8460228443 |
| 2-2-14-14 | 5-5-8-4 | 1-5-7-2-1 | 5 | 0.278738308856 | 91.62 | 109.524283886 |
| 2-2-14-14 | 5-5-8-4 | 1-5-7-3-1 | 5 | 1.67218069193 | 42.75 | 111.139781952 |
| 2-2-14-14 | 5-5-8-4 | 1-5-7-4-1 | 5 | 2.22048786189 | 25.69 | 112.143307924 |
| 2-2-14-14 | 5-5-8-4 | 1-5-7-5-1 | 5 | 2.29495554619 | 11.35 | 114.126399994 |
| 2-2-14-14 | 5-5-8-4 | 1-5-7-6-1 | 5 | 0.47810640597 | 86.08 | 113.019435167 |
| 2-2-14-14 | 5-5-8-4 | 1-5-7-7-1 | 5 | 0.482463538688 | 85.88 | 117.97335887 |
| 2-2-14-14 | 5-5-8-4 | 1-5-7-8-1 | 5 | 0.174152531026 | 95.04 | 125.576896191 |
| 2-2-14-14 | 5-5-8-4 | 1-5-7-9-1 | 5 | 0.164344143178 | 95.22 | 126.791785002 |
| 2-2-14-14 | 5-5-8-4 | 1-5-7-10-1 | 5 | 0.175352565679 | 94.64 | 128.219515085 |
| 2-2-14-14 | 5-5-8-4 | 1-5-8-1-1 | 5 | 2.2786747467 | 19.44 | 104.681433201 |
| 2-2-14-14 | 5-5-8-4 | 1-5-8-2-1 | 5 | 0.98932732041 | 68.9 | 111.157755852 |
| 2-2-14-14 | 5-5-8-4 | 1-5-8-3-1 | 5 | 0.791992661764 | 76.04 | 102.137712955 |
| 2-2-14-14 | 5-5-8-4 | 1-5-8-4-1 | 5 | 0.800413283207 | 76.18 | 109.634057045 |
| 2-2-14-14 | 5-5-8-4 | 1-5-8-5-1 | 5 | 2.16439653051 | 31.3 | 117.113772869 |
| 2-2-14-14 | 5-5-8-4 | 1-5-8-6-1 | 5 | 2.30003628166 | 11.35 | 120.760751963 |
| 2-2-14-14 | 5-5-8-4 | 1-5-8-7-1 | 5 | 0.292432159716 | 91.8 | 123.783633947 |
| 2-2-14-14 | 5-5-8-4 | 1-5-8-8-1 | 5 | 2.11845961646 | 27.83 | 127.682960033 |
| 2-2-14-14 | 5-5-8-4 | 1-5-8-9-1 | 5 | 0.162477710823 | 95.26 | 121.242047787 |
| 2-2-14-14 | 5-5-8-4 | 1-5-8-10-1 | 5 | 0.171958111081 | 94.79 | 124.71846509 |
| 2-2-14-14 | 5-5-8-4 | 1-5-9-1-1 | 5 | 2.28285535029 | 17.9 | 108.995515108 |
| 2-2-14-14 | 5-5-8-4 | 1-5-9-2-1 | 5 | 0.397706793178 | 88.85 | 110.966239929 |
| 2-2-14-14 | 5-5-8-4 | 1-5-9-3-1 | 5 | 0.680545670729 | 79.13 | 114.25097394 |
| 2-2-14-14 | 5-5-8-4 | 1-5-9-4-1 | 5 | 1.9443915086 | 29.51 | 114.004170895 |
| 2-2-14-14 | 5-5-8-4 | 1-5-9-5-1 | 5 | 1.12868122063 | 64.93 | 117.772676945 |
| 2-2-14-14 | 5-5-8-4 | 1-5-9-6-1 | 5 | 1.95022950219 | 32.15 | 122.372433901 |
| 2-2-14-14 | 5-5-8-4 | 1-5-9-7-1 | 5 | 0.64278284904 | 81.62 | 120.701148987 |
| 2-2-14-14 | 5-5-8-4 | 1-5-9-8-1 | 5 | 1.92216237475 | 39.26 | 122.026196957 |
| 2-2-14-14 | 5-5-8-4 | 1-5-9-9-1 | 5 | 0.204082647243 | 94.09 | 132.008493185 |
| 2-2-14-14 | 5-5-8-4 | 1-5-9-10-1 | 5 | 0.166033308001 | 95.32 | 128.612112045 |
| 2-2-14-14 | 5-5-8-4 | 1-5-10-1-1 | 5 | 2.3009711085 | 11.35 | 108.121289015 |
| 2-2-14-14 | 5-5-8-4 | 1-5-10-2-1 | 5 | 0.878131615963 | 70.96 | 110.130112171 |
| 2-2-14-14 | 5-5-8-4 | 1-5-10-3-1 | 5 | 2.26086866118 | 21.65 | 112.870769978 |
| 2-2-14-14 | 5-5-8-4 | 1-5-10-4-1 | 5 | 2.27705355532 | 12.05 | 111.921420097 |
| 2-2-14-14 | 5-5-8-4 | 1-5-10-5-1 | 5 | 0.585336764229 | 82.26 | 116.022508144 |
| 2-2-14-14 | 5-5-8-4 | 1-5-10-6-1 | 5 | 0.39414986721 | 89.18 | 112.577711105 |
| 2-2-14-14 | 5-5-8-4 | 1-5-10-7-1 | 5 | 0.271477672043 | 92.15 | 115.492552042 |
| 2-2-14-14 | 5-5-8-4 | 1-5-10-8-1 | 5 | 1.42513034128 | 65.27 | 110.807829857 |
| 2-2-14-14 | 5-5-8-4 | 1-5-10-9-1 | 5 | 1.51364685974 | 56.34 | 114.109845877 |
| 2-2-14-14 | 5-5-8-4 | 1-5-10-10-1 | 5 | 0.154615298239 | 95.64 | 125.468568087 |
| 2-2-14-14 | 5-5-8-4 | 1-6-1-1-1 | 5 | 2.30099291907 | 11.35 | 104.562470913 |
| 2-2-14-14 | 5-5-8-4 | 1-6-1-2-1 | 5 | 2.30096072325 | 11.35 | 102.423266172 |
| 2-2-14-14 | 5-5-8-4 | 1-6-1-3-1 | 5 | 0.198615785571 | 94.2 | 101.536949873 |
| 2-2-14-14 | 5-5-8-4 | 1-6-1-4-1 | 5 | 0.193248108816 | 94.5 | 104.425267935 |
| 2-2-14-14 | 5-5-8-4 | 1-6-1-5-1 | 5 | 0.201794263534 | 94.2 | 109.284447908 |
| 2-2-14-14 | 5-5-8-4 | 1-6-1-6-1 | 5 | 0.177591371962 | 94.89 | 109.909769058 |
| 2-2-14-14 | 5-5-8-4 | 1-6-1-7-1 | 5 | 0.19217660397 | 94.31 | 112.163840055 |
| 2-2-14-14 | 5-5-8-4 | 1-6-1-8-1 | 5 | 0.220828615483 | 93.64 | 112.418955803 |
| 2-2-14-14 | 5-5-8-4 | 1-6-1-9-1 | 5 | 0.20519598066 | 94.0 | 117.385545015 |
| 2-2-14-14 | 5-5-8-4 | 1-6-1-10-1 | 5 | 0.214679915963 | 93.75 | 113.227113962 |
| 2-2-14-14 | 5-5-8-4 | 1-6-2-1-1 | 5 | 2.30100403289 | 11.35 | 100.39606905 |
| 2-2-14-14 | 5-5-8-4 | 1-6-2-2-1 | 5 | 2.2956579852 | 11.35 | 98.2993869781 |
| 2-2-14-14 | 5-5-8-4 | 1-6-2-3-1 | 5 | 2.00240461123 | 30.82 | 105.033160925 |
| 2-2-14-14 | 5-5-8-4 | 1-6-2-4-1 | 5 | 0.17941119881 | 94.74 | 108.32677412 |
| 2-2-14-14 | 5-5-8-4 | 1-6-2-5-1 | 5 | 0.198280966592 | 94.25 | 111.779397964 |
| 2-2-14-14 | 5-5-8-4 | 1-6-2-6-1 | 5 | 0.18870502489 | 94.46 | 113.040972948 |
| 2-2-14-14 | 5-5-8-4 | 1-6-2-7-1 | 5 | 0.21706442364 | 93.65 | 117.576977968 |
| 2-2-14-14 | 5-5-8-4 | 1-6-2-8-1 | 5 | 0.191153414457 | 94.49 | 116.426457882 |
| 2-2-14-14 | 5-5-8-4 | 1-6-2-9-1 | 5 | 0.19292126307 | 94.08 | 113.280540943 |
| 2-2-14-14 | 5-5-8-4 | 1-6-2-10-1 | 5 | 0.197882031849 | 94.28 | 116.970679045 |
| 2-2-14-14 | 5-5-8-4 | 1-6-3-1-1 | 5 | 2.30102505198 | 11.35 | 105.397335052 |
| 2-2-14-14 | 5-5-8-4 | 1-6-3-2-1 | 5 | 1.43918723595 | 53.95 | 103.428803921 |
| 2-2-14-14 | 5-5-8-4 | 1-6-3-3-1 | 5 | 2.25237110312 | 25.86 | 106.365242004 |
| 2-2-14-14 | 5-5-8-4 | 1-6-3-4-1 | 5 | 2.30087299169 | 11.35 | 107.795328856 |
| 2-2-14-14 | 5-5-8-4 | 1-6-3-5-1 | 5 | 0.167582251503 | 95.13 | 114.389368057 |
| 2-2-14-14 | 5-5-8-4 | 1-6-3-6-1 | 5 | 0.170654888579 | 94.79 | 113.382201195 |
| 2-2-14-14 | 5-5-8-4 | 1-6-3-7-1 | 5 | 0.19543312486 | 94.2 | 106.755878925 |
| 2-2-14-14 | 5-5-8-4 | 1-6-3-8-1 | 5 | 0.209192365481 | 93.88 | 120.649312973 |
| 2-2-14-14 | 5-5-8-4 | 1-6-3-9-1 | 5 | 0.199560081348 | 94.19 | 119.569121838 |
| 2-2-14-14 | 5-5-8-4 | 1-6-3-10-1 | 5 | 0.204673936693 | 93.81 | 117.810954094 |
| 2-2-14-14 | 5-5-8-4 | 1-6-4-1-1 | 5 | 2.30099625299 | 11.35 | 103.468910933 |
| 2-2-14-14 | 5-5-8-4 | 1-6-4-2-1 | 5 | 2.0995627356 | 23.85 | 107.104876041 |
| 2-2-14-14 | 5-5-8-4 | 1-6-4-3-1 | 5 | 2.28571782071 | 11.35 | 102.973142862 |
| 2-2-14-14 | 5-5-8-4 | 1-6-4-4-1 | 5 | 2.30086485342 | 11.35 | 107.564822912 |
| 2-2-14-14 | 5-5-8-4 | 1-6-4-5-1 | 5 | 2.28953542812 | 11.35 | 111.094902992 |
| 2-2-14-14 | 5-5-8-4 | 1-6-4-6-1 | 5 | 0.177006883458 | 94.69 | 115.484624863 |
| 2-2-14-14 | 5-5-8-4 | 1-6-4-7-1 | 5 | 0.191458668707 | 94.47 | 116.145371914 |
| 2-2-14-14 | 5-5-8-4 | 1-6-4-8-1 | 5 | 0.186104850882 | 94.65 | 117.379205942 |
| 2-2-14-14 | 5-5-8-4 | 1-6-4-9-1 | 5 | 0.191519208285 | 94.37 | 119.272915125 |
| 2-2-14-14 | 5-5-8-4 | 1-6-4-10-1 | 5 | 0.171673726085 | 94.9 | 130.55292511 |
| 2-2-14-14 | 5-5-8-4 | 1-6-5-1-1 | 5 | 2.30099043681 | 11.35 | 101.90414691 |
| 2-2-14-14 | 5-5-8-4 | 1-6-5-2-1 | 5 | 2.19582320839 | 28.19 | 106.068180084 |
| 2-2-14-14 | 5-5-8-4 | 1-6-5-3-1 | 5 | 0.325892934212 | 90.78 | 109.795210123 |
| 2-2-14-14 | 5-5-8-4 | 1-6-5-4-1 | 5 | 2.28583893448 | 11.35 | 110.930585146 |
| 2-2-14-14 | 5-5-8-4 | 1-6-5-5-1 | 5 | 0.748591091085 | 77.1 | 112.919855833 |
| 2-2-14-14 | 5-5-8-4 | 1-6-5-6-1 | 5 | 2.29479213712 | 11.35 | 115.254273891 |
| 2-2-14-14 | 5-5-8-4 | 1-6-5-7-1 | 5 | 0.17554463011 | 94.79 | 117.957320929 |
| 2-2-14-14 | 5-5-8-4 | 1-6-5-8-1 | 5 | 0.169425285055 | 95.12 | 119.355700016 |
| 2-2-14-14 | 5-5-8-4 | 1-6-5-9-1 | 5 | 0.177258280764 | 94.77 | 119.965979815 |
| 2-2-14-14 | 5-5-8-4 | 1-6-5-10-1 | 5 | 0.184699116226 | 94.69 | 126.000418901 |
| 2-2-14-14 | 5-5-8-4 | 1-6-6-1-1 | 5 | 2.30101177142 | 11.35 | 100.554441929 |
| 2-2-14-14 | 5-5-8-4 | 1-6-6-2-1 | 5 | 0.643361748855 | 80.96 | 108.810560942 |
| 2-2-14-14 | 5-5-8-4 | 1-6-6-3-1 | 5 | 2.27736816286 | 11.72 | 108.761603832 |
| 2-2-14-14 | 5-5-8-4 | 1-6-6-4-1 | 5 | 2.24251655697 | 25.72 | 112.544739008 |
| 2-2-14-14 | 5-5-8-4 | 1-6-6-5-1 | 5 | 0.455772184329 | 87.31 | 113.489685059 |
| 2-2-14-14 | 5-5-8-4 | 1-6-6-6-1 | 5 | 2.11425339265 | 36.6 | 109.562794924 |
| 2-2-14-14 | 5-5-8-4 | 1-6-6-7-1 | 5 | 0.469981609725 | 86.4 | 119.617390871 |
| 2-2-14-14 | 5-5-8-4 | 1-6-6-8-1 | 5 | 0.175319914482 | 94.82 | 118.296357155 |
| 2-2-14-14 | 5-5-8-4 | 1-6-6-9-1 | 5 | 0.173186746964 | 94.9 | 126.314846039 |
| 2-2-14-14 | 5-5-8-4 | 1-6-6-10-1 | 5 | 0.181294876997 | 94.59 | 127.45872283 |
| 2-2-14-14 | 5-5-8-4 | 1-6-7-1-1 | 5 | 2.301005537 | 11.35 | 105.928529024 |
| 2-2-14-14 | 5-5-8-4 | 1-6-7-2-1 | 5 | 0.788086562462 | 76.5 | 105.229631901 |
| 2-2-14-14 | 5-5-8-4 | 1-6-7-3-1 | 5 | 1.20073437552 | 62.34 | 107.872233868 |
| 2-2-14-14 | 5-5-8-4 | 1-6-7-4-1 | 5 | 1.17152843495 | 64.02 | 115.025706053 |
| 2-2-14-14 | 5-5-8-4 | 1-6-7-5-1 | 5 | 2.29989176716 | 11.35 | 116.645666122 |
| 2-2-14-14 | 5-5-8-4 | 1-6-7-6-1 | 5 | 1.77835592196 | 41.97 | 117.952476025 |
| 2-2-14-14 | 5-5-8-4 | 1-6-7-7-1 | 5 | 0.4708226284 | 86.3 | 119.049237967 |
| 2-2-14-14 | 5-5-8-4 | 1-6-7-8-1 | 5 | 0.346322504313 | 90.5 | 124.680027008 |
| 2-2-14-14 | 5-5-8-4 | 1-6-7-9-1 | 5 | 0.181502284037 | 94.46 | 111.947353125 |
| 2-2-14-14 | 5-5-8-4 | 1-6-7-10-1 | 5 | 0.172815335843 | 94.81 | 130.630180836 |
| 2-2-14-14 | 5-5-8-4 | 1-6-8-1-1 | 5 | 2.30101563988 | 11.35 | 106.664150953 |
| 2-2-14-14 | 5-5-8-4 | 1-6-8-2-1 | 5 | 1.71300783342 | 46.78 | 107.034880877 |
| 2-2-14-14 | 5-5-8-4 | 1-6-8-3-1 | 5 | 0.290674799277 | 91.79 | 109.273955107 |
| 2-2-14-14 | 5-5-8-4 | 1-6-8-4-1 | 5 | 0.605347645545 | 82.3 | 115.291004896 |
| 2-2-14-14 | 5-5-8-4 | 1-6-8-5-1 | 5 | 1.97769342924 | 29.96 | 113.34444809 |
| 2-2-14-14 | 5-5-8-4 | 1-6-8-6-1 | 5 | 0.385802323133 | 89.04 | 117.100743055 |
| 2-2-14-14 | 5-5-8-4 | 1-6-8-7-1 | 5 | 0.827081651321 | 75.65 | 122.704280138 |
| 2-2-14-14 | 5-5-8-4 | 1-6-8-8-1 | 5 | 0.827494972807 | 75.92 | 125.908709049 |
| 2-2-14-14 | 5-5-8-4 | 1-6-8-9-1 | 5 | 0.904287646634 | 73.23 | 129.779006004 |
| 2-2-14-14 | 5-5-8-4 | 1-6-8-10-1 | 5 | 0.148028335259 | 95.62 | 129.005378962 |
| 2-2-14-14 | 5-5-8-4 | 1-6-9-1-1 | 5 | 2.30102141626 | 11.35 | 104.927786112 |
| 2-2-14-14 | 5-5-8-4 | 1-6-9-2-1 | 5 | 0.275484316832 | 92.55 | 106.761093855 |
| 2-2-14-14 | 5-5-8-4 | 1-6-9-3-1 | 5 | 1.01353133343 | 68.0 | 115.232566118 |
| 2-2-14-14 | 5-5-8-4 | 1-6-9-4-1 | 5 | 1.04199961458 | 65.98 | 110.792469978 |
| 2-2-14-14 | 5-5-8-4 | 1-6-9-5-1 | 5 | 0.44153499302 | 87.72 | 118.052429914 |
| 2-2-14-14 | 5-5-8-4 | 1-6-9-6-1 | 5 | 1.55298854013 | 53.62 | 124.307564974 |
| 2-2-14-14 | 5-5-8-4 | 1-6-9-7-1 | 5 | 2.27138693288 | 13.85 | 121.009508133 |
| 2-2-14-14 | 5-5-8-4 | 1-6-9-8-1 | 5 | 0.686841705089 | 78.8 | 127.047307968 |
| 2-2-14-14 | 5-5-8-4 | 1-6-9-9-1 | 5 | 0.394262351392 | 89.02 | 130.323148012 |
| 2-2-14-14 | 5-5-8-4 | 1-6-9-10-1 | 5 | 1.0338199695 | 69.05 | 137.810344934 |
| 2-2-14-14 | 5-5-8-4 | 1-6-10-1-1 | 5 | 2.30104412135 | 11.35 | 105.736505032 |
| 2-2-14-14 | 5-5-8-4 | 1-6-10-2-1 | 5 | 2.11884757239 | 25.41 | 105.268232107 |
| 2-2-14-14 | 5-5-8-4 | 1-6-10-3-1 | 5 | 2.3007960995 | 11.35 | 104.799133062 |
| 2-2-14-14 | 5-5-8-4 | 1-6-10-4-1 | 5 | 0.367074938864 | 89.35 | 107.125144005 |
| 2-2-14-14 | 5-5-8-4 | 1-6-10-5-1 | 5 | 0.344891151436 | 90.22 | 105.049549103 |
| 2-2-14-14 | 5-5-8-4 | 1-6-10-6-1 | 5 | 0.352451027202 | 89.73 | 106.595414877 |
| 2-2-14-14 | 5-5-8-4 | 1-6-10-7-1 | 5 | 0.488877822497 | 86.21 | 109.890039921 |
| 2-2-14-14 | 5-5-8-4 | 1-6-10-8-1 | 5 | 0.39677060737 | 89.22 | 104.244684935 |
| 2-2-14-14 | 5-5-8-4 | 1-6-10-9-1 | 5 | 0.407509598342 | 88.63 | 106.510179996 |
| 2-2-14-14 | 5-5-8-4 | 1-6-10-10-1 | 5 | 0.840065287406 | 76.71 | 119.410970926 |
| 2-2-14-14 | 5-5-8-4 | 1-7-1-1-1 | 5 | 2.30100376995 | 11.35 | 82.9687209129 |
| 2-2-14-14 | 5-5-8-4 | 1-7-1-2-1 | 5 | 2.2895087478 | 11.35 | 79.9754590988 |
| 2-2-14-14 | 5-5-8-4 | 1-7-1-3-1 | 5 | 0.178292928489 | 94.88 | 79.941614151 |
| 2-2-14-14 | 5-5-8-4 | 1-7-1-4-1 | 5 | 0.184213999495 | 94.53 | 80.1867351532 |
| 2-2-14-14 | 5-5-8-4 | 1-7-1-5-1 | 5 | 0.191554230555 | 94.44 | 82.3667800426 |
| 2-2-14-14 | 5-5-8-4 | 1-7-1-6-1 | 5 | 0.190648867067 | 94.34 | 83.0844020844 |
| 2-2-14-14 | 5-5-8-4 | 1-7-1-7-1 | 5 | 0.205546066092 | 93.94 | 84.6959080696 |
| 2-2-14-14 | 5-5-8-4 | 1-7-1-8-1 | 5 | 0.18028073737 | 94.74 | 85.4301841259 |
| 2-2-14-14 | 5-5-8-4 | 1-7-1-9-1 | 5 | 0.203153414021 | 94.2 | 88.3623411655 |
| 2-2-14-14 | 5-5-8-4 | 1-7-1-10-1 | 5 | 0.201951805652 | 94.1 | 88.261950016 |
| 2-2-14-14 | 5-5-8-4 | 1-7-2-1-1 | 5 | 2.30098711278 | 11.35 | 78.8006432056 |
| 2-2-14-14 | 5-5-8-4 | 1-7-2-2-1 | 5 | 0.529098117559 | 84.22 | 79.3750340939 |
| 2-2-14-14 | 5-5-8-4 | 1-7-2-3-1 | 5 | 2.24136134672 | 27.56 | 80.8299620152 |
| 2-2-14-14 | 5-5-8-4 | 1-7-2-4-1 | 5 | 0.161504475143 | 95.19 | 81.9200661182 |
| 2-2-14-14 | 5-5-8-4 | 1-7-2-5-1 | 5 | 0.192774393694 | 94.4 | 83.8663620949 |
| 2-2-14-14 | 5-5-8-4 | 1-7-2-6-1 | 5 | 0.199958993689 | 94.17 | 84.7203781605 |
| 2-2-14-14 | 5-5-8-4 | 1-7-2-7-1 | 5 | 0.176544957555 | 94.78 | 85.7713470459 |
| 2-2-14-14 | 5-5-8-4 | 1-7-2-8-1 | 5 | 0.205245994039 | 93.81 | 87.2732081413 |
| 2-2-14-14 | 5-5-8-4 | 1-7-2-9-1 | 5 | 0.212964993084 | 93.74 | 88.5685179234 |
| 2-2-14-14 | 5-5-8-4 | 1-7-2-10-1 | 5 | 0.201208050738 | 94.0 | 90.5345010757 |
| 2-2-14-14 | 5-5-8-4 | 1-7-3-1-1 | 5 | 2.30101797539 | 11.35 | 78.9678549767 |
| 2-2-14-14 | 5-5-8-4 | 1-7-3-2-1 | 5 | 2.30063579212 | 11.35 | 80.1517939568 |
| 2-2-14-14 | 5-5-8-4 | 1-7-3-3-1 | 5 | 2.28896312554 | 11.35 | 81.8993849754 |
| 2-2-14-14 | 5-5-8-4 | 1-7-3-4-1 | 5 | 0.905004808613 | 72.31 | 83.165583849 |
| 2-2-14-14 | 5-5-8-4 | 1-7-3-5-1 | 5 | 2.19971112331 | 23.67 | 85.488574028 |
| 2-2-14-14 | 5-5-8-4 | 1-7-3-6-1 | 5 | 0.198102698063 | 94.35 | 86.338737011 |
| 2-2-14-14 | 5-5-8-4 | 1-7-3-7-1 | 5 | 0.18119398155 | 94.74 | 88.8940179348 |
| 2-2-14-14 | 5-5-8-4 | 1-7-3-8-1 | 5 | 0.184782212002 | 94.5 | 89.6020770073 |
| 2-2-14-14 | 5-5-8-4 | 1-7-3-9-1 | 5 | 0.186987115227 | 94.4 | 91.2015371323 |
| 2-2-14-14 | 5-5-8-4 | 1-7-3-10-1 | 5 | 0.181850874097 | 94.58 | 92.9981691837 |
| 2-2-14-14 | 5-5-8-4 | 1-7-4-1-1 | 5 | 2.30102282039 | 11.35 | 79.8835408688 |
| 2-2-14-14 | 5-5-8-4 | 1-7-4-2-1 | 5 | 0.87769475234 | 71.41 | 83.2677221298 |
| 2-2-14-14 | 5-5-8-4 | 1-7-4-3-1 | 5 | 2.25191631848 | 21.7 | 88.8649110794 |
| 2-2-14-14 | 5-5-8-4 | 1-7-4-4-1 | 5 | 2.29214530777 | 11.35 | 90.2970280647 |
| 2-2-14-14 | 5-5-8-4 | 1-7-4-5-1 | 5 | 2.26204603632 | 24.11 | 92.3629410267 |
| 2-2-14-14 | 5-5-8-4 | 1-7-4-6-1 | 5 | 1.65911748365 | 61.25 | 94.1074209213 |
| 2-2-14-14 | 5-5-8-4 | 1-7-4-7-1 | 5 | 0.16017561714 | 95.26 | 96.2242889404 |
| 2-2-14-14 | 5-5-8-4 | 1-7-4-8-1 | 5 | 0.183377619094 | 94.58 | 97.948674202 |
| 2-2-14-14 | 5-5-8-4 | 1-7-4-9-1 | 5 | 0.176525002629 | 94.93 | 99.696532011 |
| 2-2-14-14 | 5-5-8-4 | 1-7-4-10-1 | 5 | 0.189821634408 | 94.46 | 101.898164988 |
| 2-2-14-14 | 5-5-8-4 | 1-7-5-1-1 | 5 | 2.3010141783 | 11.35 | 86.8082830906 |
| 2-2-14-14 | 5-5-8-4 | 1-7-5-2-1 | 5 | 0.599511560085 | 82.16 | 88.8965280056 |
| 2-2-14-14 | 5-5-8-4 | 1-7-5-3-1 | 5 | 1.94646548521 | 27.96 | 90.8224489689 |
| 2-2-14-14 | 5-5-8-4 | 1-7-5-4-1 | 5 | 2.17888172282 | 23.77 | 92.4149670601 |
| 2-2-14-14 | 5-5-8-4 | 1-7-5-5-1 | 5 | 0.844747099173 | 73.47 | 94.5784409046 |
| 2-2-14-14 | 5-5-8-4 | 1-7-5-6-1 | 5 | 2.28541779497 | 11.35 | 96.4491701126 |
| 2-2-14-14 | 5-5-8-4 | 1-7-5-7-1 | 5 | 2.2903865226 | 11.35 | 98.1731159687 |
| 2-2-14-14 | 5-5-8-4 | 1-7-5-8-1 | 5 | 0.156383812116 | 95.61 | 100.546970844 |
| 2-2-14-14 | 5-5-8-4 | 1-7-5-9-1 | 5 | 0.168249332312 | 94.99 | 102.509776115 |
| 2-2-14-14 | 5-5-8-4 | 1-7-5-10-1 | 5 | 0.196178398754 | 94.37 | 104.586854935 |
| 2-2-14-14 | 5-5-8-4 | 1-7-6-1-1 | 5 | 2.30100837117 | 11.35 | 87.9431970119 |
| 2-2-14-14 | 5-5-8-4 | 1-7-6-2-1 | 5 | 0.279384537194 | 92.04 | 90.3074598312 |
| 2-2-14-14 | 5-5-8-4 | 1-7-6-3-1 | 5 | 0.783083662434 | 75.69 | 92.4900989532 |
| 2-2-14-14 | 5-5-8-4 | 1-7-6-4-1 | 5 | 1.57879508058 | 48.68 | 93.5829060078 |
| 2-2-14-14 | 5-5-8-4 | 1-7-6-5-1 | 5 | 1.04293519464 | 67.32 | 96.848033905 |
| 2-2-14-14 | 5-5-8-4 | 1-7-6-6-1 | 5 | 0.577357279228 | 82.45 | 98.1834719181 |
| 2-2-14-14 | 5-5-8-4 | 1-7-6-7-1 | 5 | 2.15345595672 | 42.04 | 100.290757895 |
| 2-2-14-14 | 5-5-8-4 | 1-7-6-8-1 | 5 | 2.28992073246 | 11.35 | 101.875051975 |
| 2-2-14-14 | 5-5-8-4 | 1-7-6-9-1 | 5 | 0.188491308808 | 94.33 | 115.364127874 |
| 2-2-14-14 | 5-5-8-4 | 1-7-6-10-1 | 5 | 0.16489816094 | 94.84 | 106.269289017 |
| 2-2-14-14 | 5-5-8-4 | 1-7-7-1-1 | 5 | 2.30101325683 | 11.35 | 91.4872088432 |
| 2-2-14-14 | 5-5-8-4 | 1-7-7-2-1 | 5 | 0.317405294879 | 91.02 | 94.2168591022 |
| 2-2-14-14 | 5-5-8-4 | 1-7-7-3-1 | 5 | 2.23159156567 | 22.06 | 93.5726611614 |
| 2-2-14-14 | 5-5-8-4 | 1-7-7-4-1 | 5 | 0.390528276971 | 88.51 | 95.8950889111 |
| 2-2-14-14 | 5-5-8-4 | 1-7-7-5-1 | 5 | 0.540916158482 | 84.14 | 98.9373641014 |
| 2-2-14-14 | 5-5-8-4 | 1-7-7-6-1 | 5 | 1.81363057496 | 41.4 | 99.833165884 |
| 2-2-14-14 | 5-5-8-4 | 1-7-7-7-1 | 5 | 1.21370677018 | 66.32 | 102.445168018 |
| 2-2-14-14 | 5-5-8-4 | 1-7-7-8-1 | 5 | 0.54544490435 | 83.34 | 98.0102369785 |
| 2-2-14-14 | 5-5-8-4 | 1-7-7-9-1 | 5 | 0.305123589641 | 91.18 | 99.6994040012 |
| 2-2-14-14 | 5-5-8-4 | 1-7-7-10-1 | 5 | 0.939303211898 | 71.5 | 108.930756092 |
| 2-2-14-14 | 5-5-8-4 | 1-7-8-1-1 | 5 | 2.30102173701 | 11.35 | 83.4736361504 |
| 2-2-14-14 | 5-5-8-4 | 1-7-8-2-1 | 5 | 2.28834203611 | 11.35 | 85.5982460976 |
| 2-2-14-14 | 5-5-8-4 | 1-7-8-3-1 | 5 | 0.685306972793 | 78.53 | 88.3692471981 |
| 2-2-14-14 | 5-5-8-4 | 1-7-8-4-1 | 5 | 0.391232955144 | 88.74 | 89.9839391708 |
| 2-2-14-14 | 5-5-8-4 | 1-7-8-5-1 | 5 | 0.5013044559 | 85.11 | 91.9445419312 |
| 2-2-14-14 | 5-5-8-4 | 1-7-8-6-1 | 5 | 0.659545111935 | 79.69 | 94.7504839897 |
| 2-2-14-14 | 5-5-8-4 | 1-7-8-7-1 | 5 | 2.27285861226 | 19.77 | 96.2144408226 |
| 2-2-14-14 | 5-5-8-4 | 1-7-8-8-1 | 5 | 1.75943308795 | 40.35 | 97.9959568977 |
| 2-2-14-14 | 5-5-8-4 | 1-7-8-9-1 | 5 | 0.476572452592 | 85.85 | 101.211443901 |
| 2-2-14-14 | 5-5-8-4 | 1-7-8-10-1 | 5 | 0.340748310203 | 90.4 | 103.372269154 |
| 2-2-14-14 | 5-5-8-4 | 1-7-9-1-1 | 5 | 2.30097765042 | 11.35 | 84.4359848499 |
| 2-2-14-14 | 5-5-8-4 | 1-7-9-2-1 | 5 | 1.14665811557 | 65.38 | 87.4213938713 |
| 2-2-14-14 | 5-5-8-4 | 1-7-9-3-1 | 5 | 1.62069258743 | 44.57 | 89.8044900894 |
| 2-2-14-14 | 5-5-8-4 | 1-7-9-4-1 | 5 | 0.419813741012 | 88.16 | 91.265294075 |
| 2-2-14-14 | 5-5-8-4 | 1-7-9-5-1 | 5 | 0.344870417736 | 90.08 | 94.2259590626 |
| 2-2-14-14 | 5-5-8-4 | 1-7-9-6-1 | 5 | 2.2656066919 | 21.64 | 96.0679337978 |
| 2-2-14-14 | 5-5-8-4 | 1-7-9-7-1 | 5 | 0.474097343689 | 86.15 | 98.7121720314 |
| 2-2-14-14 | 5-5-8-4 | 1-7-9-8-1 | 5 | 0.708675374445 | 79.1 | 100.675623178 |
| 2-2-14-14 | 5-5-8-4 | 1-7-9-9-1 | 5 | 0.542334512914 | 84.3 | 103.290164948 |
| 2-2-14-14 | 5-5-8-4 | 1-7-9-10-1 | 5 | 0.301971893215 | 91.35 | 105.853971958 |
| 2-2-14-14 | 5-5-8-4 | 1-7-10-1-1 | 5 | 2.30102241942 | 11.35 | 85.5155351162 |
| 2-2-14-14 | 5-5-8-4 | 1-7-10-2-1 | 5 | 0.301583184274 | 91.62 | 88.6253540516 |
| 2-2-14-14 | 5-5-8-4 | 1-7-10-3-1 | 5 | 0.350395110854 | 90.05 | 90.8570029736 |
| 2-2-14-14 | 5-5-8-4 | 1-7-10-4-1 | 5 | 0.536717824151 | 83.64 | 93.1526579857 |
| 2-2-14-14 | 5-5-8-4 | 1-7-10-5-1 | 5 | 0.405638839381 | 88.14 | 95.8042480946 |
| 2-2-14-14 | 5-5-8-4 | 1-7-10-6-1 | 5 | 0.666154265515 | 79.8 | 97.4253520966 |
| 2-2-14-14 | 5-5-8-4 | 1-7-10-7-1 | 5 | 0.468083634942 | 86.66 | 100.537144899 |
| 2-2-14-14 | 5-5-8-4 | 1-7-10-8-1 | 5 | 0.383719806742 | 89.04 | 102.702529907 |
| 2-2-14-14 | 5-5-8-4 | 1-7-10-9-1 | 5 | 0.282816624324 | 92.12 | 104.960541964 |
| 2-2-14-14 | 5-5-8-4 | 1-7-10-10-1 | 5 | 0.309305621033 | 91.34 | 107.659062862 |
| 2-2-14-14 | 5-5-8-4 | 1-8-1-1-1 | 5 | 2.30100027678 | 11.35 | 85.394562006 |
| 2-2-14-14 | 5-5-8-4 | 1-8-1-2-1 | 5 | 0.996420654175 | 69.48 | 80.1861050129 |
| 2-2-14-14 | 5-5-8-4 | 1-8-1-3-1 | 5 | 0.168620419353 | 95.26 | 81.6430470943 |
| 2-2-14-14 | 5-5-8-4 | 1-8-1-4-1 | 5 | 0.184787206131 | 94.63 | 82.1673240662 |
| 2-2-14-14 | 5-5-8-4 | 1-8-1-5-1 | 5 | 0.176985230603 | 94.98 | 83.6465749741 |
| 2-2-14-14 | 5-5-8-4 | 1-8-1-6-1 | 5 | 0.204868634787 | 93.96 | 84.9407060146 |
| 2-2-14-14 | 5-5-8-4 | 1-8-1-7-1 | 5 | 0.204320064819 | 94.15 | 86.165678978 |
| 2-2-14-14 | 5-5-8-4 | 1-8-1-8-1 | 5 | 0.20933132125 | 94.17 | 87.2027049065 |
| 2-2-14-14 | 5-5-8-4 | 1-8-1-9-1 | 5 | 0.216265072292 | 93.66 | 88.5891730785 |
| 2-2-14-14 | 5-5-8-4 | 1-8-1-10-1 | 5 | 0.184308126044 | 94.59 | 89.3984460831 |
| 2-2-14-14 | 5-5-8-4 | 1-8-2-1-1 | 5 | 2.30101168433 | 11.35 | 79.3477520943 |
| 2-2-14-14 | 5-5-8-4 | 1-8-2-2-1 | 5 | 2.30087351862 | 11.35 | 80.3494420052 |
| 2-2-14-14 | 5-5-8-4 | 1-8-2-3-1 | 5 | 2.29881147182 | 11.35 | 81.889731884 |
| 2-2-14-14 | 5-5-8-4 | 1-8-2-4-1 | 5 | 2.29690123725 | 11.35 | 82.8223919868 |
| 2-2-14-14 | 5-5-8-4 | 1-8-2-5-1 | 5 | 0.17679267629 | 94.71 | 84.8995289803 |
| 2-2-14-14 | 5-5-8-4 | 1-8-2-6-1 | 5 | 0.201785262977 | 93.9 | 85.9360599518 |
| 2-2-14-14 | 5-5-8-4 | 1-8-2-7-1 | 5 | 0.186568023699 | 94.58 | 87.8220500946 |
| 2-2-14-14 | 5-5-8-4 | 1-8-2-8-1 | 5 | 0.191485458657 | 94.33 | 88.9062509537 |
| 2-2-14-14 | 5-5-8-4 | 1-8-2-9-1 | 5 | 0.183588583654 | 94.69 | 90.7524490356 |
| 2-2-14-14 | 5-5-8-4 | 1-8-2-10-1 | 5 | 0.193107761514 | 94.53 | 91.6115090847 |
| 2-2-14-14 | 5-5-8-4 | 1-8-3-1-1 | 5 | 2.30100619337 | 11.35 | 80.5331120491 |
| 2-2-14-14 | 5-5-8-4 | 1-8-3-2-1 | 5 | 2.29176560044 | 11.35 | 81.90239501 |
| 2-2-14-14 | 5-5-8-4 | 1-8-3-3-1 | 5 | 2.29220129826 | 11.35 | 83.5411429405 |
| 2-2-14-14 | 5-5-8-4 | 1-8-3-4-1 | 5 | 2.29133214516 | 11.35 | 84.7885758877 |
| 2-2-14-14 | 5-5-8-4 | 1-8-3-5-1 | 5 | 2.29666719894 | 11.35 | 86.1751470566 |
| 2-2-14-14 | 5-5-8-4 | 1-8-3-6-1 | 5 | 0.164284999886 | 95.18 | 88.2133080959 |
| 2-2-14-14 | 5-5-8-4 | 1-8-3-7-1 | 5 | 0.187872972196 | 94.6 | 89.8077449799 |
| 2-2-14-14 | 5-5-8-4 | 1-8-3-8-1 | 5 | 0.185259584822 | 94.55 | 91.1470048428 |
| 2-2-14-14 | 5-5-8-4 | 1-8-3-9-1 | 5 | 0.180832726012 | 94.56 | 92.7718260288 |
| 2-2-14-14 | 5-5-8-4 | 1-8-3-10-1 | 5 | 0.163191287325 | 95.24 | 94.2396039963 |
| 2-2-14-14 | 5-5-8-4 | 1-8-4-1-1 | 5 | 2.30100657093 | 11.35 | 81.3622150421 |
| 2-2-14-14 | 5-5-8-4 | 1-8-4-2-1 | 5 | 2.30071167833 | 11.35 | 88.7364530563 |
| 2-2-14-14 | 5-5-8-4 | 1-8-4-3-1 | 5 | 0.44851876715 | 87.24 | 90.849105835 |
| 2-2-14-14 | 5-5-8-4 | 1-8-4-4-1 | 5 | 2.30069436345 | 11.35 | 92.146846056 |
| 2-2-14-14 | 5-5-8-4 | 1-8-4-5-1 | 5 | 2.29435319312 | 11.35 | 94.6987757683 |
| 2-2-14-14 | 5-5-8-4 | 1-8-4-6-1 | 5 | 2.28912274624 | 11.35 | 95.8568809032 |
| 2-2-14-14 | 5-5-8-4 | 1-8-4-7-1 | 5 | 0.321727537819 | 90.78 | 98.204554081 |
| 2-2-14-14 | 5-5-8-4 | 1-8-4-8-1 | 5 | 0.152854141034 | 95.58 | 99.7565090656 |
| 2-2-14-14 | 5-5-8-4 | 1-8-4-9-1 | 5 | 0.197737485135 | 94.24 | 102.727845907 |
| 2-2-14-14 | 5-5-8-4 | 1-8-4-10-1 | 5 | 0.162813567502 | 95.2 | 103.546030998 |
| 2-2-14-14 | 5-5-8-4 | 1-8-5-1-1 | 5 | 2.30097905489 | 11.35 | 88.6870088577 |
| 2-2-14-14 | 5-5-8-4 | 1-8-5-2-1 | 5 | 1.09054424324 | 64.08 | 90.6670570374 |
| 2-2-14-14 | 5-5-8-4 | 1-8-5-3-1 | 5 | 1.21672076652 | 63.31 | 92.8639810085 |
| 2-2-14-14 | 5-5-8-4 | 1-8-5-4-1 | 5 | 1.66999385141 | 48.65 | 94.1946680546 |
| 2-2-14-14 | 5-5-8-4 | 1-8-5-5-1 | 5 | 2.30076970978 | 11.35 | 96.111825943 |
| 2-2-14-14 | 5-5-8-4 | 1-8-5-6-1 | 5 | 0.707936020549 | 77.92 | 98.3145320415 |
| 2-2-14-14 | 5-5-8-4 | 1-8-5-7-1 | 5 | 1.66939213186 | 53.27 | 100.251936913 |
| 2-2-14-14 | 5-5-8-4 | 1-8-5-8-1 | 5 | 0.713496282814 | 77.91 | 102.38906002 |
| 2-2-14-14 | 5-5-8-4 | 1-8-5-9-1 | 5 | 0.187834800076 | 94.47 | 104.552195072 |
| 2-2-14-14 | 5-5-8-4 | 1-8-5-10-1 | 5 | 0.147933086931 | 95.54 | 105.912002802 |
| 2-2-14-14 | 5-5-8-4 | 1-8-6-1-1 | 5 | 2.30102034243 | 11.35 | 89.5980520248 |
| 2-2-14-14 | 5-5-8-4 | 1-8-6-2-1 | 5 | 0.535043823106 | 84.75 | 92.5493199825 |
| 2-2-14-14 | 5-5-8-4 | 1-8-6-3-1 | 5 | 0.969206589719 | 69.38 | 93.7647259235 |
| 2-2-14-14 | 5-5-8-4 | 1-8-6-4-1 | 5 | 1.12377069936 | 65.72 | 95.7460610867 |
| 2-2-14-14 | 5-5-8-4 | 1-8-6-5-1 | 5 | 0.726553119624 | 77.05 | 97.757871151 |
| 2-2-14-14 | 5-5-8-4 | 1-8-6-6-1 | 5 | 0.822859693298 | 75.33 | 99.7477259636 |
| 2-2-14-14 | 5-5-8-4 | 1-8-6-7-1 | 5 | 0.426423538034 | 88.02 | 102.127274036 |
| 2-2-14-14 | 5-5-8-4 | 1-8-6-8-1 | 5 | 0.648778617858 | 80.15 | 103.325562954 |
| 2-2-14-14 | 5-5-8-4 | 1-8-6-9-1 | 5 | 0.356403555913 | 90.25 | 105.763596058 |
| 2-2-14-14 | 5-5-8-4 | 1-8-6-10-1 | 5 | 1.71251296873 | 41.98 | 107.446068048 |
| 2-2-14-14 | 5-5-8-4 | 1-8-7-1-1 | 5 | 2.30098674894 | 11.35 | 90.7569730282 |
| 2-2-14-14 | 5-5-8-4 | 1-8-7-2-1 | 5 | 0.595138840238 | 82.38 | 93.4294519424 |
| 2-2-14-14 | 5-5-8-4 | 1-8-7-3-1 | 5 | 2.23735589535 | 21.68 | 95.7160661221 |
| 2-2-14-14 | 5-5-8-4 | 1-8-7-4-1 | 5 | 1.39881325293 | 56.18 | 97.3171420097 |
| 2-2-14-14 | 5-5-8-4 | 1-8-7-5-1 | 5 | 1.12110793815 | 65.67 | 99.9128670692 |
| 2-2-14-14 | 5-5-8-4 | 1-8-7-6-1 | 5 | 0.412997494122 | 87.83 | 101.730951071 |
| 2-2-14-14 | 5-5-8-4 | 1-8-7-7-1 | 5 | 1.69515340804 | 44.5 | 99.0161879063 |
| 2-2-14-14 | 5-5-8-4 | 1-8-7-8-1 | 5 | 0.304771804737 | 91.15 | 99.0465779305 |
| 2-2-14-14 | 5-5-8-4 | 1-8-7-9-1 | 5 | 0.549549123234 | 84.51 | 100.957489967 |
| 2-2-14-14 | 5-5-8-4 | 1-8-7-10-1 | 5 | 1.13029874137 | 62.66 | 111.286419868 |
| 2-2-14-14 | 5-5-8-4 | 1-8-8-1-1 | 5 | 2.30100624735 | 11.35 | 85.3040628433 |
| 2-2-14-14 | 5-5-8-4 | 1-8-8-2-1 | 5 | 0.954389762225 | 69.62 | 87.8830521107 |
| 2-2-14-14 | 5-5-8-4 | 1-8-8-3-1 | 5 | 0.375051724353 | 89.19 | 89.8531708717 |
| 2-2-14-14 | 5-5-8-4 | 1-8-8-4-1 | 5 | 0.307681148464 | 91.41 | 91.6268019676 |
| 2-2-14-14 | 5-5-8-4 | 1-8-8-5-1 | 5 | 0.302758034158 | 91.27 | 94.368142128 |
| 2-2-14-14 | 5-5-8-4 | 1-8-8-6-1 | 5 | 2.18575929764 | 32.42 | 96.1726429462 |
| 2-2-14-14 | 5-5-8-4 | 1-8-8-7-1 | 5 | 0.332737637134 | 90.68 | 98.0002439022 |
| 2-2-14-14 | 5-5-8-4 | 1-8-8-8-1 | 5 | 0.497613610657 | 85.85 | 100.781877995 |
| 2-2-14-14 | 5-5-8-4 | 1-8-8-9-1 | 5 | 0.592771646946 | 82.97 | 102.98230505 |
| 2-2-14-14 | 5-5-8-4 | 1-8-8-10-1 | 5 | 0.529913399842 | 84.22 | 105.023602009 |
| 2-2-14-14 | 5-5-8-4 | 1-8-9-1-1 | 5 | 2.30097062514 | 11.35 | 86.6027131081 |
| 2-2-14-14 | 5-5-8-4 | 1-8-9-2-1 | 5 | 1.51645788148 | 50.9 | 88.9459218979 |
| 2-2-14-14 | 5-5-8-4 | 1-8-9-3-1 | 5 | 1.71423449788 | 45.88 | 91.1982550621 |
| 2-2-14-14 | 5-5-8-4 | 1-8-9-4-1 | 5 | 2.24842804804 | 25.83 | 93.4407451153 |
| 2-2-14-14 | 5-5-8-4 | 1-8-9-5-1 | 5 | 1.59417406099 | 48.23 | 95.7754588127 |
| 2-2-14-14 | 5-5-8-4 | 1-8-9-6-1 | 5 | 0.767349548456 | 76.37 | 98.2232439518 |
| 2-2-14-14 | 5-5-8-4 | 1-8-9-7-1 | 5 | 0.387408722225 | 88.82 | 100.951254129 |
| 2-2-14-14 | 5-5-8-4 | 1-8-9-8-1 | 5 | 1.99282572542 | 26.88 | 102.668483019 |
| 2-2-14-14 | 5-5-8-4 | 1-8-9-9-1 | 5 | 0.409127315275 | 88.32 | 105.454495907 |
| 2-2-14-14 | 5-5-8-4 | 1-8-9-10-1 | 5 | 0.353111320412 | 90.2 | 107.309440136 |
| 2-2-14-14 | 5-5-8-4 | 1-8-10-1-1 | 5 | 2.30102458174 | 11.35 | 87.2261781693 |
| 2-2-14-14 | 5-5-8-4 | 1-8-10-2-1 | 5 | 0.292672196192 | 91.57 | 90.1820070744 |
| 2-2-14-14 | 5-5-8-4 | 1-8-10-3-1 | 5 | 0.421883607759 | 88.01 | 92.8727397919 |
| 2-2-14-14 | 5-5-8-4 | 1-8-10-4-1 | 5 | 0.354662564203 | 90.13 | 95.0714359283 |
| 2-2-14-14 | 5-5-8-4 | 1-8-10-5-1 | 5 | 0.56570228484 | 83.1 | 97.4286730289 |
| 2-2-14-14 | 5-5-8-4 | 1-8-10-6-1 | 5 | 0.35382688456 | 89.95 | 99.9907999039 |
| 2-2-14-14 | 5-5-8-4 | 1-8-10-7-1 | 5 | 2.10051497881 | 39.49 | 102.374102831 |
| 2-2-14-14 | 5-5-8-4 | 1-8-10-8-1 | 5 | 0.514052468177 | 85.33 | 104.365505934 |
| 2-2-14-14 | 5-5-8-4 | 1-8-10-9-1 | 5 | 0.339795039853 | 90.37 | 105.005233049 |
| 2-2-14-14 | 5-5-8-4 | 1-8-10-10-1 | 5 | 0.331733388048 | 90.77 | 103.251930952 |
| 2-2-14-14 | 5-5-8-4 | 1-9-1-1-1 | 5 | 2.30101652448 | 11.35 | 86.9878330231 |
| 2-2-14-14 | 5-5-8-4 | 1-9-1-2-1 | 5 | 2.30051053297 | 11.35 | 81.8709630966 |
| 2-2-14-14 | 5-5-8-4 | 1-9-1-3-1 | 5 | 2.30024990245 | 11.35 | 83.1436891556 |
| 2-2-14-14 | 5-5-8-4 | 1-9-1-4-1 | 5 | 0.171213058985 | 94.97 | 84.7057709694 |
| 2-2-14-14 | 5-5-8-4 | 1-9-1-5-1 | 5 | 0.1907100421 | 94.19 | 85.6056010723 |
| 2-2-14-14 | 5-5-8-4 | 1-9-1-6-1 | 5 | 0.177851307827 | 94.83 | 86.7994408607 |
| 2-2-14-14 | 5-5-8-4 | 1-9-1-7-1 | 5 | 0.186045680925 | 94.66 | 87.9693431854 |
| 2-2-14-14 | 5-5-8-4 | 1-9-1-8-1 | 5 | 0.203910910875 | 94.36 | 89.2575750351 |
| 2-2-14-14 | 5-5-8-4 | 1-9-1-9-1 | 5 | 0.198284212497 | 94.25 | 91.0668530464 |
| 2-2-14-14 | 5-5-8-4 | 1-9-1-10-1 | 5 | 0.200159724118 | 94.13 | 91.9362659454 |
| 2-2-14-14 | 5-5-8-4 | 1-9-2-1-1 | 5 | 2.30098048288 | 11.35 | 81.1737449169 |
| 2-2-14-14 | 5-5-8-4 | 1-9-2-2-1 | 5 | 2.30097514624 | 11.35 | 82.820554018 |
| 2-2-14-14 | 5-5-8-4 | 1-9-2-3-1 | 5 | 2.29905547559 | 11.35 | 84.3900969028 |
| 2-2-14-14 | 5-5-8-4 | 1-9-2-4-1 | 5 | 2.30094455255 | 11.35 | 85.2279200554 |
| 2-2-14-14 | 5-5-8-4 | 1-9-2-5-1 | 5 | 0.171362503464 | 94.99 | 86.9699399471 |
| 2-2-14-14 | 5-5-8-4 | 1-9-2-6-1 | 5 | 0.190412594228 | 94.48 | 88.4950060844 |
| 2-2-14-14 | 5-5-8-4 | 1-9-2-7-1 | 5 | 0.184816000333 | 94.38 | 90.2321021557 |
| 2-2-14-14 | 5-5-8-4 | 1-9-2-8-1 | 5 | 0.196821521972 | 94.17 | 91.367606163 |
| 2-2-14-14 | 5-5-8-4 | 1-9-2-9-1 | 5 | 0.205213285738 | 94.03 | 92.5471320152 |
| 2-2-14-14 | 5-5-8-4 | 1-9-2-10-1 | 5 | 0.176427308851 | 94.71 | 102.630837917 |
| 2-2-14-14 | 5-5-8-4 | 1-9-3-1-1 | 5 | 2.30107614282 | 11.35 | 82.7561042309 |
| 2-2-14-14 | 5-5-8-4 | 1-9-3-2-1 | 5 | 2.30104703602 | 11.35 | 83.9745109081 |
| 2-2-14-14 | 5-5-8-4 | 1-9-3-3-1 | 5 | 2.20129838492 | 22.67 | 85.9697339535 |
| 2-2-14-14 | 5-5-8-4 | 1-9-3-4-1 | 5 | 0.411587693774 | 88.23 | 87.3575742245 |
| 2-2-14-14 | 5-5-8-4 | 1-9-3-5-1 | 5 | 0.705013268032 | 77.85 | 89.0242371559 |
| 2-2-14-14 | 5-5-8-4 | 1-9-3-6-1 | 5 | 2.29484664774 | 11.35 | 90.1527271271 |
| 2-2-14-14 | 5-5-8-4 | 1-9-3-7-1 | 5 | 0.165353686233 | 95.07 | 92.033135891 |
| 2-2-14-14 | 5-5-8-4 | 1-9-3-8-1 | 5 | 0.180890541781 | 94.72 | 93.7958409786 |
| 2-2-14-14 | 5-5-8-4 | 1-9-3-9-1 | 5 | 0.174549526546 | 94.76 | 95.3509571552 |
| 2-2-14-14 | 5-5-8-4 | 1-9-3-10-1 | 5 | 0.188937582069 | 94.61 | 104.477561951 |
| 2-2-14-14 | 5-5-8-4 | 1-9-4-1-1 | 5 | 2.30100295238 | 11.35 | 88.9203031063 |
| 2-2-14-14 | 5-5-8-4 | 1-9-4-2-1 | 5 | 0.482803956719 | 85.26 | 91.9915959835 |
| 2-2-14-14 | 5-5-8-4 | 1-9-4-3-1 | 5 | 2.27104253628 | 18.79 | 93.4084289074 |
| 2-2-14-14 | 5-5-8-4 | 1-9-4-4-1 | 5 | 2.29843519838 | 11.35 | 94.621368885 |
| 2-2-14-14 | 5-5-8-4 | 1-9-4-5-1 | 5 | 0.502766406363 | 85.67 | 96.7834711075 |
| 2-2-14-14 | 5-5-8-4 | 1-9-4-6-1 | 5 | 2.26204994782 | 19.77 | 98.3908650875 |
| 2-2-14-14 | 5-5-8-4 | 1-9-4-7-1 | 5 | 0.271976620491 | 92.29 | 100.231909037 |
| 2-2-14-14 | 5-5-8-4 | 1-9-4-8-1 | 5 | 0.511816688395 | 84.53 | 101.931976795 |
| 2-2-14-14 | 5-5-8-4 | 1-9-4-9-1 | 5 | 0.174729890195 | 94.96 | 103.931234121 |
| 2-2-14-14 | 5-5-8-4 | 1-9-4-10-1 | 5 | 0.169867599788 | 94.93 | 114.154813051 |
| 2-2-14-14 | 5-5-8-4 | 1-9-5-1-1 | 5 | 2.30102756566 | 11.35 | 91.5311291218 |
| 2-2-14-14 | 5-5-8-4 | 1-9-5-2-1 | 5 | 1.59257569802 | 44.19 | 93.6165411472 |
| 2-2-14-14 | 5-5-8-4 | 1-9-5-3-1 | 5 | 2.30072914228 | 11.35 | 94.8076241016 |
| 2-2-14-14 | 5-5-8-4 | 1-9-5-4-1 | 5 | 2.23921735701 | 28.01 | 97.045178175 |
| 2-2-14-14 | 5-5-8-4 | 1-9-5-5-1 | 5 | 1.4355362131 | 52.6 | 98.7671539783 |
| 2-2-14-14 | 5-5-8-4 | 1-9-5-6-1 | 5 | 0.671436425569 | 79.96 | 101.044979095 |
| 2-2-14-14 | 5-5-8-4 | 1-9-5-7-1 | 5 | 2.21375007386 | 43.05 | 103.124499083 |
| 2-2-14-14 | 5-5-8-4 | 1-9-5-8-1 | 5 | 0.833703864589 | 75.3 | 105.02008009 |
| 2-2-14-14 | 5-5-8-4 | 1-9-5-9-1 | 5 | 0.805855880464 | 77.8 | 106.516180992 |
| 2-2-14-14 | 5-5-8-4 | 1-9-5-10-1 | 5 | 0.16531515874 | 95.22 | 108.856744051 |
| 2-2-14-14 | 5-5-8-4 | 1-9-6-1-1 | 5 | 2.30101858717 | 11.35 | 93.006403923 |
| 2-2-14-14 | 5-5-8-4 | 1-9-6-2-1 | 5 | 0.243675507604 | 92.99 | 94.8103840351 |
| 2-2-14-14 | 5-5-8-4 | 1-9-6-3-1 | 5 | 0.574205504698 | 83.27 | 96.9078221321 |
| 2-2-14-14 | 5-5-8-4 | 1-9-6-4-1 | 5 | 0.428822711405 | 87.84 | 98.3236460686 |
| 2-2-14-14 | 5-5-8-4 | 1-9-6-5-1 | 5 | 0.6566725329 | 79.37 | 100.554383993 |
| 2-2-14-14 | 5-5-8-4 | 1-9-6-6-1 | 5 | 0.74609607351 | 77.0 | 102.649272919 |
| 2-2-14-14 | 5-5-8-4 | 1-9-6-7-1 | 5 | 1.52260155205 | 64.92 | 104.714190006 |
| 2-2-14-14 | 5-5-8-4 | 1-9-6-8-1 | 5 | 0.509612477115 | 85.32 | 106.409320116 |
| 2-2-14-14 | 5-5-8-4 | 1-9-6-9-1 | 5 | 2.04073864078 | 34.59 | 108.604187965 |
| 2-2-14-14 | 5-5-8-4 | 1-9-6-10-1 | 5 | 0.615187179835 | 81.37 | 120.67966485 |
| 2-2-14-14 | 5-5-8-4 | 1-9-7-1-1 | 5 | 2.30102760332 | 11.35 | 95.0133299828 |
| 2-2-14-14 | 5-5-8-4 | 1-9-7-2-1 | 5 | 0.600933466974 | 82.31 | 96.6289329529 |
| 2-2-14-14 | 5-5-8-4 | 1-9-7-3-1 | 5 | 0.459241882015 | 86.6 | 99.043022871 |
| 2-2-14-14 | 5-5-8-4 | 1-9-7-4-1 | 5 | 0.524761417655 | 84.58 | 100.590675831 |
| 2-2-14-14 | 5-5-8-4 | 1-9-7-5-1 | 5 | 0.328214326326 | 90.88 | 100.829777002 |
| 2-2-14-14 | 5-5-8-4 | 1-9-7-6-1 | 5 | 0.948436869995 | 71.11 | 97.7608401775 |
| 2-2-14-14 | 5-5-8-4 | 1-9-7-7-1 | 5 | 0.76771412927 | 76.36 | 100.180589914 |
| 2-2-14-14 | 5-5-8-4 | 1-9-7-8-1 | 5 | 1.27653211058 | 63.01 | 101.246537209 |
| 2-2-14-14 | 5-5-8-4 | 1-9-7-9-1 | 5 | 0.320207094863 | 90.96 | 103.81593585 |
| 2-2-14-14 | 5-5-8-4 | 1-9-7-10-1 | 5 | 0.565627818339 | 83.16 | 113.69253397 |
| 2-2-14-14 | 5-5-8-4 | 1-9-8-1-1 | 5 | 2.30099731734 | 11.35 | 88.1120369434 |
| 2-2-14-14 | 5-5-8-4 | 1-9-8-2-1 | 5 | 1.88674498807 | 31.39 | 90.7160899639 |
| 2-2-14-14 | 5-5-8-4 | 1-9-8-3-1 | 5 | 0.2358859788 | 93.26 | 93.0819621086 |
| 2-2-14-14 | 5-5-8-4 | 1-9-8-4-1 | 5 | 0.53016266825 | 84.32 | 94.6453278065 |
| 2-2-14-14 | 5-5-8-4 | 1-9-8-5-1 | 5 | 0.479444021219 | 86.44 | 97.0642211437 |
| 2-2-14-14 | 5-5-8-4 | 1-9-8-6-1 | 5 | 0.360855533975 | 89.87 | 99.4671270847 |
| 2-2-14-14 | 5-5-8-4 | 1-9-8-7-1 | 5 | 0.692349451835 | 78.81 | 101.800065041 |
| 2-2-14-14 | 5-5-8-4 | 1-9-8-8-1 | 5 | 0.42173404558 | 87.7 | 103.503004074 |
| 2-2-14-14 | 5-5-8-4 | 1-9-8-9-1 | 5 | 0.822079510222 | 75.22 | 105.737933159 |
| 2-2-14-14 | 5-5-8-4 | 1-9-8-10-1 | 5 | 0.470921442191 | 85.96 | 116.526081085 |
| 2-2-14-14 | 5-5-8-4 | 1-9-9-1-1 | 5 | 2.30101677126 | 11.35 | 89.4046518803 |
| 2-2-14-14 | 5-5-8-4 | 1-9-9-2-1 | 5 | 1.71306217269 | 43.23 | 92.1334009171 |
| 2-2-14-14 | 5-5-8-4 | 1-9-9-3-1 | 5 | 0.93829868376 | 71.28 | 94.5847718716 |
| 2-2-14-14 | 5-5-8-4 | 1-9-9-4-1 | 5 | 0.434223195102 | 87.98 | 96.4390799999 |
| 2-2-14-14 | 5-5-8-4 | 1-9-9-5-1 | 5 | 0.517936310604 | 85.23 | 99.2120189667 |
| 2-2-14-14 | 5-5-8-4 | 1-9-9-6-1 | 5 | 0.493002319594 | 85.89 | 101.462832928 |
| 2-2-14-14 | 5-5-8-4 | 1-9-9-7-1 | 5 | 1.77916155422 | 36.1 | 103.782926083 |
| 2-2-14-14 | 5-5-8-4 | 1-9-9-8-1 | 5 | 0.333305288742 | 90.8 | 105.856411934 |
| 2-2-14-14 | 5-5-8-4 | 1-9-9-9-1 | 5 | 0.252986084972 | 93.02 | 116.912788868 |
| 2-2-14-14 | 5-5-8-4 | 1-9-9-10-1 | 5 | 0.280632158219 | 92.08 | 110.612223864 |
| 2-2-14-14 | 5-5-8-4 | 1-9-10-1-1 | 5 | 2.30099855749 | 11.35 | 90.2611300945 |
| 2-2-14-14 | 5-5-8-4 | 1-9-10-2-1 | 5 | 0.758815427606 | 76.22 | 93.2254841328 |
| 2-2-14-14 | 5-5-8-4 | 1-9-10-3-1 | 5 | 1.21117309818 | 63.0 | 95.6900849342 |
| 2-2-14-14 | 5-5-8-4 | 1-9-10-4-1 | 5 | 0.263307426177 | 92.47 | 97.9258720875 |
| 2-2-14-14 | 5-5-8-4 | 1-9-10-5-1 | 5 | 0.310150652086 | 91.18 | 100.459933996 |
| 2-2-14-14 | 5-5-8-4 | 1-9-10-6-1 | 5 | 0.516979470795 | 85.3 | 102.552134037 |
| 2-2-14-14 | 5-5-8-4 | 1-9-10-7-1 | 5 | 0.492674170534 | 85.66 | 99.1865022182 |
| 2-2-14-14 | 5-5-8-4 | 1-9-10-8-1 | 5 | 0.509782221708 | 84.79 | 99.2109179497 |
| 2-2-14-14 | 5-5-8-4 | 1-9-10-9-1 | 5 | 0.265994686081 | 92.03 | 100.870646 |
| 2-2-14-14 | 5-5-8-4 | 1-9-10-10-1 | 5 | 0.332232779519 | 90.54 | 110.978991032 |