5-5-5-3-17 8-4-8-2-2 1-7-8-5-9-1 5
5-5-5-3-17 4-4-2-4-8 1-3-5-5-7-1 5
5-85-3-5 8-2-2-32 1-9-7-4-1 5
5-5-17-3-5 2-32-4-2-2 1-9-2-6-9-1 5
17-5-5-5-3 16-4-2-2-4 1-7-10-7-2-1 5
5-5-3-5-17 2-4-8-8-2 1-3-9-7-7-1 5
5-5-17-5-3 64-2-2-2-2 1-6-4-2-2-1 5
15-17-5-5 2-32-8-2 1-3-9-9-1 5
5-5-5-3-17 4-2-2-4-16 1-2-3-4-5-1 5
3-17-5-5-5 2-2-16-4-4 1-2-8-5-2-1 5
5-5-15-17 2-8-4-16 1-6-8-6-1 5
5-5-3-5-17 16-2-2-4-4 1-3-10-5-3-1 5
5-5-3-17-5 32-2-2-4-2 1-7-5-7-6-1 5
5-17-3-5-5 8-4-2-8-2 1-6-4-1-10-1 5
5-5-5-3-17 2-16-4-2-4 1-4-7-2-8-1 5
3-17-5-5-5 8-2-8-4-2 1-4-5-7-5-1 5
5-5-3-85 8-4-2-16 1-7-5-10-1 5
17-5-5-3-5 32-2-4-2-2 1-7-10-6-7-1 5
5-3-5-17-5 4-4-8-2-4 1-4-7-10-5-1 5
5-5-17-3-5 2-4-32-2-2 1-1-4-6-2-1 5
17-5-5-5-3 2-16-2-4-4 1-10-5-9-8-1 5
5-17-3-5-5 16-2-2-4-4 1-10-5-2-8-1 5
5-3-85-5 16-16-2-2 1-7-10-9-1 5
5-5-3-5-17 2-16-2-4-4 1-6-7-1-9-1 5
5-3-5-17-5 4-8-4-4-2 1-5-3-6-1-1 5
5-5-5-3-17 8-16-2-2-2 1-7-8-9-1-1 5
5-5-5-3-17 8-4-2-8-2 1-2-10-8-9-1 5
5-17-5-3-5 2-4-2-32-2 1-1-4-5-2-1 5
5-17-5-5-3 16-2-2-2-8 1-7-2-4-4-1 5
5-5-5-3-17 2-4-4-4-8 1-1-9-3-2-1 5
3-17-5-25 4-4-32-2 1-9-6-1-1 5
17-3-5-5-5 64-2-2-2-2 1-4-3-3-10-1 5
5-5-5-3-17 2-4-4-4-8 1-7-8-10-9-1 5
17-5-5-3-5 2-2-4-2-32 1-4-5-3-3-1 5
51-5-5-5 2-2-2-128 1-10-1-9-1 5
5-5-15-17 2-16-16-2 1-8-6-9-1 5
3-5-17-5-5 4-2-4-2-16 1-3-9-5-7-1 5
5-5-17-3-5 4-2-16-4-2 1-6-8-6-9-1 5
5-5-3-5-17 2-4-16-4-2 1-8-2-10-5-1 5
5-5-3-5-17 16-4-2-2-4 1-2-9-1-4-1 5
15-5-17-5 8-4-8-4 1-4-1-6-1 5
5-5-3-5-17 8-2-2-16-2 1-6-6-10-10-1 5
3-17-25-5 16-4-2-8 1-4-9-5-1 5
5-17-3-5-5 8-4-4-4-2 1-1-10-10-8-1 5
5-5-17-3-5 2-2-2-2-64 1-8-6-4-5-1 5
17-5-5-3-5 2-4-2-16-4 1-6-10-1-7-1 5
3-5-17-5-5 16-2-2-8-2 1-5-4-1-10-1 5
15-5-5-17 2-4-16-8 1-4-1-2-1 5
25-5-17-3 2-4-16-8 1-7-8-4-1 5
5-5-5-3-17 4-16-2-4-2 1-8-10-8-8-1 5
3-5-5-5-17 2-8-16-2-2 1-10-1-3-1-1 5
3-5-5-5-17 2-16-2-2-8 1-8-9-8-7-1 5
17-5-5-5-3 16-4-2-2-4 1-5-9-10-3-1 5
17-3-5-5-5 2-2-16-2-8 1-6-10-1-5-1 5
5-3-5-5-17 4-2-2-16-4 1-9-9-7-2-1 5
3-5-5-17-5 4-4-4-4-4 1-4-5-9-7-1 5
5-5-3-5-17 32-2-2-4-2 1-1-3-3-8-1 5
3-5-5-5-17 2-4-8-4-4 1-3-4-4-5-1 5
17-25-5-3 4-32-2-4 1-5-4-3-1 5
25-3-5-17 8-32-2-2 1-6-6-6-1 5
5-3-5-5-17 8-4-2-2-8 1-4-10-4-5-1 5
3-17-5-5-5 16-4-4-2-2 1-4-4-7-5-1 5
3-5-5-5-17 2-2-32-2-4 1-1-8-2-2-1 5
3-5-17-5-5 16-2-2-2-8 1-6-8-4-8-1 5
3-17-5-5-5 2-4-2-4-16 1-2-9-2-10-1 5
3-17-5-5-5 2-2-8-16-2 1-1-8-9-1-1 5
3-5-5-17-5 4-2-16-4-2 1-6-4-3-1-1 5
3-5-17-5-5 2-8-2-4-8 1-4-9-3-5-1 5
3-5-17-5-5 16-8-2-2-2 1-9-1-7-9-1 5
17-5-5-5-3 4-2-32-2-2 1-6-7-1-5-1 5
5-3-5-17-5 8-4-2-4-4 1-8-8-7-7-1 5
3-17-25-5 8-8-4-4 1-9-3-2-1 5
17-5-5-3-5 4-4-2-4-8 1-10-7-10-7-1 5
5-5-17-5-3 8-2-4-8-2 1-1-4-5-1-1 5
3-17-5-5-5 4-2-16-4-2 1-10-4-3-9-1 5
3-17-5-5-5 32-2-2-4-2 1-5-8-2-6-1 5
3-5-5-17-5 2-8-8-4-2 1-6-3-2-8-1 5
5-5-3-5-17 8-16-2-2-2 1-3-1-4-4-1 5
3-5-5-17-5 4-4-8-2-4 1-8-1-6-6-1 5
85-5-5-3 4-2-8-16 1-1-2-10-1 5
5-5-3-17-5 2-2-8-8-4 1-10-6-4-8-1 5
5-5-17-3-5 8-4-2-4-4 1-9-8-8-10-1 5
5-3-5-5-17 2-8-4-2-8 1-10-1-2-1-1 5
5-3-5-5-17 2-4-32-2-2 1-3-8-1-5-1 5
5-17-5-5-3 4-2-4-8-4 1-10-1-8-8-1 5
3-5-5-17-5 4-16-2-4-2 1-6-5-3-7-1 5
5-5-17-5-3 2-2-4-32-2 1-10-6-3-3-1 5
5-5-5-17-3 16-2-2-8-2 1-2-3-1-8-1 5
5-5-5-17-3 2-4-8-2-8 1-8-8-5-8-1 5
17-5-3-5-5 16-2-4-2-4 1-8-8-8-7-1 5
17-5-3-5-5 4-2-4-16-2 1-8-8-1-4-1 5
5-5-5-3-17 2-2-64-2-2 1-10-7-8-8-1 5
5-5-5-17-3 4-16-2-2-4 1-4-6-5-2-1 5
17-3-5-5-5 4-8-2-8-2 1-4-6-5-8-1 5
5-5-3-17-5 2-16-8-2-2 1-6-6-1-10-1 5
3-17-5-5-5 4-2-2-32-2 1-8-4-7-5-1 5
17-5-5-3-5 8-2-2-2-16 1-10-7-3-3-1 5
5-3-5-17-5 16-2-2-8-2 1-1-4-5-10-1 5
3-5-5-5-17 2-2-32-2-4 1-10-2-8-6-1 5
3-17-5-5-5 4-2-2-32-2 1-2-2-1-5-1 5
5-17-5-3-5 8-2-2-8-4 1-4-3-4-4-1 5
5-3-5-85 4-8-16-2 1-6-6-3-1 5
5-17-5-3-5 4-8-2-8-2 1-6-10-8-5-1 5
3-5-5-5-17 4-2-4-8-4 1-4-1-10-5-1 5
3-5-17-5-5 8-4-4-4-2 1-3-5-3-4-1 5
5-3-5-5-17 2-8-2-8-4 1-10-5-1-9-1 5
5-3-5-17-5 2-2-2-64-2 1-5-2-8-7-1 5
5-3-5-17-5 2-16-8-2-2 1-4-7-2-8-1 5
5-17-3-5-5 2-2-4-8-8 1-2-10-7-1-1 5
17-5-3-5-5 4-32-2-2-2 1-6-2-7-3-1 5
5-5-3-17-5 2-32-2-2-4 1-4-7-4-9-1 5
3-5-5-5-17 2-8-2-2-16 1-8-4-8-8-1 5
5-17-5-5-3 4-4-16-2-2 1-9-2-6-3-1 5
5-3-17-5-5 8-8-2-4-2 1-9-4-5-2-1 5
5-5-5-3-17 2-2-8-4-8 1-2-2-4-9-1 5
17-5-5-3-5 8-4-2-2-8 1-5-1-10-5-1 5
5-5-17-3-5 4-2-32-2-2 1-2-5-2-5-1 5
17-5-3-5-5 2-16-2-4-4 1-6-5-5-3-1 5
3-5-5-5-17 2-2-8-8-4 1-6-1-8-5-1 5
3-17-5-25 4-8-8-4 1-4-6-2-1 5
17-3-5-25 8-8-2-8 1-10-1-4-1 5
17-5-5-5-3 8-8-4-2-2 1-4-7-7-3-1 5
5-3-5-5-17 2-2-2-32-4 1-8-4-10-7-1 5
3-5-17-5-5 4-8-4-4-2 1-9-4-6-7-1 5
5-5-17-3-5 4-4-2-2-16 1-1-9-7-2-1 5
3-5-17-5-5 2-2-2-64-2 1-3-9-7-8-1 5
5-5-5-17-3 2-8-8-2-4 1-6-2-9-8-1 5
5-5-5-17-3 4-2-8-2-8 1-4-7-2-1-1 5
5-5-5-17-3 2-16-4-4-2 1-1-5-10-6-1 5
25-3-5-17 4-2-2-64 1-7-3-4-1 5
5-5-17-5-3 8-16-2-2-2 1-2-4-4-2-1 5
5-3-17-5-5 2-2-16-2-8 1-7-9-7-8-1 5
17-5-5-5-3 2-4-2-2-32 1-6-1-8-3-1 5
3-5-17-5-5 2-2-8-4-8 1-2-4-1-6-1 5
5-5-3-5-17 2-2-4-16-4 1-5-6-8-7-1 5
5-17-3-5-5 4-8-4-2-4 1-6-8-7-10-1 5
5-17-3-5-5 8-8-2-4-2 1-6-6-10-2-1 5
5-3-5-5-17 2-2-64-2-2 1-9-7-10-1-1 5
5-5-17-5-3 8-2-2-2-16 1-7-3-6-10-1 5
17-3-5-5-5 2-2-2-32-4 1-5-3-8-3-1 5
3-5-5-5-17 2-2-16-4-4 1-1-1-9-8-1 5
17-5-25-3 32-8-2-2 1-5-1-2-1 5
5-85-5-3 4-16-8-2 1-2-10-9-1 5
3-25-5-17 2-64-2-4 1-4-8-10-1 5
5-5-3-17-5 2-8-8-2-4 1-9-4-5-5-1 5
5-51-5-5 4-2-32-4 1-5-10-2-1 5
17-3-25-5 16-4-2-8 1-6-3-3-1 5
3-5-5-17-5 16-4-2-4-2 1-9-3-6-8-1 5
5-5-3-17-5 2-4-8-8-2 1-6-9-2-5-1 5
17-3-5-5-5 2-4-16-2-4 1-6-3-6-4-1 5
17-5-5-3-5 2-2-2-8-16 1-8-9-1-10-1 5
3-5-17-5-5 8-4-4-4-2 1-1-5-9-3-1 5
5-5-17-5-3 32-4-2-2-2 1-9-2-9-4-1 5
5-5-3-5-17 4-2-8-8-2 1-7-9-2-2-1 5
5-5-3-17-5 16-2-4-4-2 1-7-6-10-8-1 5
3-17-5-5-5 8-8-2-2-4 1-8-6-4-1-1 5
17-3-5-5-5 8-4-4-2-4 1-1-10-9-1-1 5
5-5-5-3-17 2-8-2-16-2 1-5-10-9-9-1 5
5-17-25-3 2-64-4-2 1-10-8-10-1 5
3-5-17-5-5 4-4-2-4-8 1-7-3-5-3-1 5
3-5-5-17-5 2-16-2-4-4 1-4-1-2-4-1 5
5-5-5-17-3 16-2-8-2-2 1-1-10-8-4-1 5
5-17-5-3-5 2-8-16-2-2 1-8-2-1-9-1 5
5-3-5-17-5 2-2-32-4-2 1-7-8-7-9-1 5
5-17-5-5-3 4-2-4-16-2 1-8-6-8-6-1 5
5-17-5-3-5 4-2-2-4-16 1-5-10-8-5-1 5
17-5-5-3-5 2-8-4-8-2 1-1-4-2-6-1 5
5-5-17-5-3 4-4-2-2-16 1-10-6-5-3-1 5
17-3-5-5-5 4-2-4-16-2 1-1-3-10-3-1 5
5-17-5-5-3 2-4-16-2-4 1-3-8-5-7-1 5
3-17-5-5-5 2-16-4-4-2 1-10-7-6-4-1 5
17-5-5-3-5 8-4-2-2-8 1-9-4-6-6-1 5
5-17-3-5-5 2-16-2-2-8 1-8-4-3-2-1 5
5-5-17-5-3 2-32-2-4-2 1-1-1-7-9-1 5
5-5-5-3-17 4-2-2-2-32 1-9-8-8-3-1 5
5-3-17-5-5 8-4-4-4-2 1-2-6-3-10-1 5
3-17-25-5 4-32-2-4 1-5-7-5-1 5
5-5-3-17-5 2-4-2-4-16 1-9-1-6-5-1 5
5-5-5-3-17 8-4-4-4-2 1-8-6-1-8-1 5
5-17-5-5-3 2-4-4-2-16 1-3-5-8-9-1 5
5-3-5-17-5 4-8-4-4-2 1-6-9-8-7-1 5
15-17-25 2-256-2 1-4-6-1 5
5-3-5-5-17 8-2-4-8-2 1-3-4-9-6-1 5
5-5-5-3-17 32-4-2-2-2 1-5-4-7-2-1 5
17-5-3-5-5 2-4-2-16-4 1-9-8-9-10-1 5
5-5-17-5-3 4-2-4-2-16 1-1-8-5-5-1 5
17-5-5-3-5 4-4-2-16-2 1-6-3-9-6-1 5
3-5-17-5-5 2-4-8-4-4 1-1-5-2-1-1 5
5-5-3-5-17 4-4-4-4-4 1-3-5-2-7-1 5
25-3-17-5 32-4-2-4 1-4-8-4-1 5
5-17-5-5-3 4-4-4-2-8 1-7-5-3-10-1 5
17-5-3-5-5 2-16-2-4-4 1-4-5-2-6-1 5
5-5-17-3-5 4-4-2-4-8 1-3-2-8-4-1 5
5-5-5-3-17 4-2-32-2-2 1-6-7-10-3-1 5
17-3-5-5-5 4-2-2-4-16 1-10-5-2-1-1 5
17-3-25-5 2-32-2-8 1-7-3-6-1 5
17-3-5-5-5 4-2-8-2-8 1-2-8-8-3-1 5
17-5-5-5-3 8-8-4-2-2 1-8-5-10-8-1 5
3-5-17-5-5 2-32-2-4-2 1-1-4-6-5-1 5
3-5-5-17-5 2-2-4-32-2 1-4-3-2-5-1 5
5-3-17-5-5 4-4-4-2-8 1-7-1-10-10-1 5
3-5-17-5-5 2-8-2-2-16 1-1-10-9-10-1 5
5-5-15-17 128-2-2-2 1-4-6-1-1 5
5-17-25-3 16-2-8-4 1-3-9-9-1 5
17-5-3-5-5 2-4-4-8-4 1-10-1-6-6-1 5
17-5-3-5-5 4-2-2-2-32 1-5-10-5-5-1 5
17-5-5-3-5 4-16-4-2-2 1-6-7-9-8-1 5
5-17-15-5 2-2-128-2 1-7-1-1-1 5
5-5-17-5-3 16-4-4-2-2 1-1-9-8-7-1 5
17-5-5-3-5 2-4-2-32-2 1-4-2-10-2-1 5
5-5-5-3-17 2-2-8-4-8 1-2-5-3-9-1 5
17-5-3-5-5 8-8-4-2-2 1-1-5-8-10-1 5
5-5-5-17-3 2-4-2-8-8 1-2-4-4-7-1 5
5-5-17-3-5 16-4-2-2-4 1-1-7-9-9-1 5
5-3-5-5-17 32-2-2-4-2 1-8-3-3-3-1 5
5-3-5-17-5 4-8-8-2-2 1-9-2-6-4-1 5
3-17-5-5-5 2-8-2-4-8 1-5-5-6-5-1 5
5-3-17-5-5 8-4-2-2-8 1-5-7-8-9-1 5
5-15-17-5 16-4-4-4 1-7-9-8-1 5
25-5-3-17 8-32-2-2 1-2-8-5-1 5
17-3-5-5-5 2-64-2-2-2 1-7-2-6-3-1 5
5-5-5-3-17 2-4-2-16-4 1-7-3-4-9-1 5
5-17-5-15 8-4-16-2 1-5-2-6-1 5
5-5-17-5-3 2-16-2-8-2 1-9-9-3-10-1 5
5-3-5-5-17 4-2-4-2-16 1-10-2-9-1-1 5
17-25-3-5 4-2-64-2 1-3-5-3-1 5
5-5-17-5-3 2-8-8-4-2 1-1-6-1-6-1 5
17-5-5-5-3 4-4-2-2-16 1-10-2-9-7-1 5
5-5-3-17-5 8-2-8-2-4 1-6-9-8-9-1 5
15-17-5-5 8-4-4-8 1-10-6-2-1 5
5-5-5-17-3 8-4-8-2-2 1-2-5-4-8-1 5
17-5-5-5-3 4-2-8-8-2 1-7-2-6-9-1 5
5-17-5-5-3 16-4-2-4-2 1-4-3-2-5-1 5
17-5-5-5-3 2-16-8-2-2 1-5-4-3-9-1 5
5-5-5-51 4-4-4-16 1-10-2-5-1 5
5-3-5-17-5 2-8-2-16-2 1-1-4-7-1-1 5
5-5-5-3-17 2-8-2-2-16 1-5-4-2-4-1 5
5-5-17-3-5 2-4-2-2-32 1-9-5-3-4-1 5
3-17-5-5-5 8-16-2-2-2 1-6-9-6-10-1 5
5-3-5-17-5 2-4-16-4-2 1-6-5-9-1-1 5
5-5-17-5-3 4-2-2-2-32 1-7-10-10-10-1 5
17-5-5-5-3 2-2-4-4-16 1-4-5-10-7-1 5
5-5-17-3-5 8-4-4-2-4 1-1-5-1-6-1 5
17-5-5-3-5 2-4-4-16-2 1-6-8-3-7-1 5
17-5-5-3-5 2-2-16-4-4 1-9-6-8-6-1 5
5-3-17-5-5 4-8-8-2-2 1-10-5-9-3-1 5
5-17-5-5-3 2-4-2-4-16 1-10-9-7-4-1 5
3-5-5-5-17 4-2-2-32-2 1-2-10-7-4-1 5
3-5-17-5-5 4-2-16-4-2 1-6-6-9-2-1 5
5-5-5-3-17 4-2-16-2-4 1-10-5-3-10-1 5
3-5-5-5-17 2-4-8-8-2 1-9-1-10-10-1 5
5-5-17-5-3 4-8-8-2-2 1-5-6-2-10-1 5
5-3-5-17-5 4-8-8-2-2 1-4-3-5-4-1 5
17-5-3-5-5 2-2-4-8-8 1-8-10-5-3-1 5
85-5-3-5 2-4-2-64 1-9-6-9-1 5
17-5-3-25 4-4-8-8 1-10-4-3-1 5
5-5-17-5-3 2-2-8-4-8 1-1-9-6-3-1 5
3-5-17-5-5 4-4-4-2-8 1-3-8-4-8-1 5
5-17-3-5-5 4-4-8-2-4 1-1-4-4-3-1 5
5-3-17-5-5 32-2-4-2-2 1-5-10-10-6-1 5
5-5-3-17-5 2-2-2-8-16 1-9-8-2-6-1 5
17-5-5-5-3 4-2-4-16-2 1-1-3-10-1-1 5
3-5-5-5-17 4-2-2-4-16 1-6-3-4-7-1 5
3-5-5-17-5 4-4-2-4-8 1-9-9-5-5-1 5
5-17-5-5-3 4-2-4-2-16 1-4-4-9-9-1 5
5-3-25-17 32-4-4-2 1-7-2-9-1 5
5-5-17-3-5 32-2-2-2-4 1-4-2-10-8-1 5
5-17-5-5-3 8-8-2-2-4 1-10-3-1-9-1 5
17-5-3-5-5 8-2-8-4-2 1-6-5-4-3-1 5
17-5-5-3-5 4-4-4-8-2 1-8-8-3-6-1 5
17-5-3-5-5 16-2-4-4-2 1-10-2-2-10-1 5
5-5-17-5-3 8-4-4-4-2 1-1-9-7-6-1 5
5-17-3-5-5 16-2-4-2-4 1-5-6-5-8-1 5
5-5-5-17-3 2-4-4-8-4 1-7-7-7-6-1 5
17-5-3-5-5 4-2-32-2-2 1-7-6-4-8-1 5
5-5-5-17-3 2-16-8-2-2 1-7-8-7-6-1 5
5-17-5-5-3 2-4-4-2-16 1-10-7-7-8-1 5
3-85-5-5 2-32-8-2 1-8-2-5-1 5
5-17-3-5-5 4-32-2-2-2 1-5-8-9-6-1 5
17-5-5-5-3 8-2-8-4-2 1-5-4-9-6-1 5
5-5-3-17-5 2-2-4-4-16 1-4-5-10-9-1 5
5-17-3-5-5 2-16-8-2-2 1-6-7-3-3-1 5
5-5-17-5-3 2-64-2-2-2 1-7-7-4-8-1 5
3-5-17-5-5 4-8-8-2-2 1-4-6-7-5-1 5
3-25-5-17 16-4-8-2 1-6-4-1-1 5
5-5-3-5-17 2-2-32-2-4 1-9-3-7-7-1 5
5-5-3-17-5 2-8-2-2-16 1-1-4-2-7-1 5
5-3-5-17-5 16-4-2-4-2 1-3-7-6-5-1 5
5-5-5-17-3 2-8-2-8-4 1-2-1-10-8-1 5
17-3-5-5-5 2-4-2-2-32 1-5-4-9-3-1 5
3-5-5-17-5 2-8-2-16-2 1-1-6-5-2-1 5
5-3-17-5-5 4-2-16-4-2 1-6-10-3-6-1 5
5-5-5-17-3 2-16-2-8-2 1-3-2-4-1-1 5
5-3-5-5-17 2-4-2-4-16 1-10-6-5-1-1 5
5-5-17-5-3 4-8-2-8-2 1-7-9-9-4-1 5
17-5-5-3-5 2-4-8-4-4 1-2-1-1-8-1 5
17-5-3-25 32-2-2-8 1-3-5-8-1 5
51-5-5-5 4-64-2-2 1-9-4-9-1 5
5-25-17-3 4-2-64-2 1-2-5-6-1 5
5-5-5-17-3 2-2-4-4-16 1-9-6-5-3-1 5
3-5-5-17-5 4-16-2-2-4 1-7-10-7-9-1 5
