17-3-5-5-5 2-2-8-4-8 1-3-7-2-9-1 5
3-5-17-5-5 4-4-16-2-2 1-9-10-2-2-1 5
3-5-5-5-17 4-2-2-32-2 1-10-1-10-10-1 5
5-5-3-17-5 32-4-2-2-2 1-7-8-8-6-1 5
5-5-5-17-3 32-4-2-2-2 1-6-5-8-6-1 5
5-5-5-17-3 2-2-4-16-4 1-2-4-9-10-1 5
5-3-17-5-5 2-2-4-2-32 1-9-10-5-4-1 5
17-5-3-5-5 8-4-2-4-4 1-7-4-2-6-1 5
5-3-17-5-5 2-32-2-4-2 1-3-5-9-4-1 5
3-17-5-5-5 2-2-8-2-16 1-10-4-1-9-1 5
3-5-5-5-17 4-4-2-8-4 1-1-7-3-8-1 5
5-5-17-5-3 2-2-2-8-16 1-6-5-6-2-1 5
5-5-3-5-17 8-2-4-4-4 1-4-2-9-6-1 5
5-3-5-17-5 8-2-2-8-4 1-3-5-8-7-1 5
5-17-3-5-5 8-2-4-4-4 1-6-7-8-1-1 5
5-3-17-25 2-8-2-32 1-9-9-2-1 5
5-3-5-17-5 4-2-2-2-32 1-7-5-7-3-1 5
5-5-5-3-17 8-4-4-4-2 1-7-1-1-8-1 5
5-17-5-3-5 4-2-2-32-2 1-4-4-9-2-1 5
3-5-5-5-17 4-2-4-8-4 1-10-3-5-8-1 5
3-17-5-5-5 2-32-2-2-4 1-6-2-8-7-1 5
17-15-5-5 16-2-16-2 1-5-5-1-1 5
3-5-5-17-5 4-8-4-4-2 1-5-6-4-5-1 5
5-5-3-17-5 4-2-4-2-16 1-5-6-1-2-1 5
3-5-5-17-5 4-8-2-8-2 1-4-7-7-5-1 5
3-17-5-5-5 8-8-2-2-4 1-3-5-9-5-1 5
5-5-5-3-17 2-4-4-4-8 1-2-10-1-8-1 5
3-5-17-5-5 2-2-16-8-2 1-4-6-10-8-1 5
3-5-17-5-5 2-16-2-4-4 1-7-5-2-3-1 5
5-3-17-5-5 4-2-4-16-2 1-1-9-1-10-1 5
17-5-3-5-5 2-4-4-8-4 1-10-10-3-4-1 5
5-5-3-5-17 8-8-2-2-4 1-7-2-9-3-1 5
3-5-17-5-5 4-2-2-2-32 1-9-9-8-4-1 5
3-17-5-5-5 2-4-2-4-16 1-9-10-8-9-1 5
5-5-3-17-5 4-4-2-16-2 1-10-5-1-8-1 5
5-5-17-5-3 4-4-2-16-2 1-9-10-8-4-1 5
3-5-17-5-5 4-4-4-8-2 1-9-7-5-7-1 5
5-5-5-3-17 4-4-4-8-2 1-10-5-2-3-1 5
5-17-3-5-5 2-4-4-2-16 1-8-2-7-10-1 5
5-3-5-17-5 2-8-2-2-16 1-2-6-2-3-1 5
5-3-17-5-5 16-4-4-2-2 1-7-1-2-6-1 5
5-5-3-17-5 4-2-4-2-16 1-1-7-5-5-1 5
3-5-5-17-5 8-2-2-8-4 1-6-10-10-3-1 5
5-17-3-5-5 2-8-8-2-4 1-3-6-6-8-1 5
5-5-17-5-3 8-4-8-2-2 1-3-7-6-9-1 5
25-5-3-17 2-8-32-2 1-1-6-7-1 5
25-3-17-5 2-2-2-128 1-1-7-3-1 5
5-17-3-5-5 2-16-4-2-4 1-1-3-3-10-1 5
5-5-5-17-3 2-8-2-8-4 1-10-4-7-4-1 5
5-25-17-3 32-2-4-4 1-9-4-6-1 5
17-3-5-5-5 2-2-32-2-4 1-7-9-8-3-1 5
5-17-5-5-3 2-16-8-2-2 1-4-9-3-8-1 5
5-5-17-5-3 2-2-16-8-2 1-8-2-9-1-1 5
5-3-5-5-17 8-16-2-2-2 1-3-6-1-4-1 5
3-17-25-5 2-8-16-4 1-9-5-6-1 5
5-17-5-5-3 2-2-2-4-32 1-3-2-3-4-1 5
5-5-5-17-3 2-32-2-4-2 1-8-2-7-8-1 5
3-5-5-17-5 4-4-4-4-4 1-2-6-9-4-1 5
25-5-17-3 32-2-4-4 1-9-4-1-1 5
5-17-75 16-4-16 1-2-9-1 5
5-17-5-5-3 2-8-2-2-16 1-8-2-4-8-1 5
5-17-5-5-3 4-16-2-2-4 1-5-6-7-6-1 5
3-5-17-5-5 16-2-2-2-8 1-2-4-5-4-1 5
5-5-3-5-17 2-4-2-4-16 1-6-6-1-5-1 5
17-5-5-5-3 8-2-2-8-4 1-3-2-3-7-1 5
5-5-5-17-3 4-4-16-2-2 1-1-8-6-9-1 5
5-5-17-5-3 2-8-4-2-8 1-1-9-4-1-1 5
5-17-3-5-5 4-2-4-4-8 1-4-5-1-1-1 5
5-3-17-5-5 2-64-2-2-2 1-8-10-8-2-1 5
17-5-5-3-5 4-2-4-8-4 1-5-10-6-2-1 5
5-5-5-17-3 2-4-2-32-2 1-5-10-8-5-1 5
5-5-3-17-5 4-8-2-4-4 1-3-9-3-6-1 5
5-5-3-5-17 16-4-4-2-2 1-2-3-1-2-1 5
17-5-5-5-3 4-8-2-4-4 1-6-5-8-7-1 5
5-5-5-3-17 4-2-2-32-2 1-10-2-1-9-1 5
17-5-5-3-5 2-32-2-2-4 1-2-2-1-3-1 5
5-5-17-3-5 2-2-16-2-8 1-10-2-4-10-1 5
5-5-5-17-3 32-2-4-2-2 1-6-10-9-7-1 5
17-3-5-5-5 8-4-2-2-8 1-10-9-4-10-1 5
17-5-3-5-5 4-4-4-4-4 1-10-3-9-8-1 5
17-3-5-5-5 4-8-2-8-2 1-7-10-6-5-1 5
5-17-5-5-3 16-2-2-8-2 1-2-10-8-8-1 5
5-5-3-17-5 4-16-2-4-2 1-9-5-3-9-1 5
5-17-5-3-5 2-4-2-32-2 1-5-2-8-9-1 5
5-3-17-5-5 4-2-4-16-2 1-5-5-5-10-1 5
5-5-17-5-3 2-4-8-4-4 1-10-7-8-6-1 5
3-17-5-5-5 16-2-2-8-2 1-5-5-4-3-1 5
5-3-5-17-5 2-4-4-8-4 1-1-2-7-3-1 5
17-3-5-5-5 16-2-8-2-2 1-8-9-9-10-1 5
5-3-5-5-17 2-2-8-4-8 1-9-7-1-10-1 5
5-3-5-17-5 2-64-2-2-2 1-3-2-5-6-1 5
85-5-5-3 4-8-2-16 1-5-2-6-1 5
5-5-17-5-3 4-2-2-4-16 1-1-2-4-9-1 5
3-17-5-5-5 2-2-2-32-4 1-9-7-1-10-1 5
3-5-5-5-17 8-4-4-4-2 1-10-7-8-7-1 5
3-5-5-17-5 2-2-8-16-2 1-7-10-2-4-1 5
5-3-17-25 2-2-4-64 1-1-3-1-1 5
3-5-17-5-5 4-16-2-2-4 1-4-3-4-6-1 5
5-17-3-5-5 2-2-8-4-8 1-10-2-2-6-1 5
5-3-5-17-5 4-2-4-8-4 1-8-6-5-10-1 5
5-25-17-3 2-4-8-16 1-6-4-1-1 5
5-5-5-17-3 8-2-8-2-4 1-2-2-1-8-1 5
5-17-5-3-5 4-2-4-4-8 1-4-4-8-1-1 5
5-5-5-3-17 4-16-2-2-4 1-4-10-9-10-1 5
17-5-5-5-3 2-16-8-2-2 1-2-8-3-3-1 5
17-5-5-3-5 4-16-2-2-4 1-9-6-9-4-1 5
5-5-17-5-3 2-4-8-8-2 1-1-7-4-2-1 5
5-5-17-5-3 8-4-2-2-8 1-10-2-4-7-1 5
5-5-3-17-5 2-8-4-8-2 1-6-3-3-2-1 5
17-5-5-3-5 2-8-2-16-2 1-4-9-4-2-1 5
3-5-25-17 16-2-2-16 1-9-7-3-1 5
5-17-3-5-5 4-2-16-2-4 1-3-4-3-6-1 5
5-3-17-25 4-64-2-2 1-2-2-6-1 5
5-5-3-17-5 2-2-32-2-4 1-10-2-9-8-1 5
5-15-17-5 32-4-2-4 1-4-8-1-1 5
5-17-3-5-5 8-2-2-4-8 1-7-6-5-10-1 5
5-5-5-17-3 16-2-2-2-8 1-5-3-2-3-1 5
5-5-17-5-3 2-8-8-4-2 1-7-5-8-8-1 5
5-5-17-3-5 4-8-2-2-8 1-6-4-8-2-1 5
5-5-3-5-17 8-2-2-16-2 1-4-2-10-10-1 5
17-5-3-5-5 2-2-4-2-32 1-7-2-5-7-1 5
3-5-5-17-5 4-16-2-4-2 1-3-6-10-1-1 5
17-3-5-5-5 4-2-4-16-2 1-3-2-3-10-1 5
5-5-17-3-5 2-4-32-2-2 1-3-2-1-4-1 5
5-17-5-3-5 8-2-2-4-8 1-5-2-10-8-1 5
3-5-17-5-5 2-4-16-4-2 1-1-5-7-9-1 5
5-5-3-5-17 2-4-4-16-2 1-2-2-3-8-1 5
3-85-5-5 32-2-8-2 1-5-10-4-1 5
17-3-5-5-5 4-4-2-16-2 1-5-4-6-8-1 5
85-3-25 2-128-4 1-3-3-1 5
17-5-3-5-5 4-4-4-8-2 1-5-8-5-10-1 5
5-5-17-5-3 4-2-2-4-16 1-5-9-4-7-1 5
3-5-17-5-5 4-8-8-2-2 1-8-4-1-4-1 5
5-5-5-3-17 4-2-16-4-2 1-6-10-2-2-1 5
5-5-17-5-3 8-8-4-2-2 1-4-10-3-2-1 5
5-5-5-3-17 4-2-2-32-2 1-6-9-7-7-1 5
3-5-5-17-5 8-4-2-4-4 1-1-10-9-6-1 5
3-5-5-17-5 8-4-2-2-8 1-4-4-1-7-1 5
5-3-85-5 8-4-8-4 1-2-4-8-1 5
3-5-17-5-5 2-2-2-8-16 1-9-10-10-2-1 5
5-17-5-3-5 4-16-4-2-2 1-7-6-2-9-1 5
3-5-17-5-5 2-4-32-2-2 1-7-7-4-7-1 5
5-3-17-5-5 2-16-2-4-4 1-5-2-3-2-1 5
5-5-3-17-5 2-2-4-4-16 1-8-5-8-1-1 5
17-5-5-5-3 2-4-2-8-8 1-9-10-2-1-1 5
5-5-3-17-5 4-4-2-8-4 1-6-4-2-2-1 5
5-17-5-15 4-2-8-16 1-10-6-2-1 5
17-3-5-5-5 2-4-2-16-4 1-7-9-3-4-1 5
5-51-5-5 4-16-2-8 1-1-9-8-1 5
5-5-17-5-3 2-4-2-32-2 1-7-1-10-5-1 5
3-5-5-17-5 4-2-8-2-8 1-1-10-8-4-1 5
5-3-5-17-5 4-4-16-2-2 1-5-9-3-5-1 5
5-17-5-5-3 8-16-2-2-2 1-4-5-6-3-1 5
3-5-5-17-5 8-2-8-4-2 1-1-8-10-9-1 5
5-17-5-3-5 2-2-4-32-2 1-4-2-4-5-1 5
5-5-17-5-3 2-2-4-8-8 1-2-10-1-3-1 5
3-5-17-5-5 8-8-2-2-4 1-7-2-9-9-1 5
5-3-5-17-5 4-2-8-2-8 1-4-5-5-4-1 5
5-15-17-5 2-16-16-2 1-4-6-2-1 5
5-3-17-5-5 4-8-2-8-2 1-3-6-5-5-1 5
17-5-5-5-3 2-8-8-2-4 1-6-9-10-10-1 5
5-425-3 16-32-2 1-4-5-1 5
3-5-5-17-5 8-4-8-2-2 1-4-1-9-6-1 5
5-5-5-17-3 4-4-16-2-2 1-4-6-1-6-1 5
17-5-5-3-5 2-2-32-4-2 1-1-4-3-1-1 5
5-17-25-3 2-2-8-32 1-4-3-5-1 5
5-15-17-5 16-2-4-8 1-4-2-9-1 5
17-5-3-5-5 4-2-8-8-2 1-7-9-10-6-1 5
3-5-5-17-5 2-16-2-4-4 1-10-3-5-9-1 5
5-5-3-17-5 2-4-8-8-2 1-4-3-7-2-1 5
17-5-5-3-5 2-2-2-32-4 1-2-9-3-2-1 5
17-3-5-5-5 16-2-2-4-4 1-5-3-9-6-1 5
5-5-3-17-5 2-32-2-2-4 1-8-9-5-4-1 5
5-3-17-5-5 2-32-2-4-2 1-2-9-1-8-1 5
5-5-17-3-5 4-8-2-4-4 1-5-10-3-1-1 5
5-3-17-5-5 4-4-2-8-4 1-6-4-4-9-1 5
5-17-5-5-3 8-2-2-16-2 1-4-3-9-2-1 5
5-17-5-5-3 4-2-2-4-16 1-5-10-3-7-1 5
5-5-3-5-17 8-2-4-4-4 1-7-4-3-6-1 5
5-3-5-17-5 4-4-8-2-4 1-4-3-9-8-1 5
17-3-5-5-5 4-2-8-8-2 1-1-7-8-1-1 5
3-5-5-5-17 32-2-2-2-4 1-10-6-7-4-1 5
17-3-25-5 4-2-4-32 1-10-4-2-1 5
5-5-5-17-3 4-8-2-2-8 1-9-8-8-6-1 5
5-3-17-5-5 4-8-8-2-2 1-2-3-7-2-1 5
5-5-3-17-5 4-2-8-8-2 1-5-6-9-1-1 5
17-3-5-5-5 8-4-8-2-2 1-3-9-1-10-1 5
3-85-5-5 4-2-8-16 1-6-8-4-1 5
5-3-5-17-5 16-8-2-2-2 1-3-6-9-2-1 5
5-5-3-17-5 2-2-4-8-8 1-5-1-8-1-1 5
17-5-5-3-5 2-2-32-4-2 1-4-2-2-9-1 5
17-5-5-5-3 4-8-2-4-4 1-2-5-6-10-1 5
5-17-3-5-5 2-2-4-8-8 1-4-3-3-6-1 5
5-5-3-5-17 2-2-4-2-32 1-1-2-9-5-1 5
5-3-17-5-5 4-4-8-2-4 1-3-2-5-8-1 5
5-3-5-17-5 4-4-2-8-4 1-1-7-4-2-1 5
5-17-3-5-5 2-2-16-4-4 1-1-5-7-1-1 5
5-17-5-3-5 2-8-8-4-2 1-7-2-5-8-1 5
17-5-3-5-5 2-8-2-4-8 1-1-1-7-2-1 5
5-5-17-3-5 2-8-4-8-2 1-9-5-1-9-1 5
5-5-3-5-17 2-2-2-8-16 1-5-1-3-6-1 5
3-5-5-5-17 2-8-2-4-8 1-10-7-2-3-1 5
17-5-5-3-5 4-2-2-4-16 1-2-3-8-1-1 5
25-3-5-17 4-4-32-2 1-5-6-5-1 5
17-5-5-3-5 8-2-2-8-4 1-7-10-3-7-1 5
25-5-3-17 64-2-4-2 1-7-1-2-1 5
3-5-17-5-5 2-8-16-2-2 1-2-3-5-5-1 5
17-5-5-5-3 2-2-16-2-8 1-3-7-6-2-1 5
5-5-17-5-3 16-4-4-2-2 1-1-5-3-7-1 5
5-25-3-17 4-4-4-16 1-6-3-6-1 5
17-5-5-3-5 8-2-2-4-8 1-3-4-7-6-1 5
3-17-5-5-5 16-4-2-2-4 1-7-1-5-4-1 5
17-5-3-5-5 4-4-4-2-8 1-6-7-8-8-1 5
15-17-5-5 4-2-32-4 1-3-1-6-1 5
17-5-15-5 64-2-4-2 1-1-4-5-1 5
17-5-5-3-5 4-2-8-4-4 1-7-7-10-1-1 5
5-3-5-5-17 8-16-2-2-2 1-3-5-8-5-1 5
17-5-15-5 32-2-8-2 1-7-2-2-1 5
5-5-5-3-17 8-2-4-4-4 1-5-4-5-2-1 5
25-17-5-3 8-4-8-4 1-3-2-10-1 5
5-3-5-17-5 2-2-4-2-32 1-5-6-10-2-1 5
5-5-3-17-5 8-4-2-8-2 1-9-2-8-8-1 5
5-5-3-17-5 2-8-4-2-8 1-4-2-6-5-1 5
5-5-17-3-5 4-16-2-4-2 1-3-9-7-10-1 5
17-5-5-3-5 2-2-16-2-8 1-10-9-10-4-1 5
3-5-5-5-17 2-8-2-16-2 1-9-5-2-7-1 5
5-3-17-5-5 2-32-2-2-4 1-2-9-10-1-1 5
5-5-5-3-17 2-2-2-16-8 1-3-3-7-3-1 5
3-5-5-5-17 2-32-2-4-2 1-5-8-10-1-1 5
5-17-3-5-5 8-4-2-4-4 1-5-7-4-2-1 5
3-5-5-17-5 2-32-2-4-2 1-6-5-2-1-1 5
3-5-5-17-5 2-2-2-32-4 1-8-1-4-1-1 5
5-5-5-17-3 4-4-8-4-2 1-2-7-3-9-1 5
17-3-5-5-5 2-8-4-8-2 1-4-2-3-10-1 5
5-5-3-17-5 8-4-4-4-2 1-5-2-2-10-1 5
5-3-17-25 2-32-8-2 1-5-10-6-1 5
5-17-5-5-3 2-2-8-4-8 1-4-7-10-2-1 5
5-5-5-3-17 2-4-8-2-8 1-6-10-8-1-1 5
5-17-5-3-5 2-2-2-4-32 1-7-10-9-7-1 5
5-17-5-5-3 2-4-2-16-4 1-7-2-3-5-1 5
17-3-5-5-5 4-2-2-8-8 1-5-6-3-4-1 5
3-5-85-5 16-8-4-2 1-2-2-4-1 5
3-5-17-5-5 2-8-8-4-2 1-1-3-8-9-1 5
17-5-5-3-5 2-2-8-8-4 1-3-3-8-5-1 5
17-3-5-5-5 8-4-2-4-4 1-3-2-6-6-1 5
5-17-3-5-5 4-4-8-2-4 1-5-1-5-2-1 5
5-17-3-5-5 4-2-8-8-2 1-2-9-5-1-1 5
3-17-5-5-5 16-4-2-2-4 1-7-2-4-1-1 5
17-5-5-3-5 16-2-8-2-2 1-6-4-5-9-1 5
5-5-17-5-3 8-8-2-2-4 1-1-9-6-4-1 5
3-5-17-5-5 2-2-2-16-8 1-3-3-8-7-1 5
5-5-5-17-3 8-2-4-2-8 1-2-3-9-2-1 5
5-15-5-17 2-2-8-32 1-6-4-7-1 5
17-5-5-3-5 16-2-2-4-4 1-5-10-4-5-1 5
5-5-5-3-17 2-2-16-2-8 1-8-3-7-1-1 5
25-3-5-17 2-8-32-2 1-8-7-4-1 5
3-5-5-5-17 32-2-2-4-2 1-9-1-8-5-1 5
5-15-17-5 4-16-8-2 1-6-9-9-1 5
5-5-5-3-17 16-8-2-2-2 1-9-8-8-2-1 5
5-5-3-17-5 16-4-4-2-2 1-3-2-7-2-1 5
5-51-5-5 4-2-2-64 1-2-6-5-1 5
5-17-15-5 4-4-4-16 1-2-7-5-1 5
5-5-17-3-5 2-2-4-2-32 1-2-9-4-1-1 5
17-3-5-5-5 8-2-16-2-2 1-4-3-6-2-1 5
5-5-17-5-3 8-8-2-4-2 1-3-2-7-5-1 5
5-5-17-3-5 4-16-2-4-2 1-3-6-8-3-1 5
5-3-5-17-5 2-8-2-2-16 1-6-10-3-6-1 5
5-5-3-5-17 16-2-2-8-2 1-10-8-2-7-1 5
17-5-5-5-3 2-4-32-2-2 1-1-5-6-4-1 5
25-5-17-3 2-128-2-2 1-10-9-10-1 5
17-5-5-5-3 4-2-4-4-8 1-6-5-9-5-1 5
5-5-5-3-17 16-4-2-2-4 1-8-5-1-2-1 5
3-5-17-5-5 8-4-2-8-2 1-5-5-1-10-1 5
5-5-5-17-3 32-4-2-2-2 1-7-8-7-2-1 5
17-5-5-3-5 32-2-4-2-2 1-9-4-1-3-1 5
17-5-5-3-5 8-2-8-2-4 1-5-4-10-10-1 5
25-5-3-17 2-128-2-2 1-6-1-2-1 5
17-3-5-5-5 32-2-2-2-4 1-10-1-7-9-1 5
17-3-5-5-5 4-8-2-8-2 1-2-7-5-7-1 5
5-5-17-5-3 2-2-8-16-2 1-1-10-2-1-1 5
17-5-3-5-5 4-2-16-2-4 1-6-9-7-9-1 5
5-5-15-17 32-4-4-2 1-9-9-1-1 5
15-17-5-5 2-16-16-2 1-8-10-3-1 5
5-17-5-5-3 2-2-64-2-2 1-2-8-10-2-1 5
5-5-17-3-5 2-4-8-4-4 1-9-9-9-4-1 5
17-5-5-5-3 8-2-2-4-8 1-10-6-2-9-1 5
3-5-5-17-5 2-2-64-2-2 1-9-2-3-4-1 5
5-3-5-5-17 16-2-2-4-4 1-1-7-4-6-1 5
5-3-17-5-5 8-2-4-2-8 1-5-5-9-4-1 5
5-5-3-5-17 2-4-4-16-2 1-10-1-1-6-1 5
5-3-5-17-5 16-2-2-4-4 1-10-2-1-10-1 5
5-3-5-85 2-2-8-32 1-9-9-2-1 5
5-5-3-85 64-4-2-2 1-10-6-8-1 5
5-5-17-3-5 8-2-8-2-4 1-4-6-4-2-1 5
5-17-5-5-3 8-2-2-16-2 1-10-9-2-9-1 5
17-3-5-5-5 4-2-32-2-2 1-6-8-6-6-1 5
5-5-3-5-17 4-2-2-32-2 1-4-6-3-9-1 5
5-5-5-3-17 2-2-2-32-4 1-10-1-1-8-1 5
5-3-5-17-5 2-2-8-8-4 1-7-7-10-10-1 5
5-5-3-85 16-8-4-2 1-6-6-7-1 5
17-5-5-5-3 4-4-8-4-2 1-3-10-4-4-1 5
