3-5-5-85 16-2-2-16 [1, 1, 1] 5
5-3-5-17-5 2-2-4-4-16 [1, 1, 1] 5
17-25-5-3 2-16-4-8 [1, 6, 1] 5
5-3-5-17-5 4-2-2-16-4 [1, 4, 1] 5
5-17-5-15 2-16-16-2 [1, 5, 1] 5
3-17-125 4-128-2 [1, 1, 1] 5
3-25-5-17 2-2-2-128 [1, 9, 1] 5
3-25-5-17 8-2-16-4 [1, 2, 1] 5
5-5-5-17-3 4-2-8-2-8 [1, 3, 1] 5
5-5-3-17-5 8-2-4-8-2 [1, 5, 1] 5
5-3-25-17 2-128-2-2 [1, 10, 1] 5
5-3-17-5-5 2-2-2-64-2 [1, 9, 1] 5
5-5-17-3-5 4-2-8-8-2 [1, 3, 1] 5
25-85-3 8-64-2 [1, 1, 1] 5
85-3-25 32-4-8 [1, 5, 1] 5
17-5-3-5-5 4-16-4-2-2 [1, 10, 1] 5
17-125-3 256-2-2 [1, 10, 1] 5
25-3-17-5 4-4-8-8 [1, 8, 1] 5
3-5-5-85 2-16-8-4 [1, 4, 1] 5
3-5-85-5 16-2-8-4 [1, 1, 1] 5
17-5-5-3-5 2-2-4-4-16 [1, 8, 1] 5
17-5-5-15 2-8-8-8 [1, 1, 1] 5
5-5-5-51 2-4-2-64 [1, 6, 1] 5
85-5-15 64-4-4 [1, 8, 1] 5
5-15-85 2-16-32 [1, 2, 1] 5
85-5-5-3 8-2-8-8 [1, 3, 1] 5
5-15-5-17 8-2-8-8 [1, 7, 1] 5
5-17-15-5 8-4-16-2 [1, 8, 1] 5
5-51-25 4-64-4 [1, 2, 1] 5
5-5-3-17-5 4-2-4-2-16 [1, 2, 1] 5
125-3-17 32-8-4 [1, 9, 1] 5
5-15-5-17 2-2-16-16 [1, 7, 1] 5
255-5-5 8-8-16 [1, 3, 1] 5
5-85-15 16-2-32 [1, 5, 1] 5
17-5-5-3-5 4-2-4-8-4 [1, 2, 1] 5
5-17-5-3-5 4-8-2-2-8 [1, 5, 1] 5
5-17-5-3-5 4-8-4-4-2 [1, 6, 1] 5
5-25-17-3 4-4-16-4 [1, 7, 1] 5
5-5-5-17-3 2-8-2-4-8 [1, 4, 1] 5
5-17-5-3-5 8-8-4-2-2 [1, 4, 1] 5
5-85-15 8-8-16 [1, 4, 1] 5
85-75 128-8 [1, 5, 1] 5
5-3-17-5-5 2-4-4-16-2 [1, 7, 1] 5
85-25-3 256-2-2 [1, 5, 1] 5
5-17-15-5 4-4-16-4 [1, 1, 1] 5
5-17-3-5-5 4-4-2-2-16 [1, 6, 1] 5
25-17-3-5 8-8-8-2 [1, 4, 1] 5
15-5-17-5 2-64-4-2 [1, 4, 1] 5
5-85-3-5 2-4-8-16 [1, 7, 1] 5
17-5-5-5-3 4-2-8-2-8 [1, 10, 1] 5
255-5-5 8-8-16 [1, 9, 1] 5
3-17-5-25 2-64-4-2 [1, 7, 1] 5
75-5-17 128-4-2 [1, 2, 1] 5
17-3-5-5-5 2-4-8-4-4 [1, 1, 1] 5
3-5-5-85 2-2-32-8 [1, 10, 1] 5
5-5-255 2-256-2 [1, 9, 1] 5
75-5-17 4-128-2 [1, 9, 1] 5
5-85-5-3 4-8-8-4 [1, 4, 1] 5
15-5-17-5 2-32-2-8 [1, 5, 1] 5
5-51-5-5 4-2-64-2 [1, 1, 1] 5
3-425-5 4-2-128 [1, 2, 1] 5
17-5-5-5-3 4-4-2-8-4 [1, 4, 1] 5
5-5-15-17 4-2-16-8 [1, 6, 1] 5
85-3-25 8-2-64 [1, 9, 1] 5
17-5-5-5-3 64-2-2-2-2 [1, 5, 1] 5
5-5-5-3-17 2-2-4-4-16 [1, 7, 1] 5
25-5-3-17 16-4-2-8 [1, 2, 1] 5
5-85-15 2-4-128 [1, 1, 1] 5
51-5-5-5 8-4-16-2 [1, 2, 1] 5
5-3-85-5 2-16-4-8 [1, 1, 1] 5
3-17-25-5 16-8-4-2 [1, 3, 1] 5
25-5-51 64-8-2 [1, 9, 1] 5
5-5-5-3-17 2-2-16-2-8 [1, 2, 1] 5
85-3-5-5 8-2-8-8 [1, 7, 1] 5
85-5-5-3 128-2-2-2 [1, 6, 1] 5
5-3-5-17-5 2-8-8-2-4 [1, 6, 1] 5
5-15-85 16-8-8 [1, 1, 1] 5
5-5-5-51 4-16-2-8 [1, 5, 1] 5
5-5-5-51 128-2-2-2 [1, 1, 1] 5
5-3-17-25 8-2-32-2 [1, 2, 1] 5
17-3-5-25 2-8-8-8 [1, 10, 1] 5
3-5-25-17 2-2-128-2 [1, 6, 1] 5
5-17-5-5-3 16-2-4-4-2 [1, 3, 1] 5
5-5-17-5-3 4-2-8-2-8 [1, 7, 1] 5
3-125-17 64-8-2 [1, 7, 1] 5
3-5-5-5-17 4-2-16-2-4 [1, 2, 1] 5
