WARNING (theano.tensor.blas): We did not found a dynamic library into the library_dir of the library we use for blas. If you use ATLAS, make sure to compile it with dynamics library.
INFO (theano.gof.compilelock): Waiting for existing lock by process '21146' (I am process '20402')
INFO (theano.gof.compilelock): To manually release the lock, delete /tmp/pierre-antoine.martrice/theano.NOBACKUP/compiledir_Linux-3.10-el7.x86_64-x86_64-with-centos-7.3.1611-Core-x86_64-2.7.13-64/lock_dir
INFO (theano.gof.compilelock): Waiting for existing lock by process '22729' (I am process '20402')
INFO (theano.gof.compilelock): To manually release the lock, delete /tmp/pierre-antoine.martrice/theano.NOBACKUP/compiledir_Linux-3.10-el7.x86_64-x86_64-with-centos-7.3.1611-Core-x86_64-2.7.13-64/lock_dir
INFO (theano.gof.compilelock): Waiting for existing lock by process '21119' (I am process '20402')
INFO (theano.gof.compilelock): To manually release the lock, delete /tmp/pierre-antoine.martrice/theano.NOBACKUP/compiledir_Linux-3.10-el7.x86_64-x86_64-with-centos-7.3.1611-Core-x86_64-2.7.13-64/lock_dir
INFO (theano.gof.compilelock): Waiting for existing lock by process '21146' (I am process '20402')
INFO (theano.gof.compilelock): To manually release the lock, delete /tmp/pierre-antoine.martrice/theano.NOBACKUP/compiledir_Linux-3.10-el7.x86_64-x86_64-with-centos-7.3.1611-Core-x86_64-2.7.13-64/lock_dir
INFO (theano.gof.compilelock): Waiting for existing lock by process '21023' (I am process '20402')
INFO (theano.gof.compilelock): To manually release the lock, delete /tmp/pierre-antoine.martrice/theano.NOBACKUP/compiledir_Linux-3.10-el7.x86_64-x86_64-with-centos-7.3.1611-Core-x86_64-2.7.13-64/lock_dir
INFO (theano.gof.compilelock): Waiting for existing lock by process '21023' (I am process '20402')
INFO (theano.gof.compilelock): To manually release the lock, delete /tmp/pierre-antoine.martrice/theano.NOBACKUP/compiledir_Linux-3.10-el7.x86_64-x86_64-with-centos-7.3.1611-Core-x86_64-2.7.13-64/lock_dir
INFO (theano.gof.compilelock): Waiting for existing lock by process '21145' (I am process '20402')
INFO (theano.gof.compilelock): To manually release the lock, delete /tmp/pierre-antoine.martrice/theano.NOBACKUP/compiledir_Linux-3.10-el7.x86_64-x86_64-with-centos-7.3.1611-Core-x86_64-2.7.13-64/lock_dir
INFO (theano.gof.compilelock): Waiting for existing lock by process '21145' (I am process '20402')
INFO (theano.gof.compilelock): To manually release the lock, delete /tmp/pierre-antoine.martrice/theano.NOBACKUP/compiledir_Linux-3.10-el7.x86_64-x86_64-with-centos-7.3.1611-Core-x86_64-2.7.13-64/lock_dir
INFO (theano.gof.compilelock): Waiting for existing lock by process '21145' (I am process '20402')
INFO (theano.gof.compilelock): To manually release the lock, delete /tmp/pierre-antoine.martrice/theano.NOBACKUP/compiledir_Linux-3.10-el7.x86_64-x86_64-with-centos-7.3.1611-Core-x86_64-2.7.13-64/lock_dir
INFO (theano.gof.compilelock): Waiting for existing lock by process '21146' (I am process '20402')
INFO (theano.gof.compilelock): To manually release the lock, delete /tmp/pierre-antoine.martrice/theano.NOBACKUP/compiledir_Linux-3.10-el7.x86_64-x86_64-with-centos-7.3.1611-Core-x86_64-2.7.13-64/lock_dir
INFO (theano.gof.compilelock): Waiting for existing lock by process '21146' (I am process '20402')
INFO (theano.gof.compilelock): To manually release the lock, delete /tmp/pierre-antoine.martrice/theano.NOBACKUP/compiledir_Linux-3.10-el7.x86_64-x86_64-with-centos-7.3.1611-Core-x86_64-2.7.13-64/lock_dir
INFO (theano.gof.compilelock): Waiting for existing lock by process '21023' (I am process '20402')
INFO (theano.gof.compilelock): To manually release the lock, delete /tmp/pierre-antoine.martrice/theano.NOBACKUP/compiledir_Linux-3.10-el7.x86_64-x86_64-with-centos-7.3.1611-Core-x86_64-2.7.13-64/lock_dir
INFO (theano.gof.compilelock): Waiting for existing lock by process '21023' (I am process '20402')
INFO (theano.gof.compilelock): To manually release the lock, delete /tmp/pierre-antoine.martrice/theano.NOBACKUP/compiledir_Linux-3.10-el7.x86_64-x86_64-with-centos-7.3.1611-Core-x86_64-2.7.13-64/lock_dir
INFO (theano.gof.compilelock): Waiting for existing lock by process '21023' (I am process '20402')
INFO (theano.gof.compilelock): To manually release the lock, delete /tmp/pierre-antoine.martrice/theano.NOBACKUP/compiledir_Linux-3.10-el7.x86_64-x86_64-with-centos-7.3.1611-Core-x86_64-2.7.13-64/lock_dir
INFO (theano.gof.compilelock): Waiting for existing lock by process '21023' (I am process '20402')
INFO (theano.gof.compilelock): To manually release the lock, delete /tmp/pierre-antoine.martrice/theano.NOBACKUP/compiledir_Linux-3.10-el7.x86_64-x86_64-with-centos-7.3.1611-Core-x86_64-2.7.13-64/lock_dir
INFO (theano.gof.compilelock): Waiting for existing lock by process '21023' (I am process '20402')
INFO (theano.gof.compilelock): To manually release the lock, delete /tmp/pierre-antoine.martrice/theano.NOBACKUP/compiledir_Linux-3.10-el7.x86_64-x86_64-with-centos-7.3.1611-Core-x86_64-2.7.13-64/lock_dir
INFO (theano.gof.compilelock): Waiting for existing lock by process '21146' (I am process '20402')
INFO (theano.gof.compilelock): To manually release the lock, delete /tmp/pierre-antoine.martrice/theano.NOBACKUP/compiledir_Linux-3.10-el7.x86_64-x86_64-with-centos-7.3.1611-Core-x86_64-2.7.13-64/lock_dir
INFO (theano.gof.compilelock): Waiting for existing lock by process '21146' (I am process '20402')
INFO (theano.gof.compilelock): To manually release the lock, delete /tmp/pierre-antoine.martrice/theano.NOBACKUP/compiledir_Linux-3.10-el7.x86_64-x86_64-with-centos-7.3.1611-Core-x86_64-2.7.13-64/lock_dir
INFO (theano.gof.compilelock): Waiting for existing lock by process '21023' (I am process '20402')
INFO (theano.gof.compilelock): To manually release the lock, delete /tmp/pierre-antoine.martrice/theano.NOBACKUP/compiledir_Linux-3.10-el7.x86_64-x86_64-with-centos-7.3.1611-Core-x86_64-2.7.13-64/lock_dir
INFO (theano.gof.compilelock): Waiting for existing lock by process '21023' (I am process '20402')
INFO (theano.gof.compilelock): To manually release the lock, delete /tmp/pierre-antoine.martrice/theano.NOBACKUP/compiledir_Linux-3.10-el7.x86_64-x86_64-with-centos-7.3.1611-Core-x86_64-2.7.13-64/lock_dir
INFO (theano.gof.compilelock): Waiting for existing lock by process '21023' (I am process '20402')
INFO (theano.gof.compilelock): To manually release the lock, delete /tmp/pierre-antoine.martrice/theano.NOBACKUP/compiledir_Linux-3.10-el7.x86_64-x86_64-with-centos-7.3.1611-Core-x86_64-2.7.13-64/lock_dir
INFO (theano.gof.compilelock): Waiting for existing lock by process '21023' (I am process '20402')
INFO (theano.gof.compilelock): To manually release the lock, delete /tmp/pierre-antoine.martrice/theano.NOBACKUP/compiledir_Linux-3.10-el7.x86_64-x86_64-with-centos-7.3.1611-Core-x86_64-2.7.13-64/lock_dir
INFO (theano.gof.compilelock): Waiting for existing lock by process '21023' (I am process '20402')
INFO (theano.gof.compilelock): To manually release the lock, delete /tmp/pierre-antoine.martrice/theano.NOBACKUP/compiledir_Linux-3.10-el7.x86_64-x86_64-with-centos-7.3.1611-Core-x86_64-2.7.13-64/lock_dir
INFO (theano.gof.compilelock): Waiting for existing lock by process '20978' (I am process '20402')
INFO (theano.gof.compilelock): To manually release the lock, delete /tmp/pierre-antoine.martrice/theano.NOBACKUP/compiledir_Linux-3.10-el7.x86_64-x86_64-with-centos-7.3.1611-Core-x86_64-2.7.13-64/lock_dir
INFO (theano.gof.compilelock): Waiting for existing lock by process '21145' (I am process '20402')
INFO (theano.gof.compilelock): To manually release the lock, delete /tmp/pierre-antoine.martrice/theano.NOBACKUP/compiledir_Linux-3.10-el7.x86_64-x86_64-with-centos-7.3.1611-Core-x86_64-2.7.13-64/lock_dir
INFO (theano.gof.compilelock): Waiting for existing lock by process '21145' (I am process '20402')
INFO (theano.gof.compilelock): To manually release the lock, delete /tmp/pierre-antoine.martrice/theano.NOBACKUP/compiledir_Linux-3.10-el7.x86_64-x86_64-with-centos-7.3.1611-Core-x86_64-2.7.13-64/lock_dir
INFO (theano.gof.compilelock): Waiting for existing lock by process '21145' (I am process '20402')
INFO (theano.gof.compilelock): To manually release the lock, delete /tmp/pierre-antoine.martrice/theano.NOBACKUP/compiledir_Linux-3.10-el7.x86_64-x86_64-with-centos-7.3.1611-Core-x86_64-2.7.13-64/lock_dir
INFO (theano.gof.compilelock): Waiting for existing lock by process '21145' (I am process '20402')
INFO (theano.gof.compilelock): To manually release the lock, delete /tmp/pierre-antoine.martrice/theano.NOBACKUP/compiledir_Linux-3.10-el7.x86_64-x86_64-with-centos-7.3.1611-Core-x86_64-2.7.13-64/lock_dir
INFO (theano.gof.compilelock): Waiting for existing lock by process '21145' (I am process '20402')
INFO (theano.gof.compilelock): To manually release the lock, delete /tmp/pierre-antoine.martrice/theano.NOBACKUP/compiledir_Linux-3.10-el7.x86_64-x86_64-with-centos-7.3.1611-Core-x86_64-2.7.13-64/lock_dir
INFO (theano.gof.compilelock): Waiting for existing lock by process '22729' (I am process '20402')
INFO (theano.gof.compilelock): To manually release the lock, delete /tmp/pierre-antoine.martrice/theano.NOBACKUP/compiledir_Linux-3.10-el7.x86_64-x86_64-with-centos-7.3.1611-Core-x86_64-2.7.13-64/lock_dir
INFO (theano.gof.compilelock): Waiting for existing lock by process '21023' (I am process '20402')
INFO (theano.gof.compilelock): To manually release the lock, delete /tmp/pierre-antoine.martrice/theano.NOBACKUP/compiledir_Linux-3.10-el7.x86_64-x86_64-with-centos-7.3.1611-Core-x86_64-2.7.13-64/lock_dir
INFO (theano.gof.compilelock): Waiting for existing lock by process '21023' (I am process '20402')
INFO (theano.gof.compilelock): To manually release the lock, delete /tmp/pierre-antoine.martrice/theano.NOBACKUP/compiledir_Linux-3.10-el7.x86_64-x86_64-with-centos-7.3.1611-Core-x86_64-2.7.13-64/lock_dir
INFO (theano.gof.compilelock): Waiting for existing lock by process '21023' (I am process '20402')
INFO (theano.gof.compilelock): To manually release the lock, delete /tmp/pierre-antoine.martrice/theano.NOBACKUP/compiledir_Linux-3.10-el7.x86_64-x86_64-with-centos-7.3.1611-Core-x86_64-2.7.13-64/lock_dir
INFO (theano.gof.compilelock): Waiting for existing lock by process '21090' (I am process '20402')
INFO (theano.gof.compilelock): To manually release the lock, delete /tmp/pierre-antoine.martrice/theano.NOBACKUP/compiledir_Linux-3.10-el7.x86_64-x86_64-with-centos-7.3.1611-Core-x86_64-2.7.13-64/lock_dir
INFO (theano.gof.compilelock): Waiting for existing lock by process '21090' (I am process '20402')
INFO (theano.gof.compilelock): To manually release the lock, delete /tmp/pierre-antoine.martrice/theano.NOBACKUP/compiledir_Linux-3.10-el7.x86_64-x86_64-with-centos-7.3.1611-Core-x86_64-2.7.13-64/lock_dir
INFO (theano.gof.compilelock): Waiting for existing lock by process '21090' (I am process '20402')
INFO (theano.gof.compilelock): To manually release the lock, delete /tmp/pierre-antoine.martrice/theano.NOBACKUP/compiledir_Linux-3.10-el7.x86_64-x86_64-with-centos-7.3.1611-Core-x86_64-2.7.13-64/lock_dir
INFO (theano.gof.compilelock): Waiting for existing lock by process '21090' (I am process '20402')
INFO (theano.gof.compilelock): To manually release the lock, delete /tmp/pierre-antoine.martrice/theano.NOBACKUP/compiledir_Linux-3.10-el7.x86_64-x86_64-with-centos-7.3.1611-Core-x86_64-2.7.13-64/lock_dir
INFO (theano.gof.compilelock): Waiting for existing lock by process '20978' (I am process '20402')
INFO (theano.gof.compilelock): To manually release the lock, delete /tmp/pierre-antoine.martrice/theano.NOBACKUP/compiledir_Linux-3.10-el7.x86_64-x86_64-with-centos-7.3.1611-Core-x86_64-2.7.13-64/lock_dir
INFO (theano.gof.compilelock): Waiting for existing lock by process '20978' (I am process '20402')
INFO (theano.gof.compilelock): To manually release the lock, delete /tmp/pierre-antoine.martrice/theano.NOBACKUP/compiledir_Linux-3.10-el7.x86_64-x86_64-with-centos-7.3.1611-Core-x86_64-2.7.13-64/lock_dir
INFO (theano.gof.compilelock): Waiting for existing lock by process '20978' (I am process '20402')
INFO (theano.gof.compilelock): To manually release the lock, delete /tmp/pierre-antoine.martrice/theano.NOBACKUP/compiledir_Linux-3.10-el7.x86_64-x86_64-with-centos-7.3.1611-Core-x86_64-2.7.13-64/lock_dir
INFO (theano.gof.compilelock): Waiting for existing lock by process '21146' (I am process '20402')
INFO (theano.gof.compilelock): To manually release the lock, delete /tmp/pierre-antoine.martrice/theano.NOBACKUP/compiledir_Linux-3.10-el7.x86_64-x86_64-with-centos-7.3.1611-Core-x86_64-2.7.13-64/lock_dir
INFO (theano.gof.compilelock): Waiting for existing lock by process '21090' (I am process '20402')
INFO (theano.gof.compilelock): To manually release the lock, delete /tmp/pierre-antoine.martrice/theano.NOBACKUP/compiledir_Linux-3.10-el7.x86_64-x86_64-with-centos-7.3.1611-Core-x86_64-2.7.13-64/lock_dir
INFO (theano.gof.compilelock): Waiting for existing lock by process '21090' (I am process '20402')
INFO (theano.gof.compilelock): To manually release the lock, delete /tmp/pierre-antoine.martrice/theano.NOBACKUP/compiledir_Linux-3.10-el7.x86_64-x86_64-with-centos-7.3.1611-Core-x86_64-2.7.13-64/lock_dir
INFO (theano.gof.compilelock): Waiting for existing lock by process '21090' (I am process '20402')
INFO (theano.gof.compilelock): To manually release the lock, delete /tmp/pierre-antoine.martrice/theano.NOBACKUP/compiledir_Linux-3.10-el7.x86_64-x86_64-with-centos-7.3.1611-Core-x86_64-2.7.13-64/lock_dir
INFO (theano.gof.compilelock): Waiting for existing lock by process '21090' (I am process '20402')
INFO (theano.gof.compilelock): To manually release the lock, delete /tmp/pierre-antoine.martrice/theano.NOBACKUP/compiledir_Linux-3.10-el7.x86_64-x86_64-with-centos-7.3.1611-Core-x86_64-2.7.13-64/lock_dir
INFO (theano.gof.compilelock): Waiting for existing lock by process '21023' (I am process '20402')
INFO (theano.gof.compilelock): To manually release the lock, delete /tmp/pierre-antoine.martrice/theano.NOBACKUP/compiledir_Linux-3.10-el7.x86_64-x86_64-with-centos-7.3.1611-Core-x86_64-2.7.13-64/lock_dir
INFO (theano.gof.compilelock): Waiting for existing lock by process '21023' (I am process '20402')
INFO (theano.gof.compilelock): To manually release the lock, delete /tmp/pierre-antoine.martrice/theano.NOBACKUP/compiledir_Linux-3.10-el7.x86_64-x86_64-with-centos-7.3.1611-Core-x86_64-2.7.13-64/lock_dir
INFO (theano.gof.compilelock): Waiting for existing lock by process '21023' (I am process '20402')
INFO (theano.gof.compilelock): To manually release the lock, delete /tmp/pierre-antoine.martrice/theano.NOBACKUP/compiledir_Linux-3.10-el7.x86_64-x86_64-with-centos-7.3.1611-Core-x86_64-2.7.13-64/lock_dir
INFO (theano.gof.compilelock): Waiting for existing lock by process '21023' (I am process '20402')
INFO (theano.gof.compilelock): To manually release the lock, delete /tmp/pierre-antoine.martrice/theano.NOBACKUP/compiledir_Linux-3.10-el7.x86_64-x86_64-with-centos-7.3.1611-Core-x86_64-2.7.13-64/lock_dir
INFO (theano.gof.compilelock): Waiting for existing lock by process '21023' (I am process '20402')
INFO (theano.gof.compilelock): To manually release the lock, delete /tmp/pierre-antoine.martrice/theano.NOBACKUP/compiledir_Linux-3.10-el7.x86_64-x86_64-with-centos-7.3.1611-Core-x86_64-2.7.13-64/lock_dir
INFO (theano.gof.compilelock): Waiting for existing lock by process '21023' (I am process '20402')
INFO (theano.gof.compilelock): To manually release the lock, delete /tmp/pierre-antoine.martrice/theano.NOBACKUP/compiledir_Linux-3.10-el7.x86_64-x86_64-with-centos-7.3.1611-Core-x86_64-2.7.13-64/lock_dir
INFO (theano.gof.compilelock): Waiting for existing lock by process '21023' (I am process '20402')
INFO (theano.gof.compilelock): To manually release the lock, delete /tmp/pierre-antoine.martrice/theano.NOBACKUP/compiledir_Linux-3.10-el7.x86_64-x86_64-with-centos-7.3.1611-Core-x86_64-2.7.13-64/lock_dir
INFO (theano.gof.compilelock): Waiting for existing lock by process '21023' (I am process '20402')
INFO (theano.gof.compilelock): To manually release the lock, delete /tmp/pierre-antoine.martrice/theano.NOBACKUP/compiledir_Linux-3.10-el7.x86_64-x86_64-with-centos-7.3.1611-Core-x86_64-2.7.13-64/lock_dir
INFO (theano.gof.compilelock): Waiting for existing lock by process '22729' (I am process '20402')
INFO (theano.gof.compilelock): To manually release the lock, delete /tmp/pierre-antoine.martrice/theano.NOBACKUP/compiledir_Linux-3.10-el7.x86_64-x86_64-with-centos-7.3.1611-Core-x86_64-2.7.13-64/lock_dir
INFO (theano.gof.compilelock): Waiting for existing lock by process '22729' (I am process '20402')
INFO (theano.gof.compilelock): To manually release the lock, delete /tmp/pierre-antoine.martrice/theano.NOBACKUP/compiledir_Linux-3.10-el7.x86_64-x86_64-with-centos-7.3.1611-Core-x86_64-2.7.13-64/lock_dir
INFO (theano.gof.compilelock): Waiting for existing lock by process '20978' (I am process '20402')
INFO (theano.gof.compilelock): To manually release the lock, delete /tmp/pierre-antoine.martrice/theano.NOBACKUP/compiledir_Linux-3.10-el7.x86_64-x86_64-with-centos-7.3.1611-Core-x86_64-2.7.13-64/lock_dir
INFO (theano.gof.compilelock): Waiting for existing lock by process '20978' (I am process '20402')
INFO (theano.gof.compilelock): To manually release the lock, delete /tmp/pierre-antoine.martrice/theano.NOBACKUP/compiledir_Linux-3.10-el7.x86_64-x86_64-with-centos-7.3.1611-Core-x86_64-2.7.13-64/lock_dir
INFO (theano.gof.compilelock): Waiting for existing lock by process '20978' (I am process '20402')
INFO (theano.gof.compilelock): To manually release the lock, delete /tmp/pierre-antoine.martrice/theano.NOBACKUP/compiledir_Linux-3.10-el7.x86_64-x86_64-with-centos-7.3.1611-Core-x86_64-2.7.13-64/lock_dir
INFO (theano.gof.compilelock): Waiting for existing lock by process '20978' (I am process '20402')
INFO (theano.gof.compilelock): To manually release the lock, delete /tmp/pierre-antoine.martrice/theano.NOBACKUP/compiledir_Linux-3.10-el7.x86_64-x86_64-with-centos-7.3.1611-Core-x86_64-2.7.13-64/lock_dir
