| 5-5-5-17-3 | 2-4-2-32-2 | 1-6-3-6-8-1 | 0.682755130813 | 0.815992574446 | 112.158504796 | 26760 | 0.00781177585141 |
| 5-5-17-5-3 | 16-2-2-2-8 | 1-4-1-3-2-1 | 0.690271894006 | 0.819542938458 | 108.853615046 | 570 | 0.00818798136999 |
| 3-5-17-5-5 | 2-4-2-32-2 | 1-3-10-3-5-1 | 0.7187051211 | 0.833442112428 | 111.105747485 | 4088 | 0.00828009855802 |
| 5-5-3-17-5 | 8-2-4-2-8 | 1-10-9-4-2-1 | 0.710635634025 | 0.831630944259 | 109.305884743 | 2084 | 0.00828867680726 |
| 5-5-17-3-5 | 2-2-2-32-4 | 1-3-4-7-7-1 | 0.759290443482 | 0.859168194301 | 120.208669901 | 5946 | 0.00851023082561 |
| 85-5-5-3 | 8-4-16-2 | 1-2-9-7-1 | 0.681720528954 | 0.814237326363 | 112.555699396 | 6802 | 0.00805406901787 |
| 3-5-5-17-5 | 4-4-4-2-8 | 1-7-4-9-10-1 | 0.780221664071 | 0.870714678724 | 112.759688115 | 4824 | 0.00864017727815 |
| 5-5-3-17-5 | 16-2-2-8-2 | 1-7-10-1-3-1 | 0.704162072255 | 0.827722549316 | 109.485880399 | 1758 | 0.0082540249791 |
| 17-5-5-5-3 | 16-2-4-2-4 | 1-9-6-4-2-1 | 0.704126671915 | 0.82591577011 | 108.600183606 | 3572 | 0.00821212053383 |
| 5-17-5-3-5 | 4-2-2-32-2 | 1-7-5-9-5-1 | 0.694645590632 | 0.822154350723 | 115.977923632 | 6150 | 0.00814092728821 |
| 3-85-5-5 | 4-4-8-8 | 1-9-8-1-1 | 0.693503298019 | 0.822064126333 | 112.450234437 | 24948 | 0.00789365057736 |
| 5-3-5-5-17 | 16-4-2-4-2 | 1-3-8-6-6-1 | 0.655659139305 | 0.7991812167 | 108.434411049 | 1932 | 0.00796719453131 |
| 5-17-5-3-5 | 4-4-4-4-4 | 1-9-3-7-8-1 | 0.680636779292 | 0.814477437235 | 110.122171068 | 3268 | 0.00810233635792 |
| 5-3-17-5-5 | 8-4-2-4-4 | 1-6-7-10-1-1 | 0.695441621552 | 0.82197857723 | 109.177675891 | 3344 | 0.00817596089408 |
| 5-3-5-17-5 | 4-2-2-16-4 | 1-3-10-4-2-1 | 0.691068687995 | 0.819550865388 | 109.412481284 | 2856 | 0.00815818981983 |
| 3-5-5-17-5 | 16-2-4-4-2 | 1-6-7-2-8-1 | 0.691702064161 | 0.819569358229 | 108.47398541 | 2156 | 0.0081675208856 |
| 5-17-5-3-5 | 4-2-4-4-8 | 1-1-2-6-9-1 | 18.7837671601 | 1.53453486733 | 113.172789431 | 1336 | 0.0153126615148 |
| 17-5-5-3-5 | 4-8-4-2-4 | 1-8-9-10-6-1 | 0.695727112791 | 0.823182019137 | 111.207744217 | 5704 | 0.00815695682662 |
| 5-17-3-5-5 | 8-16-2-2-2 | 1-6-8-4-10-1 | 0.665966468369 | 0.80519073341 | 109.791523194 | 13988 | 0.00787233131403 |
| 17-5-3-5-5 | 4-4-4-8-2 | 1-9-2-4-1-1 | 0.704336265489 | 0.828184634208 | 108.845700502 | 1238 | 0.00826549920278 |
| 3-5-5-17-5 | 4-2-4-16-2 | 1-9-8-4-3-1 | 0.684681186898 | 0.816584734284 | 108.431205177 | 4762 | 0.0081038483552 |
| 3-5-17-5-5 | 8-2-4-2-8 | 1-3-6-5-9-1 | 3.89572958795 | 1.10098916631 | 109.619011402 | 3102 | 0.010955439042 |
| 5-5-3-85 | 4-32-2-4 | 1-10-3-4-1 | 0.720695367863 | 0.837495319184 | 109.066320133 | 6432 | 0.00828906719227 |
| 5-3-5-17-5 | 2-8-16-2-2 | 1-1-10-4-8-1 | 0.732686022034 | 0.844556885088 | 109.744233537 | 4618 | 0.0083833851185 |
| 17-5-5-5-3 | 8-8-4-2-2 | 1-6-9-10-5-1 | 0.720623880204 | 0.836676228072 | 109.177472115 | 5306 | 0.00829598096589 |
| 5-3-17-5-5 | 2-8-2-8-4 | 1-1-1-9-5-1 | 1.29125281671 | 1.03443070791 | 110.750835967 | 2240 | 0.0103073631253 |
| 3-17-5-5-5 | 2-2-8-16-2 | 1-5-1-1-4-1 | 0.731792868507 | 0.84348532222 | 108.706217122 | 600 | 0.00842678416618 |
| 5-5-17-3-5 | 2-4-16-4-2 | 1-3-7-10-10-1 | 2.91286078026 | 1.04336549649 | 111.294600511 | 20790 | 0.0100878072501 |
| 17-5-5-3-5 | 2-8-2-4-8 | 1-6-4-2-8-1 | 0.721591509539 | 0.837349733703 | 111.210850906 | 1756 | 0.00835005368058 |
| 17-5-15-5 | 64-2-4-2 | 1-3-9-5-1 | 0.678483929732 | 0.812696965061 | 109.129081678 | 6284 | 0.00804554446362 |
| 5-5-3-17-5 | 8-2-2-4-8 | 1-7-6-1-2-1 | 0.677509968292 | 0.811274852119 | 108.464472747 | 952 | 0.0081004345279 |
| 5-5-3-17-5 | 16-2-2-4-4 | 1-8-8-7-9-1 | 0.689088234573 | 0.817710256487 | 109.173464489 | 6080 | 0.00809783473388 |
| 3-5-5-5-17 | 4-8-8-2-2 | 1-10-1-9-8-1 | 0.734458126978 | 0.844631696007 | 109.637788033 | 1872 | 0.00842110728956 |
| 5-5-17-3-5 | 2-4-2-8-8 | 1-8-7-6-3-1 | 0.712778671813 | 0.833581910703 | 114.120872927 | 3180 | 0.00829355522827 |
| 5-5-17-5-3 | 16-2-8-2-2 | 1-7-1-4-5-1 | 0.696948687864 | 0.823116716991 | 108.443157768 | 1404 | 0.00821274153422 |
| 3-5-25-17 | 4-16-2-8 | 1-3-10-2-1 | 0.701357547158 | 0.826158212032 | 109.483345008 | 3708 | 0.00821273973113 |
| 5-5-17-5-3 | 8-2-2-8-4 | 1-5-2-9-3-1 | 0.697343572129 | 0.823737601754 | 109.97694788 | 2028 | 0.00821074113463 |
| 5-17-3-5-5 | 4-2-2-32-2 | 1-4-4-3-10-1 | 0.722906083655 | 0.839350135097 | 109.009428477 | 5596 | 0.00831861290461 |
| 5-5-17-5-3 | 2-16-4-2-4 | 1-1-6-8-10-1 | 0.733999669547 | 0.844460663537 | 110.463783216 | 4674 | 0.00838167600492 |
| 5-17-3-5-5 | 8-4-4-4-2 | 1-1-3-1-5-1 | 0.708131044962 | 0.828790244795 | 108.878045201 | 430 | 0.00828222037197 |
| 5-17-3-5-5 | 8-2-4-8-2 | 1-10-5-5-4-1 | 0.693648424992 | 0.822057961544 | 109.458952713 | 3240 | 0.00817811361105 |
| 17-5-5-5-3 | 4-2-2-4-16 | 1-2-5-2-1-1 | 0.699582807918 | 0.824640847826 | 110.233469486 | 424 | 0.00824083373784 |
| 51-5-5-5 | 2-128-2-2 | 1-10-2-3-1 | 0.716376987874 | 0.835156424841 | 114.613759279 | 13910 | 0.00816634381044 |
| 3-5-5-17-5 | 2-16-4-4-2 | 1-5-7-1-10-1 | 0.687362887982 | 0.817583958048 | 109.276666474 | 3750 | 0.00812695661105 |
| 5-3-5-17-5 | 4-4-2-4-8 | 1-5-5-5-7-1 | 0.728189152694 | 0.842585520542 | 110.676669812 | 3310 | 0.00838138839941 |
| 5-5-17-5-3 | 4-2-2-16-4 | 1-5-6-3-5-1 | 0.690693445879 | 0.820225908005 | 111.353136468 | 2272 | 0.00817254681502 |
| 17-3-5-5-5 | 4-8-2-4-4 | 1-7-2-1-10-1 | 0.672576947151 | 0.809105042487 | 109.763583899 | 1232 | 0.00807515729011 |
| 5-5-5-17-3 | 4-2-4-16-2 | 1-2-10-5-5-1 | 0.677397816235 | 0.81201231366 | 109.079773045 | 8070 | 0.00801564387367 |
| 17-5-5-3-5 | 2-2-4-4-16 | 1-4-5-4-5-1 | 4.30697125641 | 1.19286100092 | 115.059120107 | 1376 | 0.0119024400995 |
| 17-3-5-5-5 | 4-16-2-2-4 | 1-4-8-5-8-1 | 0.663547370637 | 0.803737867761 | 109.567195892 | 2768 | 0.00800190759314 |
| 5-5-5-51 | 8-2-16-4 | 1-4-10-4-1 | 0.953112120923 | 0.96398414496 | 109.434936881 | 4576 | 0.00956950995331 |
| 5-5-5-17-3 | 8-2-16-2-2 | 1-5-4-8-2-1 | 0.695994563908 | 0.822500953042 | 108.611799407 | 3516 | 0.00817890121807 |
| 5-3-5-17-5 | 4-4-2-8-4 | 1-6-4-10-7-1 | 0.762481174096 | 0.863005626573 | 109.106672454 | 10468 | 0.00848602018635 |
| 5-85-3-5 | 8-16-4-2 | 1-3-1-4-1 | 0.650866447593 | 0.797340252657 | 109.116863632 | 4288 | 0.00791889048889 |
| 5-17-5-5-3 | 2-8-2-2-16 | 1-5-7-4-8-1 | 0.727311095944 | 0.8419851901 | 115.44528203 | 5794 | 0.00834207029718 |
| 3-5-5-5-17 | 8-2-2-8-4 | 1-2-7-10-7-1 | 843.85406793 | 4.84696313401 | 108.329441094 | 4164 | 0.0481478399739 |
| 3-5-5-85 | 16-4-4-4 | 1-5-4-2-1 | 0.932947433894 | 0.950400830533 | 107.809185863 | 1480 | 0.00948158175512 |
| 5-25-3-17 | 4-2-16-8 | 1-2-6-7-1 | 0.936916989105 | 0.955109978255 | 110.892290831 | 3608 | 0.00949615659375 |
| 17-5-5-3-5 | 2-4-4-4-8 | 1-3-6-10-9-1 | 0.750296152101 | 0.852833250683 | 115.764020181 | 3102 | 0.00848615315823 |
| 5-17-3-5-5 | 2-8-8-4-2 | 1-9-5-8-7-1 | 0.694929898604 | 0.823750481092 | 108.839256692 | 8360 | 0.00812770643685 |
| 17-5-5-5-3 | 32-4-2-2-2 | 1-7-3-1-4-1 | 0.746167776617 | 0.849912176379 | 107.394991016 | 4322 | 0.00844055479271 |
| 5-5-3-5-17 | 4-8-2-2-8 | 1-6-8-9-10-1 | 0.747437056837 | 0.852343525783 | 110.029321766 | 4732 | 0.00845912898289 |
| 17-5-3-5-5 | 4-2-4-2-16 | 1-9-10-3-7-1 | 0.673710923436 | 0.810569769059 | 113.148406076 | 2642 | 0.00807155347295 |
| 5-17-5-3-5 | 2-8-2-16-2 | 1-1-7-9-6-1 | 0.801165798319 | 0.880868854298 | 111.471831393 | 4244 | 0.00874908383288 |
| 17-5-5-3-5 | 8-4-2-2-8 | 1-9-2-1-6-1 | 0.685368191618 | 0.816613269176 | 108.700527644 | 1880 | 0.00814165512565 |
| 5-17-5-3-5 | 4-2-8-4-4 | 1-5-4-2-1-1 | 0.688755379457 | 0.818798745756 | 108.553903031 | 1144 | 0.00817305273554 |
| 5-3-17-5-5 | 8-8-2-4-2 | 1-3-10-4-3-1 | 0.683895022277 | 0.816402697276 | 108.668420601 | 2470 | 0.0081318759099 |
| 3-17-5-5-5 | 2-2-8-8-4 | 1-3-6-9-3-1 | 0.767348654439 | 0.863652677011 | 111.534047771 | 3930 | 0.00858241077808 |
| 5-3-85-5 | 2-8-2-32 | 1-2-9-3-1 | 0.832829230803 | 0.899629256851 | 111.062287831 | 5522 | 0.00891708732686 |
| 5-3-17-5-5 | 2-4-2-8-8 | 1-4-8-8-6-1 | 0.738911155469 | 0.849042009545 | 113.838832474 | 4760 | 0.00842598387151 |
| 5-5-17-3-5 | 2-2-4-8-8 | 1-9-2-1-3-1 | 0.709343211925 | 0.82893576577 | 109.094153833 | 598 | 0.00828145422039 |
| 5-17-3-5-5 | 2-4-4-4-8 | 1-8-1-9-10-1 | 0.723636192297 | 0.840285993239 | 112.418758368 | 2932 | 0.0083635787058 |
| 5-3-17-5-5 | 4-4-8-4-2 | 1-6-1-5-2-1 | 0.697040411762 | 0.823056532264 | 108.224912906 | 1092 | 0.00821623532052 |
| 17-5-5-5-3 | 2-4-4-8-4 | 1-10-8-7-6-1 | 0.69398523128 | 0.821815332496 | 114.427060223 | 4812 | 0.00815510205933 |
| 17-5-5-3-5 | 4-2-4-16-2 | 1-2-5-2-8-1 | 0.68883092518 | 0.819284360948 | 109.058486295 | 1284 | 0.0081760712702 |
| 3-5-5-5-17 | 2-32-2-4-2 | 1-5-6-5-10-1 | 0.71393344973 | 0.832278455061 | 107.531095791 | 6470 | 0.00823692929544 |
| 5-5-5-3-17 | 2-16-2-4-4 | 1-6-3-4-3-1 | 0.701363683578 | 0.826686347644 | 105.959886456 | 1968 | 0.00824092408339 |
| 5-17-5-3-5 | 2-32-2-4-2 | 1-2-5-2-4-1 | 0.701756386788 | 0.82632869732 | 104.946185017 | 5696 | 0.0081882428364 |
| 5-3-17-5-5 | 2-8-8-2-4 | 1-5-10-8-7-1 | 0.745458221838 | 0.852253186303 | 106.282790446 | 12830 | 0.00834819499472 |
| 5-85-3-5 | 8-8-2-8 | 1-2-8-5-1 | 0.750010260333 | 0.850274471817 | 107.257626963 | 11400 | 0.00834819865665 |
| 3-5-17-5-5 | 4-2-4-4-8 | 1-3-10-9-1-1 | 0.72864517795 | 0.840000276257 | 107.584486914 | 6676 | 0.00831059201888 |
| 5-5-3-17-5 | 8-8-2-4-2 | 1-3-9-5-5-1 | 0.681082091224 | 0.814398060136 | 104.937078404 | 3220 | 0.00810216998667 |
| 17-5-5-3-5 | 32-2-2-4-2 | 1-7-2-1-6-1 | 0.696378921539 | 0.824043754844 | 104.428142476 | 4100 | 0.00818656989227 |
| 5-17-3-5-5 | 32-4-2-2-2 | 1-9-5-4-4-1 | 0.70533820536 | 0.82817250274 | 105.305371809 | 4820 | 0.0082180803931 |
| 5-5-3-5-17 | 2-2-32-2-4 | 1-1-6-4-9-1 | 1.48404262138 | 1.02450210466 | 106.232059479 | 3346 | 0.0101903656888 |
| 17-5-3-5-5 | 32-2-2-4-2 | 1-1-7-2-4-1 | 0.701739985614 | 0.82705156701 | 104.15428369 | 898 | 0.0082586742749 |
| 3-17-5-5-5 | 2-8-2-4-8 | 1-6-6-4-4-1 | 0.716510275141 | 0.834075995462 | 106.808484793 | 5652 | 0.00826559736651 |
| 425-3-5 | 2-256-2 | 1-10-1-1 | 0.707705850286 | 0.829584319676 | 173.902590489 | 16190 | 0.00808170145353 |
| 17-5-5-3-5 | 4-4-4-4-4 | 1-10-9-9-10-1 | 0.680245488097 | 0.814023621009 | 108.938817501 | 5380 | 0.00807041084208 |
| 5-17-5-3-5 | 2-4-32-2-2 | 1-10-4-5-3-1 | 0.677553246274 | 0.811816025245 | 106.63535316 | 6140 | 0.0080386871913 |
| 3-5-5-5-17 | 2-4-4-16-2 | 1-5-9-3-3-1 | 0.691624146272 | 0.820035132326 | 105.894940281 | 2292 | 0.00817038447818 |
| 5-5-17-3-5 | 64-2-2-2-2 | 1-7-5-8-7-1 | 0.708690576691 | 0.831264480161 | 105.169231296 | 4356 | 0.00825491221112 |
| 3-5-5-5-17 | 8-2-4-2-8 | 1-4-1-4-1-1 | 0.663560962125 | 0.804591667549 | 105.691690087 | 392 | 0.00804088797756 |
| 5-3-5-5-17 | 8-2-2-16-2 | 1-4-8-3-7-1 | 0.728717928897 | 0.840992607712 | 105.627534246 | 2510 | 0.00837627028239 |
| 5-3-5-5-17 | 2-8-4-2-8 | 1-7-6-7-5-1 | 0.741398520536 | 0.848313284232 | 106.611439204 | 2948 | 0.00844325995389 |
| 5-3-5-17-5 | 2-2-4-32-2 | 1-2-2-7-9-1 | 66.2364168341 | 1.8136961847 | 108.232342815 | 34686 | 0.0171339346489 |
| 5-3-17-5-5 | 2-2-2-64-2 | 1-5-2-4-3-1 | 0.687159153111 | 0.817667873665 | 106.74978919 | 4252 | 0.00812124627813 |
| 5-3-17-5-5 | 2-2-2-8-16 | 1-7-4-5-8-1 | 379.277184985 | 4.35878333689 | 111.914563274 | 3158 | 0.0433683652921 |
| 3-5-17-5-5 | 4-8-4-4-2 | 1-9-5-3-1-1 | 0.68187102403 | 0.815318855315 | 104.702377963 | 2998 | 0.00811421651985 |
| 17-5-5-3-5 | 4-2-16-4-2 | 1-10-5-10-4-1 | 0.739639137372 | 0.849219837394 | 106.694540787 | 5700 | 0.00841502118846 |
| 3-5-5-5-17 | 32-2-2-2-4 | 1-10-7-2-8-1 | 0.681939485447 | 0.814535189037 | 104.54903574 | 2504 | 0.00811283281968 |
| 5-5-17-5-3 | 2-2-8-16-2 | 1-2-10-3-4-1 | 0.714665781802 | 0.834043806133 | 107.479869819 | 5284 | 0.00827017199832 |
| 17-5-5-5-3 | 2-8-8-2-4 | 1-4-8-5-7-1 | 0.691040491108 | 0.820565877427 | 107.2473629 | 3450 | 0.00816052241781 |
| 5-3-17-5-5 | 2-16-2-4-4 | 1-8-2-5-2-1 | 0.672393474925 | 0.809423597829 | 105.218174601 | 1428 | 0.00807580713744 |
| 5-5-3-17-5 | 2-16-8-2-2 | 1-9-8-4-8-1 | 0.668065123723 | 0.806871061931 | 105.780857801 | 7786 | 0.00796854642786 |
| 5-3-17-5-5 | 2-4-16-4-2 | 1-1-2-10-5-1 | 0.889316918626 | 0.924557485035 | 105.817604232 | 6524 | 0.00914940436195 |
| 5-3-5-5-17 | 4-2-8-4-4 | 1-2-8-6-10-1 | 10.9024743759 | 1.30417348758 | 105.591754484 | 3936 | 0.0129598913355 |
| 3-17-5-5-5 | 8-2-2-8-4 | 1-5-8-8-4-1 | 0.679178654002 | 0.812549513748 | 106.678969789 | 3480 | 0.00808041107645 |
| 5-3-5-17-5 | 2-4-2-16-4 | 1-10-3-4-1-1 | 0.692977067762 | 0.821639271321 | 106.000886679 | 1688 | 0.00819427971751 |
| 5-5-17-5-3 | 2-32-2-2-4 | 1-8-2-5-4-1 | 0.680661317662 | 0.813968669896 | 105.336160278 | 3228 | 0.00809779430632 |
| 5-5-17-5-3 | 16-4-2-2-4 | 1-8-3-4-4-1 | 0.684978523698 | 0.816268241294 | 104.882944393 | 1736 | 0.00814008927411 |
| 17-3-5-5-5 | 8-2-4-8-2 | 1-10-8-1-2-1 | 0.677302035997 | 0.811800027251 | 105.036672568 | 2100 | 0.00809081946803 |
| 5-3-17-5-5 | 4-16-2-4-2 | 1-6-7-8-9-1 | 0.693609682788 | 0.820904834113 | 105.629843378 | 5570 | 0.00813614591884 |
| 3-17-5-5-5 | 4-4-8-2-4 | 1-1-1-5-5-1 | 0.897246940541 | 0.932988098758 | 105.287786078 | 630 | 0.00932050945534 |
| 17-5-5-3-5 | 2-32-2-2-4 | 1-1-5-2-9-1 | 0.742688392745 | 0.851033577403 | 105.717422509 | 1222 | 0.0084937547308 |
| 5-5-3-17-5 | 2-2-16-8-2 | 1-5-7-3-6-1 | 0.70286731281 | 0.828116447872 | 106.139289188 | 3916 | 0.00822946001428 |
| 17-5-3-5-5 | 2-2-8-16-2 | 1-5-4-6-4-1 | 0.692764691567 | 0.820460445934 | 106.921367121 | 2906 | 0.00816659014085 |
| 5-17-3-5-5 | 8-2-16-2-2 | 1-2-10-5-3-1 | 0.662075794626 | 0.802994810323 | 105.993424559 | 3340 | 0.00798718658113 |
| 5-3-5-17-5 | 16-8-2-2-2 | 1-3-5-7-4-1 | 0.69790590683 | 0.8251171169 | 104.720043087 | 1942 | 0.00822562305929 |
| 5-3-17-5-5 | 4-8-8-2-2 | 1-1-3-6-9-1 | 0.696589914043 | 0.822928406606 | 105.950265956 | 3170 | 0.00818769154295 |
| 3-5-5-5-17 | 8-2-4-4-4 | 1-8-4-7-10-1 | 180.145942447 | 3.08950194079 | 106.257419038 | 3152 | 0.0307397561726 |
| 17-5-5-3-5 | 4-4-4-8-2 | 1-2-1-4-7-1 | 0.689131793597 | 0.81889866102 | 105.740225649 | 998 | 0.00817595630306 |
| 3-85-5-5 | 2-64-2-4 | 1-4-9-9-1 | 0.692527705933 | 0.821904403824 | 113.439724398 | 196854 | 0.00563940166722 |
| 5-3-5-5-17 | 2-2-2-16-8 | 1-8-7-3-10-1 | 10128.2383292 | 19.8335994228 | 106.962797093 | 4386 | 0.196949033656 |
| 3-5-17-5-5 | 8-2-2-8-4 | 1-1-3-2-10-1 | 2.65561127349 | 1.0967332334 | 105.87118957 | 1258 | 0.0109453347191 |
| 5-5-17-3-5 | 2-2-2-8-16 | 1-6-7-5-7-1 | 33.155111896 | 1.82420054543 | 114.426299334 | 3070 | 0.0181527150259 |
| 5-5-5-17-3 | 2-4-4-16-2 | 1-10-5-1-2-1 | 0.69309872755 | 0.820671492315 | 105.914709616 | 1756 | 0.00818373821492 |
| 17-5-3-5-5 | 2-4-2-8-8 | 1-3-2-8-7-1 | 9.59190657868 | 1.31533713024 | 109.524194932 | 2838 | 0.013093853975 |
| 17-3-5-5-5 | 2-4-2-2-32 | 1-2-8-3-3-1 | 2.63468746832 | 1.05878193509 | 108.18988874 | 1070 | 0.0105697565851 |
| 17-3-5-5-5 | 8-4-8-2-2 | 1-7-3-9-3-1 | 0.693632239539 | 0.821792360975 | 105.462839913 | 2584 | 0.00818406660304 |
| 5-3-85-5 | 32-2-2-8 | 1-4-1-3-1 | 0.696620899255 | 0.823288764538 | 104.718149114 | 1294 | 0.00821590206404 |
| 17-5-3-5-5 | 2-2-16-4-4 | 1-1-9-9-4-1 | 0.765645194876 | 0.861914720342 | 110.615737605 | 4812 | 0.00855301943502 |
| 5-17-5-5-3 | 2-2-2-2-64 | 1-7-9-3-6-1 | 0.724490381336 | 0.840018362998 | 127.600288963 | 3814 | 0.00834910215618 |
| 3-17-25-5 | 16-4-8-2 | 1-3-8-6-1 | 0.675824772386 | 0.81105355545 | 105.643859339 | 11436 | 0.00796265276656 |
| 5-5-5-3-17 | 2-2-2-4-32 | 1-7-1-6-8-1 | 269600.754903 | 93.5366093386 | 108.198964787 | 5128 | 0.927718521117 |
| 17-5-15-5 | 16-8-2-4 | 1-8-10-6-1 | 0.710436794363 | 0.832044262262 | 106.292698336 | 7296 | 0.00822365380028 |
| 5-3-17-25 | 2-64-2-4 | 1-1-5-2-1 | 0.720088400974 | 0.836210474961 | 105.719368482 | 1510 | 0.00834197276911 |
| 5-51-5-5 | 8-8-2-8 | 1-1-10-2-1 | 0.687221258684 | 0.817893452346 | 105.969062877 | 4400 | 0.00812155679403 |
| 5-17-5-3-5 | 16-8-2-2-2 | 1-6-6-9-6-1 | 0.686039760189 | 0.817012741147 | 105.428799295 | 6300 | 0.00808806139953 |
| 5-5-17-5-3 | 32-4-2-2-2 | 1-7-9-4-4-1 | 0.70774707565 | 0.829891036412 | 104.341361737 | 3788 | 0.00824878875625 |
| 17-5-5-5-3 | 2-4-4-16-2 | 1-8-1-6-3-1 | 0.70956497669 | 0.83128620617 | 107.007107925 | 2010 | 0.00828622167148 |
| 5-5-17-5-3 | 2-32-4-2-2 | 1-1-1-10-10-1 | 0.728739728436 | 0.842511129394 | 105.764746785 | 1910 | 0.00839945446586 |
| 17-3-5-5-5 | 2-32-2-4-2 | 1-4-3-4-7-1 | 0.677528354601 | 0.812977273024 | 105.37247715 | 2038 | 0.00810335615367 |
| 17-3-5-5-5 | 2-8-2-16-2 | 1-3-5-10-10-1 | 0.696762911386 | 0.824267379286 | 107.689911103 | 9062 | 0.00812358082425 |
| 5-5-17-5-3 | 2-4-16-2-4 | 1-10-5-6-10-1 | 0.737796722351 | 0.846094537342 | 107.703325343 | 9980 | 0.00832631489697 |
| 15-5-17-5 | 2-2-32-8 | 1-5-9-9-1 | 2.01564917192 | 1.11062850038 | 117.513161087 | 45024 | 0.0103090124018 |
| 17-5-3-5-5 | 4-2-4-8-4 | 1-8-4-2-1-1 | 0.714661745865 | 0.83435995466 | 106.274636269 | 1060 | 0.00832949843767 |
| 5-5-17-3-5 | 4-8-8-2-2 | 1-9-1-9-5-1 | 0.68837455349 | 0.818294238524 | 105.363362384 | 2084 | 0.00815575288918 |
| 5-5-3-5-17 | 2-8-2-16-2 | 1-1-8-7-7-1 | 0.72169747559 | 0.839224701934 | 106.042861152 | 4824 | 0.00832769950719 |
| 17-5-5-3-5 | 16-8-2-2-2 | 1-8-5-3-2-1 | 0.689689778977 | 0.818731792929 | 105.216683602 | 3982 | 0.00813533785915 |
| 5-5-17-5-3 | 4-2-4-2-16 | 1-2-1-7-7-1 | 0.968012080323 | 0.970437259446 | 110.498854065 | 1362 | 0.00968329900474 |
| 5-17-5-5-3 | 4-16-2-2-4 | 1-10-7-9-4-1 | 0.68525961046 | 0.816925162583 | 106.706367707 | 20278 | 0.00790513159319 |
| 3-25-17-5 | 4-16-4-4 | 1-7-9-10-1 | 0.709306382258 | 0.832270621853 | 107.825999832 | 31604 | 0.00790333312011 |
| 17-5-5-3-5 | 8-4-8-2-2 | 1-10-2-9-3-1 | 0.707102401024 | 0.829581942317 | 106.009489465 | 2672 | 0.0082604775394 |
| 5-17-5-3-5 | 2-2-2-4-32 | 1-8-4-1-3-1 | 0.697797193383 | 0.824007228058 | 108.676154709 | 1724 | 0.0082174225921 |
| 3-17-5-5-5 | 2-4-2-8-8 | 1-4-8-8-7-1 | 0.725449782081 | 0.8407400482 | 110.032547331 | 5360 | 0.00833555152379 |
| 5-5-17-5-3 | 2-4-8-2-8 | 1-10-4-8-8-1 | 0.763631286044 | 0.86296563662 | 109.595359659 | 6084 | 0.00854594649801 |
| 17-5-5-3-5 | 2-32-4-2-2 | 1-4-5-9-8-1 | 0.673845508864 | 0.811241278586 | 106.200620985 | 4748 | 0.00805100057938 |
| 5-5-3-5-17 | 8-8-4-2-2 | 1-7-10-4-6-1 | 0.68253713382 | 0.816498106671 | 104.623401117 | 4004 | 0.00811285641079 |
| 3-17-5-5-5 | 8-4-4-2-4 | 1-3-10-1-10-1 | 0.733593843572 | 0.844146614184 | 105.786207032 | 2612 | 0.00840631131154 |
| 5-5-3-5-17 | 16-4-2-2-4 | 1-3-9-10-4-1 | 0.732079850419 | 0.843726994789 | 105.613350606 | 1992 | 0.00841047300635 |
| 5-3-5-17-5 | 4-2-4-4-8 | 1-2-6-7-7-1 | 164.500279459 | 2.43410398771 | 107.993136501 | 4564 | 0.0241639153459 |
| 5-3-17-5-5 | 16-2-4-4-2 | 1-9-4-7-5-1 | 0.704217463262 | 0.827927414497 | 105.327928424 | 3590 | 0.00823188480476 |
| 17-3-5-5-5 | 2-4-2-16-4 | 1-3-10-3-9-1 | 0.730422899639 | 0.844056919995 | 108.843296504 | 3102 | 0.00839882391032 |
| 5-5-5-3-17 | 4-8-2-2-8 | 1-4-6-4-8-1 | 2.40592463475 | 1.12054203128 | 105.724173927 | 2560 | 0.0111596839033 |
| 5-3-5-5-17 | 2-64-2-2-2 | 1-3-10-9-1-1 | 0.679888353467 | 0.814035923394 | 105.649404502 | 6814 | 0.00805192108371 |
| 5-5-3-17-5 | 8-2-4-8-2 | 1-6-2-2-5-1 | 0.692422117466 | 0.820695328526 | 104.61291585 | 1818 | 0.00818316463559 |
| 5-5-5-17-3 | 8-2-2-8-4 | 1-8-8-4-4-1 | 0.691681539244 | 0.819990663311 | 105.487965393 | 3504 | 0.00815409593024 |
| 5-5-5-51 | 2-2-8-32 | 1-6-10-4-1 | 7.07234345002 | 1.41728877109 | 106.603415251 | 8788 | 0.013974304584 |
| 5-17-3-5-5 | 2-8-16-2-2 | 1-8-7-9-3-1 | 0.682750468674 | 0.815881232058 | 107.144653702 | 11020 | 0.00801546073931 |
| 17-3-5-5-5 | 2-2-32-4-2 | 1-9-6-1-3-1 | 0.714906820847 | 0.834759485982 | 106.435924435 | 1680 | 0.00832523523073 |
| 5-5-3-17-5 | 2-16-4-2-4 | 1-5-2-4-5-1 | 0.711351387281 | 0.832733643659 | 105.36805346 | 1726 | 0.00830442032898 |
| 17-3-5-5-5 | 4-8-2-8-2 | 1-10-6-10-2-1 | 0.691786333421 | 0.820537132386 | 106.706090426 | 3540 | 0.00815905911964 |
| 5-5-5-3-17 | 16-4-2-4-2 | 1-8-8-9-3-1 | 0.696141691255 | 0.823124028554 | 104.833046103 | 3066 | 0.00819100274932 |
| 5-5-17-3-5 | 8-2-2-4-8 | 1-4-5-6-8-1 | 0.744359940947 | 0.84942110381 | 107.665778327 | 2276 | 0.00846338701972 |
| 17-3-5-5-5 | 8-4-2-2-8 | 1-8-2-7-3-1 | 0.698929888507 | 0.82453097772 | 105.761436415 | 1750 | 0.00822230389055 |
| 5-5-15-17 | 8-4-16-2 | 1-7-9-9-1 | 0.72513742903 | 0.840886438077 | 106.156693149 | 21286 | 0.00812348318306 |
| 5-17-5-3-5 | 2-4-4-2-16 | 1-3-2-4-7-1 | 1.04208371251 | 0.989226010828 | 108.748712087 | 1326 | 0.00987134630582 |
| 17-3-5-5-5 | 8-2-2-16-2 | 1-2-8-4-7-1 | 0.680524950099 | 0.813714838125 | 105.605638719 | 2998 | 0.00809825301957 |
| 5-5-3-17-5 | 4-16-2-4-2 | 1-7-8-2-1-1 | 0.692645005937 | 0.820981609433 | 105.022806334 | 4862 | 0.00814617431204 |
| 17-5-3-5-5 | 2-2-32-4-2 | 1-2-6-1-4-1 | 0.689499062351 | 0.819663163934 | 107.426192594 | 884 | 0.00818507898888 |
| 5-5-17-3-5 | 32-2-2-2-4 | 1-3-8-5-9-1 | 0.681615683839 | 0.815310716725 | 106.198539829 | 2530 | 0.00812021915524 |
| 17-5-5-5-3 | 8-2-2-16-2 | 1-9-7-1-9-1 | 0.714061511538 | 0.833666086613 | 106.506017089 | 2698 | 0.00830079940086 |
| 17-3-5-25 | 4-2-16-8 | 1-2-5-2-1 | 0.850401064604 | 0.909841688702 | 105.468061471 | 1396 | 0.00907816594637 |
| 5-5-17-3-5 | 2-4-8-2-8 | 1-9-6-7-3-1 | 0.728612285522 | 0.840361534519 | 107.052757287 | 7128 | 0.00830810997181 |
| 17-5-3-5-5 | 16-2-4-4-2 | 1-4-10-2-3-1 | 0.705560015142 | 0.828681856981 | 104.813024521 | 1878 | 0.00826200567875 |
| 5-5-3-17-5 | 2-4-16-2-4 | 1-3-1-8-8-1 | 29.5022936725 | 1.45212570683 | 106.249095774 | 2810 | 0.0144561985027 |
| 5-5-17-3-5 | 2-8-4-4-4 | 1-10-7-10-5-1 | 0.685101550852 | 0.817261789613 | 106.647330928 | 8360 | 0.00806368440504 |
| 17-5-5-5-3 | 8-16-2-2-2 | 1-2-2-9-6-1 | 0.702367426286 | 0.825921838565 | 106.202827668 | 1348 | 0.00824146738695 |
| 5-5-5-17-3 | 4-2-2-16-4 | 1-9-3-5-4-1 | 0.677226432288 | 0.811566369544 | 106.239124799 | 6088 | 0.00803688792921 |
| 5-17-5-5-3 | 2-8-8-2-4 | 1-3-5-8-10-1 | 0.764914186889 | 0.862043748266 | 108.285829449 | 4590 | 0.00855735105402 |
| 17-5-5-5-3 | 2-2-2-2-64 | 1-7-9-3-5-1 | 11.1840984693 | 1.31068288148 | 126.221149063 | 2248 | 0.013059851533 |
| 85-3-5-5 | 2-128-2-2 | 1-6-6-2-1 | 0.695595240303 | 0.822654727288 | 111.13424716 | 14984 | 0.0080300125402 |
| 3-5-17-5-5 | 8-4-2-2-8 | 1-3-5-9-7-1 | 0.723975756714 | 0.839486105539 | 107.748486042 | 2812 | 0.00835722338114 |
| 5-5-17-3-5 | 8-2-2-16-2 | 1-4-6-4-9-1 | 0.670924685812 | 0.808485822367 | 106.952124381 | 3034 | 0.00804574875325 |
| 5-17-3-5-5 | 4-8-4-2-4 | 1-6-4-4-1-1 | 0.696596198663 | 0.822888859386 | 104.791748762 | 3636 | 0.00818118413128 |
| 17-3-5-5-5 | 2-4-4-16-2 | 1-7-7-10-3-1 | 0.754556680623 | 0.855460738613 | 107.946494865 | 4656 | 0.00849110252008 |
| 5-5-17-3-5 | 16-2-2-4-4 | 1-3-4-7-2-1 | 0.684107870845 | 0.817038638007 | 105.84349432 | 1520 | 0.00815058569879 |
| 17-5-5-5-3 | 2-8-8-2-4 | 1-8-5-10-6-1 | 0.692145604274 | 0.821043388725 | 107.648279166 | 4544 | 0.00815095013154 |
| 5-5-17-3-5 | 8-2-2-8-4 | 1-6-7-2-5-1 | 0.680076548723 | 0.814514159382 | 105.816155696 | 1476 | 0.00812597349913 |
| 17-5-5-3-5 | 2-2-8-4-8 | 1-1-5-2-9-1 | 1.10202467897 | 0.992541396981 | 108.649824119 | 1060 | 0.0099086395138 |
| 17-5-5-3-5 | 2-4-32-2-2 | 1-3-4-2-4-1 | 0.691679162268 | 0.81952007834 | 106.15363214 | 1710 | 0.00817285736289 |
| 5-5-5-3-17 | 8-2-4-4-4 | 1-3-1-2-4-1 | 2.89216143124 | 1.14461542721 | 105.266806507 | 558 | 0.0114359709908 |
| 5-5-3-17-5 | 2-8-16-2-2 | 1-4-2-1-8-1 | 0.683277379691 | 0.816445701196 | 105.2726156 | 808 | 0.00815393902525 |
| 5-3-5-5-17 | 2-2-4-16-4 | 1-5-5-2-9-1 | 3354.72952728 | 6.63745450551 | 105.736888194 | 2452 | 0.066115057835 |
| 5-5-3-17-5 | 2-2-2-8-16 | 1-9-7-1-3-1 | 0.721876391616 | 0.837777755581 | 106.929866481 | 1410 | 0.00835894358522 |
| 5-5-3-5-17 | 32-2-4-2-2 | 1-5-2-10-10-1 | 0.674300183543 | 0.810444174373 | 104.681001759 | 2480 | 0.00807239611949 |
| 5-3-5-17-5 | 8-4-2-4-4 | 1-3-5-10-5-1 | 0.663175614058 | 0.803793035205 | 105.543079686 | 4300 | 0.00798282336781 |
| 5-3-5-17-5 | 8-16-2-2-2 | 1-8-5-4-5-1 | 0.695334842779 | 0.8229040445 | 105.083756232 | 3170 | 0.00818744915321 |
| 5-5-3-17-5 | 2-4-4-16-2 | 1-9-4-7-7-1 | 0.685228655451 | 0.816956483644 | 107.422513914 | 14544 | 0.00798012263143 |
| 17-5-5-5-3 | 8-2-4-8-2 | 1-8-5-8-4-1 | 0.70557200629 | 0.829443132479 | 107.449115515 | 3592 | 0.00824692877805 |
| 17-3-5-5-5 | 2-2-32-2-4 | 1-9-2-4-6-1 | 0.668748494979 | 0.807531364553 | 106.418472791 | 2054 | 0.00804886802336 |
| 17-3-5-5-5 | 4-2-8-2-8 | 1-4-5-5-8-1 | 0.711012001744 | 0.832690310729 | 107.42215302 | 2112 | 0.00829886353561 |
| 17-5-5-5-3 | 8-2-16-2-2 | 1-9-9-7-10-1 | 0.722673227108 | 0.839358377325 | 106.802915335 | 7834 | 0.00828874427184 |
| 5-85-5-3 | 2-2-16-16 | 1-4-7-8-1 | 0.72485044721 | 0.841338570811 | 131.891462016 | 9664 | 0.0082837508875 |
| 17-3-5-5-5 | 2-4-16-2-4 | 1-9-5-5-9-1 | 0.661133662828 | 0.802899435688 | 107.377462411 | 3476 | 0.0079844969328 |
| 17-3-5-5-5 | 4-4-16-2-2 | 1-10-3-3-8-1 | 0.726100072259 | 0.839666847237 | 106.084549999 | 2080 | 0.00836882237795 |
| 5-17-5-5-3 | 8-2-4-8-2 | 1-8-5-5-1-1 | 0.701929764958 | 0.826817761852 | 105.715302682 | 2386 | 0.00823672374129 |
| 17-5-3-5-5 | 4-8-8-2-2 | 1-7-7-3-5-1 | 0.699575797733 | 0.825836149212 | 105.814612675 | 3140 | 0.00821701701654 |
| 5-5-17-3-5 | 4-4-2-2-16 | 1-1-9-9-1-1 | 0.714476675017 | 0.833777209479 | 108.11387198 | 3088 | 0.00829672132912 |
| 5-3-17-5-5 | 4-2-2-8-8 | 1-5-10-3-1-1 | 0.668363061089 | 0.806290064934 | 106.307946181 | 1580 | 0.00804258913304 |
| 17-5-5-3-5 | 2-16-8-2-2 | 1-5-2-6-10-1 | 0.681597080607 | 0.813904865545 | 105.713895082 | 1910 | 0.00811426296838 |
| 5-15-5-17 | 2-16-4-8 | 1-7-10-2-1 | 0.709470091422 | 0.8311038227 | 106.428776574 | 17542 | 0.00807858887659 |
| 5-3-5-5-17 | 2-2-4-32-2 | 1-9-9-6-6-1 | 0.82500223276 | 0.893165899005 | 107.257628775 | 7620 | 0.00882314616878 |
| 5-3-5-5-17 | 4-2-2-8-8 | 1-4-9-8-8-1 | 417.190684955 | 4.34624918567 | 107.093667078 | 4664 | 0.0431392950104 |
| 25-17-3-5 | 8-8-8-2 | 1-1-1-7-1 | 0.65999684596 | 0.802244183095 | 104.903649902 | 574 | 0.0080150998641 |
| 5-5-3-17-5 | 16-2-2-2-8 | 1-9-7-10-4-1 | 0.682898662887 | 0.815056643795 | 106.640751028 | 3290 | 0.0081078123506 |
| 17-5-5-3-5 | 16-2-2-4-4 | 1-7-7-8-2-1 | 0.697242683745 | 0.824407412366 | 106.113869023 | 3186 | 0.0082021965405 |
| 5-17-3-5-5 | 8-8-2-4-2 | 1-8-2-5-9-1 | 0.683866322373 | 0.816130631126 | 106.538458991 | 3546 | 0.00811516474209 |
| 17-5-5-5-3 | 4-2-4-4-8 | 1-5-6-10-6-1 | 0.684605668964 | 0.815957837818 | 112.022720027 | 3184 | 0.00811815602876 |
| 5-5-17-5-3 | 8-2-2-16-2 | 1-6-7-9-6-1 | 0.69638375606 | 0.823498351764 | 109.434370542 | 7158 | 0.00814100071786 |
| 17-5-5-5-3 | 2-4-4-2-16 | 1-4-1-3-8-1 | 6.24772018619 | 1.18615018769 | 111.147315168 | 900 | 0.0118444812269 |
| 5-3-5-17-5 | 16-4-2-4-2 | 1-8-8-10-8-1 | 0.699950638636 | 0.826201349994 | 105.661957383 | 7728 | 0.00816021369075 |
| 5-3-5-17-5 | 4-4-4-4-4 | 1-1-4-5-4-1 | 1.40687173479 | 1.03246820424 | 105.821825218 | 1908 | 0.0102932734115 |
| 3-17-5-5-5 | 2-8-2-2-16 | 1-4-10-5-3-1 | 0.728753540315 | 0.840826346894 | 107.758196735 | 6354 | 0.0083230815396 |
| 5-17-3-5-5 | 4-2-16-2-4 | 1-3-3-9-7-1 | 0.724008602674 | 0.83993604916 | 106.289565945 | 2432 | 0.00836679154276 |
| 3-5-17-5-5 | 4-4-4-2-8 | 1-5-10-8-8-1 | 0.748243808534 | 0.853240373171 | 107.339569354 | 7460 | 0.00843091818988 |
| 5-3-5-5-17 | 8-4-4-4-2 | 1-1-3-2-1-1 | 0.654123435191 | 0.799079012138 | 104.486909938 | 270 | 0.00798735020854 |
| 5-5-3-17-5 | 4-2-4-16-2 | 1-9-6-7-6-1 | 0.678866018602 | 0.812675812763 | 105.412846589 | 12708 | 0.00796209798368 |
| 5-3-5-17-5 | 4-4-2-16-2 | 1-1-2-7-10-1 | 481.48780076 | 3.71163659753 | 106.61614213 | 19324 | 0.0359728126333 |
| 17-5-3-5-5 | 4-32-2-2-2 | 1-7-3-8-8-1 | 0.693083561896 | 0.82129955249 | 105.89920392 | 4700 | 0.00815145043726 |
| 17-5-5-3-5 | 2-2-2-4-32 | 1-3-1-4-6-1 | 57.9589695693 | 1.57405694245 | 113.147937655 | 1420 | 0.0157049322935 |
| 5-3-17-5-5 | 4-2-16-4-2 | 1-3-9-2-6-1 | 0.663927018376 | 0.803602557122 | 106.336376095 | 5418 | 0.00796660722532 |
| 17-5-5-5-3 | 2-4-4-8-4 | 1-4-3-5-3-1 | 0.688849111394 | 0.819423127013 | 107.114154911 | 1312 | 0.00817709027615 |
| 17-5-3-5-5 | 2-4-8-8-2 | 1-8-8-4-3-1 | 0.72219239287 | 0.838668085443 | 108.168455148 | 2830 | 0.00834883916626 |
| 17-5-5-5-3 | 4-8-4-2-4 | 1-3-9-9-3-1 | 0.69180486128 | 0.820208855971 | 106.4679775 | 3210 | 0.00816011039601 |
| 5-5-17-5-3 | 4-16-4-2-2 | 1-7-2-10-9-1 | 0.697430051782 | 0.824302640281 | 107.03416636 | 3574 | 0.0081960548206 |
| 17-5-3-5-5 | 4-2-4-16-2 | 1-10-5-7-2-1 | 0.719945133735 | 0.838214147065 | 108.316091418 | 2740 | 0.00834552305925 |
| 17-3-5-25 | 2-2-8-32 | 1-4-4-5-1 | 2.40904755729 | 1.09105247195 | 108.090644574 | 5032 | 0.010822990025 |
| 5-5-3-5-17 | 2-2-2-8-16 | 1-6-2-4-1-1 | 1.71079714971 | 1.05913957009 | 107.820953012 | 660 | 0.0105802504185 |
| 5-5-17-3-5 | 16-2-4-2-4 | 1-1-6-6-7-1 | 0.739587251977 | 0.84940899483 | 106.926068878 | 2980 | 0.00845373218674 |
| 17-5-5-5-3 | 8-2-4-4-4 | 1-10-2-4-7-1 | 0.724454386312 | 0.839132894683 | 106.449404097 | 2364 | 0.0083597009149 |
| 3-5-17-5-5 | 16-2-2-4-4 | 1-2-10-2-7-1 | 0.708666149333 | 0.830004328252 | 107.265197849 | 1396 | 0.00828156933414 |
| 17-5-5-5-3 | 4-4-2-2-16 | 1-8-1-4-10-1 | 0.674526387614 | 0.8108491736 | 112.981080484 | 1624 | 0.00808749653419 |
| 5-5-3-5-17 | 2-2-8-16-2 | 1-7-6-4-6-1 | 0.742362663779 | 0.849635413777 | 107.154475427 | 3190 | 0.008453140857 |
| 3-17-5-5-5 | 2-8-4-2-8 | 1-3-2-5-4-1 | 0.679773782539 | 0.812668452332 | 107.39358542 | 1394 | 0.00810862234503 |
| 5-3-17-5-5 | 16-4-4-2-2 | 1-1-1-8-5-1 | 0.663175901512 | 0.803984146167 | 106.82744019 | 1086 | 0.00802592043516 |
| 3-17-5-5-5 | 4-4-2-2-16 | 1-7-1-8-8-1 | 21.036900641 | 1.32838756149 | 110.631332254 | 1920 | 0.0132432106895 |
| 17-5-5-5-3 | 8-2-8-4-2 | 1-9-9-2-7-1 | 0.709892445847 | 0.830496179064 | 106.867534113 | 3076 | 0.00826423146145 |
| 5-17-5-5-3 | 2-16-2-8-2 | 1-5-10-3-8-1 | 0.678953162232 | 0.81307900558 | 107.167581296 | 14958 | 0.00793688004678 |
| 5-3-5-5-17 | 8-4-4-4-2 | 1-10-8-2-7-1 | 0.705284929138 | 0.828118121171 | 106.554795337 | 2198 | 0.00825216010791 |
| 5-5-5-17-3 | 4-8-2-4-4 | 1-9-4-1-2-1 | 0.686316177734 | 0.817310417049 | 106.307645202 | 1820 | 0.00814938757357 |
| 5-3-5-5-17 | 4-2-4-4-8 | 1-6-8-1-3-1 | 0.6663919113 | 0.806496857086 | 107.216443539 | 1036 | 0.00805164697099 |
| 17-3-5-5-5 | 2-8-2-8-4 | 1-10-6-10-7-1 | 0.691530559461 | 0.819865240522 | 110.358596396 | 5320 | 0.00812911026428 |
| 5-5-5-17-3 | 32-2-2-2-4 | 1-2-9-6-10-1 | 0.676860245705 | 0.811253677826 | 108.185471249 | 3200 | 0.00807114628449 |
| 3-5-5-17-5 | 4-2-2-4-16 | 1-8-2-6-10-1 | 20297.3014507 | 26.5054828455 | 111.516096306 | 5256 | 0.262833641946 |
| 5-5-3-5-17 | 4-2-4-4-8 | 1-2-6-5-1-1 | 0.686984799463 | 0.81706072641 | 106.8464082 | 756 | 0.00816075876428 |
| 5-3-5-5-17 | 4-8-2-4-4 | 1-6-9-2-3-1 | 0.687154070949 | 0.818232664546 | 106.278950334 | 1920 | 0.00815727870675 |
| 17-5-3-5-5 | 8-2-8-4-2 | 1-2-4-10-10-1 | 0.682459157976 | 0.814898049906 | 106.850780201 | 3412 | 0.00810464962938 |
| 17-5-5-5-3 | 2-8-8-4-2 | 1-6-4-9-8-1 | 0.68785848453 | 0.818122643049 | 108.171048164 | 4092 | 0.00812785018918 |
| 5-3-5-17-5 | 2-8-4-8-2 | 1-5-6-9-1-1 | 0.687447650318 | 0.81794551945 | 105.531149149 | 3084 | 0.00813923606213 |
| 17-5-5-5-3 | 32-2-2-2-4 | 1-1-10-10-10-1 | 0.685730936305 | 0.816913953791 | 107.648247242 | 2764 | 0.00813313905691 |
| 17-5-3-5-5 | 8-8-2-2-4 | 1-6-10-4-8-1 | 0.691809323355 | 0.820442732856 | 107.906245852 | 3936 | 0.00815294036114 |
| 5-17-5-3-5 | 2-4-2-16-4 | 1-1-1-10-5-1 | 1.5051108867 | 1.03219909093 | 111.834413505 | 2678 | 0.0102779183779 |
| 17-25-3-5 | 8-8-8-2 | 1-3-8-3-1 | 0.695602928458 | 0.822339335359 | 105.885398984 | 5814 | 0.00814716438523 |
| 5-17-3-5-5 | 8-2-4-8-2 | 1-4-3-3-2-1 | 0.696206387895 | 0.823934617723 | 103.698391104 | 936 | 0.00822705021418 |
| 3-5-17-25 | 8-16-2-4 | 1-9-1-3-1 | 0.686563177981 | 0.816440909134 | 102.016664267 | 1338 | 0.00814699203241 |
| 17-3-5-5-5 | 2-2-8-16-2 | 1-3-1-9-7-1 | 0.690032211186 | 0.81907161707 | 103.854312015 | 5590 | 0.0081177153681 |
| 5-17-5-5-3 | 2-2-4-2-32 | 1-8-6-4-5-1 | 0.746089633198 | 0.852298337074 | 112.479442596 | 2872 | 0.00848395593413 |
| 25-17-3-5 | 8-2-16-4 | 1-8-7-2-1 | 0.677458571101 | 0.811385059715 | 106.200112939 | 4216 | 0.0080593097902 |
