| 3-25-5-17 | 2-2-8-32 | 1-4-1-6-1 | 0.649650592441 | 0.794684921654 | 58.885885644 | 3728 | 0.00789961411788 |
| 5-5-5-17-3 | 16-4-2-4-2 | 1-6-1-2-5-1 | 0.850505254235 | 0.907417598759 | 56.2375847816 | 1330 | 0.00905493387333 |
| 17-5-5-5-3 | 16-2-2-2-8 | 1-9-10-2-7-1 | 0.842863846547 | 0.904976206155 | 57.7806661129 | 3856 | 0.00899412449377 |
| 5-5-3-5-17 | 2-8-8-2-4 | 1-7-8-2-8-1 | 0.675777618298 | 0.812228069758 | 58.3734388351 | 3398 | 0.00807827637709 |
| 5-85-3-5 | 2-2-4-64 | 1-7-1-8-1 | 0.701535870464 | 0.825930752252 | 65.0466171741 | 3916 | 0.00820773952466 |
| 5-5-17-5-3 | 2-4-4-4-8 | 1-10-7-6-4-1 | 0.708308978195 | 0.829599326614 | 60.1780842304 | 4932 | 0.00823075755379 |
| 5-3-5-17-5 | 2-2-4-2-32 | 1-8-2-10-8-1 | 0.706614055793 | 0.828960935058 | 62.5139775991 | 4576 | 0.00822912903746 |
| 17-15-5-5 | 4-4-2-32 | 1-7-1-7-1 | 0.698098127204 | 0.825774524051 | 60.774014616 | 2086 | 0.0082302808646 |
| 17-5-5-5-3 | 8-4-2-2-8 | 1-9-4-5-10-1 | 0.807701991836 | 0.883073520285 | 58.4664051056 | 2884 | 0.00879012959009 |
| 17-5-25-3 | 2-16-16-2 | 1-1-3-7-1 | 0.686339760447 | 0.817445289083 | 58.4505931854 | 8716 | 0.00806085510481 |
| 5-5-17-5-3 | 2-2-16-2-8 | 1-6-4-7-5-1 | 0.681077826807 | 0.815053450539 | 60.6071970701 | 8386 | 0.00804155749269 |
| 3-5-17-5-5 | 4-8-8-2-2 | 1-7-7-2-6-1 | 0.649503355254 | 0.795755299368 | 57.9404778004 | 4128 | 0.00790517930306 |
| 3-5-17-5-5 | 2-4-16-4-2 | 1-6-2-6-1-1 | 0.719406414996 | 0.834479934006 | 57.6889676094 | 3670 | 0.00829597055565 |
| 5-17-5-5-3 | 4-4-4-8-2 | 1-6-4-7-1-1 | 0.681439572821 | 0.813921824649 | 57.9402706623 | 2598 | 0.00810550381887 |
| 5-5-3-5-17 | 2-32-2-4-2 | 1-2-10-5-5-1 | 0.692438567794 | 0.82114622996 | 57.790090394 | 4190 | 0.0081566057514 |
| 3-5-5-17-5 | 2-2-4-4-16 | 1-5-1-8-5-1 | 0.684152506202 | 0.81540263264 | 59.9388731003 | 3360 | 0.00811034404251 |
| 5-5-5-17-3 | 32-2-4-2-2 | 1-5-7-4-1-1 | 0.783639400209 | 0.871406343094 | 55.8951748848 | 1852 | 0.00868833249109 |
| 5-17-5-3-5 | 32-2-2-2-4 | 1-10-10-2-1-1 | 0.826031989886 | 0.89519029763 | 56.4147720098 | 5232 | 0.0088772276632 |
| 85-5-5-3 | 4-2-32-4 | 1-1-10-8-1 | 0.682746828437 | 0.816863748899 | 67.0135421991 | 13336 | 0.00799494975054 |
| 5-3-5-17-5 | 4-2-2-2-32 | 1-7-2-10-4-1 | 0.705575246606 | 0.829150194793 | 60.7354741096 | 2424 | 0.00825945698505 |
| 5-17-25-3 | 8-4-2-16 | 1-7-4-9-1 | 0.677172456484 | 0.81267770414 | 60.9224676847 | 4416 | 0.00806955789692 |
| 17-5-5-3-5 | 8-4-2-4-4 | 1-4-2-7-6-1 | 0.747299561997 | 0.849849128485 | 57.6635226965 | 1468 | 0.00847860004568 |
| 5-3-5-5-17 | 2-4-4-4-8 | 1-4-9-8-7-1 | 0.67594732788 | 0.811614123572 | 58.7253331184 | 3984 | 0.00806458717532 |
| 17-5-3-5-5 | 2-32-2-4-2 | 1-8-9-5-6-1 | 0.724337388404 | 0.838078609732 | 58.6938717842 | 12722 | 0.00821079189973 |
| 3-5-17-5-5 | 16-4-2-4-2 | 1-1-6-9-10-1 | 0.673811937397 | 0.809506718286 | 58.5378201723 | 3904 | 0.00804467951978 |
| 17-5-5-5-3 | 2-4-8-2-8 | 1-3-4-2-6-1 | 0.703216272758 | 0.826937515945 | 59.3101276398 | 926 | 0.00825716622865 |
| 5-17-5-5-3 | 4-2-16-4-2 | 1-5-4-10-8-1 | 0.683635184131 | 0.816031663169 | 58.7559865236 | 5628 | 0.00808709236191 |
| 5-5-17-3-5 | 2-2-8-16-2 | 1-5-10-10-5-1 | 0.70272251712 | 0.826700538114 | 61.6651543856 | 16600 | 0.00804820389943 |
| 5-5-5-3-17 | 2-8-2-4-8 | 1-6-6-10-3-1 | 0.662639489665 | 0.804025379398 | 58.405431819 | 2868 | 0.00800348809264 |
| 5-3-17-5-5 | 8-2-16-2-2 | 1-2-1-6-8-1 | 0.689974151696 | 0.818177751274 | 56.9362705231 | 2284 | 0.00815198290203 |
| 3-5-5-85 | 8-2-4-16 | 1-9-7-6-1 | 0.657621779167 | 0.799933937612 | 58.1586292028 | 9846 | 0.00787376301213 |
| 5-17-3-5-5 | 4-4-2-8-4 | 1-10-4-10-2-1 | 0.69887710045 | 0.825428509407 | 58.6396717072 | 4000 | 0.00820164296975 |
| 5-5-5-17-3 | 4-4-8-2-4 | 1-7-2-7-10-1 | 0.714416925957 | 0.831323887139 | 58.0301732779 | 3480 | 0.00826711312 |
| 17-5-5-3-5 | 2-2-32-2-4 | 1-6-2-9-4-1 | 0.68717900753 | 0.816920179212 | 58.4165855646 | 3500 | 0.00812361472854 |
| 5-5-17-5-3 | 4-2-2-16-4 | 1-10-4-7-6-1 | 0.710523428079 | 0.829978969173 | 60.4859632015 | 4984 | 0.00823383600579 |
| 3-5-5-17-5 | 2-2-8-2-16 | 1-5-3-1-6-1 | 0.680631507343 | 0.814164994199 | 59.1131536484 | 984 | 0.00812887669017 |
| 17-5-3-5-5 | 2-64-2-2-2 | 1-3-6-7-8-1 | 0.861312494174 | 0.911885047729 | 56.6393798351 | 6754 | 0.00902065418245 |
| 3-5-5-85 | 4-64-2-2 | 1-4-2-5-1 | 0.672803148342 | 0.807895379206 | 57.5306108236 | 3558 | 0.00803312324743 |
| 5-3-5-17-5 | 4-8-2-8-2 | 1-3-4-8-7-1 | 0.674315740198 | 0.809835558494 | 58.1724780321 | 8354 | 0.00799048941378 |
| 17-3-5-5-5 | 2-4-4-16-2 | 1-5-1-6-3-1 | 0.6970656515 | 0.824179188507 | 57.8961154938 | 1820 | 0.00821787597111 |
| 5-5-17-3-5 | 4-8-8-2-2 | 1-2-4-2-10-1 | 0.677622436901 | 0.812704863433 | 57.8166484594 | 1668 | 0.00810543524606 |
| 17-5-3-5-5 | 2-2-4-8-8 | 1-5-8-1-1-1 | 0.683746848232 | 0.81590124069 | 59.2244014502 | 746 | 0.00814930796931 |
| 3-5-5-5-17 | 4-2-8-4-4 | 1-10-8-1-8-1 | 0.681529334261 | 0.814867863425 | 57.8416138172 | 1944 | 0.00812342188797 |
| 17-5-5-3-5 | 2-8-16-2-2 | 1-5-8-7-3-1 | 0.711447721228 | 0.830244390408 | 58.6774156094 | 6406 | 0.00821764566484 |
| 17-5-3-5-5 | 4-4-2-2-16 | 1-1-7-7-2-1 | 0.684838162469 | 0.816936128812 | 59.0697568178 | 802 | 0.00815891513418 |
| 17-3-5-5-5 | 32-2-2-4-2 | 1-9-5-3-5-1 | 0.929843740408 | 0.951119299964 | 55.7271846056 | 5666 | 0.00942527077462 |
| 5-3-5-17-5 | 4-4-4-8-2 | 1-5-7-5-2-1 | 0.714496566552 | 0.83300019444 | 57.0237731457 | 2600 | 0.00829547068634 |
| 5-17-5-5-3 | 2-2-32-2-4 | 1-1-3-6-7-1 | 0.691276080888 | 0.820101763499 | 59.2517282486 | 3496 | 0.00815530533006 |
| 3-5-5-17-5 | 2-2-4-32-2 | 1-1-1-10-4-1 | 0.707370468886 | 0.830593480448 | 59.1901434183 | 22016 | 0.00801437954195 |
| 5-17-3-5-5 | 2-2-16-2-8 | 1-7-2-8-9-1 | 0.684941456937 | 0.81587824807 | 59.9497925997 | 2394 | 0.00812764069935 |
| 25-3-17-5 | 16-8-4-2 | 1-4-5-4-1 | 0.675064286248 | 0.809911684372 | 57.5395683289 | 3480 | 0.00805417914184 |
| 17-5-5-5-3 | 2-8-4-2-8 | 1-9-1-2-7-1 | 0.767435521127 | 0.861172656944 | 58.1089207411 | 1014 | 0.00859780391201 |
| 5-5-5-3-17 | 2-8-16-2-2 | 1-9-2-1-6-1 | 0.680835924726 | 0.8139180796 | 57.4513538361 | 1210 | 0.00812347861366 |
| 25-3-17-5 | 2-32-2-8 | 1-2-5-5-1 | 0.683757091063 | 0.816308073293 | 58.5895421028 | 2110 | 0.00813561883824 |
| 5-5-17-5-3 | 64-2-2-2-2 | 1-8-8-8-4-1 | 0.918807216085 | 0.94520046812 | 55.9882262945 | 5720 | 0.009365803363 |
| 17-5-3-5-5 | 4-2-2-2-32 | 1-7-7-7-10-1 | 0.764063055805 | 0.863329210091 | 64.5187181234 | 3560 | 0.00858428935876 |
| 5-5-5-3-17 | 16-4-2-4-2 | 1-4-9-3-9-1 | 0.733386382625 | 0.844968770894 | 56.7985362291 | 1940 | 0.00842355187642 |
| 5-3-17-5-5 | 2-8-2-8-4 | 1-10-3-1-5-1 | 0.670244067818 | 0.806533776719 | 57.4888064861 | 1222 | 0.00804962373219 |
| 5-5-17-3-5 | 2-2-4-4-16 | 1-4-2-6-6-1 | 0.685048133816 | 0.817278605348 | 61.4475769758 | 1848 | 0.00814870552314 |
| 5-17-5-3-5 | 32-2-2-4-2 | 1-10-4-10-10-1 | 0.881710586528 | 0.925161114059 | 56.5055953026 | 4660 | 0.00918287308588 |
| 5-5-5-3-17 | 2-4-2-16-4 | 1-6-5-1-1-1 | 0.673410866004 | 0.810279302146 | 57.5377156258 | 826 | 0.00809212193244 |
| 3-5-17-5-5 | 4-4-4-2-8 | 1-2-3-10-10-1 | 0.684160424085 | 0.816089029023 | 59.5380439043 | 3584 | 0.00811425663143 |
| 5-5-5-17-3 | 2-2-32-2-4 | 1-10-6-2-6-1 | 0.675613437698 | 0.810202961003 | 58.3151300907 | 3100 | 0.00806198450194 |
| 17-5-5-3-5 | 16-8-2-2-2 | 1-6-2-5-2-1 | 0.867951722859 | 0.916920904965 | 55.7897362232 | 2292 | 0.00913570167219 |
| 5-5-5-3-17 | 2-2-8-2-16 | 1-6-9-4-10-1 | 0.963319304813 | 0.968690361548 | 59.4486923933 | 5000 | 0.00960968021293 |
| 5-5-17-3-5 | 8-4-4-4-2 | 1-6-3-6-3-1 | 0.724307069439 | 0.837848625823 | 56.953553009 | 2070 | 0.00835083404753 |
| 5-3-5-5-17 | 4-2-32-2-2 | 1-4-8-8-4-1 | 0.669376251243 | 0.807249405965 | 58.162888217 | 10968 | 0.00793132837909 |
| 17-3-5-5-5 | 2-8-2-4-8 | 1-3-2-8-5-1 | 0.690679795116 | 0.818945704514 | 59.0769941568 | 1406 | 0.00817109866408 |
| 17-5-5-3-5 | 2-2-4-16-4 | 1-2-9-7-8-1 | 0.71266716552 | 0.834002476379 | 63.5090010405 | 4356 | 0.00828210201527 |
| 3-85-5-5 | 8-4-4-8 | 1-1-10-9-1 | 0.678856633124 | 0.813410858324 | 59.837262392 | 5584 | 0.00806169011651 |
| 5-5-5-3-17 | 2-2-32-2-4 | 1-9-4-4-2-1 | 0.661906188006 | 0.80221824364 | 58.1440467119 | 3194 | 0.00798132967699 |
| 3-5-17-5-5 | 8-8-4-2-2 | 1-9-10-9-6-1 | 0.677407239429 | 0.812536405104 | 57.9296296835 | 10536 | 0.00798887037177 |
| 5-5-17-15 | 4-8-4-8 | 1-2-9-3-1 | 0.653978124354 | 0.797306095138 | 57.9433396578 | 2956 | 0.00793548383376 |
| 5-5-3-17-5 | 8-4-8-2-2 | 1-2-9-9-1-1 | 0.695251161296 | 0.822499638487 | 57.2696118116 | 2700 | 0.00818958903436 |
| 3-5-17-5-5 | 4-4-8-2-4 | 1-1-10-7-10-1 | 0.665642690713 | 0.805475412688 | 58.9586179256 | 10632 | 0.00791821371572 |
| 17-5-5-5-3 | 2-2-16-4-4 | 1-1-9-6-4-1 | 0.70522939674 | 0.829049682218 | 61.2181480646 | 4972 | 0.00822477560056 |
| 17-5-3-5-5 | 4-4-8-2-4 | 1-2-10-3-9-1 | 0.709378073892 | 0.831537345304 | 58.9227877617 | 1706 | 0.00829275542512 |
| 3-5-17-5-5 | 4-4-2-4-8 | 1-5-2-2-5-1 | 0.666882927133 | 0.805210510328 | 58.1406648636 | 796 | 0.00804188591376 |
| 5-17-5-3-5 | 4-4-4-8-2 | 1-3-4-7-4-1 | 0.666199415307 | 0.805895373764 | 57.9932040691 | 2148 | 0.00803135387695 |
| 5-17-5-3-5 | 2-8-8-4-2 | 1-10-8-4-1-1 | 0.680455933151 | 0.813956690653 | 58.8162590504 | 12318 | 0.00797970851183 |
| 5-5-17-3-5 | 4-4-4-4-4 | 1-1-1-6-10-1 | 0.679923257635 | 0.814560263812 | 58.7233314991 | 1368 | 0.00812783608135 |
| 17-3-5-25 | 2-2-8-32 | 1-4-2-2-1 | 0.660867465619 | 0.80190266276 | 58.5887066603 | 1944 | 0.00799417173639 |
| 5-3-17-5-5 | 8-2-2-2-16 | 1-2-6-6-5-1 | 0.678928844347 | 0.813736547228 | 59.5268355608 | 2076 | 0.00811043120774 |
| 5-17-5-3-5 | 2-2-4-4-16 | 1-3-1-10-3-1 | 0.721204000508 | 0.837091623613 | 61.2940542459 | 932 | 0.00835847731086 |
| 5-17-3-5-5 | 8-2-4-8-2 | 1-8-1-6-2-1 | 0.719070998504 | 0.835992001247 | 56.9798417568 | 1164 | 0.00834440510989 |
| 5-5-17-3-5 | 2-2-2-2-64 | 1-6-5-8-4-1 | 0.689613829321 | 0.819641549961 | 66.0477968454 | 3192 | 0.0081547015993 |
| 3-5-5-5-17 | 4-2-4-8-4 | 1-4-8-6-4-1 | 0.676028414154 | 0.811048572052 | 58.2400786877 | 2560 | 0.00807738169717 |
| 5-3-5-5-17 | 4-2-2-4-16 | 1-3-3-1-1-1 | 0.658944216779 | 0.801774365848 | 57.9528288603 | 436 | 0.00801217009943 |
| 3-5-5-17-5 | 2-8-2-4-8 | 1-4-1-9-6-1 | 0.679431519473 | 0.813161981116 | 59.0900410414 | 4186 | 0.0080773485093 |
| 17-5-5-3-5 | 8-2-4-4-4 | 1-8-5-9-10-1 | 0.750357360938 | 0.853199704824 | 80.0519249201 | 3668 | 0.00848210010122 |
| 3-5-5-17-5 | 2-2-4-16-4 | 1-2-10-2-9-1 | 0.695618309651 | 0.823116411677 | 79.6530102968 | 5688 | 0.00815651669729 |
| 5-5-3-17-5 | 64-2-2-2-2 | 1-9-7-10-8-1 | 0.81011777147 | 0.884451944297 | 77.5679523706 | 6730 | 0.00874961571871 |
| 5-5-5-17-3 | 8-2-2-2-16 | 1-9-10-5-4-1 | 0.739924021411 | 0.845070433687 | 79.8407857895 | 2632 | 0.00841524155974 |
| 17-3-5-5-5 | 4-2-4-4-8 | 1-1-3-8-10-1 | 0.685014930587 | 0.815203440853 | 80.9178633213 | 2566 | 0.00811868281368 |
| 5-5-51-5 | 8-4-16-2 | 1-5-10-5-1 | 0.687266829089 | 0.817275922249 | 79.8080260277 | 42050 | 0.00762482471148 |
| 5-5-17-3-5 | 2-2-2-2-64 | 1-5-7-10-2-1 | 0.672340464986 | 0.809930431979 | 90.8971630812 | 3540 | 0.00805359077182 |
| 5-5-17-3-5 | 4-2-4-16-2 | 1-9-4-5-5-1 | 0.688071028259 | 0.818680581709 | 78.7392638206 | 3150 | 0.0081456890468 |
| 5-17-5-5-3 | 2-4-16-2-4 | 1-1-2-8-9-1 | 0.684542447965 | 0.816085492195 | 78.3872140884 | 2254 | 0.00813152684957 |
| 5-5-5-3-17 | 32-4-2-2-2 | 1-3-5-6-9-1 | 0.805927121525 | 0.88221173259 | 75.2963496208 | 1710 | 0.00879806467822 |
| 17-3-5-5-5 | 2-8-4-8-2 | 1-3-9-1-2-1 | 0.687335451855 | 0.817915405188 | 77.5824126959 | 1030 | 0.00816572208652 |
| 5-5-5-17-3 | 8-2-2-16-2 | 1-9-7-6-10-1 | 0.876828146498 | 0.921474899329 | 77.0478641272 | 17790 | 0.00895338039541 |
| 5-3-5-5-17 | 2-32-2-4-2 | 1-6-9-6-8-1 | 0.678805368109 | 0.812541790134 | 77.5904241562 | 7016 | 0.00803452515262 |
| 5-17-5-5-3 | 2-4-4-16-2 | 1-6-2-9-1-1 | 0.687920110281 | 0.818859075574 | 78.4298485279 | 1962 | 0.00816297529805 |
| 3-17-5-5-5 | 2-2-4-4-16 | 1-2-2-2-3-1 | 0.674274936062 | 0.810101804803 | 76.8570811749 | 588 | 0.00809342334361 |
| 5-3-5-5-17 | 4-4-2-8-4 | 1-3-7-7-1-1 | 0.678679853474 | 0.812969167927 | 67.0284631014 | 1150 | 0.00811478551627 |
| 25-51-5 | 4-128-2 | 1-5-4-1 | 0.681110966118 | 0.814115963554 | 64.1869107246 | 131100 | 0.0064394599732 |
| 5-5-17-3-5 | 2-2-16-8-2 | 1-3-5-2-7-1 | 0.662773476794 | 0.803384732129 | 59.1687946081 | 3306 | 0.00799150054316 |
| 3-5-5-17-5 | 4-8-4-4-2 | 1-10-3-7-5-1 | 0.671264702605 | 0.808330707003 | 57.2700485945 | 4170 | 0.00802956441939 |
| 5-17-15-5 | 4-2-32-4 | 1-3-7-1-1 | 0.674382498014 | 0.81080252404 | 58.4277667284 | 4154 | 0.00805432508599 |
| 3-17-5-5-5 | 4-16-2-4-2 | 1-9-1-1-2-1 | 0.667755710751 | 0.805679429269 | 57.2340721369 | 2626 | 0.00802306160485 |
| 5-5-3-17-5 | 8-2-4-4-4 | 1-6-1-8-7-1 | 0.847182472576 | 0.906886965829 | 56.3985061884 | 4344 | 0.00900605848196 |
| 17-3-5-5-5 | 2-2-4-16-4 | 1-9-1-6-6-1 | 0.784535133286 | 0.870889561894 | 59.2255215406 | 3480 | 0.0086605745782 |
| 5-5-17-3-5 | 2-8-8-2-4 | 1-8-2-3-3-1 | 0.660439114768 | 0.802587353034 | 57.9117885351 | 1650 | 0.00800475954545 |
| 17-5-5-3-5 | 8-2-4-4-4 | 1-5-6-1-8-1 | 0.9123787692 | 0.94133776196 | 56.6999765396 | 1356 | 0.00939302599324 |
| 5-3-17-5-5 | 4-4-2-4-8 | 1-2-10-3-8-1 | 0.695840161781 | 0.821138976693 | 59.1399649382 | 2100 | 0.0081838962744 |
| 5-5-5-3-17 | 16-2-2-8-2 | 1-5-10-7-6-1 | 0.707915243729 | 0.828639642134 | 57.2396599054 | 2812 | 0.00824924503942 |
| 5-5-3-5-17 | 4-16-2-4-2 | 1-7-8-8-8-1 | 0.679391479743 | 0.813358632109 | 58.0011151075 | 6556 | 0.00804856752019 |
| 5-5-5-17-3 | 8-2-4-4-4 | 1-6-1-7-7-1 | 0.772834863001 | 0.864121082451 | 57.2702176094 | 3856 | 0.00858808501306 |
| 5-17-5-5-3 | 16-2-4-4-2 | 1-5-9-9-5-1 | 0.704496118872 | 0.827311398756 | 57.8115863085 | 4480 | 0.00821402031622 |
| 5-5-3-17-5 | 2-4-32-2-2 | 1-2-10-8-1-1 | 0.700155518078 | 0.825053387737 | 57.401908946 | 8382 | 0.0081402724377 |
| 5-3-17-5-5 | 32-4-2-2-2 | 1-8-1-1-5-1 | 0.831077296521 | 0.895096366861 | 56.2396554708 | 1510 | 0.00892941399523 |
| 5-5-3-5-17 | 2-2-2-16-8 | 1-9-5-10-3-1 | 0.663194629505 | 0.804449647061 | 59.8132500172 | 3648 | 0.00799770705236 |
| 5-17-5-3-5 | 8-8-2-2-4 | 1-5-9-8-6-1 | 0.71052844668 | 0.830653955834 | 58.0044592381 | 7448 | 0.00820789940109 |
| 3-5-5-17-5 | 2-8-4-8-2 | 1-3-7-10-4-1 | 0.676469510254 | 0.810552313926 | 58.3711445093 | 7738 | 0.0080055222814 |
| 5-5-17-3-5 | 32-4-2-2-2 | 1-3-5-2-1-1 | 0.804254265971 | 0.880588081021 | 56.1102205038 | 1142 | 0.0087898471433 |
| 17-5-5-5-3 | 16-2-2-2-8 | 1-10-4-6-8-1 | 0.842330328966 | 0.904390661358 | 57.9922146559 | 4032 | 0.00898576721392 |
| 5-3-5-17-5 | 8-8-2-2-4 | 1-2-2-2-7-1 | 0.665038612067 | 0.805366498696 | 58.152640295 | 832 | 0.00804298155382 |
| 5-5-5-3-17 | 2-4-2-4-16 | 1-2-8-2-3-1 | 0.717125348493 | 0.834823797896 | 58.507165885 | 1388 | 0.00832976324312 |
| 5-3-5-17-5 | 4-2-16-4-2 | 1-5-2-2-7-1 | 0.684592062317 | 0.81546045885 | 57.0759533882 | 1502 | 0.00813507618274 |
| 5-3-5-17-5 | 64-2-2-2-2 | 1-9-2-5-8-1 | 0.927885902846 | 0.95003517279 | 55.7326955318 | 4528 | 0.00943176500497 |
| 5-3-17-5-5 | 8-4-4-4-2 | 1-10-8-10-5-1 | 0.690281072367 | 0.819282602272 | 57.8476304293 | 7850 | 0.00809028507203 |
| 15-5-5-17 | 2-4-16-8 | 1-4-4-9-1 | 0.673561848548 | 0.809402522578 | 59.0186664104 | 4544 | 0.00803538483894 |
| 15-5-17-5 | 2-8-16-4 | 1-7-5-5-1 | 0.665617678118 | 0.80481441628 | 59.141327095 | 8510 | 0.00793894501288 |
| 5-5-17-3-5 | 2-2-4-8-8 | 1-10-9-3-4-1 | 0.665371104363 | 0.805584654235 | 60.4329907894 | 3284 | 0.00801366637646 |
| 3-5-5-17-5 | 16-8-2-2-2 | 1-6-6-8-4-1 | 0.695361662932 | 0.822531517925 | 57.1603214502 | 3336 | 0.008181565735 |
| 5-3-17-5-5 | 2-4-4-16-2 | 1-3-1-10-7-1 | 0.67346781721 | 0.809994659305 | 59.4117664337 | 6416 | 0.0080170874455 |
| 17-5-5-3-5 | 4-2-4-16-2 | 1-2-5-7-6-1 | 0.838709812129 | 0.90156088978 | 58.1093698978 | 3012 | 0.00897231327599 |
| 5-15-5-17 | 8-4-16-2 | 1-4-1-1-1 | 0.6843500911 | 0.815972215316 | 57.1431763411 | 514 | 0.00815303513597 |
| 5-17-3-5-5 | 2-8-8-2-4 | 1-5-5-1-4-1 | 0.666634156737 | 0.806685700072 | 58.0179955959 | 3690 | 0.00801939733501 |
| 5-5-5-17-3 | 8-2-8-2-4 | 1-5-5-1-2-1 | 0.697646260293 | 0.823671686539 | 57.0948048115 | 742 | 0.00822697253517 |
| 5-3-5-5-17 | 2-16-2-8-2 | 1-1-8-2-4-1 | 0.682923839561 | 0.815789199389 | 57.3958765507 | 1010 | 0.00814475508236 |
| 5-3-5-5-17 | 8-8-4-2-2 | 1-8-1-7-2-1 | 0.671943113479 | 0.808148090861 | 57.1496900797 | 860 | 0.00807039979639 |
| 3-5-5-5-17 | 16-2-4-4-2 | 1-9-9-8-4-1 | 0.711245370096 | 0.830584095353 | 57.3799684048 | 3458 | 0.00826004758935 |
| 17-5-5-5-3 | 4-2-16-2-4 | 1-6-5-4-5-1 | 0.739907555683 | 0.845527979926 | 58.4322452784 | 2568 | 0.00842066060519 |
| 17-25-3-5 | 2-4-16-8 | 1-8-6-7-1 | 0.67837501334 | 0.812731747476 | 64.8929078341 | 7368 | 0.00803184222738 |
| 17-5-3-25 | 2-2-128-2 | 1-1-10-7-1 | 0.694067679538 | 0.821925806508 | 61.2311992168 | 27364 | 0.00786066148075 |
| 3-5-17-5-5 | 8-2-4-2-8 | 1-6-2-4-6-1 | 0.681535851622 | 0.814542693194 | 58.4876511574 | 1288 | 0.00812869971592 |
| 5-5-3-17-5 | 4-2-8-2-8 | 1-2-8-7-7-1 | 0.684836245323 | 0.817136826862 | 59.1064451456 | 3490 | 0.00812589939863 |
| 3-17-5-5-5 | 32-4-2-2-2 | 1-10-5-5-2-1 | 0.744169744244 | 0.847665454323 | 56.4296720982 | 4730 | 0.00841272824223 |
| 17-5-5-5-3 | 8-4-2-2-8 | 1-7-9-2-1-1 | 0.682436116778 | 0.81529913107 | 57.4427261591 | 2436 | 0.00812132567481 |
| 17-5-5-3-5 | 4-2-2-2-32 | 1-9-2-2-7-1 | 0.802935801397 | 0.88380174932 | 61.5193591356 | 2036 | 0.0088093277553 |
| 5-17-5-5-3 | 2-2-2-8-16 | 1-5-10-5-7-1 | 0.68298641194 | 0.815716815792 | 66.9946214437 | 3986 | 0.00810532748146 |
| 5-17-3-5-5 | 16-4-2-2-4 | 1-10-2-1-4-1 | 0.819379102809 | 0.88951218661 | 56.3285167456 | 2292 | 0.00886261609551 |
| 5-3-5-5-17 | 16-2-4-4-2 | 1-5-5-5-2-1 | 0.806702203333 | 0.883089427499 | 56.4318529367 | 1318 | 0.00881233700673 |
| 5-3-17-5-5 | 8-2-4-2-8 | 1-3-4-6-8-1 | 0.690908642224 | 0.821984555754 | 59.0442415237 | 2624 | 0.00818545640776 |
| 5-5-3-17-5 | 4-2-4-2-16 | 1-4-3-4-6-1 | 0.701659310064 | 0.827432386906 | 59.2193524599 | 1640 | 0.00825268820078 |
| 5-17-5-3-5 | 16-2-2-4-4 | 1-3-7-2-5-1 | 0.709013797008 | 0.830789468364 | 57.2523911715 | 1314 | 0.00829048943234 |
| 3-5-5-5-17 | 8-16-2-2-2 | 1-7-5-2-7-1 | 0.662202144461 | 0.802333367648 | 57.6180902958 | 3446 | 0.00797925139355 |
| 5-17-5-3-5 | 4-16-2-2-4 | 1-5-1-2-8-1 | 0.692361704472 | 0.823000823996 | 57.8153805256 | 1736 | 0.00820722875287 |
| 17-25-3-5 | 2-128-2-2 | 1-9-2-9-1 | 0.656313484078 | 0.799799512044 | 60.2242637157 | 58104 | 0.00725705840412 |
| 5-5-5-17-3 | 4-4-8-2-4 | 1-1-7-1-9-1 | 0.644931343039 | 0.793433445422 | 58.4347707987 | 854 | 0.00792353100775 |
| 3-5-25-17 | 4-4-2-32 | 1-10-10-2-1 | 0.690371459592 | 0.819125128047 | 58.3906436205 | 4208 | 0.00813629467111 |
| 5-5-17-3-5 | 64-2-2-2-2 | 1-5-6-4-3-1 | 0.896619255947 | 0.932454364685 | 55.7979713202 | 2818 | 0.00928264861497 |
| 5-17-5-5-3 | 2-2-2-4-32 | 1-7-7-10-1-1 | 0.680471862027 | 0.814068542819 | 66.0715644836 | 2732 | 0.00810522568235 |
| 17-25-5-3 | 2-32-2-8 | 1-1-7-8-1 | 0.699612671706 | 0.825717097199 | 59.9346816301 | 6386 | 0.00817309843719 |
| 5-17-5-3-5 | 2-8-2-4-8 | 1-8-6-6-6-1 | 0.678913067139 | 0.813475158007 | 60.0949676037 | 7640 | 0.00803566117498 |
| 25-17-5-3 | 4-4-16-4 | 1-2-3-9-1 | 0.658613230529 | 0.801110360257 | 59.5934237003 | 2876 | 0.00797436901398 |
| 3-5-17-25 | 32-2-8-2 | 1-3-1-9-1 | 0.665275905289 | 0.805942027852 | 57.7988514185 | 1992 | 0.00803382339524 |
| 17-5-3-5-5 | 4-2-4-4-8 | 1-6-3-4-2-1 | 0.733050548527 | 0.841453540732 | 57.5014376402 | 972 | 0.00840149502401 |
| 5-3-5-5-17 | 2-4-4-4-8 | 1-9-5-8-6-1 | 0.702369223517 | 0.827852752125 | 58.761885643 | 3206 | 0.00823621094084 |
| 3-5-5-17-5 | 8-2-8-2-4 | 1-1-9-9-2-1 | 0.669950935004 | 0.807080981023 | 57.9412811995 | 4006 | 0.00801926060089 |
| 17-5-5-3-5 | 16-4-2-4-2 | 1-8-5-9-6-1 | 0.8070056644 | 0.882669189498 | 57.0683908224 | 4134 | 0.00876851341236 |
| 5-5-17-3-5 | 8-8-4-2-2 | 1-8-5-8-4-1 | 0.682618470014 | 0.815303986673 | 57.4465918779 | 4872 | 0.00808970821777 |
| 5-5-17-3-5 | 2-2-2-2-64 | 1-6-9-2-10-1 | 0.703866879209 | 0.828133756921 | 66.8481016159 | 4532 | 0.00822149856752 |
| 3-5-17-5-5 | 4-2-4-2-16 | 1-2-2-7-9-1 | 0.675557216687 | 0.810174894906 | 60.4797342062 | 2366 | 0.00807118654789 |
| 5-5-3-5-17 | 4-2-32-2-2 | 1-5-6-6-10-1 | 0.672166865428 | 0.810722677671 | 58.2029448748 | 4796 | 0.00804523337808 |
| 5-17-3-5-5 | 16-2-2-8-2 | 1-1-1-6-7-1 | 0.878396900554 | 0.922797599047 | 56.0270238161 | 1900 | 0.00920002134381 |
| 25-17-3-5 | 32-4-2-4 | 1-6-3-1-1 | 0.670029639379 | 0.806893488423 | 57.4890486956 | 6062 | 0.00799094718769 |
| 17-3-5-5-5 | 8-4-8-2-2 | 1-6-8-2-9-1 | 0.715779334843 | 0.834289112338 | 57.5929345131 | 2302 | 0.00831227037184 |
| 15-5-17-5 | 2-4-8-16 | 1-8-4-7-1 | 0.664610308151 | 0.805356984948 | 61.022862339 | 5248 | 0.00798618283646 |
| 3-17-5-5-5 | 8-2-2-4-8 | 1-3-7-2-8-1 | 0.672024990687 | 0.808555369199 | 58.8526074886 | 1566 | 0.00806536559078 |
| 5-3-17-5-5 | 4-2-8-8-2 | 1-4-4-3-8-1 | 0.669744159514 | 0.807229198327 | 57.8136610031 | 2848 | 0.00803563718804 |
| 5-17-5-5-3 | 16-4-2-2-4 | 1-8-8-2-5-1 | 0.814606848251 | 0.887230557263 | 57.0531087637 | 5312 | 0.00879716257645 |
| 5-17-5-5-3 | 2-4-8-8-2 | 1-6-1-9-2-1 | 0.690970637716 | 0.819958140117 | 58.1066004992 | 1560 | 0.00817918703416 |
| 5-5-3-5-17 | 2-4-8-2-8 | 1-4-1-6-2-1 | 0.69850143271 | 0.824416500973 | 58.1292988539 | 656 | 0.00823554228612 |
| 5-17-3-5-5 | 16-4-2-4-2 | 1-4-2-5-3-1 | 0.750263987787 | 0.852482485473 | 56.830673027 | 1254 | 0.00850778064177 |
| 5-3-5-85 | 2-64-2-4 | 1-1-8-9-1 | 0.656069696883 | 0.799540579065 | 58.0920158148 | 5326 | 0.00792751112987 |
| 5-51-5-5 | 4-2-8-16 | 1-7-10-3-1 | 0.672677000647 | 0.809884949313 | 63.234026289 | 8720 | 0.00798625069278 |
| 5-5-3-5-17 | 4-8-2-2-8 | 1-8-3-9-7-1 | 0.655290553577 | 0.799211435041 | 58.2142643452 | 2864 | 0.00795561974662 |
| 3-17-5-5-5 | 4-2-8-2-8 | 1-8-5-9-3-1 | 0.67535236949 | 0.811159879009 | 58.9806738138 | 3646 | 0.00806444494891 |
| 5-5-17-5-3 | 4-2-32-2-2 | 1-6-3-1-9-1 | 0.667201316653 | 0.806221599365 | 57.5463975191 | 2076 | 0.00803553047005 |
| 3-5-5-5-17 | 8-2-4-4-4 | 1-1-4-6-7-1 | 0.663104360529 | 0.803890895315 | 58.0473128796 | 1860 | 0.00801506907647 |
| 5-5-17-5-3 | 4-4-8-4-2 | 1-10-8-5-9-1 | 0.708386962361 | 0.828644833426 | 58.3358519554 | 8194 | 0.00817819074872 |
| 5-5-5-3-17 | 64-2-2-2-2 | 1-9-4-4-6-1 | 0.890531298098 | 0.93010215176 | 55.7297988892 | 3748 | 0.0092454407959 |
| 5-3-17-5-5 | 2-8-4-4-4 | 1-2-8-5-1-1 | 0.670558806301 | 0.807530314293 | 57.5763816595 | 3244 | 0.00803353610945 |
| 5-17-5-3-5 | 4-4-4-4-4 | 1-1-1-7-9-1 | 0.68247246535 | 0.814346446812 | 58.9190843105 | 1164 | 0.00812835127833 |
| 17-5-5-3-5 | 4-8-2-2-8 | 1-6-5-8-4-1 | 0.741205070245 | 0.84730618208 | 58.1366513014 | 2360 | 0.00844117976421 |
| 3-5-5-5-17 | 8-2-4-2-8 | 1-5-2-4-4-1 | 0.694902177914 | 0.822592262482 | 58.347578764 | 1084 | 0.00821170562845 |
| 25-17-3-5 | 2-16-2-16 | 1-10-6-6-1 | 0.678003502914 | 0.812260914752 | 63.5073671103 | 17516 | 0.00789576663823 |
| 5-3-5-5-17 | 8-2-16-2-2 | 1-6-9-3-10-1 | 0.67590187601 | 0.810955901341 | 58.3279657125 | 3364 | 0.00806606322814 |
| 17-5-5-3-5 | 8-4-2-4-4 | 1-9-2-2-1-1 | 0.828020737269 | 0.895917943336 | 56.4169729471 | 1668 | 0.00893535304418 |
| 5-3-5-5-17 | 8-2-8-2-4 | 1-1-4-4-8-1 | 0.655393849375 | 0.799068160704 | 58.0135983706 | 1568 | 0.00797070490302 |
| 3-25-5-17 | 2-16-8-4 | 1-6-5-3-1 | 0.670089325087 | 0.807564127305 | 58.3424726009 | 12840 | 0.00791031723934 |
| 17-5-3-5-5 | 2-8-4-2-8 | 1-10-6-8-4-1 | 0.734931289112 | 0.845441673079 | 59.1767935991 | 3796 | 0.00840324809891 |
| 5-5-5-3-17 | 16-2-8-2-2 | 1-6-2-8-1-1 | 0.740247331013 | 0.846435243128 | 56.7136592627 | 1322 | 0.00844651143333 |
| 5-5-3-5-17 | 2-2-4-32-2 | 1-9-5-1-1-1 | 0.693509818509 | 0.820988865546 | 57.5568741798 | 794 | 0.00819949539718 |
| 17-5-25-3 | 4-8-2-16 | 1-8-10-1-1 | 0.681278589045 | 0.813880677517 | 58.6875693798 | 4292 | 0.00808311200687 |
| 3-17-5-5-5 | 2-2-4-8-8 | 1-5-4-10-8-1 | 0.69740139047 | 0.823305431256 | 62.170725584 | 5030 | 0.00816702710722 |
| 5-17-3-5-5 | 32-2-4-2-2 | 1-9-7-5-3-1 | 0.835718793613 | 0.89915902578 | 56.3048183203 | 4182 | 0.00893163676536 |
| 17-5-5-5-3 | 8-4-8-2-2 | 1-5-8-4-8-1 | 0.735375565279 | 0.844779559937 | 57.4508077145 | 3128 | 0.00840566437386 |
| 17-5-3-5-5 | 2-4-4-8-4 | 1-4-4-9-3-1 | 0.794243891025 | 0.877507998345 | 58.2551871061 | 2028 | 0.00874670647865 |
| 5-5-3-5-17 | 8-4-2-2-8 | 1-5-2-7-7-1 | 0.712225089565 | 0.832941208499 | 58.2853487253 | 1926 | 0.00830383420285 |
| 3-5-5-17-5 | 4-2-4-2-16 | 1-6-9-2-4-1 | 0.67277021055 | 0.808648136112 | 58.5447846174 | 1564 | 0.00806631672966 |
| 5-3-5-5-17 | 2-64-2-2-2 | 1-1-10-1-1-1 | 0.686732748863 | 0.817803867376 | 57.0098608971 | 2074 | 0.00815099586092 |
| 5-3-5-85 | 8-16-4-2 | 1-7-4-3-1 | 0.670262363936 | 0.807672526349 | 57.7059060574 | 2374 | 0.00804615424025 |
| 3-5-5-5-17 | 4-2-8-8-2 | 1-6-9-3-2-1 | 0.665352882432 | 0.804163851129 | 57.6024959087 | 2000 | 0.00801599553135 |
| 5-17-15-5 | 4-2-8-16 | 1-6-6-2-1 | 0.663995314412 | 0.80406902571 | 59.4373152256 | 2944 | 0.0080029482416 |
| 5-17-5-5-3 | 2-2-8-8-4 | 1-5-2-8-3-1 | 0.691810860368 | 0.820884424411 | 59.3109067917 | 2026 | 0.00818232779252 |
| 5-3-17-5-5 | 8-2-4-4-4 | 1-3-3-6-1-1 | 0.737941593566 | 0.846915018864 | 57.1025458097 | 1538 | 0.00844838240645 |
| 5-17-3-5-5 | 2-2-16-2-8 | 1-10-7-5-2-1 | 0.675746777855 | 0.810695104288 | 60.0188887835 | 4340 | 0.00805085383701 |
| 5-5-5-17-3 | 32-2-2-2-4 | 1-2-9-7-2-1 | 0.774363794145 | 0.866874239458 | 56.6379080057 | 1630 | 0.00864621361572 |
| 17-3-5-5-5 | 4-4-4-2-8 | 1-8-1-7-9-1 | 0.726336709177 | 0.83833480916 | 58.4804563284 | 1770 | 0.00835968972725 |
| 17-5-5-5-3 | 4-4-4-8-2 | 1-1-1-9-10-1 | 0.839201630331 | 0.900766272275 | 57.9983767986 | 3928 | 0.00895124993707 |
| 5-5-3-17-5 | 4-8-4-2-4 | 1-10-1-3-9-1 | 0.711500100429 | 0.830784488926 | 57.8169863224 | 1734 | 0.0082848764533 |
| 85-5-5-3 | 8-2-4-16 | 1-9-9-3-1 | 0.686927323086 | 0.818172401829 | 63.5136237621 | 7614 | 0.00808240060203 |
| 5-17-5-5-3 | 2-2-8-16-2 | 1-10-10-8-5-1 | 0.686435828495 | 0.817812452859 | 63.4160611868 | 9930 | 0.00804864624962 |
| 3-5-5-5-17 | 32-2-2-2-4 | 1-8-4-9-9-1 | 0.778591954288 | 0.867637807291 | 56.2998060942 | 2870 | 0.00863667589646 |
| 17-5-3-5-5 | 2-2-32-4-2 | 1-2-6-3-1-1 | 0.728267071155 | 0.840240366574 | 58.2542700529 | 1986 | 0.00837579784036 |
| 5-5-17-3-5 | 4-8-8-2-2 | 1-8-3-10-2-1 | 0.683498282559 | 0.815961341931 | 57.5956226826 | 5340 | 0.00809014222087 |
| 5-5-51-5 | 32-2-2-8 | 1-8-9-9-1 | 0.680370437335 | 0.812734473805 | 58.8307851791 | 10622 | 0.00798970338631 |
| 5-15-5-17 | 4-32-4-2 | 1-1-8-6-1 | 0.672051097685 | 0.809561261628 | 57.6726667166 | 5024 | 0.00803076510706 |
| 5-5-3-5-17 | 2-8-8-2-4 | 1-1-2-8-1-1 | 0.676109745375 | 0.810570164964 | 57.2685242414 | 622 | 0.00809766315087 |
| 5-51-5-5 | 8-4-8-4 | 1-4-1-1-1 | 0.681243715415 | 0.814173966491 | 57.1493165255 | 1036 | 0.00812829125564 |
| 17-25-5-3 | 2-4-16-8 | 1-4-5-2-1 | 0.69673321606 | 0.823571345856 | 61.5415590048 | 2984 | 0.00819653079121 |
| 17-5-5-5-3 | 8-2-4-2-8 | 1-5-9-6-1-1 | 0.739724395944 | 0.846725788485 | 57.9834295273 | 2294 | 0.00843628867314 |
| 5-17-5-5-3 | 2-8-8-4-2 | 1-3-7-9-10-1 | 0.681004640236 | 0.815572660882 | 59.5144532919 | 7266 | 0.00806124397244 |
| 17-3-5-5-5 | 2-2-2-2-64 | 1-5-9-7-6-1 | 0.961492521376 | 0.96774553649 | 67.4504576206 | 3410 | 0.0096248403732 |
| 5-5-17-3-5 | 16-2-4-2-4 | 1-5-5-1-4-1 | 0.782753276832 | 0.869813639295 | 56.7697588682 | 1094 | 0.00868296457979 |
| 5-17-5-3-5 | 2-2-2-4-32 | 1-3-9-7-1-1 | 0.680064719222 | 0.814139673152 | 64.3592672825 | 1822 | 0.0081177461817 |
| 3-5-17-5-5 | 4-2-2-8-8 | 1-7-9-7-2-1 | 0.671135513449 | 0.807806461306 | 59.0458262444 | 3496 | 0.00803303764577 |
| 17-5-5-3-5 | 4-4-2-8-4 | 1-9-9-5-5-1 | 0.703277248213 | 0.827223175433 | 59.1143358469 | 3382 | 0.00822762606589 |
| 17-3-5-5-5 | 2-16-8-2-2 | 1-3-6-10-10-1 | 0.684664881143 | 0.816140154894 | 57.9119194508 | 4466 | 0.00810328799774 |
| 5-3-5-5-17 | 16-4-2-2-4 | 1-8-6-9-6-1 | 0.67097027841 | 0.807690504203 | 57.2937108517 | 2704 | 0.00804208369122 |
| 3-5-85-5 | 4-16-4-4 | 1-8-4-4-1 | 0.658406163319 | 0.79964781032 | 58.0538392067 | 8176 | 0.00789223829936 |
| 25-5-3-17 | 2-8-8-8 | 1-5-4-5-1 | 0.668049399343 | 0.806270581013 | 59.0082722902 | 2210 | 0.00803429608462 |
| 5-5-5-17-3 | 4-4-4-2-8 | 1-7-5-10-9-1 | 0.698804718629 | 0.824693577502 | 60.1341897964 | 5116 | 0.00817966644558 |
| 3-17-5-5-5 | 2-8-8-4-2 | 1-3-5-6-7-1 | 0.678183291259 | 0.812306944702 | 58.4405858755 | 4168 | 0.00806908833501 |
| 5-51-5-5 | 2-16-16-2 | 1-8-8-7-1 | 0.659628621318 | 0.801177025911 | 61.589273715 | 56854 | 0.00728552474522 |
| 3-5-5-17-5 | 4-4-2-2-16 | 1-8-8-8-9-1 | 0.674714441148 | 0.810919250941 | 60.3233090878 | 5184 | 0.00804216755091 |
| 5-3-17-5-5 | 2-8-2-2-16 | 1-8-9-7-10-1 | 0.664947649468 | 0.804886136412 | 61.2058739901 | 5450 | 0.00797892148141 |
| 5-5-17-5-3 | 2-2-2-64-2 | 1-3-6-5-6-1 | 0.687145451026 | 0.818481369403 | 64.6227496147 | 10866 | 0.00804301492873 |
| 5-5-5-3-17 | 2-2-8-4-8 | 1-2-2-8-3-1 | 0.67394607808 | 0.810068668296 | 61.7048988819 | 1396 | 0.00808265645559 |
| 85-5-5-3 | 2-2-16-16 | 1-8-7-8-1 | 0.696665153466 | 0.823289985684 | 82.1711749554 | 6784 | 0.00814385012369 |
| 3-5-5-17-5 | 8-4-2-2-8 | 1-8-7-5-5-1 | 0.669414419273 | 0.806289553793 | 59.7865954638 | 2712 | 0.00802803174217 |
| 17-5-5-3-5 | 4-2-2-32-2 | 1-8-10-2-1-1 | 0.691593616238 | 0.819975311423 | 60.1627538919 | 1746 | 0.00817692663314 |
| 5-5-5-17-3 | 4-2-2-2-32 | 1-5-4-4-9-1 | 0.714055746268 | 0.832985024539 | 66.3475437164 | 2548 | 0.00829601022876 |
| 3-5-5-5-17 | 32-2-2-4-2 | 1-9-8-10-6-1 | 0.798959997126 | 0.878502091879 | 57.3921088934 | 3788 | 0.00873196342638 |
| 5-3-5-5-17 | 4-8-2-4-4 | 1-6-8-4-7-1 | 0.67338491589 | 0.810239083524 | 58.5433604717 | 2628 | 0.00806844140426 |
| 3-5-5-5-17 | 2-4-8-4-4 | 1-4-10-9-5-1 | 0.679538662345 | 0.813359240638 | 58.8925284147 | 5664 | 0.0080601410872 |
| 5-5-3-17-5 | 2-4-16-4-2 | 1-7-10-6-9-1 | 0.706408654377 | 0.829379128063 | 61.0302144766 | 8112 | 0.00818652209238 |
| 5-5-3-17-5 | 16-2-4-2-4 | 1-4-6-2-7-1 | 0.718492796755 | 0.836731389296 | 64.2792458296 | 1320 | 0.00834970411244 |
| 5-3-17-5-5 | 8-2-2-2-16 | 1-3-6-10-4-1 | 0.682909677487 | 0.817159513546 | 67.8824705124 | 2988 | 0.00813266540608 |
| 25-17-5-3 | 2-4-32-4 | 1-3-3-10-1 | 0.674267675878 | 0.81170038804 | 69.4430326223 | 5682 | 0.00804346941603 |
| 5-5-5-3-17 | 4-8-2-8-2 | 1-4-6-9-5-1 | 0.675968727415 | 0.811845762609 | 65.4414664984 | 2830 | 0.0080818261926 |
| 3-5-17-5-5 | 4-4-2-16-2 | 1-7-3-9-7-1 | 0.739693039022 | 0.84571867254 | 65.3965218067 | 6532 | 0.00836910900906 |
| 5-5-85-3 | 2-2-8-32 | 1-2-5-7-1 | 0.661097521574 | 0.802360603107 | 74.6380619764 | 24592 | 0.00770900698848 |
| 17-5-5-5-3 | 4-4-2-8-4 | 1-6-2-6-4-1 | 0.719084669091 | 0.835051498034 | 65.6622193336 | 1776 | 0.00832686938945 |
| 5-17-5-3-5 | 8-4-2-2-8 | 1-8-1-9-8-1 | 0.822715558184 | 0.891718687856 | 64.7859768867 | 1706 | 0.00889293190277 |
| 5-5-3-5-17 | 2-4-4-4-8 | 1-5-5-6-10-1 | 0.725437405815 | 0.840721399834 | 66.0592509031 | 3470 | 0.00836070087243 |
| 17-5-5-5-3 | 4-2-8-4-4 | 1-8-8-9-3-1 | 0.732516370449 | 0.842764648606 | 66.9560413361 | 4640 | 0.00836529910134 |
| 3-17-5-5-5 | 8-2-8-2-4 | 1-5-3-10-10-1 | 0.666272211081 | 0.805061432365 | 59.2018964291 | 3030 | 0.00801172184692 |
| 5-5-5-3-17 | 2-16-8-2-2 | 1-8-8-3-7-1 | 0.673051047255 | 0.810931542613 | 58.6344654322 | 6524 | 0.00802496406478 |
| 17-5-5-3-5 | 8-4-2-4-4 | 1-9-9-6-7-1 | 0.791428731497 | 0.873976298808 | 58.5597189188 | 4028 | 0.00868363453573 |
| 17-5-5-5-3 | 2-8-4-4-4 | 1-3-2-5-10-1 | 0.688920331053 | 0.819676316426 | 60.0080725193 | 1662 | 0.00817504278738 |
| 5-17-3-5-5 | 4-2-32-2-2 | 1-3-5-5-4-1 | 0.674103593235 | 0.810818831514 | 58.2431934357 | 3210 | 0.00806669073144 |
| 3-5-5-17-5 | 4-8-2-2-8 | 1-3-5-5-6-1 | 0.676936873004 | 0.811280059402 | 58.3831728697 | 2146 | 0.00808504219148 |
| 17-5-5-3-5 | 8-4-2-8-2 | 1-6-1-4-2-1 | 0.781394553487 | 0.869661803566 | 56.4930859089 | 1188 | 0.00868014548746 |
| 5-3-17-5-5 | 2-2-16-2-8 | 1-9-8-3-5-1 | 0.659401887693 | 0.801766740863 | 59.3012743711 | 7400 | 0.00792307120515 |
| 5-17-3-5-5 | 2-4-16-4-2 | 1-3-6-9-8-1 | 0.715489759318 | 0.833704976588 | 59.3886326551 | 5366 | 0.00826572226422 |
| 5-3-17-5-5 | 2-16-2-2-8 | 1-5-5-3-5-1 | 0.673509420332 | 0.810747003967 | 58.2864647865 | 2110 | 0.00808019522815 |
| 3-17-5-5-5 | 4-4-4-8-2 | 1-3-10-2-8-1 | 0.671361131339 | 0.808853391821 | 58.2725669861 | 3196 | 0.00804731747306 |
| 17-5-3-5-5 | 16-4-2-2-4 | 1-10-10-1-6-1 | 0.807760430577 | 0.88321220766 | 56.575139308 | 4960 | 0.00876227621324 |
| 5-5-5-17-3 | 2-16-4-2-4 | 1-2-5-3-4-1 | 0.672112982752 | 0.808824335242 | 57.8556261063 | 1576 | 0.00806791957767 |
