| 3-5-5-5-17 | 8-4-4-2-4 | 1-8-9-4-1-1 | 0.686274574832 | 0.816998095176 | 108.200836134 | 2460 | 0.00813793670249 |
| 5-5-17-3-5 | 8-2-2-16-2 | 1-3-10-4-10-1 | 0.690817572545 | 0.819781882208 | 110.158288431 | 3800 | 0.00814815091467 |
| 5-3-5-5-17 | 4-4-4-8-2 | 1-7-4-2-1-1 | 0.675891042374 | 0.811556901928 | 108.910332966 | 750 | 0.00810586449638 |
| 3-17-5-5-5 | 4-2-4-8-4 | 1-6-7-7-8-1 | 0.790163169459 | 0.876159158912 | 112.448769975 | 4880 | 0.00869342104232 |
| 5-5-51-5 | 2-2-32-8 | 1-4-4-10-1 | 0.942453610948 | 0.954585051685 | 116.217703581 | 65880 | 0.00854317093769 |
| 5-5-5-3-17 | 4-4-8-2-4 | 1-7-4-8-1-1 | 0.677517762486 | 0.811809015547 | 109.269767642 | 2096 | 0.00809096082357 |
| 85-5-5-3 | 8-2-16-4 | 1-6-6-4-1 | 0.728460281915 | 0.842040253301 | 112.798440504 | 6408 | 0.00833437265509 |
| 5-15-17-5 | 2-16-2-16 | 1-9-5-10-1 | 0.724892764193 | 0.840304124568 | 113.106091762 | 13390 | 0.00822364596144 |
| 3-5-5-17-5 | 2-4-2-32-2 | 1-5-5-5-5-1 | 0.727350731262 | 0.840041260894 | 109.404125619 | 14430 | 0.00820714418747 |
| 5-5-17-5-3 | 2-4-8-2-8 | 1-3-9-6-2-1 | 0.723700206405 | 0.840500194434 | 111.061820054 | 8082 | 0.00829669641864 |
| 25-5-3-17 | 8-4-8-4 | 1-2-6-6-1 | 0.720907999671 | 0.836971344203 | 109.656083012 | 1912 | 0.00834419862682 |
| 5-5-3-5-17 | 16-4-2-2-4 | 1-7-10-9-9-1 | 0.717049173699 | 0.835448274837 | 109.420658875 | 3922 | 0.00830224059062 |
| 3-17-5-5-5 | 4-2-2-32-2 | 1-7-8-8-3-1 | 0.682012923415 | 0.814304115878 | 112.691702032 | 6498 | 0.00805867655188 |
| 17-5-3-5-5 | 4-2-8-8-2 | 1-2-8-9-1-1 | 0.717370934553 | 0.835790531191 | 109.697305512 | 2394 | 0.00832600348583 |
| 5-3-5-17-5 | 8-2-2-8-4 | 1-6-8-2-6-1 | 0.672734696878 | 0.809209582421 | 108.171241617 | 2440 | 0.00806061509428 |
| 5-5-17-3-5 | 4-4-2-4-8 | 1-4-1-9-7-1 | 9.10627000956 | 1.37944267609 | 112.083922267 | 1502 | 0.0137613922759 |
| 3-5-5-85 | 2-16-16-2 | 1-6-9-7-1 | 0.737358503592 | 0.846065050331 | 109.254250479 | 10586 | 0.00831785004695 |
| 5-17-5-3-5 | 4-16-2-2-4 | 1-7-4-4-8-1 | 0.711378746248 | 0.831756921146 | 109.521098185 | 8268 | 0.00820792370406 |
| 5-5-17-5-3 | 2-4-2-4-16 | 1-7-8-5-7-1 | 0.740403901793 | 0.848752148671 | 117.089555764 | 3586 | 0.00843899429913 |
| 5-5-17-5-3 | 4-2-2-2-32 | 1-6-5-5-1-1 | 0.681057487137 | 0.813795506299 | 110.274833918 | 1416 | 0.00811958238383 |
| 3-5-5-17-5 | 2-8-2-8-4 | 1-3-5-5-2-1 | 0.686381676547 | 0.816746280731 | 109.913057685 | 2268 | 0.0081379286784 |
| 5-5-5-3-17 | 2-4-32-2-2 | 1-4-4-9-10-1 | 0.748285068859 | 0.852879597457 | 109.438447642 | 7000 | 0.0084336085195 |
| 5-5-3-17-5 | 2-4-4-4-8 | 1-2-3-1-9-1 | 18.8456120867 | 1.4485915418 | 108.767623711 | 1148 | 0.0144594010192 |
| 5-17-15-5 | 2-16-8-4 | 1-8-5-2-1 | 0.670420089922 | 0.807838308781 | 109.998122001 | 12200 | 0.00792124617188 |
| 17-5-5-5-3 | 8-16-2-2-2 | 1-3-7-9-1-1 | 0.697352242534 | 0.82380254097 | 107.478279185 | 2814 | 0.00820106462605 |
| 17-5-3-5-5 | 4-2-2-4-16 | 1-2-3-6-9-1 | 204.663988853 | 3.25575858081 | 114.398229909 | 2104 | 0.0324483683965 |
| 5-5-5-3-17 | 4-2-16-4-2 | 1-4-5-3-7-1 | 0.695694330109 | 0.82237554948 | 108.862597752 | 1970 | 0.00819792514032 |
| 5-5-3-17-5 | 16-2-4-4-2 | 1-9-10-8-6-1 | 0.693589810208 | 0.821691107722 | 108.238461137 | 5904 | 0.00813956311326 |
| 5-5-3-5-17 | 4-8-2-2-8 | 1-7-4-4-6-1 | 0.692157388897 | 0.822069878699 | 108.61222837 | 2412 | 0.00818908474765 |
| 5-5-17-5-3 | 2-8-4-8-2 | 1-10-4-8-1-1 | 0.702193525554 | 0.826367903125 | 109.337151861 | 4202 | 0.00820831554386 |
| 5-3-17-5-5 | 32-4-2-2-2 | 1-2-7-6-8-1 | 0.676667539737 | 0.811860525429 | 109.029028463 | 2476 | 0.00808655540319 |
| 25-5-3-17 | 2-16-4-8 | 1-7-9-7-1 | 0.730464952723 | 0.844266988743 | 111.690324283 | 7098 | 0.00834712449383 |
| 5-5-5-17-3 | 2-16-4-4-2 | 1-2-4-5-10-1 | 0.698755937598 | 0.825257412205 | 109.380427194 | 4520 | 0.00819310085191 |
| 17-3-5-5-5 | 2-2-8-8-4 | 1-6-3-5-5-1 | 0.708140607028 | 0.829252164457 | 110.065660596 | 2012 | 0.0082659199967 |
| 3-5-17-5-5 | 2-2-2-32-4 | 1-3-9-10-9-1 | 1.42079026527 | 0.993806312036 | 122.109652686 | 17928 | 0.00965399169876 |
| 5-5-17-3-5 | 64-2-2-2-2 | 1-1-1-8-2-1 | 0.714361482841 | 0.834351004744 | 106.765244651 | 718 | 0.00833395864404 |
| 5-17-3-5-5 | 2-8-4-4-4 | 1-1-3-4-10-1 | 0.683161922273 | 0.816130740978 | 110.193186116 | 1562 | 0.00814098221499 |
| 17-5-3-5-5 | 2-2-4-2-32 | 1-1-3-10-3-1 | 14.2736243594 | 1.3561200472 | 115.453035092 | 1204 | 0.0135351678104 |
| 3-5-5-17-5 | 8-4-4-4-2 | 1-1-4-3-9-1 | 0.722544156714 | 0.83807932202 | 108.597053218 | 2270 | 0.00835046094882 |
| 3-5-5-17-5 | 4-8-2-2-8 | 1-7-5-8-1-1 | 0.672824038592 | 0.80998986879 | 108.184293962 | 2196 | 0.00807153871099 |
| 5-3-5-17-5 | 2-2-2-16-8 | 1-6-3-6-6-1 | 0.957877238575 | 0.966115078559 | 111.393080878 | 10380 | 0.00950126120467 |
| 5-5-5-17-3 | 2-2-8-2-16 | 1-3-2-1-10-1 | 7.15638858393 | 1.51600682711 | 114.986644888 | 990 | 0.0151361389541 |
| 85-5-3-5 | 4-4-4-16 | 1-3-9-7-1 | 0.676228758808 | 0.812610997485 | 117.85995729 | 2876 | 0.00808884802924 |
| 5-3-17-5-5 | 8-2-4-4-4 | 1-8-5-3-7-1 | 0.686415091198 | 0.81673178913 | 109.27864058 | 2140 | 0.008139451086 |
| 5-5-3-17-5 | 2-4-8-4-4 | 1-9-2-6-2-1 | 0.68338317118 | 0.815666114294 | 109.442371011 | 1594 | 0.00813593136319 |
| 3-17-5-5-5 | 4-8-4-4-2 | 1-9-7-3-2-1 | 0.673455019493 | 0.809953268846 | 109.01242888 | 9236 | 0.007980260871 |
| 5-3-5-17-5 | 2-2-8-16-2 | 1-10-1-5-2-1 | 0.707756106977 | 0.83038362952 | 108.59094162 | 3100 | 0.00826279373698 |
| 3-5-5-5-17 | 2-16-4-2-4 | 1-2-10-10-5-1 | 0.709711623621 | 0.831060640031 | 108.931631088 | 4452 | 0.00825161593524 |
| 5-17-5-5-3 | 4-2-4-16-2 | 1-9-3-1-2-1 | 0.715051689444 | 0.833698035146 | 108.567839694 | 1330 | 0.00831930148688 |
| 5-5-3-5-17 | 16-2-8-2-2 | 1-10-10-8-9-1 | 0.6930247155 | 0.820576815516 | 108.383954573 | 4746 | 0.00814367540059 |
| 5-3-5-17-5 | 2-8-4-2-8 | 1-9-1-4-8-1 | 8.12553789333 | 1.38308758152 | 110.638434219 | 1794 | 0.0137913149236 |
| 85-3-5-5 | 2-8-8-8 | 1-3-9-8-1 | 0.682375155676 | 0.815779056995 | 116.132327485 | 4358 | 0.00810110745244 |
| 5-5-3-17-5 | 2-8-2-2-16 | 1-3-8-7-9-1 | 0.732240621803 | 0.84441807794 | 112.310832548 | 4188 | 0.00838779648555 |
| 5-17-3-5-5 | 2-2-64-2-2 | 1-5-2-1-7-1 | 0.708545715069 | 0.829531052025 | 108.478383851 | 914 | 0.00828322200971 |
| 5-3-17-5-5 | 2-4-4-16-2 | 1-9-4-9-4-1 | 0.676513066003 | 0.812335149173 | 110.538052607 | 5890 | 0.00804706555377 |
| 5-3-17-5-5 | 4-2-16-2-4 | 1-3-10-1-2-1 | 0.663459600659 | 0.803836657625 | 108.530569267 | 3020 | 0.00799966143107 |
| 5-5-3-17-5 | 8-2-4-8-2 | 1-8-1-8-1-1 | 0.691662566461 | 0.820268174749 | 107.718928146 | 1594 | 0.00818183500849 |
| 5-3-5-17-5 | 4-8-4-2-4 | 1-4-3-10-5-1 | 0.744197885016 | 0.851090280188 | 108.229268312 | 2768 | 0.00847334192983 |
| 5-3-5-17-5 | 2-16-2-8-2 | 1-2-10-3-6-1 | 0.705770775412 | 0.829354347455 | 108.695858502 | 3788 | 0.00824345428022 |
| 17-5-3-5-5 | 4-4-16-2-2 | 1-4-9-9-3-1 | 0.708632648025 | 0.830451743395 | 110.133852124 | 5180 | 0.00823593101764 |
| 5-5-5-17-3 | 4-16-2-4-2 | 1-5-6-2-7-1 | 0.685361993892 | 0.816986755742 | 108.445109344 | 3614 | 0.00812279182184 |
| 5-5-17-3-5 | 2-4-4-16-2 | 1-4-5-10-9-1 | 0.765963463538 | 0.862206411687 | 112.968228292 | 8250 | 0.0085086520809 |
| 17-5-5-5-3 | 2-16-2-8-2 | 1-7-10-5-6-1 | 0.692842719152 | 0.821184102967 | 110.843542194 | 7574 | 0.00811267571723 |
| 17-3-5-5-5 | 4-2-8-2-8 | 1-8-1-3-9-1 | 0.67254664993 | 0.809396359863 | 109.977011895 | 1342 | 0.00807664520075 |
| 17-5-3-5-5 | 32-2-2-2-4 | 1-3-8-2-9-1 | 0.697408235617 | 0.823710904104 | 108.468363619 | 2328 | 0.00820653507763 |
| 3-5-5-17-5 | 2-2-4-16-4 | 1-3-9-9-5-1 | 0.790287422255 | 0.875118554121 | 110.633582473 | 14248 | 0.00855238628804 |
| 5-3-5-17-5 | 2-4-4-8-4 | 1-5-9-2-9-1 | 0.715194534014 | 0.834414444396 | 109.806570268 | 3578 | 0.00829654344138 |
| 5-3-17-5-5 | 2-2-2-8-16 | 1-6-10-4-3-1 | 0.74336702973 | 0.850178015299 | 113.313929296 | 2500 | 0.00846789231756 |
| 5-5-5-3-17 | 2-2-2-32-4 | 1-2-4-4-10-1 | 6.81185207471 | 1.28417971313 | 110.044899893 | 4780 | 0.0127439275677 |
| 5-5-5-3-17 | 2-32-2-2-4 | 1-2-2-8-2-1 | 0.678616872537 | 0.812973250716 | 109.449722695 | 1052 | 0.00811609654001 |
| 5-3-5-5-17 | 16-2-2-2-8 | 1-5-9-6-6-1 | 30.7906828145 | 1.85750692908 | 109.187414765 | 2386 | 0.0185044058416 |
| 5-5-5-17-3 | 32-2-2-2-4 | 1-8-9-4-5-1 | 0.698919155775 | 0.824900454604 | 108.734798551 | 3100 | 0.00820823299933 |
| 3-5-5-5-17 | 4-4-2-16-2 | 1-2-10-7-5-1 | 0.708733637095 | 0.830246016603 | 109.124650812 | 4094 | 0.00824826649269 |
| 25-5-17-3 | 128-2-2-2 | 1-9-8-5-1 | 0.674983179892 | 0.810176966142 | 109.346208978 | 30910 | 0.00770249399141 |
| 5-5-17-5-3 | 4-2-8-2-8 | 1-6-4-6-5-1 | 0.680088247588 | 0.813923194315 | 110.56358602 | 4044 | 0.00808675258413 |
| 3-5-17-5-5 | 16-4-2-4-2 | 1-4-10-2-2-1 | 0.691857584861 | 0.820418537041 | 108.032814646 | 1772 | 0.00818100645384 |
| 3-5-5-5-17 | 4-16-2-4-2 | 1-10-8-4-8-1 | 0.7032855891 | 0.827170097309 | 108.850141931 | 7752 | 0.00816946528122 |
| 5-17-5-3-5 | 8-2-2-4-8 | 1-9-7-6-4-1 | 0.673224898146 | 0.808872553415 | 109.973947597 | 3370 | 0.00804526411028 |
| 17-5-5-3-5 | 8-2-2-4-8 | 1-3-10-6-1-1 | 0.69797742843 | 0.823890316021 | 107.821255898 | 1420 | 0.00822025003125 |
| 5-5-5-17-3 | 16-8-2-2-2 | 1-6-5-10-3-1 | 0.685570545293 | 0.817358066802 | 105.407252288 | 3218 | 0.00813164415241 |
| 5-5-5-3-17 | 4-2-32-2-2 | 1-2-6-10-1-1 | 0.665283045704 | 0.805553692895 | 104.972221756 | 9854 | 0.00792897560736 |
| 5-3-5-5-17 | 2-2-32-2-4 | 1-4-4-5-2-1 | 0.677007961081 | 0.812084378916 | 106.104140067 | 3572 | 0.0080745943408 |
| 17-3-5-5-5 | 2-4-4-16-2 | 1-6-8-1-1-1 | 0.728871701851 | 0.84264494719 | 106.81850729 | 1030 | 0.00841261139321 |
| 5-3-17-5-5 | 2-32-4-2-2 | 1-5-1-9-7-1 | 0.739615100493 | 0.848248485023 | 105.279823542 | 1842 | 0.00845757296073 |
| 3-5-5-5-17 | 2-4-2-32-2 | 1-4-3-5-3-1 | 0.695106418543 | 0.822141306648 | 105.837966895 | 2916 | 0.00818318978762 |
| 5-5-17-3-5 | 2-4-2-4-16 | 1-6-4-4-5-1 | 0.693197238038 | 0.821677782232 | 109.26512301 | 1724 | 0.00819419216389 |
| 5-17-5-5-3 | 8-2-2-16-2 | 1-8-10-9-10-1 | 0.70146780854 | 0.826391379067 | 110.657616043 | 11200 | 0.00811634390155 |
| 5-3-5-5-17 | 8-4-2-8-2 | 1-1-10-5-6-1 | 4.76540984277 | 1.19312319001 | 105.872535872 | 2064 | 0.0118919684073 |
| 5-3-17-5-5 | 2-4-8-4-4 | 1-1-5-6-7-1 | 5.33063610399 | 1.22598828711 | 106.983005023 | 5130 | 0.0121596067246 |
| 3-17-5-5-5 | 2-4-8-4-4 | 1-4-2-4-8-1 | 0.720538699653 | 0.835925062832 | 107.111213779 | 1688 | 0.00833675315533 |
| 17-3-5-5-5 | 2-8-4-4-4 | 1-10-2-10-9-1 | 0.676011666811 | 0.811112257612 | 108.971124291 | 3200 | 0.00806973929767 |
| 5-17-5-3-5 | 4-2-4-8-4 | 1-8-2-2-6-1 | 0.675219026467 | 0.811641832914 | 106.071371889 | 1192 | 0.00810099299328 |
| 5-5-3-5-17 | 4-2-4-2-16 | 1-3-1-3-3-1 | 12374.4666936 | 19.8324411094 | 106.078758311 | 1032 | 0.197998086489 |
| 5-17-3-5-5 | 4-16-2-2-4 | 1-9-4-2-5-1 | 0.678374621311 | 0.812651705866 | 106.037518191 | 10220 | 0.00799409836551 |
| 3-5-5-85 | 64-4-2-2 | 1-9-1-6-1 | 0.679968513087 | 0.813144672593 | 104.459740806 | 2988 | 0.0080927082648 |
| 5-5-3-5-17 | 2-2-16-8-2 | 1-8-10-10-9-1 | 1.55451097106 | 1.01938353483 | 107.464889264 | 9586 | 0.0100380347972 |
| 17-3-5-5-5 | 2-2-2-32-4 | 1-8-3-5-5-1 | 0.688613764604 | 0.818682784666 | 110.301487398 | 4666 | 0.00812592265098 |
| 17-5-5-5-3 | 2-32-2-4-2 | 1-8-7-8-5-1 | 0.690070072871 | 0.81951065572 | 107.27927022 | 10622 | 0.0080563176193 |
| 5-3-5-5-17 | 2-8-16-2-2 | 1-2-8-1-4-1 | 0.72137969644 | 0.836529073504 | 105.658762598 | 1220 | 0.00834901896416 |
| 17-5-15-5 | 4-4-2-32 | 1-2-6-10-1 | 0.963733869327 | 0.969109407015 | 113.692669845 | 3776 | 0.0096327497283 |
| 3-5-5-5-17 | 4-4-4-4-4 | 1-6-2-2-5-1 | 3.48343141853 | 1.23064962116 | 105.354672194 | 932 | 0.0122882091349 |
| 17-5-5-3-5 | 2-8-8-2-4 | 1-3-3-5-8-1 | 0.753938140732 | 0.856491745632 | 107.077151179 | 1462 | 0.00854495267743 |
| 17-3-5-5-5 | 4-8-4-4-2 | 1-5-10-3-9-1 | 0.706125883327 | 0.828160120896 | 106.923799872 | 2770 | 0.00824502589749 |
| 5-5-17-3-5 | 4-4-4-4-4 | 1-3-9-2-2-1 | 0.668300031182 | 0.807110651213 | 105.778994083 | 1912 | 0.008046501991 |
| 3-5-5-5-17 | 8-2-8-2-4 | 1-5-4-2-1-1 | 0.669920357608 | 0.807463168807 | 105.318899155 | 728 | 0.00806525934772 |
| 3-17-5-5-5 | 4-2-2-32-2 | 1-7-9-7-4-1 | 0.679920353907 | 0.812744292518 | 109.174656582 | 7376 | 0.00803186253772 |
| 5-17-3-5-5 | 2-4-16-2-4 | 1-3-1-1-8-1 | 0.708830192527 | 0.831492010063 | 105.86033814 | 522 | 0.00830799983869 |
| 5-5-5-3-17 | 8-2-8-4-2 | 1-6-4-7-1-1 | 0.706973995861 | 0.829753918055 | 105.324265432 | 1718 | 0.00827481090837 |
| 5-17-3-5-5 | 4-4-4-2-8 | 1-4-2-4-10-1 | 0.701691657984 | 0.825791640172 | 107.939844131 | 1520 | 0.00823790359412 |
| 5-5-5-3-17 | 4-8-2-4-4 | 1-6-4-5-6-1 | 0.73659260104 | 0.847080010019 | 106.332794809 | 2048 | 0.00844314034476 |
| 17-5-5-5-3 | 2-16-2-8-2 | 1-9-6-2-9-1 | 0.680594822858 | 0.814210691846 | 108.711640596 | 5520 | 0.0080704480693 |
| 17-3-5-5-5 | 4-4-8-2-4 | 1-7-6-2-8-1 | 0.662837308969 | 0.804033195967 | 106.912397099 | 1780 | 0.00801751341552 |
| 5-3-17-5-5 | 4-2-4-2-16 | 1-8-7-7-4-1 | 0.739196947165 | 0.849186163181 | 108.81230309 | 4428 | 0.00843190952195 |
| 5-17-5-5-3 | 2-2-16-4-4 | 1-3-5-1-3-1 | 0.706878262529 | 0.829184331804 | 108.022935081 | 1036 | 0.00827814696971 |
| 5-5-17-3-5 | 4-8-2-4-4 | 1-2-5-3-8-1 | 0.694993747922 | 0.822568716015 | 106.54560914 | 1398 | 0.00820735248118 |
| 17-5-3-5-5 | 2-2-4-8-8 | 1-3-1-7-10-1 | 4.42077122926 | 1.19001023988 | 110.501185417 | 3416 | 0.0118352893411 |
| 5-5-17-3-5 | 2-4-2-16-4 | 1-7-4-4-5-1 | 0.704867900969 | 0.828707567812 | 108.072582531 | 2234 | 0.00825755825614 |
| 3-5-17-5-5 | 4-4-2-16-2 | 1-5-2-5-10-1 | 0.697375858448 | 0.823470393864 | 106.487760687 | 4700 | 0.00817299617634 |
| 17-5-5-3-5 | 2-16-4-4-2 | 1-1-6-9-7-1 | 0.80107689247 | 0.881226949556 | 107.298274994 | 2420 | 0.00877826807308 |
| 5-17-5-3-5 | 16-8-2-2-2 | 1-5-10-7-5-1 | 0.689206855746 | 0.819424944811 | 105.887875509 | 8160 | 0.00808764059049 |
| 5-17-3-5-5 | 2-32-2-4-2 | 1-8-8-4-4-1 | 0.681228020976 | 0.815566324618 | 107.146703291 | 35448 | 0.00769472263592 |
| 17-5-5-3-5 | 2-8-4-2-8 | 1-5-2-7-1-1 | 0.686189247164 | 0.817817492382 | 105.9921381 | 932 | 0.00816602240623 |
| 5-5-5-3-17 | 8-2-2-4-8 | 1-2-9-8-3-1 | 11.0365267008 | 1.35515853716 | 106.774813366 | 1676 | 0.0135153729081 |
| 3-5-5-17-5 | 8-4-8-2-2 | 1-6-7-2-10-1 | 0.659441157026 | 0.80079625522 | 105.75735569 | 2324 | 0.00797829019095 |
| 3-5-5-5-17 | 4-8-2-8-2 | 1-6-5-4-4-1 | 0.685129386918 | 0.815595639672 | 105.68451438 | 2248 | 0.00812672395096 |
| 5-5-3-5-17 | 2-4-8-4-4 | 1-10-6-7-6-1 | 0.71853400645 | 0.837027774276 | 106.089384723 | 3556 | 0.00832282125734 |
| 5-17-15-5 | 4-4-2-32 | 1-8-4-10-1 | 0.733155431196 | 0.844916108265 | 113.923820972 | 5136 | 0.0083799727993 |
| 3-5-5-5-17 | 16-8-2-2-2 | 1-3-8-8-7-1 | 0.704790976591 | 0.826525557779 | 105.336867976 | 2542 | 0.00823175704514 |
| 5-51-5-5 | 2-16-4-8 | 1-10-1-2-1 | 0.660443114448 | 0.802987325208 | 106.408893013 | 8380 | 0.00792258636137 |
| 5-17-3-5-5 | 2-4-4-8-4 | 1-9-3-7-3-1 | 0.672476576486 | 0.810026819612 | 107.651347256 | 3078 | 0.00806051592331 |
| 17-3-5-5-5 | 2-8-8-2-4 | 1-1-10-5-6-1 | 0.724335832357 | 0.83889470419 | 107.077038693 | 2694 | 0.00835291416032 |
| 17-5-3-5-5 | 2-4-4-16-2 | 1-3-3-1-1-1 | 0.692752337766 | 0.822213170661 | 105.732678461 | 408 | 0.00821678312604 |
| 5-5-17-5-3 | 2-2-8-2-16 | 1-9-10-1-5-1 | 0.725442372903 | 0.840659766075 | 109.17272563 | 2640 | 0.00837121274712 |
| 5-5-3-5-17 | 16-2-4-2-4 | 1-5-6-3-1-1 | 0.69301805697 | 0.821416689074 | 104.769050002 | 1014 | 0.00820088697169 |
| 5-5-17-3-5 | 2-8-16-2-2 | 1-2-2-1-2-1 | 0.670247136466 | 0.808597526068 | 105.324116111 | 756 | 0.00807622877264 |
| 5-17-3-5-5 | 8-4-4-2-4 | 1-3-8-9-10-1 | 0.753684989067 | 0.85820410714 | 107.082867002 | 3716 | 0.00853119466735 |
| 5-5-3-5-17 | 4-16-4-2-2 | 1-3-6-6-7-1 | 0.721965049113 | 0.838533496061 | 106.372272968 | 2590 | 0.00835070801937 |
| 3-5-17-5-5 | 2-2-4-8-8 | 1-1-3-6-10-1 | 3.91574417017 | 1.1987451136 | 109.917563438 | 4060 | 0.011909853796 |
| 5-3-17-5-5 | 8-8-4-2-2 | 1-4-7-4-8-1 | 0.67009412487 | 0.808413748194 | 105.536475015 | 3136 | 0.00804371679453 |
| 5-3-5-17-5 | 2-4-4-8-4 | 1-2-9-4-4-1 | 0.736506813379 | 0.846391588384 | 106.959372783 | 3212 | 0.00842057070237 |
| 5-17-5-5-3 | 2-8-4-4-4 | 1-10-3-10-1-1 | 0.694402463385 | 0.822104121049 | 107.78056767 | 4992 | 0.00815560843351 |
| 3-5-17-5-5 | 2-2-2-8-16 | 1-4-2-10-4-1 | 22.5102005714 | 1.61293283703 | 114.481546807 | 2704 | 0.0160597912148 |
| 17-5-3-5-5 | 4-2-2-16-4 | 1-9-7-2-4-1 | 0.694202119346 | 0.821325211235 | 106.701067948 | 2046 | 0.00818645952016 |
| 5-17-3-5-5 | 2-2-16-2-8 | 1-6-1-2-9-1 | 1.49384228415 | 1.05403542056 | 106.794587636 | 900 | 0.010525229335 |
| 5-5-17-5-3 | 16-2-4-2-4 | 1-5-7-9-8-1 | 0.68700858681 | 0.817014524957 | 106.093435955 | 5850 | 0.00809394092925 |
| 5-5-17-3-5 | 2-4-16-4-2 | 1-10-1-6-1-1 | 0.686036926306 | 0.817500523069 | 105.74125855 | 2014 | 0.00814875449641 |
| 25-3-17-5 | 2-8-4-16 | 1-7-10-10-1 | 0.785793293345 | 0.874722723773 | 113.252374959 | 9630 | 0.00861292271238 |
| 5-5-5-3-17 | 8-2-16-2-2 | 1-2-5-6-3-1 | 0.706433100169 | 0.829803590584 | 105.967425799 | 2790 | 0.00826112340556 |
| 5-5-5-17-3 | 2-4-16-4-2 | 1-1-8-4-4-1 | 0.728848355456 | 0.841012869607 | 105.824354935 | 3842 | 0.0083586112942 |
| 5-5-5-3-17 | 4-2-2-8-8 | 1-3-9-8-2-1 | 0.718276904326 | 0.835987392102 | 106.882141781 | 1706 | 0.0083371348507 |
| 5-5-51-5 | 4-16-2-8 | 1-7-5-2-1 | 0.698744726046 | 0.825533540107 | 105.559567022 | 4040 | 0.00820216009013 |
| 5-5-3-5-17 | 2-8-8-4-2 | 1-2-10-5-6-1 | 0.720446907764 | 0.836449138785 | 105.852986312 | 2824 | 0.00832682983862 |
| 5-15-17-5 | 4-2-8-16 | 1-8-3-4-1 | 0.736134862284 | 0.845787753467 | 106.828929448 | 2832 | 0.00841968762845 |
| 5-3-5-17-5 | 2-8-2-8-4 | 1-6-4-1-3-1 | 0.661548762056 | 0.802790229283 | 105.171863866 | 1144 | 0.00801325956289 |
| 17-5-5-3-5 | 8-2-4-8-2 | 1-5-9-2-8-1 | 0.693173001898 | 0.821430750701 | 106.452936411 | 1954 | 0.00818871637679 |
| 3-5-5-5-17 | 2-32-2-4-2 | 1-5-8-6-7-1 | 0.696507135792 | 0.822967645375 | 105.927114892 | 7988 | 0.00812486354637 |
| 17-5-5-3-5 | 2-8-8-4-2 | 1-7-8-5-5-1 | 0.688103942047 | 0.817905187777 | 107.973382854 | 4428 | 0.00812130818881 |
| 5-5-17-3-5 | 2-4-16-2-4 | 1-3-1-10-3-1 | 0.721396591683 | 0.836474638992 | 106.862497187 | 3050 | 0.00832406960981 |
| 85-3-5-5 | 2-4-32-4 | 1-1-7-5-1 | 0.742614571231 | 0.851129809355 | 111.416261935 | 5954 | 0.00843050047102 |
| 5-5-5-17-3 | 8-4-4-4-2 | 1-3-3-9-10-1 | 0.682011479019 | 0.815320235621 | 106.111560011 | 7020 | 0.00806194680687 |
| 5-5-3-5-17 | 2-4-8-4-4 | 1-7-6-4-10-1 | 0.721585860485 | 0.83816195385 | 106.558405685 | 2966 | 0.00834198324458 |
| 5-5-3-5-17 | 2-8-4-8-2 | 1-10-6-3-6-1 | 0.705202507669 | 0.827564794503 | 105.921993399 | 3640 | 0.00822761963107 |
| 5-5-5-3-17 | 4-2-32-2-2 | 1-10-10-9-10-1 | 0.940115405846 | 0.935680230881 | 107.8524055 | 16480 | 0.00911094755427 |
| 5-17-5-3-5 | 4-16-2-2-4 | 1-5-4-10-6-1 | 0.71530347886 | 0.835454131196 | 106.699916101 | 6420 | 0.00826902448285 |
| 5-5-17-5-3 | 2-16-8-2-2 | 1-3-1-6-7-1 | 0.714282485923 | 0.833325786637 | 106.324872732 | 1548 | 0.00831269045059 |
| 17-25-5-3 | 2-4-32-4 | 1-1-9-2-1 | 0.694504505333 | 0.822780644024 | 116.128428507 | 3838 | 0.00817745835172 |
| 5-5-3-5-17 | 4-8-4-2-4 | 1-8-2-10-1-1 | 0.679105220588 | 0.813024628164 | 105.99406693 | 1208 | 0.00811458726138 |
| 5-17-5-3-5 | 2-32-2-4-2 | 1-2-5-7-8-1 | 0.708780775808 | 0.830684749106 | 106.176514912 | 6562 | 0.00821993815873 |
| 5-5-3-17-5 | 4-2-8-2-8 | 1-2-6-9-5-1 | 8.11897583441 | 1.20875177621 | 106.47824719 | 3186 | 0.0120261165638 |
| 5-25-17-3 | 2-4-64-2 | 1-6-5-8-1 | 0.679679393889 | 0.814616429027 | 111.242026877 | 46628 | 0.00754055308407 |
| 5-3-17-5-5 | 4-2-2-32-2 | 1-6-3-6-4-1 | 0.685141776559 | 0.816304478941 | 107.367369723 | 4720 | 0.00810161371255 |
| 3-5-5-5-17 | 2-32-4-2-2 | 1-1-2-1-2-1 | 0.679762959592 | 0.813816246742 | 105.80031445 | 454 | 0.00813227164191 |
| 17-5-5-5-3 | 2-32-2-4-2 | 1-3-5-5-3-1 | 0.701272754049 | 0.826087427737 | 105.519819331 | 3070 | 0.00822043919441 |
| 17-3-5-5-5 | 16-8-2-2-2 | 1-9-10-7-2-1 | 0.677315573681 | 0.812492663242 | 105.360516834 | 5468 | 0.00805409261005 |
| 5-17-5-5-3 | 4-2-16-4-2 | 1-6-1-6-7-1 | 0.681286158188 | 0.814063785327 | 105.93182795 | 1686 | 0.00811875469731 |
| 3-17-5-5-5 | 16-2-8-2-2 | 1-2-8-8-10-1 | 0.719229293801 | 0.835704404765 | 106.133753872 | 4100 | 0.00830241413599 |
| 5-17-5-5-3 | 8-16-2-2-2 | 1-6-3-3-2-1 | 0.68422740591 | 0.815583696547 | 105.450442719 | 5298 | 0.00808694406967 |
| 5-5-17-5-3 | 8-2-8-4-2 | 1-4-8-2-5-1 | 0.681634815904 | 0.814636021574 | 105.285279298 | 2886 | 0.0081088755289 |
| 5-3-17-25 | 2-32-4-4 | 1-9-7-10-1 | 0.739449714711 | 0.847313946497 | 106.707859898 | 11898 | 0.00831240379317 |
| 5-3-5-5-17 | 4-4-4-2-8 | 1-2-7-3-4-1 | 1.59808017067 | 1.04926333562 | 105.805285883 | 1292 | 0.0104710190668 |
| 5-17-5-5-3 | 16-4-4-2-2 | 1-9-10-8-7-1 | 0.692761880781 | 0.820701242004 | 106.750239754 | 9042 | 0.00808869640233 |
| 5-3-5-5-17 | 2-16-2-8-2 | 1-10-1-1-2-1 | 0.677235062506 | 0.811330504058 | 104.499410152 | 738 | 0.00810375845397 |
| 5-3-5-17-5 | 8-2-2-2-16 | 1-9-7-8-8-1 | 0.786538767201 | 0.874373759574 | 109.142665076 | 4114 | 0.00868638469959 |
| 5-5-17-5-3 | 2-4-8-2-8 | 1-3-4-6-4-1 | 0.722730666702 | 0.840191790663 | 107.792324686 | 3870 | 0.00835007571547 |
| 5-3-17-5-5 | 2-2-2-32-4 | 1-6-8-1-5-1 | 0.713198067925 | 0.831796695055 | 106.840467596 | 1520 | 0.00829780861227 |
| 17-5-5-5-3 | 2-64-2-2-2 | 1-10-6-4-1-1 | 0.701208329071 | 0.826413879677 | 107.27570231 | 19826 | 0.00800290662875 |
| 3-5-17-5-5 | 4-8-2-8-2 | 1-2-10-3-9-1 | 0.710107398452 | 0.830872811615 | 105.915003586 | 3014 | 0.00826880065036 |
| 17-5-3-5-5 | 8-8-2-4-2 | 1-5-5-10-7-1 | 0.698030655233 | 0.824385323245 | 105.549683547 | 3450 | 0.00819850678211 |
| 5-3-5-17-5 | 2-2-2-8-16 | 1-3-2-6-5-1 | 771.101844593 | 4.9825226745 | 108.275124812 | 4666 | 0.0494545562922 |
| 5-3-5-17-5 | 16-4-2-2-4 | 1-4-2-2-6-1 | 0.655899975941 | 0.798629389783 | 104.92427063 | 984 | 0.00797376438062 |
| 5-5-17-3-5 | 2-16-4-2-4 | 1-6-4-4-3-1 | 0.668713310136 | 0.807298559982 | 105.415325785 | 3200 | 0.00803179689778 |
| 5-5-3-17-5 | 4-4-2-4-8 | 1-3-5-6-10-1 | 276.748705314 | 2.93982553807 | 107.458692694 | 5020 | 0.0291629568444 |
| 25-5-3-17 | 2-2-8-32 | 1-2-8-10-1 | 6.44609607113 | 1.18595975704 | 113.743403888 | 7620 | 0.0117155125362 |
| 5-5-5-17-3 | 8-2-16-2-2 | 1-4-10-9-3-1 | 0.693721701885 | 0.820812067574 | 105.871958327 | 8696 | 0.0080943167577 |
| 5-5-5-17-3 | 2-2-4-4-16 | 1-2-9-9-5-1 | 29.7891116352 | 1.90833003555 | 111.0686903 | 5120 | 0.0189275183118 |
| 5-5-3-17-5 | 2-8-8-2-4 | 1-1-2-1-10-1 | 1.19661402026 | 1.01209915264 | 106.299400902 | 678 | 0.0101100507862 |
| 5-5-3-17-5 | 2-16-4-4-2 | 1-8-8-9-7-1 | 0.691893098835 | 0.821102396663 | 106.251188374 | 10418 | 0.0080746361355 |
| 85-25-3 | 16-4-16 | 1-9-3-1 | 0.688144515946 | 0.818175177328 | 107.905730534 | 15084 | 0.00798498273031 |
| 5-5-3-17-5 | 4-4-16-2-2 | 1-5-9-6-2-1 | 0.701293794553 | 0.825908006935 | 105.017578912 | 4020 | 0.0082061440013 |
| 5-5-5-17-3 | 4-8-2-4-4 | 1-3-7-3-3-1 | 0.665193973842 | 0.804851733082 | 104.740981579 | 1758 | 0.00802595787057 |
| 5-5-5-17-3 | 2-2-8-4-8 | 1-2-2-6-5-1 | 103.593960811 | 1.94800333821 | 107.509204412 | 2700 | 0.01939617482 |
| 5-5-3-17-5 | 2-2-2-4-32 | 1-8-3-2-8-1 | 807.520970591 | 7.12433281303 | 112.123816013 | 2724 | 0.0709339103595 |
| 5-17-5-3-5 | 2-2-2-2-64 | 1-9-9-7-2-1 | 0.728942948901 | 0.842323767265 | 119.476286101 | 4198 | 0.00836685892304 |
| 5-3-5-5-17 | 4-2-2-16-4 | 1-8-1-6-4-1 | 1.15122619576 | 1.01085827463 | 106.035463524 | 2460 | 0.0100689349249 |
| 5-85-5-3 | 16-4-8-2 | 1-2-7-3-1 | 0.687711580379 | 0.817664217488 | 106.03113482 | 5778 | 0.00810131590179 |
| 25-5-17-3 | 2-16-2-16 | 1-1-6-8-1 | 0.736307533142 | 0.846584450147 | 110.5454916 | 2546 | 0.00843147900386 |
| 5-17-25-3 | 8-2-2-32 | 1-4-4-4-1 | 0.72212938799 | 0.83761950733 | 109.643698931 | 1888 | 0.00835098101671 |
| 5-3-5-17-5 | 8-8-2-2-4 | 1-1-1-5-2-1 | 0.675694225483 | 0.81130338202 | 103.868897223 | 494 | 0.00810664377124 |
| 3-5-17-5-5 | 4-8-2-2-8 | 1-3-10-5-3-1 | 0.700007335325 | 0.824922158478 | 106.345342708 | 3206 | 0.0082070548048 |
| 5-5-3-5-17 | 2-4-2-8-8 | 1-4-9-5-10-1 | 708.933517589 | 4.76749536254 | 106.465305948 | 4390 | 0.047341259355 |
| 5-3-5-5-17 | 2-8-2-8-4 | 1-8-8-9-8-1 | 0.759107663355 | 0.858523863895 | 106.045506239 | 5760 | 0.00850639461063 |
| 3-5-17-5-5 | 4-8-4-4-2 | 1-1-4-4-5-1 | 0.683392241038 | 0.815135418913 | 105.516337442 | 1710 | 0.00812913031212 |
| 17-5-5-3-5 | 2-8-2-2-16 | 1-8-5-5-6-1 | 0.722424087286 | 0.838458980752 | 110.244538784 | 2782 | 0.0083473992322 |
| 17-3-5-25 | 16-4-4-4 | 1-1-8-6-1 | 0.911836718405 | 0.939723975161 | 106.480567741 | 1928 | 0.00936835282839 |
| 5-85-3-5 | 4-8-4-8 | 1-10-5-5-1 | 0.694968353177 | 0.822531046707 | 109.431059504 | 34700 | 0.00777024306719 |
| 5-17-3-5-5 | 16-2-4-4-2 | 1-4-2-3-4-1 | 0.700336786492 | 0.825686863875 | 105.396119237 | 944 | 0.00824444120891 |
| 3-5-17-5-5 | 4-2-8-8-2 | 1-1-6-7-8-1 | 2.10147190498 | 1.08902962004 | 106.894669247 | 8104 | 0.0107495835722 |
| 3-5-5-5-17 | 2-4-4-8-4 | 1-4-8-4-10-1 | 0.963954375634 | 0.968612024834 | 106.226670861 | 3584 | 0.00963077098978 |
| 5-5-17-5-3 | 2-4-2-2-32 | 1-9-10-6-6-1 | 0.721146254266 | 0.838443597505 | 116.788104796 | 4866 | 0.00831938708243 |
| 5-5-3-5-17 | 8-8-2-4-2 | 1-2-8-3-3-1 | 0.697659983797 | 0.824875777359 | 105.169395494 | 1146 | 0.00823368590432 |
| 5-3-5-5-17 | 16-4-2-2-4 | 1-9-6-6-2-1 | 0.706556265936 | 0.829149133473 | 104.165844297 | 1984 | 0.00826526314785 |
| 5-5-3-85 | 4-32-4-2 | 1-5-3-2-1 | 0.698461488707 | 0.825265708048 | 105.007107282 | 2912 | 0.00821434117261 |
| 5-5-5-3-17 | 16-4-4-2-2 | 1-5-2-3-6-1 | 0.665401312733 | 0.805363944121 | 104.309401703 | 1032 | 0.00804038791713 |
| 3-5-17-5-5 | 2-2-4-8-8 | 1-1-1-6-5-1 | 0.86020125599 | 0.91443366426 | 107.486206627 | 1824 | 0.00911774341869 |
| 5-5-3-85 | 2-4-8-16 | 1-4-5-4-1 | 1.21947267243 | 1.02466931314 | 105.476345754 | 6360 | 0.0101427885263 |
| 5-3-5-5-17 | 8-2-4-8-2 | 1-5-3-7-9-1 | 0.960669207545 | 0.967500628109 | 105.521914434 | 3536 | 0.00962046096507 |
| 5-17-5-5-3 | 8-4-2-2-8 | 1-7-2-1-4-1 | 0.6636615917 | 0.80399611495 | 105.338435745 | 1388 | 0.00802216863344 |
| 17-3-5-25 | 4-4-4-16 | 1-4-8-3-1 | 180.02335491 | 3.60589762102 | 105.71878767 | 2336 | 0.0359246749213 |
| 5-3-17-5-5 | 2-2-2-16-8 | 1-4-8-5-5-1 | 0.733804412365 | 0.846353011747 | 110.199028492 | 3792 | 0.00841236030528 |
| 17-3-5-5-5 | 8-4-2-8-2 | 1-7-1-10-7-1 | 0.701062356806 | 0.825924053818 | 106.261454749 | 4006 | 0.00820648779967 |
| 25-17-3-5 | 4-32-2-4 | 1-8-10-10-1 | 0.728672598678 | 0.840442866263 | 110.154228234 | 45120 | 0.00779982435578 |
| 5-5-5-3-17 | 2-4-32-2-2 | 1-3-6-6-7-1 | 0.713366917843 | 0.83265300567 | 106.866215777 | 6640 | 0.00823837929207 |
| 17-3-5-5-5 | 32-4-2-2-2 | 1-7-1-9-1-1 | 0.790868035822 | 0.873944272828 | 103.525365877 | 4082 | 0.00868256389343 |
| 85-5-5-3 | 2-4-4-32 | 1-8-3-9-1 | 0.695231452803 | 0.822499788131 | 126.412737632 | 3244 | 0.00818245659762 |
| 5-17-5-3-5 | 2-4-4-16-2 | 1-3-9-7-1-1 | 0.685736488177 | 0.81644204779 | 108.657708287 | 3472 | 0.00811922457882 |
| 17-5-5-5-3 | 2-8-4-8-2 | 1-3-7-8-7-1 | 0.679981993349 | 0.813972494511 | 107.317183948 | 4344 | 0.00808334904402 |
| 5-3-5-5-17 | 2-2-32-4-2 | 1-5-6-6-5-1 | 0.735018172458 | 0.845216834467 | 105.660672188 | 6760 | 0.00836107035677 |
| 5-3-5-17-5 | 8-8-4-2-2 | 1-9-3-9-10-1 | 0.689205703274 | 0.819068177725 | 105.262747574 | 4708 | 0.00812919942743 |
| 17-5-3-5-5 | 2-4-8-4-4 | 1-2-5-1-1-1 | 0.685764189048 | 0.817363475936 | 105.298960018 | 428 | 0.00816805708768 |
| 5-17-5-5-3 | 32-4-2-2-2 | 1-3-9-6-6-1 | 0.699542431851 | 0.825754248554 | 105.207137632 | 3252 | 0.00821472754905 |
| 17-5-3-5-5 | 2-8-2-4-8 | 1-9-7-10-2-1 | 0.71421901054 | 0.833509141342 | 107.435719776 | 3726 | 0.00828557522942 |
| 5-17-5-5-3 | 4-2-16-2-4 | 1-4-4-2-1-1 | 0.700380869741 | 0.825558414321 | 105.116153932 | 1296 | 0.00823852541067 |
| 5-5-17-3-5 | 8-8-4-2-2 | 1-9-8-2-8-1 | 0.684475161791 | 0.816019213844 | 104.649008512 | 4504 | 0.00810159279949 |
| 17-5-5-5-3 | 2-4-2-16-4 | 1-10-7-10-10-1 | 0.693417849801 | 0.822858358411 | 117.26561749 | 10560 | 0.0080900411054 |
| 17-5-5-3-5 | 2-2-2-16-8 | 1-9-4-2-1-1 | 0.684476333779 | 0.815658361871 | 108.184988308 | 882 | 0.00814511342299 |
| 5-17-5-3-5 | 8-8-2-4-2 | 1-1-4-7-3-1 | 0.678211310217 | 0.81089671054 | 105.158862925 | 1146 | 0.00809415065721 |
| 5-17-5-3-5 | 2-4-8-8-2 | 1-9-7-9-2-1 | 0.694007967442 | 0.822114421108 | 107.927973032 | 7346 | 0.00812485510812 |
| 5-3-5-17-5 | 32-4-2-2-2 | 1-9-9-1-9-1 | 0.692847131728 | 0.821411811715 | 105.083740568 | 2898 | 0.00817616449103 |
| 5-5-5-17-3 | 2-4-2-8-8 | 1-8-7-8-6-1 | 0.739856334498 | 0.848331540769 | 111.370353651 | 8432 | 0.00836926675412 |
| 17-5-3-5-5 | 8-2-16-2-2 | 1-9-7-4-5-1 | 0.716670747785 | 0.835419976673 | 106.725462413 | 3448 | 0.00830827297974 |
| 17-5-5-5-3 | 2-2-2-2-64 | 1-5-10-6-5-1 | 26.5495701421 | 1.51842815116 | 131.794841552 | 2530 | 0.0151230311414 |
| 3-5-5-5-17 | 2-4-2-8-8 | 1-4-5-6-3-1 | 0.706991035015 | 0.830644695052 | 107.118157077 | 1852 | 0.00828191962311 |
| 425-3-5 | 64-4-4 | 1-2-8-1 | 0.675381127228 | 0.811250243803 | 107.184940553 | 54752 | 0.00740431408744 |
| 17-5-3-5-5 | 8-4-2-2-8 | 1-10-6-3-3-1 | 0.701242071612 | 0.825782520704 | 106.939043069 | 2878 | 0.00821993295426 |
| 17-5-5-5-3 | 8-2-2-2-16 | 1-3-8-4-10-1 | 0.707724677611 | 0.830786225202 | 113.745369411 | 1848 | 0.00828338372931 |
| 5-5-5-3-17 | 16-2-8-2-2 | 1-6-10-3-5-1 | 0.667694747422 | 0.807311394193 | 106.74184227 | 2540 | 0.00804041988993 |
| 5-17-5-3-5 | 2-2-32-2-4 | 1-7-10-3-9-1 | 0.758299089969 | 0.85853940712 | 113.911609197 | 7592 | 0.00848147138021 |
| 17-5-5-5-3 | 4-2-4-2-16 | 1-9-4-10-6-1 | 0.672495980409 | 0.809132404621 | 114.406415367 | 2660 | 0.00805700816298 |
| 5-17-3-5-5 | 2-4-8-2-8 | 1-7-8-3-10-1 | 0.741893559075 | 0.850256814568 | 111.160851145 | 5154 | 0.00843269850885 |
| 5-3-17-5-5 | 8-8-2-2-4 | 1-4-4-10-1-1 | 0.699999587311 | 0.825664291547 | 107.07654686 | 2024 | 0.00822999839178 |
| 5-5-5-3-17 | 4-8-8-2-2 | 1-5-8-7-5-1 | 0.72194538583 | 0.837790557719 | 107.094557405 | 4320 | 0.00832020061531 |
| 5-5-5-17-3 | 16-4-2-4-2 | 1-9-5-8-5-1 | 0.689044450313 | 0.818575181898 | 106.415104532 | 4770 | 0.00812349729702 |
| 5-5-3-85 | 2-8-32-2 | 1-7-2-1-1 | 0.724177714701 | 0.83874282847 | 106.711874914 | 992 | 0.00837416245425 |
| 5-17-3-5-5 | 8-2-4-8-2 | 1-3-6-1-6-1 | 0.667079045368 | 0.806304992033 | 106.858798385 | 1104 | 0.00804885730695 |
| 5-25-3-17 | 16-8-2-4 | 1-10-9-10-1 | 0.653096588471 | 0.797517323411 | 107.232293558 | 20020 | 0.00772060855276 |
| 3-5-5-5-17 | 8-8-2-2-4 | 1-4-1-2-2-1 | 0.670561612275 | 0.807056596953 | 106.840883899 | 452 | 0.0080647498091 |
| 25-5-17-3 | 8-2-8-8 | 1-10-4-9-1 | 0.690306614964 | 0.819309117912 | 111.016045976 | 7512 | 0.00809496219166 |
| 5-17-3-5-5 | 2-4-32-2-2 | 1-8-3-8-5-1 | 0.670352686119 | 0.808951308205 | 107.178852725 | 4466 | 0.00803191141524 |
| 5-3-85-5 | 16-2-4-8 | 1-3-7-3-1 | 0.673197377827 | 0.809459492989 | 106.707821751 | 7626 | 0.0079961743608 |
| 5-5-3-5-17 | 2-8-8-4-2 | 1-7-1-8-1-1 | 0.676294941813 | 0.812305323717 | 105.735377669 | 736 | 0.00811352108286 |
| 5-3-5-5-17 | 8-8-2-4-2 | 1-7-8-6-9-1 | 0.728811495583 | 0.842715526681 | 107.052022982 | 3490 | 0.00838026309226 |
| 17-5-3-5-5 | 16-4-2-2-4 | 1-3-7-10-2-1 | 0.722206193128 | 0.839734949859 | 106.28184154 | 1896 | 0.0083719646538 |
| 3-5-5-5-17 | 8-2-16-2-2 | 1-4-2-6-9-1 | 6.03416546565 | 1.16039861554 | 106.401001549 | 1982 | 0.0115673166711 |
| 3-5-5-17-5 | 2-4-4-2-16 | 1-4-1-4-4-1 | 11.2103438915 | 1.49582134077 | 107.676444435 | 1048 | 0.0149332194542 |
| 3-5-17-5-5 | 8-4-8-2-2 | 1-6-6-2-7-1 | 0.651613548844 | 0.796541602285 | 107.036420536 | 2706 | 0.00793104992629 |
| 17-5-5-3-5 | 2-64-2-2-2 | 1-6-3-7-10-1 | 0.700346035074 | 0.826701390489 | 105.933394098 | 6694 | 0.00817878145738 |
| 3-5-5-17-5 | 4-2-2-32-2 | 1-3-6-5-7-1 | 0.718978478432 | 0.835719108307 | 107.063295341 | 19626 | 0.00809568242205 |
| 3-5-17-5-5 | 4-16-2-2-4 | 1-2-8-9-8-1 | 0.689326578903 | 0.818126918409 | 102.510091138 | 4632 | 0.00812084884152 |
| 17-5-3-5-5 | 8-4-4-4-2 | 1-2-1-3-7-1 | 0.669164187336 | 0.807551937232 | 101.416401458 | 838 | 0.0080647296956 |
| 5-5-3-17-5 | 4-8-2-2-8 | 1-9-1-2-1-1 | 0.69956774768 | 0.824368365733 | 101.289186478 | 660 | 0.00823500886266 |
| 5-17-5-3-5 | 8-2-16-2-2 | 1-4-8-7-9-1 | 0.67982266621 | 0.814598771852 | 103.898329973 | 6196 | 0.00806551491893 |
| 3-85-5-5 | 64-4-2-2 | 1-3-10-7-1 | 0.681829480935 | 0.813183756505 | 101.020359015 | 11546 | 0.00798214018539 |
