| 5-5-17-3-5 | 8-4-8-2-2 | 1-6-2-1-1-1 | 0.690459951293 | 0.81932797932 | 72.3117789507 | 768 | 0.0081832472057 |
| 5-17-3-5-5 | 2-16-2-8-2 | 1-4-10-10-9-1 | 0.71281764994 | 0.83395937861 | 75.5350148201 | 15210 | 0.00813735331817 |
| 17-5-3-5-5 | 8-4-4-4-2 | 1-1-4-9-1-1 | 0.714421487052 | 0.833734765507 | 74.0575974941 | 838 | 0.00832620815039 |
| 5-3-5-17-5 | 4-2-4-4-8 | 1-2-10-8-4-1 | 0.774540818586 | 0.86751607254 | 74.066805315 | 4096 | 0.00861850661454 |
| 5-5-5-3-17 | 4-8-4-2-4 | 1-6-4-1-2-1 | 0.671392747747 | 0.809468461096 | 72.7903089046 | 1308 | 0.0080778034766 |
| 17-5-3-5-5 | 16-2-2-8-2 | 1-6-2-5-8-1 | 0.729287808972 | 0.843376436676 | 73.5772872448 | 3492 | 0.00838680852306 |
| 5-17-5-3-5 | 2-2-8-16-2 | 1-6-9-2-5-1 | 0.680676208444 | 0.81423694144 | 76.8072393417 | 3146 | 0.00810152774638 |
| 3-17-5-5-5 | 4-2-8-8-2 | 1-10-9-4-8-1 | 0.694095466594 | 0.819923367754 | 73.9368626833 | 5980 | 0.00812105858604 |
| 5-5-5-17-3 | 8-2-8-2-4 | 1-1-2-5-9-1 | 582.260101946 | 3.26365514603 | 74.4119132757 | 2098 | 0.0325273813631 |
| 5-17-3-5-5 | 16-2-4-4-2 | 1-8-2-3-7-1 | 0.695510001508 | 0.82268528731 | 73.3748133898 | 1746 | 0.00820395095167 |
| 5-17-3-5-5 | 8-4-8-2-2 | 1-10-5-3-9-1 | 0.679435494228 | 0.813483936247 | 71.3628440619 | 4520 | 0.0080762145635 |
| 5-17-5-3-5 | 2-4-4-8-4 | 1-8-9-5-10-1 | 0.735419924041 | 0.845986275659 | 74.236425519 | 7276 | 0.00836172187423 |
| 17-5-3-5-5 | 4-32-2-2-2 | 1-7-3-4-8-1 | 0.690653552028 | 0.820258015063 | 71.0269081354 | 4308 | 0.00814623972447 |
| 5-17-3-5-5 | 4-2-2-4-16 | 1-8-4-7-9-1 | 0.744786774855 | 0.850562510218 | 74.980039072 | 3396 | 0.00845957104789 |
| 3-5-5-85 | 2-2-4-64 | 1-2-3-10-1 | 0.685067183044 | 0.816112084069 | 73.0319349766 | 55072 | 0.00744452446483 |
| 5-3-17-5-5 | 2-2-8-4-8 | 1-9-1-9-6-1 | 0.957343378657 | 0.965844533141 | 72.3838563919 | 2688 | 0.00961705199428 |
| 5-5-3-5-17 | 2-2-16-8-2 | 1-6-10-9-10-1 | 11.83530637 | 1.35320564626 | 72.1149598598 | 8920 | 0.0133396043841 |
| 5-17-15-5 | 4-4-32-2 | 1-1-4-10-1 | 0.731307199209 | 0.844501908145 | 70.834359479 | 19592 | 0.00818121995224 |
| 17-5-5-3-5 | 2-8-2-16-2 | 1-9-6-2-1-1 | 0.701568937046 | 0.827016173934 | 71.2115902424 | 2692 | 0.00823466544565 |
| 5-17-5-3-5 | 4-2-2-32-2 | 1-1-4-4-4-1 | 0.738720384713 | 0.848169772759 | 73.1103215218 | 1892 | 0.00845611199402 |
| 3-5-5-17-5 | 8-4-4-2-4 | 1-5-2-1-5-1 | 0.665729084787 | 0.804757585822 | 70.898658061 | 630 | 0.00803949235569 |
| 85-3-5-5 | 2-32-4-4 | 1-1-5-8-1 | 0.737002437477 | 0.845857371887 | 71.1305283546 | 1610 | 0.00843686086223 |
| 5-5-3-5-17 | 2-8-2-4-8 | 1-2-8-7-6-1 | 72.6450163166 | 2.12139588527 | 70.0781935215 | 2652 | 0.0211242595242 |
| 5-5-3-17-5 | 4-2-8-8-2 | 1-8-9-10-1-1 | 0.702917075621 | 0.826694037882 | 70.4339160442 | 4410 | 0.00820881345428 |
| 17-5-5-3-5 | 2-8-8-2-4 | 1-7-4-1-5-1 | 0.667367072029 | 0.805876579866 | 71.2507025957 | 1648 | 0.00803759098036 |
| 5-5-5-3-17 | 8-16-2-2-2 | 1-4-7-8-4-1 | 0.67235094908 | 0.810616279655 | 70.1631087303 | 3288 | 0.00806366747883 |
| 17-5-3-5-5 | 2-2-32-4-2 | 1-7-1-7-2-1 | 0.722963633588 | 0.839599807191 | 70.4643012524 | 1280 | 0.00837886338197 |
| 25-5-17-3 | 2-2-128-2 | 1-7-7-8-1 | 0.710515045581 | 0.831221871 | 80.8266830206 | 122744 | 0.00668550478567 |
| 17-3-5-5-5 | 2-2-16-8-2 | 1-1-3-6-5-1 | 0.724246568075 | 0.840236241483 | 70.5261465788 | 2742 | 0.00836562887251 |
| 5-5-5-3-17 | 8-4-8-2-2 | 1-4-7-10-8-1 | 0.738135453978 | 0.848180223181 | 70.362341094 | 4272 | 0.00842403077273 |
| 3-5-5-5-17 | 16-2-4-4-2 | 1-10-4-4-3-1 | 0.691132254121 | 0.820927867144 | 69.2594601154 | 1542 | 0.00818909578287 |
| 3-17-5-5-5 | 2-4-2-32-2 | 1-3-1-7-5-1 | 0.69526259858 | 0.821276263293 | 70.7864917517 | 5942 | 0.0081349561349 |
| 3-17-5-5-5 | 2-8-2-4-8 | 1-2-10-8-1-1 | 0.693770947421 | 0.820628703822 | 70.9361827612 | 3732 | 0.0081574575369 |
| 5-3-17-5-5 | 2-8-16-2-2 | 1-2-4-1-5-1 | 0.69730341217 | 0.823515737006 | 69.7912270308 | 1400 | 0.00821677532236 |
| 5-17-5-3-5 | 16-4-4-2-2 | 1-6-5-10-2-1 | 0.696041122136 | 0.823752967473 | 69.9539441109 | 3660 | 0.00818945990654 |
| 5-5-5-3-17 | 2-4-16-4-2 | 1-3-3-6-8-1 | 11.9088592649 | 1.2378957743 | 70.3477120161 | 2498 | 0.0123296550701 |
| 5-5-5-3-17 | 2-8-4-2-8 | 1-7-9-5-6-1 | 0.713357749857 | 0.832767875175 | 70.8813005924 | 4486 | 0.0082681156668 |
| 5-17-5-5-3 | 4-2-4-16-2 | 1-3-8-6-9-1 | 0.705207710919 | 0.828514241989 | 73.888205719 | 6210 | 0.00820310999893 |
| 5-5-5-17-3 | 4-16-4-2-2 | 1-6-3-8-9-1 | 0.677622297446 | 0.812602800718 | 70.6664097309 | 4542 | 0.00806718167553 |
| 5-3-5-5-17 | 4-4-4-2-8 | 1-5-6-10-6-1 | 22.4753237169 | 1.60018274456 | 70.8481710672 | 3076 | 0.0159233490955 |
| 5-5-17-3-5 | 4-16-2-4-2 | 1-1-7-6-1-1 | 0.688797237537 | 0.818265663415 | 69.4712327003 | 2090 | 0.00815538980959 |
| 17-5-5-3-5 | 4-4-2-8-4 | 1-8-8-2-10-1 | 0.686714319904 | 0.818392752685 | 71.1480521679 | 2664 | 0.00814916671223 |
| 5-17-5-3-5 | 8-4-4-4-2 | 1-7-5-6-6-1 | 0.688065311221 | 0.817981779655 | 71.4883757353 | 3752 | 0.00813088495794 |
| 5-5-17-3-5 | 2-8-2-4-8 | 1-1-7-1-10-1 | 0.795113992299 | 0.879617818482 | 72.3508096695 | 1048 | 0.00878148048913 |
| 3-17-5-5-5 | 2-8-4-2-8 | 1-3-7-3-3-1 | 0.725838435755 | 0.840077655439 | 70.0910804272 | 3504 | 0.00835384364455 |
| 5-3-5-17-5 | 4-2-2-16-4 | 1-4-2-1-1-1 | 0.670325040428 | 0.807495283813 | 69.3012924194 | 440 | 0.00806928801152 |
| 17-3-5-5-5 | 2-4-4-8-4 | 1-7-4-2-7-1 | 0.703273482607 | 0.827055511686 | 70.6785250902 | 1434 | 0.00825164571629 |
| 5-17-5-3-5 | 4-2-8-8-2 | 1-1-10-2-1-1 | 0.682829348543 | 0.815622158287 | 70.1373621225 | 1218 | 0.00814038249185 |
| 3-5-17-5-5 | 64-2-2-2-2 | 1-2-1-9-5-1 | 0.701853609146 | 0.827657460527 | 69.7987493992 | 1210 | 0.00826060736153 |
| 5-5-5-17-3 | 32-2-2-4-2 | 1-4-10-10-5-1 | 0.705020265708 | 0.828963751086 | 69.90179317 | 5470 | 0.00821734108678 |
| 3-5-5-17-5 | 16-2-4-4-2 | 1-5-2-4-9-1 | 0.677192744212 | 0.81151658621 | 70.372066164 | 3038 | 0.00807585802746 |
| 5-5-5-3-17 | 4-16-2-2-4 | 1-7-5-8-2-1 | 0.680958066994 | 0.814920397287 | 69.1245285034 | 3572 | 0.00810279300892 |
| 5-5-3-17-5 | 4-2-2-2-32 | 1-7-6-1-1-1 | 0.711397652114 | 0.831896833168 | 70.1616733074 | 790 | 0.0083084900393 |
| 3-5-5-17-5 | 2-8-8-2-4 | 1-3-6-2-1-1 | 0.678166473932 | 0.813040144861 | 69.3991990805 | 1306 | 0.00811347175427 |
| 17-5-3-5-5 | 16-2-2-8-2 | 1-8-9-5-9-1 | 0.707113888133 | 0.830430966735 | 70.0158646584 | 5056 | 0.00823736676289 |
| 5-3-5-17-5 | 2-4-2-8-8 | 1-8-5-5-10-1 | 0.75033213421 | 0.853820182942 | 72.8016459942 | 8010 | 0.0084291600618 |
| 5-5-5-3-17 | 16-8-2-2-2 | 1-5-10-8-6-1 | 0.690335281891 | 0.820229163166 | 69.1272026777 | 3692 | 0.00815400900936 |
| 5-17-5-5-3 | 4-2-8-4-4 | 1-2-1-10-9-1 | 0.725206488538 | 0.840283934383 | 72.1645247698 | 2416 | 0.0083704712637 |
| 5-5-17-3-5 | 16-2-4-2-4 | 1-7-4-4-3-1 | 0.683313222763 | 0.815777584481 | 70.5882947683 | 2060 | 0.00813098212951 |
| 17-25-5-3 | 4-8-8-4 | 1-1-7-8-1 | 0.754272710554 | 0.855879218538 | 72.5130802155 | 3804 | 0.0085068826741 |
| 17-5-5-5-3 | 2-8-2-16-2 | 1-5-2-5-5-1 | 0.688249101349 | 0.818175440588 | 72.2527478218 | 2700 | 0.00814653320547 |
| 5-5-5-17-3 | 16-2-4-2-4 | 1-6-5-10-2-1 | 0.690540133061 | 0.819926398091 | 69.9167149782 | 2484 | 0.00816679113058 |
| 17-5-15-5 | 2-32-4-4 | 1-3-3-5-1 | 0.668225662188 | 0.80690471526 | 70.5557777882 | 2542 | 0.00803634383969 |
| 5-25-17-3 | 4-16-8-2 | 1-9-3-1-1 | 0.680037077293 | 0.814084484958 | 70.1889509678 | 11394 | 0.00799295456543 |
| 17-5-5-3-5 | 4-2-32-2-2 | 1-5-7-5-10-1 | 0.693940010193 | 0.821643022204 | 70.9250142336 | 6690 | 0.00812879004636 |
| 5-3-5-85 | 8-16-4-2 | 1-4-6-9-1 | 0.959582215992 | 0.966984493516 | 69.4153585911 | 3922 | 0.00960937756935 |
| 3-5-5-85 | 4-4-2-32 | 1-5-2-8-1 | 0.961193331807 | 0.965761274681 | 70.548861289 | 22180 | 0.00931608556134 |
| 17-5-5-3-5 | 2-8-16-2-2 | 1-8-5-4-4-1 | 0.693950046038 | 0.822523714524 | 71.129363203 | 3608 | 0.00817792104891 |
| 17-3-5-5-5 | 8-4-2-4-4 | 1-8-5-5-10-1 | 0.689649821903 | 0.818965377364 | 70.5708431959 | 3018 | 0.00815024628785 |
| 5-5-5-17-3 | 4-4-2-2-16 | 1-2-1-3-10-1 | 10.2507861383 | 1.40848938255 | 74.1252354622 | 1610 | 0.0140487384061 |
| 5-3-17-5-5 | 2-64-2-2-2 | 1-1-9-2-10-1 | 0.703478983266 | 0.827650060374 | 70.3202504396 | 2650 | 0.00824153133302 |
| 5-5-15-17 | 8-8-2-8 | 1-9-3-9-1 | 0.728139103369 | 0.841719914476 | 70.5970671892 | 3474 | 0.00837057709465 |
| 3-5-5-5-17 | 4-4-4-4-4 | 1-8-2-3-10-1 | 25.0643412314 | 1.51791746447 | 70.157381773 | 1816 | 0.0151352247386 |
| 17-5-3-25 | 16-8-2-4 | 1-4-3-5-1 | 0.668823556252 | 0.806896874074 | 71.5521386385 | 2158 | 0.00804120593056 |
| 17-5-3-5-5 | 2-2-2-64-2 | 1-9-2-5-1-1 | 0.717474445674 | 0.836654520443 | 74.0996877193 | 2156 | 0.00833778520529 |
| 3-5-5-5-17 | 8-4-4-2-4 | 1-3-8-10-7-1 | 0.712479341704 | 0.832973888722 | 70.4085259676 | 3328 | 0.00828554027272 |
| 5-17-3-5-5 | 2-8-4-2-8 | 1-8-2-9-8-1 | 0.718515009603 | 0.836000665298 | 71.6650082827 | 3512 | 0.00831319488103 |
| 17-3-5-5-5 | 4-8-2-4-4 | 1-5-10-9-8-1 | 0.705998949495 | 0.828371347567 | 70.3798961401 | 4040 | 0.00823035537228 |
| 17-3-5-5-5 | 4-2-4-4-8 | 1-2-7-8-10-1 | 76.9464048279 | 1.81567412033 | 72.4716469765 | 3340 | 0.0180600519246 |
| 5-3-17-5-5 | 8-2-8-4-2 | 1-5-7-10-2-1 | 0.69141597486 | 0.820332860382 | 69.7437403679 | 10350 | 0.00806795798672 |
| 3-5-5-5-17 | 8-4-4-2-4 | 1-7-7-6-4-1 | 0.702401925316 | 0.825593000839 | 69.8715674162 | 2500 | 0.00822302212411 |
| 3-5-5-17-5 | 4-8-4-4-2 | 1-3-4-10-3-1 | 0.661482283101 | 0.802238472197 | 69.0898714542 | 3386 | 0.00797907510037 |
| 5-5-5-17-3 | 2-8-8-2-4 | 1-7-4-6-1-1 | 0.68273717858 | 0.815142648612 | 70.7689193726 | 2366 | 0.00812067668531 |
| 5-5-5-17-3 | 4-2-2-4-16 | 1-5-1-3-10-1 | 115.966803326 | 2.42408948411 | 75.3898450136 | 2700 | 0.0241365414992 |
| 3-5-17-5-5 | 2-2-2-16-8 | 1-1-9-6-1-1 | 0.691164017445 | 0.819639947307 | 73.4409696817 | 2452 | 0.00816435615115 |
| 5-5-5-3-17 | 32-2-4-2-2 | 1-10-4-7-6-1 | 0.68734583634 | 0.81787559644 | 68.7710600138 | 3016 | 0.00813942699758 |
| 5-5-17-3-5 | 2-2-8-16-2 | 1-8-2-1-1-1 | 0.698860034874 | 0.824439549314 | 69.8629972696 | 570 | 0.0082369029781 |
| 5-85-5-3 | 2-2-8-32 | 1-3-3-10-1 | 0.756262996891 | 0.858445136585 | 86.4783463001 | 3720 | 0.00853353593364 |
| 5-5-17-3-5 | 16-2-2-8-2 | 1-6-6-7-6-1 | 0.688361144365 | 0.81862196336 | 71.2755708218 | 3336 | 0.00814267813377 |
| 5-17-5-3-5 | 2-16-4-2-4 | 1-10-7-4-3-1 | 0.683270342622 | 0.815816766007 | 70.8766632318 | 19832 | 0.00790020723112 |
| 5-5-5-3-17 | 4-2-32-2-2 | 1-9-6-10-5-1 | 0.671725757727 | 0.809193325348 | 70.5465006351 | 10790 | 0.00795272413389 |
| 17-3-5-5-5 | 2-4-4-8-4 | 1-9-8-5-9-1 | 0.68907237874 | 0.81872665214 | 72.4652670622 | 3950 | 0.00813570449532 |
| 17-5-5-3-5 | 2-8-4-4-4 | 1-3-6-9-5-1 | 0.683572258517 | 0.815915217815 | 71.450905323 | 2542 | 0.00812608367554 |
| 3-5-5-17-5 | 4-2-4-8-4 | 1-8-2-3-10-1 | 0.725249451926 | 0.839308032306 | 70.4312947989 | 4656 | 0.00833077454821 |
| 5-5-17-3-5 | 2-2-2-64-2 | 1-5-1-4-8-1 | 0.743450215375 | 0.849072688193 | 74.7846218109 | 6460 | 0.00840327456105 |
| 5-17-5-5-3 | 2-32-2-2-4 | 1-2-5-6-7-1 | 0.704614170829 | 0.828954145248 | 74.452819705 | 6264 | 0.0082067517719 |
| 5-17-5-5-3 | 2-8-16-2-2 | 1-6-5-7-1-1 | 0.682770848945 | 0.815325320497 | 72.5130419493 | 7016 | 0.00806204908429 |
| 5-5-51-5 | 8-2-8-8 | 1-5-1-5-1 | 0.662185106856 | 0.803409028193 | 72.7442177296 | 2490 | 0.00800219473856 |
| 3-17-5-5-5 | 4-2-4-8-4 | 1-5-9-3-6-1 | 0.788804998384 | 0.873390793714 | 72.8214611769 | 2970 | 0.00869254998661 |
| 3-5-5-5-17 | 4-4-8-2-4 | 1-7-7-1-8-1 | 0.683620683417 | 0.815389884007 | 72.5411760807 | 1968 | 0.00812831390238 |
| 5-17-5-3-5 | 2-2-4-16-4 | 1-6-8-6-7-1 | 0.751834693471 | 0.854973698303 | 77.0802184105 | 4808 | 0.00848419626968 |
| 17-3-5-5-5 | 4-16-4-2-2 | 1-4-7-4-1-1 | 0.708934515648 | 0.832003953376 | 71.7606705666 | 2226 | 0.00829051082203 |
| 5-3-5-5-17 | 4-4-2-16-2 | 1-2-1-1-8-1 | 0.976933455817 | 0.974273486007 | 72.910694766 | 986 | 0.00972741863467 |
| 3-5-5-17-5 | 4-8-2-4-4 | 1-3-8-9-9-1 | 0.707160539927 | 0.829854951616 | 73.460226059 | 7404 | 0.00820058640931 |
| 3-17-5-5-5 | 4-8-4-4-2 | 1-3-5-9-1-1 | 0.675969672525 | 0.810708199402 | 72.5095072985 | 3166 | 0.00806615880908 |
| 5-3-5-17-5 | 8-16-2-2-2 | 1-7-8-2-6-1 | 0.681565456266 | 0.814632458822 | 72.3883129358 | 3596 | 0.0080996183012 |
| 5-3-17-5-5 | 4-2-16-2-4 | 1-10-7-8-9-1 | 0.660275688157 | 0.802698735112 | 72.2573926687 | 16752 | 0.00781259307161 |
| 5-25-17-3 | 2-8-8-8 | 1-1-1-1-1 | 0.724500800009 | 0.839289730808 | 71.442533493 | 370 | 0.00838794614098 |
| 5-3-5-17-5 | 4-16-2-4-2 | 1-8-7-7-1-1 | 0.689873797526 | 0.819056648682 | 71.8111679077 | 3824 | 0.00814062910441 |
| 5-5-5-17-3 | 2-8-4-2-8 | 1-9-8-8-10-1 | 0.787313829345 | 0.875247009561 | 75.424689579 | 7210 | 0.00865185576303 |
| 5-5-15-17 | 2-64-2-4 | 1-7-10-2-1 | 0.681664965095 | 0.815323473317 | 73.4863074303 | 23206 | 0.00785157024781 |
| 5-3-17-5-5 | 2-32-4-2-2 | 1-8-3-5-5-1 | 0.670427929515 | 0.807840248362 | 72.8162296772 | 3704 | 0.00803069457099 |
| 3-5-5-17-5 | 4-2-2-8-8 | 1-10-7-10-1-1 | 0.687218525637 | 0.818423576919 | 72.5613661528 | 2920 | 0.00814613314092 |
| 17-5-5-5-3 | 8-2-2-8-4 | 1-6-8-4-8-1 | 0.699212862471 | 0.823932641738 | 74.1003937483 | 2992 | 0.00820002146738 |
| 5-5-5-17-3 | 2-8-4-2-8 | 1-7-2-8-9-1 | 0.749393211142 | 0.852415559472 | 73.88564291 | 3614 | 0.0084750384099 |
| 5-17-5-3-5 | 8-2-4-4-4 | 1-4-9-10-1-1 | 0.708050855941 | 0.830761234092 | 74.8059029579 | 3324 | 0.0082635841148 |
| 17-5-5-5-3 | 8-4-8-2-2 | 1-3-4-1-5-1 | 0.689058335328 | 0.81922760765 | 72.378613925 | 888 | 0.00818067731828 |
| 5-3-5-17-5 | 2-8-2-4-8 | 1-4-4-5-3-1 | 0.727164176175 | 0.841032156092 | 72.3865030527 | 1764 | 0.00838666753153 |
| 5-17-5-5-3 | 2-2-2-32-4 | 1-4-10-4-1-1 | 0.686631092408 | 0.817254810673 | 78.046571207 | 2452 | 0.00814059803027 |
| 5-5-17-3-5 | 2-8-2-4-8 | 1-1-7-3-10-1 | 3.64923548869 | 1.20252042277 | 72.2791559219 | 1764 | 0.0119913833408 |
| 3-5-5-17-5 | 8-8-2-2-4 | 1-9-8-5-6-1 | 0.683331045853 | 0.815087421088 | 70.5019499302 | 4636 | 0.00809062635878 |
| 5-17-5-5-3 | 32-4-2-2-2 | 1-6-1-10-10-1 | 0.695430739627 | 0.822592078706 | 70.2616490126 | 2528 | 0.00819276529001 |
| 5-5-5-17-3 | 2-4-8-8-2 | 1-10-8-7-1-1 | 0.686672857157 | 0.817151458978 | 71.6603076935 | 4898 | 0.00810770068917 |
| 5-17-3-5-5 | 8-4-8-2-2 | 1-7-6-3-6-1 | 0.688444742706 | 0.818719123219 | 70.5761589766 | 3808 | 0.00813748328542 |
| 5-5-5-17-3 | 4-8-4-2-4 | 1-8-8-9-4-1 | 0.684388994831 | 0.81593277419 | 71.4473667383 | 5432 | 0.00808866213556 |
| 17-3-5-5-5 | 2-4-16-2-4 | 1-7-5-2-8-1 | 0.688074756462 | 0.818189593205 | 72.3705722809 | 1778 | 0.00815870171814 |
| 3-17-5-5-5 | 2-2-8-8-4 | 1-5-3-2-8-1 | 0.705764681045 | 0.828872213978 | 71.3598267078 | 1580 | 0.00826784174918 |
| 3-5-5-17-5 | 2-4-4-16-2 | 1-2-6-9-3-1 | 0.690061536799 | 0.819072292535 | 70.5832661867 | 8706 | 0.00807702963168 |
| 5-25-3-17 | 2-8-2-32 | 1-6-2-4-1 | 0.682114025228 | 0.815754144548 | 71.5795858383 | 4684 | 0.00809662001032 |
| 5-5-5-3-17 | 2-4-32-2-2 | 1-10-5-9-5-1 | 0.731697299077 | 0.843560099795 | 70.8089810848 | 8740 | 0.00831805132843 |
| 5-5-3-5-17 | 2-4-16-2-4 | 1-4-5-10-10-1 | 102.216770648 | 1.94938511487 | 70.0773021221 | 4520 | 0.0193533661244 |
| 3-17-5-5-5 | 16-2-2-8-2 | 1-10-2-8-10-1 | 0.702930575003 | 0.825751075524 | 69.6986371994 | 4620 | 0.00819668534119 |
| 3-5-5-17-5 | 4-2-4-16-2 | 1-5-10-10-8-1 | 1.10271746219 | 0.947574117718 | 70.9399602175 | 24400 | 0.00910710583801 |
| 3-5-17-5-5 | 16-8-2-2-2 | 1-6-4-5-10-1 | 0.691251349177 | 0.820465165509 | 69.8562390566 | 2528 | 0.00817158188566 |
| 5-5-3-17-5 | 4-2-4-2-16 | 1-10-7-3-4-1 | 0.713243391927 | 0.834021080959 | 71.3707548857 | 1880 | 0.00831521145321 |
| 3-5-5-17-5 | 4-4-8-2-4 | 1-8-10-5-3-1 | 0.666601868993 | 0.806053780798 | 69.7415755033 | 4266 | 0.0080057127852 |
| 17-5-3-5-5 | 2-8-4-4-4 | 1-5-9-5-3-1 | 0.682474102815 | 0.816054642983 | 71.0918196917 | 2870 | 0.00812320464372 |
| 5-51-5-5 | 2-32-2-8 | 1-7-7-6-1 | 0.694353570522 | 0.822419604355 | 72.9506109476 | 80698 | 0.00716603888105 |
| 5-5-5-3-17 | 32-2-2-4-2 | 1-4-2-8-9-1 | 0.682261569051 | 0.81543768209 | 69.4468781233 | 2050 | 0.00812772428186 |
| 3-17-5-5-5 | 4-8-2-4-4 | 1-8-3-9-8-1 | 0.721894271816 | 0.838565622484 | 71.1067029238 | 5230 | 0.00831573118967 |
| 5-5-5-3-17 | 32-2-2-2-4 | 1-10-1-5-4-1 | 0.696926393916 | 0.823835294959 | 69.1337860584 | 2142 | 0.00821021750313 |
| 17-5-3-5-5 | 2-2-16-2-8 | 1-5-9-5-10-1 | 0.761614552403 | 0.862409636036 | 75.1576490641 | 3680 | 0.00857349579498 |
| 5-5-3-5-17 | 16-2-8-2-2 | 1-3-6-8-7-1 | 0.649751073707 | 0.795983250701 | 70.2377788782 | 2370 | 0.00792975469604 |
| 5-17-3-5-5 | 16-2-4-2-4 | 1-7-6-4-2-1 | 0.686839114214 | 0.81713334571 | 69.6709362984 | 2396 | 0.00814011771258 |
| 5-5-51-5 | 2-32-2-8 | 1-5-9-7-1 | 0.744634281379 | 0.851387529768 | 71.1903621197 | 13956 | 0.00832443071277 |
| 5-3-5-5-17 | 2-8-2-8-4 | 1-7-9-5-6-1 | 0.717169510416 | 0.835273555847 | 70.1773395061 | 3640 | 0.00830425986103 |
| 5-17-5-15 | 4-16-8-2 | 1-4-4-7-1 | 0.728558773769 | 0.841398480232 | 70.5276166916 | 5762 | 0.00833668668301 |
| 5-17-3-5-5 | 2-32-2-2-4 | 1-10-6-6-8-1 | 0.693163321224 | 0.821791138794 | 71.872703433 | 33596 | 0.00777771854517 |
| 5-5-5-17-3 | 8-8-2-2-4 | 1-6-4-1-9-1 | 0.65492126754 | 0.799432587817 | 69.9292814255 | 1654 | 0.00797324390272 |
| 5-3-5-5-17 | 2-2-16-8-2 | 1-7-2-6-5-1 | 1.49199234149 | 1.02448781679 | 69.4377179623 | 2484 | 0.0102043037461 |
| 17-3-5-25 | 4-4-8-8 | 1-2-4-1-1 | 0.693682242817 | 0.822547559071 | 69.99702456 | 592 | 0.00821771174895 |
| 5-5-5-17-3 | 64-2-2-2-2 | 1-6-1-2-1-1 | 0.804900281789 | 0.883686216856 | 68.5293107986 | 2074 | 0.00880764078441 |
| 5-5-3-5-17 | 8-2-16-2-2 | 1-6-10-8-7-1 | 0.657893918792 | 0.800721404909 | 71.2455951452 | 5478 | 0.00793727859221 |
| 5-5-3-17-5 | 2-4-8-8-2 | 1-6-6-1-10-1 | 0.713886794331 | 0.83390865856 | 70.9038733959 | 2384 | 0.00830738954731 |
| 5-5-3-85 | 4-2-4-32 | 1-1-3-2-1 | 0.863611034678 | 0.916534413093 | 70.1222932339 | 5562 | 0.00908406599946 |
| 5-5-3-5-17 | 16-2-4-2-4 | 1-1-4-4-3-1 | 1.14143954637 | 0.982090935447 | 68.9926362991 | 636 | 0.00981095065174 |
| 85-3-5-5 | 8-16-4-2 | 1-5-6-4-1 | 0.737805624462 | 0.848121343753 | 69.5210913897 | 5360 | 0.00840873367984 |
| 5-3-17-5-5 | 4-4-8-2-4 | 1-5-5-4-2-1 | 0.669512956075 | 0.807857337352 | 68.8551661253 | 3240 | 0.00803684094729 |
| 5-17-5-3-5 | 2-2-16-2-8 | 1-4-7-5-7-1 | 0.740462839701 | 0.849512692555 | 72.8757535934 | 4282 | 0.00843712926372 |
| 3-17-5-25 | 64-2-4-2 | 1-3-4-3-1 | 0.682490921544 | 0.815165740112 | 68.9315897465 | 1374 | 0.00813379965675 |
| 15-5-17-5 | 16-2-16-2 | 1-2-6-2-1 | 0.718832746367 | 0.836462279699 | 69.7673745155 | 3884 | 0.00831282401679 |
| 17-5-5-3-5 | 2-4-4-4-8 | 1-8-9-4-8-1 | 0.730028373632 | 0.842629439259 | 72.1825074911 | 3136 | 0.00838416292062 |
| 5-3-17-5-5 | 4-8-4-4-2 | 1-5-7-6-7-1 | 0.655838865513 | 0.799777771935 | 70.3533557892 | 4706 | 0.00793776888334 |
| 17-5-3-5-5 | 2-2-2-4-32 | 1-9-3-10-4-1 | 3.07349875593 | 1.11841436055 | 77.3458251238 | 2196 | 0.0111449848374 |
| 17-5-3-5-5 | 4-4-4-8-2 | 1-6-9-2-3-1 | 0.693456294887 | 0.821534486048 | 70.3199708462 | 1974 | 0.00818948852956 |
| 5-3-17-5-5 | 2-16-2-2-8 | 1-4-3-8-2-1 | 0.708659200961 | 0.830620413814 | 70.1818448782 | 1672 | 0.00828406132354 |
| 5-17-3-5-5 | 4-4-16-2-2 | 1-6-3-9-10-1 | 0.661406927652 | 0.803551172405 | 70.5681007147 | 3640 | 0.00798887705779 |
| 17-5-3-5-5 | 4-4-2-8-4 | 1-6-8-5-2-1 | 0.693629943171 | 0.822006675992 | 70.9991481304 | 2048 | 0.0081932257256 |
| 5-5-5-3-17 | 32-2-2-2-4 | 1-10-7-8-7-1 | 0.706998732437 | 0.829793333372 | 70.242097497 | 3672 | 0.00824935232096 |
| 5-3-17-25 | 8-32-2-2 | 1-7-9-2-1 | 0.70685049932 | 0.828569992145 | 69.0342139721 | 7040 | 0.00819269716723 |
| 5-17-5-5-3 | 4-32-2-2-2 | 1-4-8-6-7-1 | 0.671036413732 | 0.809962785423 | 70.8696501017 | 18430 | 0.00786162380233 |
| 3-5-5-17-5 | 4-2-4-8-4 | 1-7-5-9-7-1 | 0.794925447856 | 0.877079170201 | 71.6525748968 | 10042 | 0.00863036394329 |
| 5-5-85-3 | 8-4-8-4 | 1-8-6-3-1 | 0.69241174906 | 0.82134470158 | 70.493352294 | 13556 | 0.00803592551111 |
| 5-3-17-5-5 | 4-4-4-4-4 | 1-1-10-4-8-1 | 2.78938095665 | 1.15277427922 | 70.6074195147 | 3660 | 0.0114604731197 |
| 17-15-5-5 | 2-16-4-8 | 1-5-8-4-1 | 0.671148476486 | 0.809190324205 | 72.3454776287 | 10570 | 0.00795553299768 |
| 25-5-3-17 | 4-16-4-4 | 1-1-3-3-1 | 0.699867040331 | 0.824842719565 | 70.6184365034 | 652 | 0.00823985261891 |
| 5-17-5-5-3 | 4-32-2-2-2 | 1-3-1-8-9-1 | 0.669154745067 | 0.807878141319 | 69.8772800207 | 2546 | 0.00804598712512 |
| 3-5-5-17-5 | 4-16-2-4-2 | 1-2-4-6-7-1 | 0.716060692891 | 0.83400937048 | 69.6466426849 | 3830 | 0.00828916488004 |
| 25-3-5-17 | 2-32-2-8 | 1-5-10-9-1 | 0.729408921937 | 0.843598464791 | 71.1276464224 | 7174 | 0.00833949269341 |
| 3-5-5-85 | 4-4-2-32 | 1-2-2-2-1 | 0.960757181389 | 0.966855621621 | 68.6999211311 | 5584 | 0.00958247646827 |
| 5-5-85-3 | 16-16-2-2 | 1-10-1-7-1 | 0.691290123225 | 0.820594500889 | 69.8771451235 | 2832 | 0.00816889265515 |
| 5-17-5-3-5 | 2-2-4-4-16 | 1-7-2-2-9-1 | 686.318518065 | 7.36507728773 | 72.913991189 | 1562 | 0.0734673505124 |
| 17-25-5-3 | 8-16-4-2 | 1-6-2-6-1 | 0.696765757123 | 0.823109729909 | 70.3397197008 | 5892 | 0.00815377327918 |
| 3-5-5-5-17 | 2-2-8-8-4 | 1-4-3-5-1-1 | 0.700088673175 | 0.824908353733 | 69.4645269871 | 1012 | 0.00823577347269 |
| 17-5-5-3-5 | 4-8-2-4-4 | 1-2-5-6-9-1 | 0.71636454739 | 0.834708049423 | 71.7556483746 | 1664 | 0.00832493517863 |
| 17-3-5-5-5 | 4-4-2-16-2 | 1-2-4-2-3-1 | 0.68125476702 | 0.813949033919 | 70.4603187084 | 822 | 0.00812882283113 |
| 85-5-5-3 | 2-4-64-2 | 1-4-8-3-1 | 0.694624672483 | 0.822497339139 | 83.880659008 | 9018 | 0.00810671317129 |
| 17-5-5-3-5 | 16-2-4-4-2 | 1-3-8-10-7-1 | 0.703582799525 | 0.827292915849 | 71.9986243725 | 3566 | 0.00822589270221 |
| 3-5-5-17-5 | 2-2-32-2-4 | 1-4-6-8-1-1 | 0.67731185417 | 0.812247963877 | 71.3625412703 | 8236 | 0.00801582029198 |
| 5-17-3-5-5 | 16-2-4-4-2 | 1-4-9-2-1-1 | 0.711308494097 | 0.832477140677 | 70.637240243 | 1810 | 0.00830074743317 |
| 3-5-5-5-17 | 2-32-2-2-4 | 1-6-2-1-8-1 | 0.672704440749 | 0.809157194232 | 70.9632697582 | 2600 | 0.00805802907394 |
| 5-3-17-5-5 | 4-2-4-2-16 | 1-1-5-2-2-1 | 0.764846231144 | 0.86392078863 | 73.0054901123 | 930 | 0.00862639783634 |
| 3-5-5-17-5 | 4-2-4-8-4 | 1-10-2-4-8-1 | 0.716203306479 | 0.834681927534 | 72.5070430756 | 4992 | 0.00828038540764 |
| 3-17-5-5-5 | 2-2-16-8-2 | 1-2-6-9-9-1 | 0.729890801013 | 0.843714657222 | 73.3544957161 | 8070 | 0.00832858826094 |
| 5-5-5-17-3 | 16-2-4-4-2 | 1-10-8-5-8-1 | 0.696142288933 | 0.823005685369 | 72.1924438953 | 5168 | 0.00816224286482 |
| 5-25-17-3 | 4-16-8-2 | 1-5-8-10-1 | 0.69394384219 | 0.821834746961 | 71.1420130253 | 27040 | 0.00786403606084 |
| 5-5-5-17-3 | 2-4-2-2-32 | 1-2-2-3-8-1 | 6.00043058651 | 1.3483427429 | 78.1479179859 | 1744 | 0.0134459352456 |
| 5-3-17-5-5 | 2-2-8-2-16 | 1-7-9-2-3-1 | 0.724980907395 | 0.841255369078 | 71.6377990007 | 3196 | 0.00836968614997 |
| 5-5-3-17-5 | 16-2-2-8-2 | 1-10-8-1-6-1 | 0.689475269724 | 0.819297449275 | 70.1309227943 | 2524 | 0.00816000404055 |
| 5-5-5-3-17 | 2-4-4-16-2 | 1-7-9-1-3-1 | 0.68295346722 | 0.816886671184 | 70.6356954098 | 1756 | 0.00814599596894 |
| 5-3-17-5-5 | 2-2-16-4-4 | 1-4-4-9-3-1 | 0.744211606293 | 0.851311798613 | 71.7869075298 | 10528 | 0.00837021921994 |
| 5-5-17-5-3 | 4-4-2-2-16 | 1-7-9-2-2-1 | 0.663676025656 | 0.803986279669 | 71.3385677576 | 2148 | 0.0080123283176 |
| 5-25-17-3 | 4-4-4-16 | 1-1-10-8-1 | 0.726805875926 | 0.842039161701 | 75.2945368767 | 6844 | 0.00832850838961 |
| 5-5-17-5-3 | 2-32-4-2-2 | 1-2-9-10-5-1 | 0.730655577556 | 0.842595347868 | 70.3116565943 | 9550 | 0.00829765651484 |
| 5-17-5-5-3 | 2-16-4-2-4 | 1-5-2-3-1-1 | 0.670123382079 | 0.80847796301 | 69.5501809835 | 2932 | 0.00804698534777 |
| 5-3-17-5-5 | 2-8-2-16-2 | 1-2-8-10-8-1 | 0.822708774831 | 0.882389473523 | 71.8129611015 | 9604 | 0.0086887788471 |
| 17-3-5-5-5 | 4-2-4-4-8 | 1-3-1-1-6-1 | 0.863193461388 | 0.911866441117 | 71.3724361181 | 602 | 0.00910991212167 |
| 5-5-3-17-5 | 8-4-8-2-2 | 1-7-5-2-7-1 | 0.687034021344 | 0.817906709938 | 71.8937326431 | 1766 | 0.00815603739195 |
| 5-3-5-17-5 | 4-16-2-2-4 | 1-9-3-2-4-1 | 0.684990620118 | 0.815123844332 | 71.3232970953 | 1888 | 0.00812670155209 |
| 15-5-17-5 | 2-8-32-2 | 1-3-7-4-1 | 0.686657213499 | 0.81717440033 | 70.7406310081 | 16202 | 0.0079606493025 |
| 5-5-3-17-5 | 4-16-4-2-2 | 1-9-1-6-4-1 | 0.682353143977 | 0.814415224485 | 69.1538908482 | 1828 | 0.00812041578072 |
| 3-5-5-17-5 | 4-4-2-4-8 | 1-4-4-7-7-1 | 0.722529546033 | 0.837935166193 | 70.6281356812 | 4260 | 0.00832243833591 |
| 17-5-5-5-3 | 2-4-16-2-4 | 1-5-8-2-7-1 | 0.696374472264 | 0.823516310703 | 72.3966488123 | 2474 | 0.00820267938011 |
| 17-3-5-5-5 | 4-2-32-2-2 | 1-3-10-7-2-1 | 0.699036282555 | 0.824488029062 | 70.8399318695 | 11744 | 0.00809049911375 |
| 51-5-25 | 8-16-8 | 1-8-4-1 | 0.689566660543 | 0.819093248916 | 71.0964498758 | 6624 | 0.00810442621236 |
| 17-5-5-3-5 | 8-2-4-8-2 | 1-10-4-1-9-1 | 0.690012390757 | 0.818638405967 | 70.9515039206 | 2146 | 0.00815837388717 |
| 17-5-3-5-5 | 4-2-32-2-2 | 1-5-6-10-3-1 | 0.717229099478 | 0.835278197711 | 71.9623622656 | 6730 | 0.00826315470877 |
| 17-5-5-5-3 | 4-4-8-4-2 | 1-1-2-10-2-1 | 0.69612855328 | 0.822888283285 | 70.3906128645 | 1320 | 0.00821156439321 |
| 17-3-5-5-5 | 4-2-2-8-8 | 1-5-10-6-2-1 | 0.676465495202 | 0.811423544902 | 71.4361129045 | 1800 | 0.00809094842126 |
| 5-3-5-17-5 | 2-16-2-4-4 | 1-8-2-8-10-1 | 0.72484563494 | 0.841253196546 | 65.5307233095 | 6648 | 0.00832336341874 |
| 5-17-15-5 | 8-4-8-4 | 1-7-2-10-1 | 0.662552927351 | 0.80369429326 | 66.6285405874 | 3832 | 0.00798783967157 |
| 5-3-17-5-5 | 4-4-8-4-2 | 1-3-9-9-5-1 | 0.667559533905 | 0.806894311604 | 65.4632064581 | 12350 | 0.00791006006839 |
| 3-5-17-5-5 | 2-4-32-2-2 | 1-1-10-7-5-1 | 0.786274429296 | 0.866200101414 | 68.017974925 | 38686 | 0.00812772459317 |
| 3-5-17-5-5 | 2-64-2-2-2 | 1-2-6-7-1-1 | 0.671463978687 | 0.807709824325 | 66.1027664661 | 5360 | 0.00800807202102 |
| 17-5-3-5-5 | 8-2-2-8-4 | 1-5-6-5-8-1 | 0.679981955615 | 0.81343187524 | 65.8567735672 | 2920 | 0.00809644851841 |
| 5-17-5-3-5 | 2-4-4-4-8 | 1-6-2-9-3-1 | 0.743904437112 | 0.850292103198 | 66.7909742117 | 1680 | 0.00848014535064 |
| 5-5-85-3 | 8-4-4-8 | 1-10-8-9-1 | 0.695401777544 | 0.822668290144 | 66.023631978 | 26696 | 0.00787652421723 |
| 5-25-3-17 | 4-64-2-2 | 1-6-9-4-1 | 0.667722108892 | 0.807238902217 | 62.2278452873 | 86872 | 0.00695430136411 |
| 5-5-5-3-17 | 4-4-16-2-2 | 1-8-3-4-10-1 | 0.708539345682 | 0.830653293191 | 60.9878168344 | 2180 | 0.00827766137293 |
| 5-5-3-17-5 | 4-2-8-2-8 | 1-7-3-1-5-1 | 0.674564195261 | 0.810855122137 | 61.1229125023 | 792 | 0.00809831210694 |
| 17-5-3-5-5 | 2-4-2-4-16 | 1-9-6-10-3-1 | 0.689845630703 | 0.820051323259 | 61.6463183165 | 2586 | 0.00816670180526 |
| 17-5-5-3-5 | 2-4-2-4-16 | 1-7-1-8-4-1 | 0.706800231003 | 0.829872720509 | 60.8333118916 | 1162 | 0.00828335233103 |
| 3-5-5-17-5 | 2-16-2-4-4 | 1-2-1-10-7-1 | 0.715549064054 | 0.834368774736 | 55.6625927925 | 5172 | 0.00827488425082 |
| 5-5-17-3-5 | 2-8-2-16-2 | 1-10-1-1-10-1 | 0.6832032783 | 0.814874428949 | 53.1484763384 | 1114 | 0.00813427091395 |
| 3-5-17-5-5 | 8-4-2-8-2 | 1-1-9-8-1-1 | 0.677714691161 | 0.812305113757 | 52.9924102306 | 2982 | 0.00808443038104 |
| 17-5-3-5-5 | 4-8-2-8-2 | 1-10-6-2-2-1 | 0.712995044061 | 0.833788502678 | 53.2505258322 | 3332 | 0.00829359001258 |
| 5-5-3-17-5 | 2-8-8-4-2 | 1-7-2-10-1-1 | 0.697968363252 | 0.824662211202 | 53.0028234243 | 1800 | 0.00822295514805 |
| 5-5-17-5-3 | 4-2-4-2-16 | 1-5-8-4-5-1 | 0.711586045983 | 0.833550273611 | 52.5779452085 | 3116 | 0.0082940910229 |
| 5-17-5-5-3 | 2-2-4-32-2 | 1-6-5-6-2-1 | 0.71882294543 | 0.837125561594 | 53.1005484819 | 3612 | 0.00832304615279 |
| 5-5-5-3-17 | 16-2-8-2-2 | 1-3-3-10-7-1 | 0.655201578023 | 0.79950219131 | 50.187877512 | 2188 | 0.007967131116 |
| 5-3-17-5-5 | 8-2-2-4-8 | 1-10-3-9-1-1 | 0.702405607627 | 0.826838810105 | 50.732843399 | 1718 | 0.00824573967829 |
| 5-17-5-5-3 | 4-2-2-32-2 | 1-1-8-7-4-1 | 0.71768439199 | 0.835769067976 | 53.3088657379 | 5356 | 0.00828631983907 |
| 5-5-5-17-3 | 4-8-4-2-4 | 1-4-6-7-1-1 | 0.698985019542 | 0.824637493184 | 50.4142868757 | 2130 | 0.00821836986391 |
| 5-3-5-17-5 | 4-16-2-4-2 | 1-9-3-8-2-1 | 0.696216204217 | 0.823137315284 | 50.082762742 | 2824 | 0.00819431097525 |
| 5-51-5-5 | 2-4-64-2 | 1-8-8-6-1 | 0.711627095904 | 0.832429557007 | 55.060757494 | 28556 | 0.00794529591398 |
| 17-5-5-5-3 | 4-4-2-2-16 | 1-7-8-1-7-1 | 0.680173163906 | 0.813247777036 | 52.552008009 | 2082 | 0.00810548188592 |
| 5-5-17-5-3 | 2-2-64-2-2 | 1-4-1-5-2-1 | 0.701331391152 | 0.825987563511 | 50.1411526918 | 5632 | 0.00818570532329 |
| 5-5-17-5-3 | 16-4-2-4-2 | 1-9-10-6-1-1 | 0.696713327146 | 0.822843108492 | 49.3810835123 | 4686 | 0.00816695399936 |
| 5-17-3-5-5 | 8-2-2-16-2 | 1-2-9-1-10-1 | 0.71589582959 | 0.835049839201 | 50.9491855621 | 1646 | 0.00832858365931 |
| 17-25-3-5 | 4-2-4-32 | 1-9-2-1-1 | 0.674559991465 | 0.809885658079 | 51.6584059954 | 1696 | 0.00807695661146 |
| 17-5-3-5-5 | 8-4-4-2-4 | 1-4-10-7-5-1 | 0.691343194666 | 0.819930894976 | 51.1858409643 | 2634 | 0.00816487498966 |
| 5-5-3-17-5 | 4-2-4-8-4 | 1-4-7-8-2-1 | 0.677159120826 | 0.811876845626 | 51.5343937635 | 3248 | 0.00807672483389 |
| 5-17-3-5-5 | 2-16-2-2-8 | 1-3-8-6-6-1 | 0.712911070156 | 0.833041710291 | 52.3825737 | 7446 | 0.00823151996364 |
| 3-5-5-17-5 | 2-4-4-16-2 | 1-5-3-5-2-1 | 0.667701743128 | 0.806686243364 | 51.9998815298 | 3370 | 0.00802351848211 |
| 3-5-5-85 | 4-4-32-2 | 1-3-6-5-1 | 0.913192307643 | 0.943081762099 | 53.1811224699 | 6046 | 0.0093399076667 |
| 3-5-17-5-5 | 4-2-8-2-8 | 1-7-1-3-7-1 | 4.34524825369 | 1.30645241221 | 52.0188744068 | 1052 | 0.0130426110491 |
| 15-5-5-17 | 2-32-2-8 | 1-3-5-9-1 | 0.713392467965 | 0.834737189801 | 51.0675110817 | 4164 | 0.00829195344045 |
| 5-3-5-5-17 | 8-4-8-2-2 | 1-1-8-6-6-1 | 1.86122446802 | 1.04872646713 | 50.7976610899 | 2620 | 0.0104434562634 |
| 17-5-5-3-5 | 2-8-8-2-4 | 1-6-9-9-2-1 | 0.684529498069 | 0.816625190318 | 52.2222782135 | 5752 | 0.00809135987361 |
| 5-5-5-3-17 | 2-8-2-16-2 | 1-7-9-3-10-1 | 0.731194377568 | 0.843082482161 | 51.3870409012 | 4640 | 0.0083684539237 |
| 5-25-3-17 | 2-2-2-128 | 1-3-2-9-1 | 0.709206581787 | 0.830536863083 | 55.0155798197 | 20022 | 0.00804023774638 |
| 5-5-17-3-5 | 32-4-2-2-2 | 1-10-9-7-9-1 | 0.697417793266 | 0.822841780804 | 50.9915966034 | 6010 | 0.00814957088358 |
| 85-3-5-5 | 2-32-2-8 | 1-6-2-1-1 | 0.68613270085 | 0.818140098004 | 52.9877535343 | 2232 | 0.00815228604543 |
| 17-3-5-5-5 | 2-2-2-16-8 | 1-3-4-2-3-1 | 0.702957669427 | 0.827230445017 | 52.0227842331 | 854 | 0.00826104082134 |
| 17-5-5-3-5 | 8-2-4-4-4 | 1-9-9-9-3-1 | 0.7175114194 | 0.836337283758 | 51.4968651056 | 4038 | 0.00830952829116 |
| 5-17-5-5-3 | 2-16-2-4-4 | 1-6-8-2-5-1 | 0.664749760319 | 0.804348046071 | 51.2586460829 | 13536 | 0.00786988902016 |
| 17-5-5-5-3 | 2-8-2-8-4 | 1-10-10-2-10-1 | 0.691027313562 | 0.820848380396 | 52.4644312382 | 5460 | 0.00813702602085 |
| 5-5-5-3-17 | 2-2-2-32-4 | 1-7-2-10-1-1 | 0.6755671408 | 0.811839872773 | 51.5361076117 | 1438 | 0.00809978543473 |
| 51-5-5-5 | 4-2-32-4 | 1-4-5-1-1 | 0.687629825113 | 0.818213304083 | 51.993115449 | 1836 | 0.00815818151618 |
| 5-3-17-5-5 | 4-2-32-2-2 | 1-10-4-9-5-1 | 0.669657437727 | 0.807828244025 | 50.72924366 | 20524 | 0.0078139350729 |
| 5-3-5-17-5 | 16-2-8-2-2 | 1-9-4-6-9-1 | 0.693688336396 | 0.821303948131 | 50.0315189838 | 3822 | 0.00816299127197 |
| 5-3-5-17-5 | 8-2-2-2-16 | 1-4-7-2-1-1 | 0.680808612241 | 0.813298594689 | 49.8472159624 | 616 | 0.00812499819283 |
| 5-17-5-5-3 | 16-2-4-2-4 | 1-6-8-2-2-1 | 0.680571070901 | 0.813947721359 | 50.4216849089 | 2496 | 0.00810708541652 |
| 5-5-5-51 | 32-4-2-4 | 1-5-10-6-1 | 0.722247298792 | 0.838555288442 | 50.0533564329 | 3624 | 0.00833710064645 |
| 5-17-5-3-5 | 4-8-4-4-2 | 1-2-8-3-8-1 | 0.715440437314 | 0.834863203976 | 50.7568778753 | 3064 | 0.00830784726844 |
| 5-3-5-17-5 | 4-2-4-4-8 | 1-3-9-6-4-1 | 0.738625360359 | 0.848876853868 | 50.8842084169 | 3094 | 0.00844689314031 |
| 3-5-5-17-5 | 2-2-4-4-16 | 1-5-3-6-6-1 | 30.9886143912 | 1.62771482271 | 52.0292099953 | 3468 | 0.0161871463934 |
