| 4 | 0-0 | 0-0 | 5-5 | 5-4 | 3 | 0.0 | Adam | 0.8051187 | 0.8051187 | 26.631140 | 4503395.0 |
| 4 | 0-0 | 0-0 | 5-5 | 5-4 | 3 | 0.0 | Adagrad | 0.7962365 | 0.7962365 | 21.429751 | 4503395.0 |
| 4 | 0-0 | 0-0 | 5-5 | 5-4 | 3 | 0.0 | RMSprop | 0.8078102 | 0.8078102 | 24.000701 | 4503395.0 |
| 4 | 0-0 | 0-0 | 5-5 | 5-4 | 3 | 0.2 | Adam | 0.7988875 | 0.7988875 | 30.329268 | 4503395.0 |
| 4 | 0-0 | 0-0 | 5-5 | 5-4 | 3 | 0.2 | Adagrad | 0.7924407 | 0.7924407 | 23.369576 | 4503395.0 |
| 4 | 0-0 | 0-0 | 5-5 | 5-4 | 3 | 0.2 | RMSprop | 0.8013954 | 0.8013954 | 25.941660 | 4503395.0 |
| 4 | 0-0 | 0-0 | 5-5 | 5-4 | 3 | 0.4 | Adam | 0.7925977 | 0.7925977 | 34.768806 | 4503395.0 |
| 4 | 0-0 | 0-0 | 5-5 | 5-4 | 3 | 0.4 | Adagrad | 0.7897919 | 0.7897919 | 26.685378 | 4503395.0 |
| 4 | 0-0 | 0-0 | 5-5 | 5-4 | 3 | 0.4 | RMSprop | 0.7946277 | 0.7946277 | 29.644704 | 4503395.0 |
| 4 | 0-0 | 0-0 | 5-5 | 5-4 | 4 | 0.0 | Adam | 0.8007934 | 0.8007934 | 25.750546 | 4503485.0 |
| 4 | 0-0 | 0-0 | 5-5 | 5-4 | 4 | 0.0 | Adagrad | 0.7935031 | 0.7935031 | 21.744237 | 4503485.0 |
| 4 | 0-0 | 0-0 | 5-5 | 5-4 | 4 | 0.0 | RMSprop | 0.8058323 | 0.8058323 | 24.275525 | 4503485.0 |
| 4 | 0-0 | 0-0 | 5-5 | 5-4 | 4 | 0.2 | Adam | 0.8037208 | 0.8037208 | 28.202992 | 4503485.0 |
| 4 | 0-0 | 0-0 | 5-5 | 5-4 | 4 | 0.2 | Adagrad | 0.7943635 | 0.7943635 | 25.111645 | 4503485.0 |
| 4 | 0-0 | 0-0 | 5-5 | 5-4 | 4 | 0.2 | RMSprop | 0.8030977 | 0.8030977 | 27.192404 | 4503485.0 |
| 4 | 0-0 | 0-0 | 5-5 | 5-4 | 4 | 0.4 | Adam | 0.7931980 | 0.7931981 | 33.945257 | 4503485.0 |
| 4 | 0-0 | 0-0 | 5-5 | 5-4 | 4 | 0.4 | Adagrad | 0.7910820 | 0.7910820 | 28.469564 | 4503485.0 |
| 4 | 0-0 | 0-0 | 5-5 | 5-4 | 4 | 0.4 | RMSprop | 0.7893704 | 0.7893704 | 31.305527 | 4503485.0 |
| 4 | 0-0 | 0-0 | 5-5 | 5-4 | 5 | 0.0 | Adam | 0.8072608 | 0.8072608 | 27.607256 | 4503575.0 |
| 4 | 0-0 | 0-0 | 5-5 | 5-4 | 5 | 0.0 | Adagrad | 0.7950379 | 0.7950379 | 23.996067 | 4503575.0 |
| 4 | 0-0 | 0-0 | 5-5 | 5-4 | 5 | 0.0 | RMSprop | 0.8069794 | 0.8069794 | 26.308777 | 4503575.0 |
| 4 | 0-0 | 0-0 | 5-5 | 5-4 | 5 | 0.2 | Adam | 0.8026629 | 0.8026629 | 30.649929 | 4503575.0 |
| 4 | 0-0 | 0-0 | 5-5 | 5-4 | 5 | 0.2 | Adagrad | 0.7948688 | 0.7948688 | 22.367818 | 4503575.0 |
| 4 | 0-0 | 0-0 | 5-5 | 5-4 | 5 | 0.2 | RMSprop | 0.7945106 | 0.7945106 | 26.755683 | 4503575.0 |
| 4 | 0-0 | 0-0 | 5-5 | 5-4 | 5 | 0.4 | Adam | 0.7971594 | 0.7971594 | 33.991247 | 4503575.0 |
| 4 | 0-0 | 0-0 | 5-5 | 5-4 | 5 | 0.4 | Adagrad | 0.7942965 | 0.7942965 | 29.942775 | 4503575.0 |
| 4 | 0-0 | 0-0 | 5-5 | 5-4 | 5 | 0.4 | RMSprop | 0.7937536 | 0.7937536 | 33.009366 | 4503575.0 |
| 4 | 0-0 | 0-0 | 5-5 | 5-4 | 6 | 0.0 | Adam | 0.8019789 | 0.8019789 | 26.793982 | 4503665.0 |
| 4 | 0-0 | 0-0 | 5-5 | 5-4 | 6 | 0.0 | Adagrad | 0.7999846 | 0.7999846 | 24.662219 | 4503665.0 |
| 4 | 0-0 | 0-0 | 5-5 | 5-4 | 6 | 0.0 | RMSprop | 0.8033591 | 0.8033592 | 23.393389 | 4503665.0 |
| 4 | 0-0 | 0-0 | 5-5 | 5-4 | 6 | 0.2 | Adam | 0.7956895 | 0.7956895 | 31.206008 | 4503665.0 |
| 4 | 0-0 | 0-0 | 5-5 | 5-4 | 6 | 0.2 | Adagrad | 0.7944347 | 0.7944347 | 25.298845 | 4503665.0 |
| 4 | 0-0 | 0-0 | 5-5 | 5-4 | 6 | 0.2 | RMSprop | 0.7982337 | 0.7982336 | 30.008785 | 4503665.0 |
| 4 | 0-0 | 0-0 | 5-5 | 5-4 | 6 | 0.4 | Adam | 0.7959306 | 0.7959306 | 36.632882 | 4503665.0 |
| 4 | 0-0 | 0-0 | 5-5 | 5-4 | 6 | 0.4 | Adagrad | 0.7897435 | 0.7897435 | 31.989743 | 4503665.0 |
| 4 | 0-0 | 0-0 | 5-5 | 5-4 | 6 | 0.4 | RMSprop | 0.7975399 | 0.7975399 | 32.511062 | 4503665.0 |
| 4 | 0-0 | 0-0 | 5-5 | 5-4 | 7 | 0.0 | Adam | 0.8055677 | 0.8055677 | 28.301097 | 4503755.0 |
| 4 | 0-0 | 0-0 | 5-5 | 5-4 | 7 | 0.0 | Adagrad | 0.7998597 | 0.7998597 | 26.936187 | 4503755.0 |
| 4 | 0-0 | 0-0 | 5-5 | 5-4 | 7 | 0.0 | RMSprop | 0.8009466 | 0.8009466 | 27.552401 | 4503755.0 |
| 4 | 0-0 | 0-0 | 5-5 | 5-4 | 7 | 0.2 | Adam | 0.8020357 | 0.8020357 | 32.252628 | 4503755.0 |
| 4 | 0-0 | 0-0 | 5-5 | 5-4 | 7 | 0.2 | Adagrad | 0.7864319 | 0.7864319 | 27.973923 | 4503755.0 |
| 4 | 0-0 | 0-0 | 5-5 | 5-4 | 7 | 0.2 | RMSprop | 0.7969027 | 0.7969027 | 31.738284 | 4503755.0 |
| 4 | 0-0 | 0-0 | 5-5 | 5-4 | 7 | 0.4 | Adam | 0.7979030 | 0.7979030 | 35.216326 | 4503755.0 |
| 4 | 0-0 | 0-0 | 5-5 | 5-4 | 7 | 0.4 | Adagrad | 0.7913260 | 0.7913260 | 33.342519 | 4503755.0 |
| 4 | 0-0 | 0-0 | 5-5 | 5-4 | 7 | 0.4 | RMSprop | 0.7962409 | 0.7962409 | 34.851038 | 4503755.0 |
| 4 | 0-0 | 0-0 | 5-5 | 5-4 | 8 | 0.0 | Adam | 0.8094027 | 0.8094027 | 28.928526 | 4503845.0 |
| 4 | 0-0 | 0-0 | 5-5 | 5-4 | 8 | 0.0 | Adagrad | 0.7977157 | 0.7977157 | 27.519525 | 4503845.0 |
| 4 | 0-0 | 0-0 | 5-5 | 5-4 | 8 | 0.0 | RMSprop | 0.8033410 | 0.8033410 | 27.734185 | 4503845.0 |
| 4 | 0-0 | 0-0 | 5-5 | 5-4 | 8 | 0.2 | Adam | 0.7923414 | 0.7923414 | 32.449631 | 4503845.0 |
| 4 | 0-0 | 0-0 | 5-5 | 5-4 | 8 | 0.2 | Adagrad | 0.7950193 | 0.7950193 | 30.073573 | 4503845.0 |
| 4 | 0-0 | 0-0 | 5-5 | 5-4 | 8 | 0.2 | RMSprop | 0.7918075 | 0.7918075 | 31.057625 | 4503845.0 |
| 4 | 0-0 | 0-0 | 5-5 | 5-4 | 8 | 0.4 | Adam | 0.7943264 | 0.7943264 | 40.746023 | 4503845.0 |
| 4 | 0-0 | 0-0 | 5-5 | 5-4 | 8 | 0.4 | Adagrad | 0.7907638 | 0.7907638 | 34.807405 | 4503845.0 |
| 4 | 0-0 | 0-0 | 5-5 | 5-4 | 8 | 0.4 | RMSprop | 0.7945432 | 0.7945432 | 36.943798 | 4503845.0 |
| 4 | 0-0 | 0-0 | 5-5 | 5-4 | 9 | 0.0 | Adam | 0.8045421 | 0.8045421 | 32.816232 | 4503935.0 |
| 4 | 0-0 | 0-0 | 5-5 | 5-4 | 9 | 0.0 | Adagrad | 0.7933806 | 0.7933806 | 28.508729 | 4503935.0 |
| 4 | 0-0 | 0-0 | 5-5 | 5-4 | 9 | 0.0 | RMSprop | 0.8063129 | 0.8063129 | 29.975747 | 4503935.0 |
| 4 | 0-0 | 0-0 | 5-5 | 5-4 | 9 | 0.2 | Adam | 0.8002602 | 0.8002602 | 34.176999 | 4503935.0 |
| 4 | 0-0 | 0-0 | 5-5 | 5-4 | 9 | 0.2 | Adagrad | 0.7932762 | 0.7932762 | 32.594343 | 4503935.0 |
| 4 | 0-0 | 0-0 | 5-5 | 5-4 | 9 | 0.2 | RMSprop | 0.7969360 | 0.7969360 | 32.097303 | 4503935.0 |
| 4 | 0-0 | 0-0 | 5-5 | 5-4 | 9 | 0.4 | Adam | 0.7925151 | 0.7925151 | 41.193744 | 4503935.0 |
| 4 | 0-0 | 0-0 | 5-5 | 5-4 | 9 | 0.4 | Adagrad | 0.7933124 | 0.7933124 | 36.515713 | 4503935.0 |
| 4 | 0-0 | 0-0 | 5-5 | 5-4 | 9 | 0.4 | RMSprop | 0.7954380 | 0.7954380 | 39.137739 | 4503935.0 |
| 4 | 0-0 | 0-0 | 5-5 | 5-4 | 10 | 0.0 | Adam | 0.8080107 | 0.8080107 | 33.989325 | 4504025.0 |
| 4 | 0-0 | 0-0 | 5-5 | 5-4 | 10 | 0.0 | Adagrad | 0.8004226 | 0.8004226 | 30.877059 | 4504025.0 |
| 4 | 0-0 | 0-0 | 5-5 | 5-4 | 10 | 0.0 | RMSprop | 0.8072476 | 0.8072476 | 32.498455 | 4504025.0 |
| 4 | 0-0 | 0-0 | 5-5 | 5-4 | 10 | 0.2 | Adam | 0.8002239 | 0.8002239 | 36.748008 | 4504025.0 |
| 4 | 0-0 | 0-0 | 5-5 | 5-4 | 10 | 0.2 | Adagrad | 0.7898286 | 0.7898286 | 36.292107 | 4504025.0 |
| 4 | 0-0 | 0-0 | 5-5 | 5-4 | 10 | 0.2 | RMSprop | 0.7901034 | 0.7901034 | 35.409499 | 4504025.0 |
| 4 | 0-0 | 0-0 | 5-5 | 5-4 | 10 | 0.4 | Adam | 0.7928993 | 0.7928993 | 43.020846 | 4504025.0 |
| 4 | 0-0 | 0-0 | 5-5 | 5-4 | 10 | 0.4 | Adagrad | 0.7902668 | 0.7902668 | 40.831910 | 4504025.0 |
| 4 | 0-0 | 0-0 | 5-5 | 5-4 | 10 | 0.4 | RMSprop | 0.7940365 | 0.7940365 | 38.320860 | 4504025.0 |
