| 1 | 5-15 | 17-5 | 5-5 | 5-8 | 4 | 0.0 | Adam | 0.8053412 | 0.8053412 | 113.68736 | 4130025.0 |
| 1 | 17-5 | 5-15 | 5-5 | 5-8 | 4 | 0.0 | Adam | 0.8148706 | 0.8148706 | 117.33316 | 4130025.0 |
| 1 | 5-15 | 17-5 | 5-5 | 5-8 | 4 | 0.0 | Adagrad | 0.8043648 | 0.8043647 | 130.17182 | 4130025.0 |
| 1 | 17-5 | 5-15 | 5-5 | 5-8 | 4 | 0.0 | Adagrad | 0.8046055 | 0.8046056 | 120.76324 | 4130025.0 |
| 1 | 5-15 | 17-5 | 5-5 | 5-8 | 4 | 0.0 | RMSprop | 0.8051488 | 0.8051488 | 102.47332 | 4130025.0 |
| 1 | 17-5 | 5-15 | 5-5 | 5-8 | 4 | 0.0 | RMSprop | 0.8130225 | 0.8130225 | 104.46454 | 4130025.0 |
| 1 | 5-15 | 17-5 | 5-5 | 5-8 | 4 | 0.2 | Adam | 0.8013475 | 0.8013475 | 130.96157 | 4130025.0 |
| 1 | 17-5 | 5-15 | 5-5 | 5-8 | 4 | 0.2 | Adam | 0.8081802 | 0.8081802 | 111.33718 | 4130025.0 |
| 1 | 5-15 | 17-5 | 5-5 | 5-8 | 4 | 0.2 | Adagrad | 0.7982197 | 0.7982197 | 118.77159 | 4130025.0 |
| 1 | 17-5 | 5-15 | 5-5 | 5-8 | 4 | 0.2 | Adagrad | 0.7991331 | 0.7991332 | 130.19643 | 4130025.0 |
| 1 | 5-15 | 17-5 | 5-5 | 5-8 | 4 | 0.2 | RMSprop | 0.8044313 | 0.8044313 | 121.30170 | 4130025.0 |
| 1 | 17-5 | 5-15 | 5-5 | 5-8 | 4 | 0.2 | RMSprop | 0.8089012 | 0.8089012 | 109.92387 | 4130025.0 |
| 1 | 5-15 | 17-5 | 5-5 | 5-8 | 4 | 0.4 | Adam | 0.8033313 | 0.8033313 | 119.57338 | 4130025.0 |
| 1 | 17-5 | 5-15 | 5-5 | 5-8 | 4 | 0.4 | Adam | 0.8019725 | 0.8019725 | 130.10436 | 4130025.0 |
| 1 | 5-15 | 17-5 | 5-5 | 5-8 | 4 | 0.4 | Adagrad | 0.7898330 | 0.7898330 | 135.50018 | 4130025.0 |
| 1 | 17-5 | 5-15 | 5-5 | 5-8 | 4 | 0.4 | Adagrad | 0.8004083 | 0.8004083 | 123.27756 | 4130025.0 |
| 1 | 5-15 | 17-5 | 5-5 | 5-8 | 4 | 0.4 | RMSprop | 0.8018402 | 0.8018402 | 108.08858 | 4130025.0 |
| 1 | 17-5 | 5-15 | 5-5 | 5-8 | 4 | 0.4 | RMSprop | 0.8043827 | 0.8043827 | 125.53634 | 4130025.0 |
| 1 | 5-15 | 17-5 | 5-5 | 5-8 | 5 | 0.0 | Adam | 0.8091703 | 0.8091703 | 115.08395 | 4130250.0 |
| 1 | 17-5 | 5-15 | 5-5 | 5-8 | 5 | 0.0 | Adam | 0.8056415 | 0.8056416 | 117.02813 | 4130250.0 |
| 1 | 5-15 | 17-5 | 5-5 | 5-8 | 5 | 0.0 | Adagrad | 0.8134331 | 0.8134331 | 118.09612 | 4130250.0 |
| 1 | 17-5 | 5-15 | 5-5 | 5-8 | 5 | 0.0 | Adagrad | 0.8056899 | 0.8056899 | 131.90308 | 4130250.0 |
| 1 | 5-15 | 17-5 | 5-5 | 5-8 | 5 | 0.0 | RMSprop | 0.8123298 | 0.8123298 | 108.08527 | 4130250.0 |
| 1 | 17-5 | 5-15 | 5-5 | 5-8 | 5 | 0.0 | RMSprop | 0.8135407 | 0.8135407 | 108.97185 | 4130250.0 |
| 1 | 5-15 | 17-5 | 5-5 | 5-8 | 5 | 0.2 | Adam | 0.8018709 | 0.8018709 | 126.94176 | 4130250.0 |
| 1 | 17-5 | 5-15 | 5-5 | 5-8 | 5 | 0.2 | Adam | 0.8020990 | 0.8020990 | 137.54369 | 4130250.0 |
| 1 | 5-15 | 17-5 | 5-5 | 5-8 | 5 | 0.2 | Adagrad | 0.8055140 | 0.8055140 | 123.08209 | 4130250.0 |
| 1 | 17-5 | 5-15 | 5-5 | 5-8 | 5 | 0.2 | Adagrad | 0.8018722 | 0.8018722 | 127.96845 | 4130250.0 |
| 1 | 5-15 | 17-5 | 5-5 | 5-8 | 5 | 0.2 | RMSprop | 0.8006474 | 0.8006474 | 122.91260 | 4130250.0 |
| 1 | 17-5 | 5-15 | 5-5 | 5-8 | 5 | 0.2 | RMSprop | 0.8076787 | 0.8076787 | 136.38395 | 4130250.0 |
| 1 | 5-15 | 17-5 | 5-5 | 5-8 | 5 | 0.4 | Adam | 0.8004332 | 0.8004332 | 133.16336 | 4130250.0 |
| 1 | 17-5 | 5-15 | 5-5 | 5-8 | 5 | 0.4 | Adam | 0.8061236 | 0.8061236 | 129.02598 | 4130250.0 |
| 1 | 5-15 | 17-5 | 5-5 | 5-8 | 5 | 0.4 | Adagrad | 0.8046925 | 0.8046925 | 131.19829 | 4130250.0 |
| 1 | 17-5 | 5-15 | 5-5 | 5-8 | 5 | 0.4 | Adagrad | 0.7978727 | 0.7978727 | 138.22790 | 4130250.0 |
| 1 | 5-15 | 17-5 | 5-5 | 5-8 | 5 | 0.4 | RMSprop | 0.7986040 | 0.7986039 | 131.98434 | 4130250.0 |
| 1 | 17-5 | 5-15 | 5-5 | 5-8 | 5 | 0.4 | RMSprop | 0.7965701 | 0.7965702 | 157.31050 | 4130250.0 |
| 1 | 5-15 | 17-5 | 5-5 | 5-8 | 6 | 0.0 | Adam | 0.8038649 | 0.8038649 | 135.45707 | 4130475.0 |
| 1 | 17-5 | 5-15 | 5-5 | 5-8 | 6 | 0.0 | Adam | 0.8027072 | 0.8027072 | 118.09919 | 4130475.0 |
| 1 | 5-15 | 17-5 | 5-5 | 5-8 | 6 | 0.0 | Adagrad | 0.8048110 | 0.8048110 | 131.61297 | 4130475.0 |
| 1 | 17-5 | 5-15 | 5-5 | 5-8 | 6 | 0.0 | Adagrad | 0.8007797 | 0.8007797 | 164.69629 | 4130475.0 |
| 1 | 5-15 | 17-5 | 5-5 | 5-8 | 6 | 0.0 | RMSprop | 0.8065355 | 0.8065355 | 115.39055 | 4130475.0 |
| 1 | 17-5 | 5-15 | 5-5 | 5-8 | 6 | 0.0 | RMSprop | 0.8078736 | 0.8078736 | 135.57612 | 4130475.0 |
| 1 | 5-15 | 17-5 | 5-5 | 5-8 | 6 | 0.2 | Adam | 0.8063116 | 0.8063116 | 128.70356 | 4130475.0 |
| 1 | 17-5 | 5-15 | 5-5 | 5-8 | 6 | 0.2 | Adam | 0.8149884 | 0.8149884 | 131.81299 | 4130475.0 |
| 1 | 5-15 | 17-5 | 5-5 | 5-8 | 6 | 0.2 | Adagrad | 0.8047226 | 0.8047227 | 134.90314 | 4130475.0 |
| 1 | 17-5 | 5-15 | 5-5 | 5-8 | 6 | 0.2 | Adagrad | 0.8058941 | 0.8058941 | 129.14433 | 4130475.0 |
| 1 | 5-15 | 17-5 | 5-5 | 5-8 | 6 | 0.2 | RMSprop | 0.8067177 | 0.8067177 | 127.59476 | 4130475.0 |
| 1 | 17-5 | 5-15 | 5-5 | 5-8 | 6 | 0.2 | RMSprop | 0.8103144 | 0.8103144 | 132.21241 | 4130475.0 |
| 1 | 5-15 | 17-5 | 5-5 | 5-8 | 6 | 0.4 | Adam | 0.8012563 | 0.8012563 | 137.47745 | 4130475.0 |
| 1 | 17-5 | 5-15 | 5-5 | 5-8 | 6 | 0.4 | Adam | 0.8020853 | 0.8020853 | 125.81499 | 4130475.0 |
| 1 | 5-15 | 17-5 | 5-5 | 5-8 | 6 | 0.4 | Adagrad | 0.7994544 | 0.7994544 | 133.65099 | 4130475.0 |
| 1 | 17-5 | 5-15 | 5-5 | 5-8 | 6 | 0.4 | Adagrad | 0.7986196 | 0.7986196 | 151.88670 | 4130475.0 |
| 1 | 5-15 | 17-5 | 5-5 | 5-8 | 6 | 0.4 | RMSprop | 0.8032106 | 0.8032106 | 135.79983 | 4130475.0 |
| 1 | 17-5 | 5-15 | 5-5 | 5-8 | 6 | 0.4 | RMSprop | 0.7977917 | 0.7977917 | 138.38158 | 4130475.0 |
| 1 | 5-15 | 17-5 | 5-5 | 5-8 | 7 | 0.0 | Adam | 0.8122180 | 0.8122180 | 130.07953 | 4130700.0 |
| 1 | 17-5 | 5-15 | 5-5 | 5-8 | 7 | 0.0 | Adam | 0.8156962 | 0.8156962 | 130.75881 | 4130700.0 |
| 1 | 5-15 | 17-5 | 5-5 | 5-8 | 7 | 0.0 | Adagrad | 0.8093999 | 0.8093999 | 141.77259 | 4130700.0 |
| 1 | 17-5 | 5-15 | 5-5 | 5-8 | 7 | 0.0 | Adagrad | 0.8097209 | 0.8097209 | 127.92737 | 4130700.0 |
| 1 | 5-15 | 17-5 | 5-5 | 5-8 | 7 | 0.0 | RMSprop | 0.8120146 | 0.8120146 | 142.44442 | 4130700.0 |
| 1 | 17-5 | 5-15 | 5-5 | 5-8 | 7 | 0.0 | RMSprop | 0.8111145 | 0.8111145 | 148.36475 | 4130700.0 |
| 1 | 5-15 | 17-5 | 5-5 | 5-8 | 7 | 0.2 | Adam | 0.8088207 | 0.8088208 | 143.23667 | 4130700.0 |
| 1 | 17-5 | 5-15 | 5-5 | 5-8 | 7 | 0.2 | Adam | 0.8091577 | 0.8091577 | 144.38250 | 4130700.0 |
| 1 | 5-15 | 17-5 | 5-5 | 5-8 | 7 | 0.2 | Adagrad | 0.8094976 | 0.8094976 | 135.27380 | 4130700.0 |
| 1 | 17-5 | 5-15 | 5-5 | 5-8 | 7 | 0.2 | Adagrad | 0.8066438 | 0.8066438 | 137.90561 | 4130700.0 |
| 1 | 5-15 | 17-5 | 5-5 | 5-8 | 7 | 0.2 | RMSprop | 0.7993488 | 0.7993488 | 157.80352 | 4130700.0 |
| 1 | 17-5 | 5-15 | 5-5 | 5-8 | 7 | 0.2 | RMSprop | 0.8059454 | 0.8059453 | 159.25305 | 4130700.0 |
| 1 | 5-15 | 17-5 | 5-5 | 5-8 | 7 | 0.4 | Adam | 0.8005023 | 0.8005023 | 193.26182 | 4130700.0 |
| 1 | 17-5 | 5-15 | 5-5 | 5-8 | 7 | 0.4 | Adam | 0.8034264 | 0.8034264 | 181.30995 | 4130700.0 |
| 1 | 5-15 | 17-5 | 5-5 | 5-8 | 7 | 0.4 | Adagrad | 0.7987484 | 0.7987484 | 183.64450 | 4130700.0 |
| 1 | 17-5 | 5-15 | 5-5 | 5-8 | 7 | 0.4 | Adagrad | 0.8001665 | 0.8001665 | 183.75488 | 4130700.0 |
| 1 | 5-15 | 17-5 | 5-5 | 5-8 | 7 | 0.4 | RMSprop | 0.7963195 | 0.7963196 | 182.68136 | 4130700.0 |
| 1 | 17-5 | 5-15 | 5-5 | 5-8 | 7 | 0.4 | RMSprop | 0.8076550 | 0.8076550 | 168.22942 | 4130700.0 |
