| 1 | 5-15 | 17-5 | 5-5 | 5-4 | 4 | 0.0 | Adam | 0.8061622 | 0.8061622 | 90.776550 | 1566445.0 |
| 1 | 17-5 | 5-15 | 5-5 | 5-4 | 4 | 0.0 | Adam | 0.8079376 | 0.8079376 | 89.881080 | 1566445.0 |
| 1 | 5-15 | 17-5 | 5-5 | 5-4 | 4 | 0.0 | Adagrad | 0.8089069 | 0.8089069 | 99.712577 | 1566445.0 |
| 1 | 17-5 | 5-15 | 5-5 | 5-4 | 4 | 0.0 | Adagrad | 0.8019679 | 0.8019679 | 82.069229 | 1566445.0 |
| 1 | 5-15 | 17-5 | 5-5 | 5-4 | 4 | 0.0 | RMSprop | 0.8077400 | 0.8077400 | 90.905683 | 1566445.0 |
| 1 | 17-5 | 5-15 | 5-5 | 5-4 | 4 | 0.0 | RMSprop | 0.8067679 | 0.8067679 | 107.37787 | 1566445.0 |
| 1 | 5-15 | 17-5 | 5-5 | 5-4 | 4 | 0.2 | Adam | 0.7992772 | 0.7992772 | 113.55663 | 1566445.0 |
| 1 | 17-5 | 5-15 | 5-5 | 5-4 | 4 | 0.2 | Adam | 0.8031677 | 0.8031677 | 106.41417 | 1566445.0 |
| 1 | 5-15 | 17-5 | 5-5 | 5-4 | 4 | 0.2 | Adagrad | 0.8016468 | 0.8016468 | 106.57744 | 1566445.0 |
| 1 | 17-5 | 5-15 | 5-5 | 5-4 | 4 | 0.2 | Adagrad | 0.7976309 | 0.7976309 | 118.32669 | 1566445.0 |
| 1 | 5-15 | 17-5 | 5-5 | 5-4 | 4 | 0.2 | RMSprop | 0.8015700 | 0.8015700 | 113.12607 | 1566445.0 |
| 1 | 17-5 | 5-15 | 5-5 | 5-4 | 4 | 0.2 | RMSprop | 0.8128378 | 0.8128378 | 106.04303 | 1566445.0 |
| 1 | 5-15 | 17-5 | 5-5 | 5-4 | 4 | 0.4 | Adam | 0.8023524 | 0.8023524 | 115.07861 | 1566445.0 |
| 1 | 17-5 | 5-15 | 5-5 | 5-4 | 4 | 0.4 | Adam | 0.7981983 | 0.7981983 | 119.74287 | 1566445.0 |
| 1 | 5-15 | 17-5 | 5-5 | 5-4 | 4 | 0.4 | Adagrad | 0.8030767 | 0.8030767 | 113.10050 | 1566445.0 |
| 1 | 17-5 | 5-15 | 5-5 | 5-4 | 4 | 0.4 | Adagrad | 0.8054597 | 0.8054597 | 107.07500 | 1566445.0 |
| 1 | 5-15 | 17-5 | 5-5 | 5-4 | 4 | 0.4 | RMSprop | 0.7983110 | 0.7983110 | 131.33655 | 1566445.0 |
| 1 | 17-5 | 5-15 | 5-5 | 5-4 | 4 | 0.4 | RMSprop | 0.8052895 | 0.8052894 | 125.55357 | 1566445.0 |
| 1 | 5-15 | 17-5 | 5-5 | 5-4 | 5 | 0.0 | Adam | 0.8037590 | 0.8037590 | 105.29807 | 1566650.0 |
| 1 | 17-5 | 5-15 | 5-5 | 5-4 | 5 | 0.0 | Adam | 0.8120038 | 0.8120038 | 114.03946 | 1566650.0 |
| 1 | 5-15 | 17-5 | 5-5 | 5-4 | 5 | 0.0 | Adagrad | 0.7956839 | 0.7956839 | 129.96159 | 1566650.0 |
| 1 | 17-5 | 5-15 | 5-5 | 5-4 | 5 | 0.0 | Adagrad | 0.8063412 | 0.8063412 | 101.92362 | 1566650.0 |
| 1 | 5-15 | 17-5 | 5-5 | 5-4 | 5 | 0.0 | RMSprop | 0.8128497 | 0.8128497 | 110.13418 | 1566650.0 |
| 1 | 17-5 | 5-15 | 5-5 | 5-4 | 5 | 0.0 | RMSprop | 0.8096930 | 0.8096930 | 104.17015 | 1566650.0 |
| 1 | 5-15 | 17-5 | 5-5 | 5-4 | 5 | 0.2 | Adam | 0.7976318 | 0.7976318 | 125.22574 | 1566650.0 |
| 1 | 17-5 | 5-15 | 5-5 | 5-4 | 5 | 0.2 | Adam | 0.8019379 | 0.8019379 | 130.98578 | 1566650.0 |
| 1 | 5-15 | 17-5 | 5-5 | 5-4 | 5 | 0.2 | Adagrad | 0.8019502 | 0.8019502 | 121.14270 | 1566650.0 |
| 1 | 17-5 | 5-15 | 5-5 | 5-4 | 5 | 0.2 | Adagrad | 0.8000296 | 0.8000296 | 108.43491 | 1566650.0 |
| 1 | 5-15 | 17-5 | 5-5 | 5-4 | 5 | 0.2 | RMSprop | 0.8041726 | 0.8041726 | 120.12527 | 1566650.0 |
| 1 | 17-5 | 5-15 | 5-5 | 5-4 | 5 | 0.2 | RMSprop | 0.8063164 | 0.8063164 | 107.42846 | 1566650.0 |
| 1 | 5-15 | 17-5 | 5-5 | 5-4 | 5 | 0.4 | Adam | 0.7962986 | 0.7962986 | 122.94313 | 1566650.0 |
| 1 | 17-5 | 5-15 | 5-5 | 5-4 | 5 | 0.4 | Adam | 0.8009659 | 0.8009659 | 117.82013 | 1566650.0 |
| 1 | 5-15 | 17-5 | 5-5 | 5-4 | 5 | 0.4 | Adagrad | 0.7987101 | 0.7987101 | 108.33554 | 1566650.0 |
| 1 | 17-5 | 5-15 | 5-5 | 5-4 | 5 | 0.4 | Adagrad | 0.7990516 | 0.7990516 | 131.77356 | 1566650.0 |
| 1 | 5-15 | 17-5 | 5-5 | 5-4 | 5 | 0.4 | RMSprop | 0.8035554 | 0.8035554 | 115.48127 | 1566650.0 |
| 1 | 17-5 | 5-15 | 5-5 | 5-4 | 5 | 0.4 | RMSprop | 0.7990994 | 0.7990994 | 129.83146 | 1566650.0 |
| 1 | 5-15 | 17-5 | 5-5 | 5-4 | 6 | 0.0 | Adam | 0.8042557 | 0.8042557 | 104.98925 | 1566855.0 |
| 1 | 17-5 | 5-15 | 5-5 | 5-4 | 6 | 0.0 | Adam | 0.8120449 | 0.8120449 | 98.665939 | 1566855.0 |
| 1 | 5-15 | 17-5 | 5-5 | 5-4 | 6 | 0.0 | Adagrad | 0.8039427 | 0.8039427 | 123.43104 | 1566855.0 |
| 1 | 17-5 | 5-15 | 5-5 | 5-4 | 6 | 0.0 | Adagrad | 0.8023662 | 0.8023663 | 112.98975 | 1566855.0 |
| 1 | 5-15 | 17-5 | 5-5 | 5-4 | 6 | 0.0 | RMSprop | 0.8113914 | 0.8113914 | 113.03002 | 1566855.0 |
| 1 | 17-5 | 5-15 | 5-5 | 5-4 | 6 | 0.0 | RMSprop | 0.8112222 | 0.8112223 | 106.55648 | 1566855.0 |
| 1 | 5-15 | 17-5 | 5-5 | 5-4 | 6 | 0.2 | Adam | 0.7967133 | 0.7967133 | 115.03833 | 1566855.0 |
| 1 | 17-5 | 5-15 | 5-5 | 5-4 | 6 | 0.2 | Adam | 0.8041981 | 0.8041981 | 98.742770 | 1566855.0 |
| 1 | 5-15 | 17-5 | 5-5 | 5-4 | 6 | 0.2 | Adagrad | 0.7934426 | 0.7934426 | 112.58959 | 1566855.0 |
| 1 | 17-5 | 5-15 | 5-5 | 5-4 | 6 | 0.2 | Adagrad | 0.8020401 | 0.8020401 | 109.62512 | 1566855.0 |
| 1 | 5-15 | 17-5 | 5-5 | 5-4 | 6 | 0.2 | RMSprop | 0.8040839 | 0.8040839 | 102.11547 | 1566855.0 |
| 1 | 17-5 | 5-15 | 5-5 | 5-4 | 6 | 0.2 | RMSprop | 0.8038585 | 0.8038585 | 103.74129 | 1566855.0 |
| 1 | 5-15 | 17-5 | 5-5 | 5-4 | 6 | 0.4 | Adam | 0.8069143 | 0.8069143 | 105.39431 | 1566855.0 |
| 1 | 17-5 | 5-15 | 5-5 | 5-4 | 6 | 0.4 | Adam | 0.7939691 | 0.7939691 | 130.39322 | 1566855.0 |
| 1 | 5-15 | 17-5 | 5-5 | 5-4 | 6 | 0.4 | Adagrad | 0.7996808 | 0.7996808 | 118.57982 | 1566855.0 |
| 1 | 17-5 | 5-15 | 5-5 | 5-4 | 6 | 0.4 | Adagrad | 0.7964767 | 0.7964767 | 130.55179 | 1566855.0 |
| 1 | 5-15 | 17-5 | 5-5 | 5-4 | 6 | 0.4 | RMSprop | 0.8001600 | 0.8001600 | 114.59576 | 1566855.0 |
| 1 | 17-5 | 5-15 | 5-5 | 5-4 | 6 | 0.4 | RMSprop | 0.8108262 | 0.8108262 | 102.38283 | 1566855.0 |
| 1 | 5-15 | 17-5 | 5-5 | 5-4 | 7 | 0.0 | Adam | 0.8087466 | 0.8087466 | 96.430718 | 1567060.0 |
| 1 | 17-5 | 5-15 | 5-5 | 5-4 | 7 | 0.0 | Adam | 0.8129097 | 0.8129097 | 100.87296 | 1567060.0 |
| 1 | 5-15 | 17-5 | 5-5 | 5-4 | 7 | 0.0 | Adagrad | 0.8052630 | 0.8052630 | 94.210641 | 1567060.0 |
| 1 | 17-5 | 5-15 | 5-5 | 5-4 | 7 | 0.0 | Adagrad | 0.8082116 | 0.8082116 | 105.62253 | 1567060.0 |
| 1 | 5-15 | 17-5 | 5-5 | 5-4 | 7 | 0.0 | RMSprop | 0.8081830 | 0.8081830 | 102.69107 | 1567060.0 |
| 1 | 17-5 | 5-15 | 5-5 | 5-4 | 7 | 0.0 | RMSprop | 0.8066086 | 0.8066086 | 103.34006 | 1567060.0 |
| 1 | 5-15 | 17-5 | 5-5 | 5-4 | 7 | 0.2 | Adam | 0.8043276 | 0.8043276 | 110.58563 | 1567060.0 |
| 1 | 17-5 | 5-15 | 5-5 | 5-4 | 7 | 0.2 | Adam | 0.7951774 | 0.7951774 | 118.15936 | 1567060.0 |
| 1 | 5-15 | 17-5 | 5-5 | 5-4 | 7 | 0.2 | Adagrad | 0.8083173 | 0.8083173 | 96.257815 | 1567060.0 |
| 1 | 17-5 | 5-15 | 5-5 | 5-4 | 7 | 0.2 | Adagrad | 0.7965996 | 0.7965996 | 119.39142 | 1567060.0 |
| 1 | 5-15 | 17-5 | 5-5 | 5-4 | 7 | 0.2 | RMSprop | 0.7971665 | 0.7971665 | 133.24132 | 1567060.0 |
| 1 | 17-5 | 5-15 | 5-5 | 5-4 | 7 | 0.2 | RMSprop | 0.8065410 | 0.8065410 | 104.09989 | 1567060.0 |
| 1 | 5-15 | 17-5 | 5-5 | 5-4 | 7 | 0.4 | Adam | 0.7982049 | 0.7982049 | 123.92593 | 1567060.0 |
| 1 | 17-5 | 5-15 | 5-5 | 5-4 | 7 | 0.4 | Adam | 0.8014186 | 0.8014186 | 114.01756 | 1567060.0 |
| 1 | 5-15 | 17-5 | 5-5 | 5-4 | 7 | 0.4 | Adagrad | 0.8011396 | 0.8011396 | 124.34504 | 1567060.0 |
| 1 | 17-5 | 5-15 | 5-5 | 5-4 | 7 | 0.4 | Adagrad | 0.8042125 | 0.8042125 | 120.83193 | 1567060.0 |
| 1 | 5-15 | 17-5 | 5-5 | 5-4 | 7 | 0.4 | RMSprop | 0.8051937 | 0.8051937 | 132.73533 | 1567060.0 |
| 1 | 17-5 | 5-15 | 5-5 | 5-4 | 7 | 0.4 | RMSprop | 0.8074266 | 0.8074266 | 92.148678 | 1567060.0 |
