| 0 | 0-0 | 0-0 | 0-0 | 0-0 | 1 | 0.0 | Adam | 0.8369601 | 0.8369601 | 31.683357 | 4753625.0 |
| 0 | 0-0 | 0-0 | 0-0 | 0-0 | 1 | 0.0 | Adagrad | 0.8162119 | 0.8162119 | 42.715514 | 4753625.0 |
| 0 | 0-0 | 0-0 | 0-0 | 0-0 | 1 | 0.0 | RMSprop | 0.8392262 | 0.8392262 | 40.649037 | 4753625.0 |
| 0 | 0-0 | 0-0 | 0-0 | 0-0 | 1 | 0.2 | Adam | 0.8469777 | 0.8469777 | 55.217825 | 4753625.0 |
| 0 | 0-0 | 0-0 | 0-0 | 0-0 | 1 | 0.2 | Adagrad | 0.8450557 | 0.8450556 | 52.083051 | 4753625.0 |
| 0 | 0-0 | 0-0 | 0-0 | 0-0 | 1 | 0.2 | RMSprop | 0.8605424 | 0.8605424 | 44.599805 | 4753625.0 |
| 0 | 0-0 | 0-0 | 0-0 | 0-0 | 1 | 0.4 | Adam | 0.8832248 | 0.8832248 | 49.993052 | 4753625.0 |
| 0 | 0-0 | 0-0 | 0-0 | 0-0 | 1 | 0.4 | Adagrad | 0.9777893 | 0.9777893 | 19.537407 | 4753625.0 |
| 0 | 0-0 | 0-0 | 0-0 | 0-0 | 1 | 0.4 | RMSprop | 0.9033781 | 0.9033780 | 42.495770 | 4753625.0 |
| 0 | 0-0 | 0-0 | 0-0 | 0-0 | 2 | 0.0 | Adam | 0.8350031 | 0.8350031 | 43.470911 | 4753625.0 |
| 0 | 0-0 | 0-0 | 0-0 | 0-0 | 2 | 0.0 | Adagrad | 0.8144351 | 0.8144351 | 38.986445 | 4753625.0 |
| 0 | 0-0 | 0-0 | 0-0 | 0-0 | 2 | 0.0 | RMSprop | 0.8395671 | 0.8395671 | 33.599450 | 4753625.0 |
| 0 | 0-0 | 0-0 | 0-0 | 0-0 | 2 | 0.2 | Adam | 0.8378576 | 0.8378576 | 58.356317 | 4753625.0 |
| 0 | 0-0 | 0-0 | 0-0 | 0-0 | 2 | 0.2 | Adagrad | 0.8470167 | 0.8470167 | 48.910958 | 4753625.0 |
| 0 | 0-0 | 0-0 | 0-0 | 0-0 | 2 | 0.2 | RMSprop | 0.8558858 | 0.8558858 | 46.031119 | 4753625.0 |
| 0 | 0-0 | 0-0 | 0-0 | 0-0 | 2 | 0.4 | Adam | 0.8857476 | 0.8857476 | 53.942089 | 4753625.0 |
| 0 | 0-0 | 0-0 | 0-0 | 0-0 | 2 | 0.4 | Adagrad | 0.9502059 | 0.9502059 | 32.633361 | 4753625.0 |
| 0 | 0-0 | 0-0 | 0-0 | 0-0 | 2 | 0.4 | RMSprop | 0.9037919 | 0.9037919 | 45.662974 | 4753625.0 |
| 0 | 0-0 | 0-0 | 0-0 | 0-0 | 3 | 0.0 | Adam | 0.8383264 | 0.8383264 | 39.698305 | 4753625.0 |
| 0 | 0-0 | 0-0 | 0-0 | 0-0 | 3 | 0.0 | Adagrad | 0.8188165 | 0.8188165 | 41.533260 | 4753625.0 |
| 0 | 0-0 | 0-0 | 0-0 | 0-0 | 3 | 0.0 | RMSprop | 0.8448890 | 0.8448890 | 43.659916 | 4753625.0 |
| 0 | 0-0 | 0-0 | 0-0 | 0-0 | 3 | 0.2 | Adam | 0.8373399 | 0.8373399 | 57.761161 | 4753625.0 |
| 0 | 0-0 | 0-0 | 0-0 | 0-0 | 3 | 0.2 | Adagrad | 0.8458192 | 0.8458192 | 48.891398 | 4753625.0 |
| 0 | 0-0 | 0-0 | 0-0 | 0-0 | 3 | 0.2 | RMSprop | 0.8601096 | 0.8601096 | 45.215627 | 4753625.0 |
| 0 | 0-0 | 0-0 | 0-0 | 0-0 | 3 | 0.4 | Adam | 0.8843767 | 0.8843767 | 51.077556 | 4753625.0 |
| 0 | 0-0 | 0-0 | 0-0 | 0-0 | 3 | 0.4 | Adagrad | 0.9644030 | 0.9644030 | 27.352427 | 4753625.0 |
| 0 | 0-0 | 0-0 | 0-0 | 0-0 | 3 | 0.4 | RMSprop | 0.9078277 | 0.9078277 | 49.216137 | 4753625.0 |
| 0 | 0-0 | 0-0 | 0-0 | 0-0 | 4 | 0.0 | Adam | 0.8398266 | 0.8398266 | 39.607923 | 4753625.0 |
| 0 | 0-0 | 0-0 | 0-0 | 0-0 | 4 | 0.0 | Adagrad | 0.8151281 | 0.8151281 | 50.756009 | 4753625.0 |
| 0 | 0-0 | 0-0 | 0-0 | 0-0 | 4 | 0.0 | RMSprop | 0.8355621 | 0.8355621 | 44.226142 | 4753625.0 |
| 0 | 0-0 | 0-0 | 0-0 | 0-0 | 4 | 0.2 | Adam | 0.8472243 | 0.8472243 | 47.345516 | 4753625.0 |
| 0 | 0-0 | 0-0 | 0-0 | 0-0 | 4 | 0.2 | Adagrad | 0.8425632 | 0.8425632 | 54.200234 | 4753625.0 |
| 0 | 0-0 | 0-0 | 0-0 | 0-0 | 4 | 0.2 | RMSprop | 0.8544408 | 0.8544408 | 49.893516 | 4753625.0 |
| 0 | 0-0 | 0-0 | 0-0 | 0-0 | 4 | 0.4 | Adam | 0.8936219 | 0.8936219 | 46.485241 | 4753625.0 |
| 0 | 0-0 | 0-0 | 0-0 | 0-0 | 4 | 0.4 | Adagrad | 0.9737076 | 0.9737076 | 22.697326 | 4753625.0 |
| 0 | 0-0 | 0-0 | 0-0 | 0-0 | 4 | 0.4 | RMSprop | 0.9069912 | 0.9069912 | 44.351306 | 4753625.0 |
| 0 | 0-0 | 0-0 | 0-0 | 0-0 | 5 | 0.0 | Adam | 0.8313668 | 0.8313669 | 43.813296 | 4753625.0 |
| 0 | 0-0 | 0-0 | 0-0 | 0-0 | 5 | 0.0 | Adagrad | 0.8102265 | 0.8102265 | 43.168664 | 4753625.0 |
| 0 | 0-0 | 0-0 | 0-0 | 0-0 | 5 | 0.0 | RMSprop | 0.8359285 | 0.8359285 | 42.594867 | 4753625.0 |
| 0 | 0-0 | 0-0 | 0-0 | 0-0 | 5 | 0.2 | Adam | 0.8488282 | 0.8488282 | 53.978918 | 4753625.0 |
| 0 | 0-0 | 0-0 | 0-0 | 0-0 | 5 | 0.2 | Adagrad | 0.8402714 | 0.8402714 | 61.981066 | 4753625.0 |
| 0 | 0-0 | 0-0 | 0-0 | 0-0 | 5 | 0.2 | RMSprop | 0.8494037 | 0.8494037 | 53.875292 | 4753625.0 |
| 0 | 0-0 | 0-0 | 0-0 | 0-0 | 5 | 0.4 | Adam | 0.8788180 | 0.8788180 | 50.181973 | 4753625.0 |
| 0 | 0-0 | 0-0 | 0-0 | 0-0 | 5 | 0.4 | Adagrad | 0.9609389 | 0.9609389 | 33.228500 | 4753625.0 |
| 0 | 0-0 | 0-0 | 0-0 | 0-0 | 5 | 0.4 | RMSprop | 0.9101504 | 0.9101504 | 42.830336 | 4753625.0 |
| 0 | 0-0 | 0-0 | 0-0 | 0-0 | 6 | 0.0 | Adam | 0.8385639 | 0.8385639 | 40.210096 | 4753625.0 |
| 0 | 0-0 | 0-0 | 0-0 | 0-0 | 6 | 0.0 | Adagrad | 0.8141616 | 0.8141616 | 48.401623 | 4753625.0 |
| 0 | 0-0 | 0-0 | 0-0 | 0-0 | 6 | 0.0 | RMSprop | 0.8412983 | 0.8412983 | 43.328622 | 4753625.0 |
| 0 | 0-0 | 0-0 | 0-0 | 0-0 | 6 | 0.2 | Adam | 0.8429953 | 0.8429953 | 46.389075 | 4753625.0 |
| 0 | 0-0 | 0-0 | 0-0 | 0-0 | 6 | 0.2 | Adagrad | 0.8456498 | 0.8456498 | 47.232289 | 4753625.0 |
| 0 | 0-0 | 0-0 | 0-0 | 0-0 | 6 | 0.2 | RMSprop | 0.8633494 | 0.8633494 | 42.457986 | 4753625.0 |
| 0 | 0-0 | 0-0 | 0-0 | 0-0 | 6 | 0.4 | Adam | 0.8878049 | 0.8878049 | 47.620661 | 4753625.0 |
| 0 | 0-0 | 0-0 | 0-0 | 0-0 | 6 | 0.4 | Adagrad | 0.9777947 | 0.9777947 | 18.751513 | 4753625.0 |
| 0 | 0-0 | 0-0 | 0-0 | 0-0 | 6 | 0.4 | RMSprop | 0.8984000 | 0.8984000 | 50.443546 | 4753625.0 |
| 0 | 0-0 | 0-0 | 0-0 | 0-0 | 7 | 0.0 | Adam | 0.8334942 | 0.8334942 | 39.109936 | 4753625.0 |
| 0 | 0-0 | 0-0 | 0-0 | 0-0 | 7 | 0.0 | Adagrad | 0.8198045 | 0.8198045 | 49.066127 | 4753625.0 |
| 0 | 0-0 | 0-0 | 0-0 | 0-0 | 7 | 0.0 | RMSprop | 0.8428169 | 0.8428169 | 39.527104 | 4753625.0 |
| 0 | 0-0 | 0-0 | 0-0 | 0-0 | 7 | 0.2 | Adam | 0.8477006 | 0.8477006 | 54.501470 | 4753625.0 |
| 0 | 0-0 | 0-0 | 0-0 | 0-0 | 7 | 0.2 | Adagrad | 0.8419790 | 0.8419790 | 57.983416 | 4753625.0 |
| 0 | 0-0 | 0-0 | 0-0 | 0-0 | 7 | 0.2 | RMSprop | 0.8439170 | 0.8439170 | 49.444042 | 4753625.0 |
| 0 | 0-0 | 0-0 | 0-0 | 0-0 | 7 | 0.4 | Adam | 0.8947115 | 0.8947114 | 46.385453 | 4753625.0 |
| 0 | 0-0 | 0-0 | 0-0 | 0-0 | 7 | 0.4 | Adagrad | 0.9563083 | 0.9563083 | 29.462051 | 4753625.0 |
| 0 | 0-0 | 0-0 | 0-0 | 0-0 | 7 | 0.4 | RMSprop | 0.9109750 | 0.9109750 | 42.903592 | 4753625.0 |
| 0 | 0-0 | 0-0 | 0-0 | 0-0 | 8 | 0.0 | Adam | 0.8335983 | 0.8335983 | 54.553315 | 4753625.0 |
| 0 | 0-0 | 0-0 | 0-0 | 0-0 | 8 | 0.0 | Adagrad | 0.8112055 | 0.8112055 | 43.814490 | 4753625.0 |
| 0 | 0-0 | 0-0 | 0-0 | 0-0 | 8 | 0.0 | RMSprop | 0.8480226 | 0.8480226 | 42.742216 | 4753625.0 |
| 0 | 0-0 | 0-0 | 0-0 | 0-0 | 8 | 0.2 | Adam | 0.8349224 | 0.8349224 | 62.751262 | 4753625.0 |
| 0 | 0-0 | 0-0 | 0-0 | 0-0 | 8 | 0.2 | Adagrad | 0.8406029 | 0.8406029 | 54.324327 | 4753625.0 |
| 0 | 0-0 | 0-0 | 0-0 | 0-0 | 8 | 0.2 | RMSprop | 0.8548209 | 0.8548209 | 56.460998 | 4753625.0 |
| 0 | 0-0 | 0-0 | 0-0 | 0-0 | 8 | 0.4 | Adam | 0.8975146 | 0.8975146 | 44.467073 | 4753625.0 |
| 0 | 0-0 | 0-0 | 0-0 | 0-0 | 8 | 0.4 | Adagrad | 0.9701248 | 0.9701248 | 23.879143 | 4753625.0 |
| 0 | 0-0 | 0-0 | 0-0 | 0-0 | 8 | 0.4 | RMSprop | 0.9023597 | 0.9023597 | 47.642178 | 4753625.0 |
