| 0 | 0-0 | 0-0 | 0-0 | 0-0 | 1 | 0.0 | Adam | 0.8369601 | 0.8369601 | 31.683357 | 4753625.0 |
| 0 | 0-0 | 0-0 | 0-0 | 0-0 | 1 | 0.0 | Adagrad | 0.8162119 | 0.8162119 | 42.715514 | 4753625.0 |
| 0 | 0-0 | 0-0 | 0-0 | 0-0 | 1 | 0.0 | RMSprop | 0.8392262 | 0.8392262 | 40.649037 | 4753625.0 |
| 0 | 0-0 | 0-0 | 0-0 | 0-0 | 1 | 0.2 | Adam | 0.8469777 | 0.8469777 | 55.217825 | 4753625.0 |
| 0 | 0-0 | 0-0 | 0-0 | 0-0 | 1 | 0.2 | Adagrad | 0.8450557 | 0.8450556 | 52.083051 | 4753625.0 |
| 0 | 0-0 | 0-0 | 0-0 | 0-0 | 1 | 0.2 | RMSprop | 0.8605424 | 0.8605424 | 44.599805 | 4753625.0 |
| 0 | 0-0 | 0-0 | 0-0 | 0-0 | 1 | 0.4 | Adam | 0.8832248 | 0.8832248 | 49.993052 | 4753625.0 |
| 0 | 0-0 | 0-0 | 0-0 | 0-0 | 1 | 0.4 | Adagrad | 0.9777893 | 0.9777893 | 19.537407 | 4753625.0 |
| 0 | 0-0 | 0-0 | 0-0 | 0-0 | 1 | 0.4 | RMSprop | 0.9033781 | 0.9033780 | 42.495770 | 4753625.0 |
| 0 | 0-0 | 0-0 | 0-0 | 0-0 | 2 | 0.0 | Adam | 0.8350031 | 0.8350031 | 43.470911 | 4753625.0 |
| 0 | 0-0 | 0-0 | 0-0 | 0-0 | 2 | 0.0 | Adagrad | 0.8144351 | 0.8144351 | 38.986445 | 4753625.0 |
| 0 | 0-0 | 0-0 | 0-0 | 0-0 | 2 | 0.0 | RMSprop | 0.8395671 | 0.8395671 | 33.599450 | 4753625.0 |
| 0 | 0-0 | 0-0 | 0-0 | 0-0 | 2 | 0.2 | Adam | 0.8378576 | 0.8378576 | 58.356317 | 4753625.0 |
| 0 | 0-0 | 0-0 | 0-0 | 0-0 | 2 | 0.2 | Adagrad | 0.8470167 | 0.8470167 | 48.910958 | 4753625.0 |
| 0 | 0-0 | 0-0 | 0-0 | 0-0 | 2 | 0.2 | RMSprop | 0.8558858 | 0.8558858 | 46.031119 | 4753625.0 |
| 0 | 0-0 | 0-0 | 0-0 | 0-0 | 2 | 0.4 | Adam | 0.8857476 | 0.8857476 | 53.942089 | 4753625.0 |
| 0 | 0-0 | 0-0 | 0-0 | 0-0 | 2 | 0.4 | Adagrad | 0.9502059 | 0.9502059 | 32.633361 | 4753625.0 |
| 0 | 0-0 | 0-0 | 0-0 | 0-0 | 2 | 0.4 | RMSprop | 0.9037919 | 0.9037919 | 45.662974 | 4753625.0 |
| 0 | 0-0 | 0-0 | 0-0 | 0-0 | 3 | 0.0 | Adam | 0.8383264 | 0.8383264 | 39.698305 | 4753625.0 |
| 0 | 0-0 | 0-0 | 0-0 | 0-0 | 3 | 0.0 | Adagrad | 0.8188165 | 0.8188165 | 41.533260 | 4753625.0 |
| 0 | 0-0 | 0-0 | 0-0 | 0-0 | 3 | 0.0 | RMSprop | 0.8448890 | 0.8448890 | 43.659916 | 4753625.0 |
| 0 | 0-0 | 0-0 | 0-0 | 0-0 | 3 | 0.2 | Adam | 0.8373399 | 0.8373399 | 57.761161 | 4753625.0 |
| 0 | 0-0 | 0-0 | 0-0 | 0-0 | 3 | 0.2 | Adagrad | 0.8458192 | 0.8458192 | 48.891398 | 4753625.0 |
| 0 | 0-0 | 0-0 | 0-0 | 0-0 | 3 | 0.2 | RMSprop | 0.8601096 | 0.8601096 | 45.215627 | 4753625.0 |
| 0 | 0-0 | 0-0 | 0-0 | 0-0 | 3 | 0.4 | Adam | 0.8843767 | 0.8843767 | 51.077556 | 4753625.0 |
| 0 | 0-0 | 0-0 | 0-0 | 0-0 | 3 | 0.4 | Adagrad | 0.9644030 | 0.9644030 | 27.352427 | 4753625.0 |
| 0 | 0-0 | 0-0 | 0-0 | 0-0 | 3 | 0.4 | RMSprop | 0.9078277 | 0.9078277 | 49.216137 | 4753625.0 |
| 0 | 0-0 | 0-0 | 0-0 | 0-0 | 4 | 0.0 | Adam | 0.8398266 | 0.8398266 | 39.607923 | 4753625.0 |
| 0 | 0-0 | 0-0 | 0-0 | 0-0 | 4 | 0.0 | Adagrad | 0.8151281 | 0.8151281 | 50.756009 | 4753625.0 |
| 0 | 0-0 | 0-0 | 0-0 | 0-0 | 4 | 0.0 | RMSprop | 0.8355621 | 0.8355621 | 44.226142 | 4753625.0 |
| 0 | 0-0 | 0-0 | 0-0 | 0-0 | 4 | 0.2 | Adam | 0.8472243 | 0.8472243 | 47.345516 | 4753625.0 |
| 0 | 0-0 | 0-0 | 0-0 | 0-0 | 4 | 0.2 | Adagrad | 0.8425632 | 0.8425632 | 54.200234 | 4753625.0 |
| 0 | 0-0 | 0-0 | 0-0 | 0-0 | 4 | 0.2 | RMSprop | 0.8544408 | 0.8544408 | 49.893516 | 4753625.0 |
| 0 | 0-0 | 0-0 | 0-0 | 0-0 | 4 | 0.4 | Adam | 0.8936219 | 0.8936219 | 46.485241 | 4753625.0 |
| 0 | 0-0 | 0-0 | 0-0 | 0-0 | 4 | 0.4 | Adagrad | 0.9737076 | 0.9737076 | 22.697326 | 4753625.0 |
| 0 | 0-0 | 0-0 | 0-0 | 0-0 | 4 | 0.4 | RMSprop | 0.9069912 | 0.9069912 | 44.351306 | 4753625.0 |
| 0 | 0-0 | 0-0 | 0-0 | 0-0 | 5 | 0.0 | Adam | 0.8313668 | 0.8313669 | 43.813296 | 4753625.0 |
| 0 | 0-0 | 0-0 | 0-0 | 0-0 | 5 | 0.0 | Adagrad | 0.8102265 | 0.8102265 | 43.168664 | 4753625.0 |
| 0 | 0-0 | 0-0 | 0-0 | 0-0 | 5 | 0.0 | RMSprop | 0.8359285 | 0.8359285 | 42.594867 | 4753625.0 |
| 0 | 0-0 | 0-0 | 0-0 | 0-0 | 5 | 0.2 | Adam | 0.8488282 | 0.8488282 | 53.978918 | 4753625.0 |
| 0 | 0-0 | 0-0 | 0-0 | 0-0 | 5 | 0.2 | Adagrad | 0.8402714 | 0.8402714 | 61.981066 | 4753625.0 |
| 0 | 0-0 | 0-0 | 0-0 | 0-0 | 5 | 0.2 | RMSprop | 0.8494037 | 0.8494037 | 53.875292 | 4753625.0 |
| 0 | 0-0 | 0-0 | 0-0 | 0-0 | 5 | 0.4 | Adam | 0.8788180 | 0.8788180 | 50.181973 | 4753625.0 |
| 0 | 0-0 | 0-0 | 0-0 | 0-0 | 5 | 0.4 | Adagrad | 0.9609389 | 0.9609389 | 33.228500 | 4753625.0 |
| 0 | 0-0 | 0-0 | 0-0 | 0-0 | 5 | 0.4 | RMSprop | 0.9101504 | 0.9101504 | 42.830336 | 4753625.0 |
| 0 | 0-0 | 0-0 | 0-0 | 0-0 | 6 | 0.0 | Adam | 0.8385639 | 0.8385639 | 40.210096 | 4753625.0 |
| 0 | 0-0 | 0-0 | 0-0 | 0-0 | 6 | 0.0 | Adagrad | 0.8141616 | 0.8141616 | 48.401623 | 4753625.0 |
| 0 | 0-0 | 0-0 | 0-0 | 0-0 | 6 | 0.0 | RMSprop | 0.8412983 | 0.8412983 | 43.328622 | 4753625.0 |
| 0 | 0-0 | 0-0 | 0-0 | 0-0 | 6 | 0.2 | Adam | 0.8429953 | 0.8429953 | 46.389075 | 4753625.0 |
| 0 | 0-0 | 0-0 | 0-0 | 0-0 | 6 | 0.2 | Adagrad | 0.8456498 | 0.8456498 | 47.232289 | 4753625.0 |
| 0 | 0-0 | 0-0 | 0-0 | 0-0 | 6 | 0.2 | RMSprop | 0.8633494 | 0.8633494 | 42.457986 | 4753625.0 |
| 0 | 0-0 | 0-0 | 0-0 | 0-0 | 6 | 0.4 | Adam | 0.8878049 | 0.8878049 | 47.620661 | 4753625.0 |
| 0 | 0-0 | 0-0 | 0-0 | 0-0 | 6 | 0.4 | Adagrad | 0.9777947 | 0.9777947 | 18.751513 | 4753625.0 |
| 0 | 0-0 | 0-0 | 0-0 | 0-0 | 6 | 0.4 | RMSprop | 0.8984000 | 0.8984000 | 50.443546 | 4753625.0 |
| 0 | 0-0 | 0-0 | 0-0 | 0-0 | 7 | 0.0 | Adam | 0.8334942 | 0.8334942 | 39.109936 | 4753625.0 |
| 0 | 0-0 | 0-0 | 0-0 | 0-0 | 7 | 0.0 | Adagrad | 0.8198045 | 0.8198045 | 49.066127 | 4753625.0 |
| 0 | 0-0 | 0-0 | 0-0 | 0-0 | 7 | 0.0 | RMSprop | 0.8428169 | 0.8428169 | 39.527104 | 4753625.0 |
| 0 | 0-0 | 0-0 | 0-0 | 0-0 | 7 | 0.2 | Adam | 0.8477006 | 0.8477006 | 54.501470 | 4753625.0 |
| 0 | 0-0 | 0-0 | 0-0 | 0-0 | 7 | 0.2 | Adagrad | 0.8419790 | 0.8419790 | 57.983416 | 4753625.0 |
| 0 | 0-0 | 0-0 | 0-0 | 0-0 | 7 | 0.2 | RMSprop | 0.8439170 | 0.8439170 | 49.444042 | 4753625.0 |
| 0 | 0-0 | 0-0 | 0-0 | 0-0 | 7 | 0.4 | Adam | 0.8947115 | 0.8947114 | 46.385453 | 4753625.0 |
| 0 | 0-0 | 0-0 | 0-0 | 0-0 | 7 | 0.4 | Adagrad | 0.9563083 | 0.9563083 | 29.462051 | 4753625.0 |
| 0 | 0-0 | 0-0 | 0-0 | 0-0 | 7 | 0.4 | RMSprop | 0.9109750 | 0.9109750 | 42.903592 | 4753625.0 |
| 0 | 0-0 | 0-0 | 0-0 | 0-0 | 8 | 0.0 | Adam | 0.8335983 | 0.8335983 | 54.553315 | 4753625.0 |
| 0 | 0-0 | 0-0 | 0-0 | 0-0 | 8 | 0.0 | Adagrad | 0.8112055 | 0.8112055 | 43.814490 | 4753625.0 |
| 0 | 0-0 | 0-0 | 0-0 | 0-0 | 8 | 0.0 | RMSprop | 0.8480226 | 0.8480226 | 42.742216 | 4753625.0 |
| 0 | 0-0 | 0-0 | 0-0 | 0-0 | 8 | 0.2 | Adam | 0.8349224 | 0.8349224 | 62.751262 | 4753625.0 |
| 0 | 0-0 | 0-0 | 0-0 | 0-0 | 8 | 0.2 | Adagrad | 0.8406029 | 0.8406029 | 54.324327 | 4753625.0 |
| 0 | 0-0 | 0-0 | 0-0 | 0-0 | 8 | 0.2 | RMSprop | 0.8548209 | 0.8548209 | 56.460998 | 4753625.0 |
| 0 | 0-0 | 0-0 | 0-0 | 0-0 | 8 | 0.4 | Adam | 0.8975146 | 0.8975146 | 44.467073 | 4753625.0 |
| 0 | 0-0 | 0-0 | 0-0 | 0-0 | 8 | 0.4 | Adagrad | 0.9701248 | 0.9701248 | 23.879143 | 4753625.0 |
| 0 | 0-0 | 0-0 | 0-0 | 0-0 | 8 | 0.4 | RMSprop | 0.9023597 | 0.9023597 | 47.642178 | 4753625.0 |
| 0 | 0-0 | 0-0 | 0-0 | 0-0 | 9 | 0.0 | Adam | 0.8332330 | 0.8332330 | 41.185721 | 4753625.0 |
| 0 | 0-0 | 0-0 | 0-0 | 0-0 | 9 | 0.0 | Adagrad | 0.8158385 | 0.8158385 | 43.417667 | 4753625.0 |
| 0 | 0-0 | 0-0 | 0-0 | 0-0 | 9 | 0.0 | RMSprop | 0.8360364 | 0.8360364 | 40.276017 | 4753625.0 |
| 0 | 0-0 | 0-0 | 0-0 | 0-0 | 9 | 0.2 | Adam | 0.8370810 | 0.8370810 | 51.194815 | 4753625.0 |
| 0 | 0-0 | 0-0 | 0-0 | 0-0 | 9 | 0.2 | Adagrad | 0.8437494 | 0.8437494 | 56.598594 | 4753625.0 |
| 0 | 0-0 | 0-0 | 0-0 | 0-0 | 9 | 0.2 | RMSprop | 0.8497596 | 0.8497596 | 47.520365 | 4753625.0 |
| 0 | 0-0 | 0-0 | 0-0 | 0-0 | 9 | 0.4 | Adam | 0.8768715 | 0.8768715 | 54.437542 | 4753625.0 |
| 0 | 0-0 | 0-0 | 0-0 | 0-0 | 9 | 0.4 | Adagrad | 0.9755012 | 0.9755012 | 21.603137 | 4753625.0 |
| 0 | 0-0 | 0-0 | 0-0 | 0-0 | 9 | 0.4 | RMSprop | 0.9042775 | 0.9042775 | 40.436794 | 4753625.0 |
| 0 | 0-0 | 0-0 | 0-0 | 0-0 | 10 | 0.0 | Adam | 0.8340048 | 0.8340048 | 40.748841 | 4753625.0 |
| 0 | 0-0 | 0-0 | 0-0 | 0-0 | 10 | 0.0 | Adagrad | 0.8266266 | 0.8266267 | 40.422065 | 4753625.0 |
| 0 | 0-0 | 0-0 | 0-0 | 0-0 | 10 | 0.0 | RMSprop | 0.8446169 | 0.8446169 | 40.770084 | 4753625.0 |
| 0 | 0-0 | 0-0 | 0-0 | 0-0 | 10 | 0.2 | Adam | 0.8436330 | 0.8436330 | 49.757109 | 4753625.0 |
| 0 | 0-0 | 0-0 | 0-0 | 0-0 | 10 | 0.2 | Adagrad | 0.8526445 | 0.8526445 | 55.194970 | 4753625.0 |
| 0 | 0-0 | 0-0 | 0-0 | 0-0 | 10 | 0.2 | RMSprop | 0.8491707 | 0.8491707 | 49.950725 | 4753625.0 |
| 0 | 0-0 | 0-0 | 0-0 | 0-0 | 10 | 0.4 | Adam | 0.8970667 | 0.8970667 | 51.099186 | 4753625.0 |
| 0 | 0-0 | 0-0 | 0-0 | 0-0 | 10 | 0.4 | Adagrad | 0.9734858 | 0.9734858 | 22.319968 | 4753625.0 |
| 0 | 0-0 | 0-0 | 0-0 | 0-0 | 10 | 0.4 | RMSprop | 0.9008664 | 0.9008663 | 48.824180 | 4753625.0 |
| 1 | 5-15 | 17-5 | 5-5 | 5-4 | 1 | 0.0 | Adam | 0.8145328 | 0.8145328 | 49.711403 | 1565830.0 |
| 1 | 17-5 | 5-15 | 5-5 | 5-4 | 1 | 0.0 | Adam | 0.8199757 | 0.8199757 | 53.278398 | 1565830.0 |
| 1 | 5-15 | 17-5 | 5-5 | 5-4 | 1 | 0.0 | Adagrad | 0.8063015 | 0.8063015 | 46.354040 | 1565830.0 |
| 1 | 17-5 | 5-15 | 5-5 | 5-4 | 1 | 0.0 | Adagrad | 0.8084583 | 0.8084583 | 49.884241 | 1565830.0 |
| 1 | 5-15 | 17-5 | 5-5 | 5-4 | 1 | 0.0 | RMSprop | 0.8086618 | 0.8086618 | 52.471862 | 1565830.0 |
| 1 | 17-5 | 5-15 | 5-5 | 5-4 | 1 | 0.0 | RMSprop | 0.8128671 | 0.8128671 | 54.587167 | 1565830.0 |
| 1 | 5-15 | 17-5 | 5-5 | 5-4 | 1 | 0.2 | Adam | 0.8096389 | 0.8096389 | 57.560034 | 1565830.0 |
| 1 | 17-5 | 5-15 | 5-5 | 5-4 | 1 | 0.2 | Adam | 0.8113703 | 0.8113703 | 55.088616 | 1565830.0 |
| 1 | 5-15 | 17-5 | 5-5 | 5-4 | 1 | 0.2 | Adagrad | 0.7957668 | 0.7957668 | 59.812776 | 1565830.0 |
| 1 | 17-5 | 5-15 | 5-5 | 5-4 | 1 | 0.2 | Adagrad | 0.8069349 | 0.8069349 | 51.974707 | 1565830.0 |
| 1 | 5-15 | 17-5 | 5-5 | 5-4 | 1 | 0.2 | RMSprop | 0.8048897 | 0.8048897 | 61.195209 | 1565830.0 |
| 1 | 17-5 | 5-15 | 5-5 | 5-4 | 1 | 0.2 | RMSprop | 0.8121638 | 0.8121638 | 56.955686 | 1565830.0 |
| 1 | 5-15 | 17-5 | 5-5 | 5-4 | 1 | 0.4 | Adam | 0.8073026 | 0.8073026 | 71.536952 | 1565830.0 |
| 1 | 17-5 | 5-15 | 5-5 | 5-4 | 1 | 0.4 | Adam | 0.8079688 | 0.8079688 | 61.294849 | 1565830.0 |
| 1 | 5-15 | 17-5 | 5-5 | 5-4 | 1 | 0.4 | Adagrad | 0.8043841 | 0.8043841 | 62.288764 | 1565830.0 |
| 1 | 17-5 | 5-15 | 5-5 | 5-4 | 1 | 0.4 | Adagrad | 0.8032119 | 0.8032119 | 65.217703 | 1565830.0 |
| 1 | 5-15 | 17-5 | 5-5 | 5-4 | 1 | 0.4 | RMSprop | 0.8048250 | 0.8048251 | 66.582149 | 1565830.0 |
| 1 | 17-5 | 5-15 | 5-5 | 5-4 | 1 | 0.4 | RMSprop | 0.8044875 | 0.8044875 | 63.818930 | 1565830.0 |
| 1 | 5-15 | 17-5 | 5-5 | 5-4 | 2 | 0.0 | Adam | 0.8143854 | 0.8143854 | 66.955940 | 1566035.0 |
| 1 | 17-5 | 5-15 | 5-5 | 5-4 | 2 | 0.0 | Adam | 0.8142446 | 0.8142446 | 72.709463 | 1566035.0 |
| 1 | 5-15 | 17-5 | 5-5 | 5-4 | 2 | 0.0 | Adagrad | 0.8002346 | 0.8002345 | 65.436203 | 1566035.0 |
| 1 | 17-5 | 5-15 | 5-5 | 5-4 | 2 | 0.0 | Adagrad | 0.8056181 | 0.8056181 | 80.418722 | 1566035.0 |
| 1 | 5-15 | 17-5 | 5-5 | 5-4 | 2 | 0.0 | RMSprop | 0.8104143 | 0.8104143 | 62.994807 | 1566035.0 |
| 1 | 17-5 | 5-15 | 5-5 | 5-4 | 2 | 0.0 | RMSprop | 0.8169416 | 0.8169416 | 58.850294 | 1566035.0 |
| 1 | 5-15 | 17-5 | 5-5 | 5-4 | 2 | 0.2 | Adam | 0.8039959 | 0.8039959 | 69.406191 | 1566035.0 |
| 1 | 17-5 | 5-15 | 5-5 | 5-4 | 2 | 0.2 | Adam | 0.8042076 | 0.8042076 | 72.072319 | 1566035.0 |
| 1 | 5-15 | 17-5 | 5-5 | 5-4 | 2 | 0.2 | Adagrad | 0.8078643 | 0.8078643 | 72.399024 | 1566035.0 |
| 1 | 17-5 | 5-15 | 5-5 | 5-4 | 2 | 0.2 | Adagrad | 0.8030414 | 0.8030414 | 70.715297 | 1566035.0 |
| 1 | 5-15 | 17-5 | 5-5 | 5-4 | 2 | 0.2 | RMSprop | 0.7928853 | 0.7928853 | 86.133566 | 1566035.0 |
| 1 | 17-5 | 5-15 | 5-5 | 5-4 | 2 | 0.2 | RMSprop | 0.8038413 | 0.8038413 | 74.609176 | 1566035.0 |
| 1 | 5-15 | 17-5 | 5-5 | 5-4 | 2 | 0.4 | Adam | 0.8038528 | 0.8038528 | 85.610595 | 1566035.0 |
| 1 | 17-5 | 5-15 | 5-5 | 5-4 | 2 | 0.4 | Adam | 0.8009474 | 0.8009475 | 94.312763 | 1566035.0 |
| 1 | 5-15 | 17-5 | 5-5 | 5-4 | 2 | 0.4 | Adagrad | 0.7982024 | 0.7982024 | 83.623837 | 1566035.0 |
| 1 | 17-5 | 5-15 | 5-5 | 5-4 | 2 | 0.4 | Adagrad | 0.8042659 | 0.8042659 | 77.054996 | 1566035.0 |
| 1 | 5-15 | 17-5 | 5-5 | 5-4 | 2 | 0.4 | RMSprop | 0.7995776 | 0.7995776 | 101.20502 | 1566035.0 |
| 1 | 17-5 | 5-15 | 5-5 | 5-4 | 2 | 0.4 | RMSprop | 0.8045409 | 0.8045409 | 77.289300 | 1566035.0 |
| 1 | 5-15 | 17-5 | 5-5 | 5-4 | 3 | 0.0 | Adam | 0.8082538 | 0.8082537 | 75.566555 | 1566240.0 |
| 1 | 17-5 | 5-15 | 5-5 | 5-4 | 3 | 0.0 | Adam | 0.8079204 | 0.8079204 | 69.545870 | 1566240.0 |
| 1 | 5-15 | 17-5 | 5-5 | 5-4 | 3 | 0.0 | Adagrad | 0.8059941 | 0.8059940 | 68.713998 | 1566240.0 |
| 1 | 17-5 | 5-15 | 5-5 | 5-4 | 3 | 0.0 | Adagrad | 0.8048286 | 0.8048286 | 69.838740 | 1566240.0 |
| 1 | 5-15 | 17-5 | 5-5 | 5-4 | 3 | 0.0 | RMSprop | 0.8097926 | 0.8097926 | 71.619005 | 1566240.0 |
| 1 | 17-5 | 5-15 | 5-5 | 5-4 | 3 | 0.0 | RMSprop | 0.8104161 | 0.8104161 | 78.242337 | 1566240.0 |
| 1 | 5-15 | 17-5 | 5-5 | 5-4 | 3 | 0.2 | Adam | 0.8053209 | 0.8053209 | 80.930250 | 1566240.0 |
| 1 | 17-5 | 5-15 | 5-5 | 5-4 | 3 | 0.2 | Adam | 0.8091293 | 0.8091293 | 73.624910 | 1566240.0 |
| 1 | 5-15 | 17-5 | 5-5 | 5-4 | 3 | 0.2 | Adagrad | 0.8003241 | 0.8003241 | 83.443860 | 1566240.0 |
| 1 | 17-5 | 5-15 | 5-5 | 5-4 | 3 | 0.2 | Adagrad | 0.8012213 | 0.8012213 | 85.977208 | 1566240.0 |
| 1 | 5-15 | 17-5 | 5-5 | 5-4 | 3 | 0.2 | RMSprop | 0.8041622 | 0.8041622 | 86.263051 | 1566240.0 |
| 1 | 17-5 | 5-15 | 5-5 | 5-4 | 3 | 0.2 | RMSprop | 0.8007280 | 0.8007280 | 81.686490 | 1566240.0 |
| 1 | 5-15 | 17-5 | 5-5 | 5-4 | 3 | 0.4 | Adam | 0.7967453 | 0.7967453 | 100.51415 | 1566240.0 |
| 1 | 17-5 | 5-15 | 5-5 | 5-4 | 3 | 0.4 | Adam | 0.8010834 | 0.8010834 | 89.333978 | 1566240.0 |
| 1 | 5-15 | 17-5 | 5-5 | 5-4 | 3 | 0.4 | Adagrad | 0.8011590 | 0.8011590 | 82.232459 | 1566240.0 |
| 1 | 17-5 | 5-15 | 5-5 | 5-4 | 3 | 0.4 | Adagrad | 0.8089551 | 0.8089551 | 72.061022 | 1566240.0 |
| 1 | 5-15 | 17-5 | 5-5 | 5-4 | 3 | 0.4 | RMSprop | 0.7974299 | 0.7974299 | 92.993135 | 1566240.0 |
| 1 | 17-5 | 5-15 | 5-5 | 5-4 | 3 | 0.4 | RMSprop | 0.8069152 | 0.8069152 | 84.051426 | 1566240.0 |
| 1 | 5-15 | 17-5 | 5-5 | 5-4 | 4 | 0.0 | Adam | 0.8061622 | 0.8061622 | 90.776550 | 1566445.0 |
| 1 | 17-5 | 5-15 | 5-5 | 5-4 | 4 | 0.0 | Adam | 0.8079376 | 0.8079376 | 89.881080 | 1566445.0 |
| 1 | 5-15 | 17-5 | 5-5 | 5-4 | 4 | 0.0 | Adagrad | 0.8089069 | 0.8089069 | 99.712577 | 1566445.0 |
| 1 | 17-5 | 5-15 | 5-5 | 5-4 | 4 | 0.0 | Adagrad | 0.8019679 | 0.8019679 | 82.069229 | 1566445.0 |
| 1 | 5-15 | 17-5 | 5-5 | 5-4 | 4 | 0.0 | RMSprop | 0.8077400 | 0.8077400 | 90.905683 | 1566445.0 |
| 1 | 17-5 | 5-15 | 5-5 | 5-4 | 4 | 0.0 | RMSprop | 0.8067679 | 0.8067679 | 107.37787 | 1566445.0 |
| 1 | 5-15 | 17-5 | 5-5 | 5-4 | 4 | 0.2 | Adam | 0.7992772 | 0.7992772 | 113.55663 | 1566445.0 |
| 1 | 17-5 | 5-15 | 5-5 | 5-4 | 4 | 0.2 | Adam | 0.8031677 | 0.8031677 | 106.41417 | 1566445.0 |
| 1 | 5-15 | 17-5 | 5-5 | 5-4 | 4 | 0.2 | Adagrad | 0.8016468 | 0.8016468 | 106.57744 | 1566445.0 |
| 1 | 17-5 | 5-15 | 5-5 | 5-4 | 4 | 0.2 | Adagrad | 0.7976309 | 0.7976309 | 118.32669 | 1566445.0 |
| 1 | 5-15 | 17-5 | 5-5 | 5-4 | 4 | 0.2 | RMSprop | 0.8015700 | 0.8015700 | 113.12607 | 1566445.0 |
| 1 | 17-5 | 5-15 | 5-5 | 5-4 | 4 | 0.2 | RMSprop | 0.8128378 | 0.8128378 | 106.04303 | 1566445.0 |
| 1 | 5-15 | 17-5 | 5-5 | 5-4 | 4 | 0.4 | Adam | 0.8023524 | 0.8023524 | 115.07861 | 1566445.0 |
| 1 | 17-5 | 5-15 | 5-5 | 5-4 | 4 | 0.4 | Adam | 0.7981983 | 0.7981983 | 119.74287 | 1566445.0 |
| 1 | 5-15 | 17-5 | 5-5 | 5-4 | 4 | 0.4 | Adagrad | 0.8030767 | 0.8030767 | 113.10050 | 1566445.0 |
| 1 | 17-5 | 5-15 | 5-5 | 5-4 | 4 | 0.4 | Adagrad | 0.8054597 | 0.8054597 | 107.07500 | 1566445.0 |
| 1 | 5-15 | 17-5 | 5-5 | 5-4 | 4 | 0.4 | RMSprop | 0.7983110 | 0.7983110 | 131.33655 | 1566445.0 |
| 1 | 17-5 | 5-15 | 5-5 | 5-4 | 4 | 0.4 | RMSprop | 0.8052895 | 0.8052894 | 125.55357 | 1566445.0 |
| 1 | 5-15 | 17-5 | 5-5 | 5-4 | 5 | 0.0 | Adam | 0.8037590 | 0.8037590 | 105.29807 | 1566650.0 |
| 1 | 17-5 | 5-15 | 5-5 | 5-4 | 5 | 0.0 | Adam | 0.8120038 | 0.8120038 | 114.03946 | 1566650.0 |
| 1 | 5-15 | 17-5 | 5-5 | 5-4 | 5 | 0.0 | Adagrad | 0.7956839 | 0.7956839 | 129.96159 | 1566650.0 |
| 1 | 17-5 | 5-15 | 5-5 | 5-4 | 5 | 0.0 | Adagrad | 0.8063412 | 0.8063412 | 101.92362 | 1566650.0 |
| 1 | 5-15 | 17-5 | 5-5 | 5-4 | 5 | 0.0 | RMSprop | 0.8128497 | 0.8128497 | 110.13418 | 1566650.0 |
| 1 | 17-5 | 5-15 | 5-5 | 5-4 | 5 | 0.0 | RMSprop | 0.8096930 | 0.8096930 | 104.17015 | 1566650.0 |
| 1 | 5-15 | 17-5 | 5-5 | 5-4 | 5 | 0.2 | Adam | 0.7976318 | 0.7976318 | 125.22574 | 1566650.0 |
| 1 | 17-5 | 5-15 | 5-5 | 5-4 | 5 | 0.2 | Adam | 0.8019379 | 0.8019379 | 130.98578 | 1566650.0 |
| 1 | 5-15 | 17-5 | 5-5 | 5-4 | 5 | 0.2 | Adagrad | 0.8019502 | 0.8019502 | 121.14270 | 1566650.0 |
| 1 | 17-5 | 5-15 | 5-5 | 5-4 | 5 | 0.2 | Adagrad | 0.8000296 | 0.8000296 | 108.43491 | 1566650.0 |
| 1 | 5-15 | 17-5 | 5-5 | 5-4 | 5 | 0.2 | RMSprop | 0.8041726 | 0.8041726 | 120.12527 | 1566650.0 |
| 1 | 17-5 | 5-15 | 5-5 | 5-4 | 5 | 0.2 | RMSprop | 0.8063164 | 0.8063164 | 107.42846 | 1566650.0 |
| 1 | 5-15 | 17-5 | 5-5 | 5-4 | 5 | 0.4 | Adam | 0.7962986 | 0.7962986 | 122.94313 | 1566650.0 |
| 1 | 17-5 | 5-15 | 5-5 | 5-4 | 5 | 0.4 | Adam | 0.8009659 | 0.8009659 | 117.82013 | 1566650.0 |
| 1 | 5-15 | 17-5 | 5-5 | 5-4 | 5 | 0.4 | Adagrad | 0.7987101 | 0.7987101 | 108.33554 | 1566650.0 |
| 1 | 17-5 | 5-15 | 5-5 | 5-4 | 5 | 0.4 | Adagrad | 0.7990516 | 0.7990516 | 131.77356 | 1566650.0 |
| 1 | 5-15 | 17-5 | 5-5 | 5-4 | 5 | 0.4 | RMSprop | 0.8035554 | 0.8035554 | 115.48127 | 1566650.0 |
| 1 | 17-5 | 5-15 | 5-5 | 5-4 | 5 | 0.4 | RMSprop | 0.7990994 | 0.7990994 | 129.83146 | 1566650.0 |
| 1 | 5-15 | 17-5 | 5-5 | 5-4 | 6 | 0.0 | Adam | 0.8042557 | 0.8042557 | 104.98925 | 1566855.0 |
| 1 | 17-5 | 5-15 | 5-5 | 5-4 | 6 | 0.0 | Adam | 0.8120449 | 0.8120449 | 98.665939 | 1566855.0 |
| 1 | 5-15 | 17-5 | 5-5 | 5-4 | 6 | 0.0 | Adagrad | 0.8039427 | 0.8039427 | 123.43104 | 1566855.0 |
| 1 | 17-5 | 5-15 | 5-5 | 5-4 | 6 | 0.0 | Adagrad | 0.8023662 | 0.8023663 | 112.98975 | 1566855.0 |
| 1 | 5-15 | 17-5 | 5-5 | 5-4 | 6 | 0.0 | RMSprop | 0.8113914 | 0.8113914 | 113.03002 | 1566855.0 |
| 1 | 17-5 | 5-15 | 5-5 | 5-4 | 6 | 0.0 | RMSprop | 0.8112222 | 0.8112223 | 106.55648 | 1566855.0 |
| 1 | 5-15 | 17-5 | 5-5 | 5-4 | 6 | 0.2 | Adam | 0.7967133 | 0.7967133 | 115.03833 | 1566855.0 |
| 1 | 17-5 | 5-15 | 5-5 | 5-4 | 6 | 0.2 | Adam | 0.8041981 | 0.8041981 | 98.742770 | 1566855.0 |
| 1 | 5-15 | 17-5 | 5-5 | 5-4 | 6 | 0.2 | Adagrad | 0.7934426 | 0.7934426 | 112.58959 | 1566855.0 |
| 1 | 17-5 | 5-15 | 5-5 | 5-4 | 6 | 0.2 | Adagrad | 0.8020401 | 0.8020401 | 109.62512 | 1566855.0 |
| 1 | 5-15 | 17-5 | 5-5 | 5-4 | 6 | 0.2 | RMSprop | 0.8040839 | 0.8040839 | 102.11547 | 1566855.0 |
| 1 | 17-5 | 5-15 | 5-5 | 5-4 | 6 | 0.2 | RMSprop | 0.8038585 | 0.8038585 | 103.74129 | 1566855.0 |
| 1 | 5-15 | 17-5 | 5-5 | 5-4 | 6 | 0.4 | Adam | 0.8069143 | 0.8069143 | 105.39431 | 1566855.0 |
| 1 | 17-5 | 5-15 | 5-5 | 5-4 | 6 | 0.4 | Adam | 0.7939691 | 0.7939691 | 130.39322 | 1566855.0 |
| 1 | 5-15 | 17-5 | 5-5 | 5-4 | 6 | 0.4 | Adagrad | 0.7996808 | 0.7996808 | 118.57982 | 1566855.0 |
| 1 | 17-5 | 5-15 | 5-5 | 5-4 | 6 | 0.4 | Adagrad | 0.7964767 | 0.7964767 | 130.55179 | 1566855.0 |
| 1 | 5-15 | 17-5 | 5-5 | 5-4 | 6 | 0.4 | RMSprop | 0.8001600 | 0.8001600 | 114.59576 | 1566855.0 |
| 1 | 17-5 | 5-15 | 5-5 | 5-4 | 6 | 0.4 | RMSprop | 0.8108262 | 0.8108262 | 102.38283 | 1566855.0 |
| 1 | 5-15 | 17-5 | 5-5 | 5-4 | 7 | 0.0 | Adam | 0.8087466 | 0.8087466 | 96.430718 | 1567060.0 |
| 1 | 17-5 | 5-15 | 5-5 | 5-4 | 7 | 0.0 | Adam | 0.8129097 | 0.8129097 | 100.87296 | 1567060.0 |
| 1 | 5-15 | 17-5 | 5-5 | 5-4 | 7 | 0.0 | Adagrad | 0.8052630 | 0.8052630 | 94.210641 | 1567060.0 |
| 1 | 17-5 | 5-15 | 5-5 | 5-4 | 7 | 0.0 | Adagrad | 0.8082116 | 0.8082116 | 105.62253 | 1567060.0 |
| 1 | 5-15 | 17-5 | 5-5 | 5-4 | 7 | 0.0 | RMSprop | 0.8081830 | 0.8081830 | 102.69107 | 1567060.0 |
| 1 | 17-5 | 5-15 | 5-5 | 5-4 | 7 | 0.0 | RMSprop | 0.8066086 | 0.8066086 | 103.34006 | 1567060.0 |
| 1 | 5-15 | 17-5 | 5-5 | 5-4 | 7 | 0.2 | Adam | 0.8043276 | 0.8043276 | 110.58563 | 1567060.0 |
| 1 | 17-5 | 5-15 | 5-5 | 5-4 | 7 | 0.2 | Adam | 0.7951774 | 0.7951774 | 118.15936 | 1567060.0 |
| 1 | 5-15 | 17-5 | 5-5 | 5-4 | 7 | 0.2 | Adagrad | 0.8083173 | 0.8083173 | 96.257815 | 1567060.0 |
| 1 | 17-5 | 5-15 | 5-5 | 5-4 | 7 | 0.2 | Adagrad | 0.7965996 | 0.7965996 | 119.39142 | 1567060.0 |
| 1 | 5-15 | 17-5 | 5-5 | 5-4 | 7 | 0.2 | RMSprop | 0.7971665 | 0.7971665 | 133.24132 | 1567060.0 |
| 1 | 17-5 | 5-15 | 5-5 | 5-4 | 7 | 0.2 | RMSprop | 0.8065410 | 0.8065410 | 104.09989 | 1567060.0 |
| 1 | 5-15 | 17-5 | 5-5 | 5-4 | 7 | 0.4 | Adam | 0.7982049 | 0.7982049 | 123.92593 | 1567060.0 |
| 1 | 17-5 | 5-15 | 5-5 | 5-4 | 7 | 0.4 | Adam | 0.8014186 | 0.8014186 | 114.01756 | 1567060.0 |
| 1 | 5-15 | 17-5 | 5-5 | 5-4 | 7 | 0.4 | Adagrad | 0.8011396 | 0.8011396 | 124.34504 | 1567060.0 |
| 1 | 17-5 | 5-15 | 5-5 | 5-4 | 7 | 0.4 | Adagrad | 0.8042125 | 0.8042125 | 120.83193 | 1567060.0 |
| 1 | 5-15 | 17-5 | 5-5 | 5-4 | 7 | 0.4 | RMSprop | 0.8051937 | 0.8051937 | 132.73533 | 1567060.0 |
| 1 | 17-5 | 5-15 | 5-5 | 5-4 | 7 | 0.4 | RMSprop | 0.8074266 | 0.8074266 | 92.148678 | 1567060.0 |
| 1 | 5-15 | 17-5 | 5-5 | 5-4 | 8 | 0.0 | Adam | 0.8057691 | 0.8057691 | 154.47145 | 1567265.0 |
| 1 | 17-5 | 5-15 | 5-5 | 5-4 | 8 | 0.0 | Adam | 0.8092472 | 0.8092472 | 148.43323 | 1567265.0 |
| 1 | 5-15 | 17-5 | 5-5 | 5-4 | 8 | 0.0 | Adagrad | 0.8046878 | 0.8046878 | 147.58529 | 1567265.0 |
| 1 | 17-5 | 5-15 | 5-5 | 5-4 | 8 | 0.0 | Adagrad | 0.7998244 | 0.7998244 | 172.77507 | 1567265.0 |
| 1 | 5-15 | 17-5 | 5-5 | 5-4 | 8 | 0.0 | RMSprop | 0.8036102 | 0.8036102 | 151.87826 | 1567265.0 |
| 1 | 17-5 | 5-15 | 5-5 | 5-4 | 8 | 0.0 | RMSprop | 0.8098682 | 0.8098682 | 148.27261 | 1567265.0 |
| 1 | 5-15 | 17-5 | 5-5 | 5-4 | 8 | 0.2 | Adam | 0.8082144 | 0.8082144 | 163.85465 | 1567265.0 |
| 1 | 17-5 | 5-15 | 5-5 | 5-4 | 8 | 0.2 | Adam | 0.7996070 | 0.7996070 | 165.98227 | 1567265.0 |
| 1 | 5-15 | 17-5 | 5-5 | 5-4 | 8 | 0.2 | Adagrad | 0.8023798 | 0.8023798 | 156.71332 | 1567265.0 |
| 1 | 17-5 | 5-15 | 5-5 | 5-4 | 8 | 0.2 | Adagrad | 0.8009471 | 0.8009471 | 173.76851 | 1567265.0 |
| 1 | 5-15 | 17-5 | 5-5 | 5-4 | 8 | 0.2 | RMSprop | 0.8021883 | 0.8021883 | 182.09217 | 1567265.0 |
| 1 | 17-5 | 5-15 | 5-5 | 5-4 | 8 | 0.2 | RMSprop | 0.7980516 | 0.7980516 | 181.36743 | 1567265.0 |
| 1 | 5-15 | 17-5 | 5-5 | 5-4 | 8 | 0.4 | Adam | 0.7981268 | 0.7981268 | 195.58121 | 1567265.0 |
| 1 | 17-5 | 5-15 | 5-5 | 5-4 | 8 | 0.4 | Adam | 0.8102584 | 0.8102584 | 173.23223 | 1567265.0 |
| 1 | 5-15 | 17-5 | 5-5 | 5-4 | 8 | 0.4 | Adagrad | 0.7996332 | 0.7996332 | 179.08011 | 1567265.0 |
| 1 | 17-5 | 5-15 | 5-5 | 5-4 | 8 | 0.4 | Adagrad | 0.8060163 | 0.8060163 | 160.76246 | 1567265.0 |
| 1 | 5-15 | 17-5 | 5-5 | 5-4 | 8 | 0.4 | RMSprop | 0.7966947 | 0.7966947 | 213.33890 | 1567265.0 |
| 1 | 17-5 | 5-15 | 5-5 | 5-4 | 8 | 0.4 | RMSprop | 0.7980749 | 0.7980749 | 206.53533 | 1567265.0 |
| 1 | 5-15 | 17-5 | 5-5 | 5-4 | 9 | 0.0 | Adam | 0.8068898 | 0.8068898 | 178.00992 | 1567470.0 |
| 1 | 17-5 | 5-15 | 5-5 | 5-4 | 9 | 0.0 | Adam | 0.8165955 | 0.8165955 | 152.48264 | 1567470.0 |
| 1 | 5-15 | 17-5 | 5-5 | 5-4 | 9 | 0.0 | Adagrad | 0.8056253 | 0.8056253 | 143.68397 | 1567470.0 |
| 1 | 17-5 | 5-15 | 5-5 | 5-4 | 9 | 0.0 | Adagrad | 0.8093683 | 0.8093683 | 131.41525 | 1567470.0 |
| 1 | 5-15 | 17-5 | 5-5 | 5-4 | 9 | 0.0 | RMSprop | 0.8039950 | 0.8039950 | 157.93880 | 1567470.0 |
| 1 | 17-5 | 5-15 | 5-5 | 5-4 | 9 | 0.0 | RMSprop | 0.8132747 | 0.8132747 | 141.50138 | 1567470.0 |
| 1 | 5-15 | 17-5 | 5-5 | 5-4 | 9 | 0.2 | Adam | 0.8056471 | 0.8056471 | 177.40020 | 1567470.0 |
| 1 | 17-5 | 5-15 | 5-5 | 5-4 | 9 | 0.2 | Adam | 0.8045000 | 0.8045000 | 178.45186 | 1567470.0 |
| 1 | 5-15 | 17-5 | 5-5 | 5-4 | 9 | 0.2 | Adagrad | 0.8042051 | 0.8042051 | 140.97062 | 1567470.0 |
| 1 | 17-5 | 5-15 | 5-5 | 5-4 | 9 | 0.2 | Adagrad | 0.7979556 | 0.7979556 | 184.72372 | 1567470.0 |
| 1 | 5-15 | 17-5 | 5-5 | 5-4 | 9 | 0.2 | RMSprop | 0.8040567 | 0.8040567 | 151.90975 | 1567470.0 |
| 1 | 17-5 | 5-15 | 5-5 | 5-4 | 9 | 0.2 | RMSprop | 0.8048706 | 0.8048706 | 146.98808 | 1567470.0 |
| 1 | 5-15 | 17-5 | 5-5 | 5-4 | 9 | 0.4 | Adam | 0.8024607 | 0.8024607 | 164.51233 | 1567470.0 |
| 1 | 17-5 | 5-15 | 5-5 | 5-4 | 9 | 0.4 | Adam | 0.8005682 | 0.8005682 | 157.61768 | 1567470.0 |
| 1 | 5-15 | 17-5 | 5-5 | 5-4 | 9 | 0.4 | Adagrad | 0.7980988 | 0.7980989 | 166.69900 | 1567470.0 |
| 1 | 17-5 | 5-15 | 5-5 | 5-4 | 9 | 0.4 | Adagrad | 0.8000148 | 0.8000148 | 150.39279 | 1567470.0 |
| 1 | 5-15 | 17-5 | 5-5 | 5-4 | 9 | 0.4 | RMSprop | 0.8014759 | 0.8014759 | 158.24913 | 1567470.0 |
| 1 | 17-5 | 5-15 | 5-5 | 5-4 | 9 | 0.4 | RMSprop | 0.8092080 | 0.8092080 | 153.53251 | 1567470.0 |
| 1 | 5-15 | 17-5 | 5-5 | 5-4 | 10 | 0.0 | Adam | 0.8052280 | 0.8052280 | 135.28691 | 1567675.0 |
| 1 | 17-5 | 5-15 | 5-5 | 5-4 | 10 | 0.0 | Adam | 0.8189387 | 0.8189387 | 135.64523 | 1567675.0 |
| 1 | 5-15 | 17-5 | 5-5 | 5-4 | 10 | 0.0 | Adagrad | 0.8075747 | 0.8075747 | 123.64063 | 1567675.0 |
| 1 | 17-5 | 5-15 | 5-5 | 5-4 | 10 | 0.0 | Adagrad | 0.8111623 | 0.8111623 | 134.64514 | 1567675.0 |
| 1 | 5-15 | 17-5 | 5-5 | 5-4 | 10 | 0.0 | RMSprop | 0.8061932 | 0.8061932 | 139.98288 | 1567675.0 |
| 1 | 17-5 | 5-15 | 5-5 | 5-4 | 10 | 0.0 | RMSprop | 0.8142895 | 0.8142895 | 119.44122 | 1567675.0 |
| 1 | 5-15 | 17-5 | 5-5 | 5-4 | 10 | 0.2 | Adam | 0.8017582 | 0.8017582 | 136.15489 | 1567675.0 |
| 1 | 17-5 | 5-15 | 5-5 | 5-4 | 10 | 0.2 | Adam | 0.8029350 | 0.8029350 | 159.30403 | 1567675.0 |
| 1 | 5-15 | 17-5 | 5-5 | 5-4 | 10 | 0.2 | Adagrad | 0.7986406 | 0.7986406 | 153.56495 | 1567675.0 |
| 1 | 17-5 | 5-15 | 5-5 | 5-4 | 10 | 0.2 | Adagrad | 0.7975139 | 0.7975139 | 163.26441 | 1567675.0 |
| 1 | 5-15 | 17-5 | 5-5 | 5-4 | 10 | 0.2 | RMSprop | 0.8052311 | 0.8052311 | 156.23511 | 1567675.0 |
| 1 | 17-5 | 5-15 | 5-5 | 5-4 | 10 | 0.2 | RMSprop | 0.7997498 | 0.7997498 | 146.99796 | 1567675.0 |
| 1 | 5-15 | 17-5 | 5-5 | 5-4 | 10 | 0.4 | Adam | 0.8065432 | 0.8065432 | 169.63089 | 1567675.0 |
| 1 | 17-5 | 5-15 | 5-5 | 5-4 | 10 | 0.4 | Adam | 0.8025759 | 0.8025759 | 167.30176 | 1567675.0 |
| 1 | 5-15 | 17-5 | 5-5 | 5-4 | 10 | 0.4 | Adagrad | 0.7959431 | 0.7959431 | 130.49184 | 1567675.0 |
| 1 | 17-5 | 5-15 | 5-5 | 5-4 | 10 | 0.4 | Adagrad | 0.8015607 | 0.8015607 | 110.75089 | 1567675.0 |
| 1 | 5-15 | 17-5 | 5-5 | 5-4 | 10 | 0.4 | RMSprop | 0.7961887 | 0.7961887 | 137.57623 | 1567675.0 |
| 1 | 17-5 | 5-15 | 5-5 | 5-4 | 10 | 0.4 | RMSprop | 0.8046655 | 0.8046655 | 110.97767 | 1567675.0 |
| 2 | 5-15 | 17-5 | 5-5 | 5-4 | 1 | 0.0 | Adam | 0.8156048 | 0.8156048 | 42.345291 | 1315420.0 |
| 2 | 17-5 | 5-15 | 5-5 | 5-4 | 1 | 0.0 | Adam | 0.8156627 | 0.8156627 | 42.387226 | 1315420.0 |
| 2 | 5-15 | 17-5 | 5-5 | 5-4 | 1 | 0.0 | Adagrad | 0.8147571 | 0.8147571 | 42.199556 | 1315420.0 |
| 2 | 17-5 | 5-15 | 5-5 | 5-4 | 1 | 0.0 | Adagrad | 0.8173276 | 0.8173276 | 36.202918 | 1315420.0 |
| 2 | 5-15 | 17-5 | 5-5 | 5-4 | 1 | 0.0 | RMSprop | 0.8238727 | 0.8238727 | 40.417700 | 1315420.0 |
| 2 | 17-5 | 5-15 | 5-5 | 5-4 | 1 | 0.0 | RMSprop | 0.8156759 | 0.8156759 | 38.929702 | 1315420.0 |
| 2 | 5-15 | 17-5 | 5-5 | 5-4 | 1 | 0.2 | Adam | 0.8238345 | 0.8238345 | 36.239430 | 1315420.0 |
| 2 | 17-5 | 5-15 | 5-5 | 5-4 | 1 | 0.2 | Adam | 0.8207424 | 0.8207424 | 35.395349 | 1315420.0 |
| 2 | 5-15 | 17-5 | 5-5 | 5-4 | 1 | 0.2 | Adagrad | 0.8161385 | 0.8161385 | 34.280718 | 1315420.0 |
| 2 | 17-5 | 5-15 | 5-5 | 5-4 | 1 | 0.2 | Adagrad | 0.8171168 | 0.8171168 | 36.055667 | 1315420.0 |
| 2 | 5-15 | 17-5 | 5-5 | 5-4 | 1 | 0.2 | RMSprop | 0.8058264 | 0.8058264 | 45.529719 | 1315420.0 |
| 2 | 17-5 | 5-15 | 5-5 | 5-4 | 1 | 0.2 | RMSprop | 0.8124670 | 0.8124670 | 41.694924 | 1315420.0 |
| 2 | 5-15 | 17-5 | 5-5 | 5-4 | 1 | 0.4 | Adam | 0.8183691 | 0.8183691 | 40.678327 | 1315420.0 |
| 2 | 17-5 | 5-15 | 5-5 | 5-4 | 1 | 0.4 | Adam | 0.8107583 | 0.8107583 | 42.792643 | 1315420.0 |
| 2 | 5-15 | 17-5 | 5-5 | 5-4 | 1 | 0.4 | Adagrad | 0.8320630 | 0.8320630 | 37.968731 | 1315420.0 |
| 2 | 17-5 | 5-15 | 5-5 | 5-4 | 1 | 0.4 | Adagrad | 0.8180049 | 0.8180049 | 39.413389 | 1315420.0 |
| 2 | 5-15 | 17-5 | 5-5 | 5-4 | 1 | 0.4 | RMSprop | 0.8207597 | 0.8207597 | 39.859229 | 1315420.0 |
| 2 | 17-5 | 5-15 | 5-5 | 5-4 | 1 | 0.4 | RMSprop | 0.8231311 | 0.8231311 | 40.546998 | 1315420.0 |
| 2 | 5-15 | 17-5 | 5-5 | 5-4 | 2 | 0.0 | Adam | 0.8073275 | 0.8073275 | 91.484014 | 1315715.0 |
| 2 | 17-5 | 5-15 | 5-5 | 5-4 | 2 | 0.0 | Adam | 0.8110137 | 0.8110137 | 99.669900 | 1315715.0 |
| 2 | 5-15 | 17-5 | 5-5 | 5-4 | 2 | 0.0 | Adagrad | 0.8116900 | 0.8116900 | 79.228868 | 1315715.0 |
| 2 | 17-5 | 5-15 | 5-5 | 5-4 | 2 | 0.0 | Adagrad | 0.8084455 | 0.8084455 | 85.295034 | 1315715.0 |
| 2 | 5-15 | 17-5 | 5-5 | 5-4 | 2 | 0.0 | RMSprop | 0.8175596 | 0.8175596 | 92.334072 | 1315715.0 |
| 2 | 17-5 | 5-15 | 5-5 | 5-4 | 2 | 0.0 | RMSprop | 0.8230088 | 0.8230088 | 83.553712 | 1315715.0 |
| 2 | 5-15 | 17-5 | 5-5 | 5-4 | 2 | 0.2 | Adam | 0.8062530 | 0.8062530 | 105.32957 | 1315715.0 |
| 2 | 17-5 | 5-15 | 5-5 | 5-4 | 2 | 0.2 | Adam | 0.8023253 | 0.8023254 | 121.82325 | 1315715.0 |
| 2 | 5-15 | 17-5 | 5-5 | 5-4 | 2 | 0.2 | Adagrad | 0.8089657 | 0.8089657 | 94.008490 | 1315715.0 |
| 2 | 17-5 | 5-15 | 5-5 | 5-4 | 2 | 0.2 | Adagrad | 0.8144071 | 0.8144071 | 91.347575 | 1315715.0 |
| 2 | 5-15 | 17-5 | 5-5 | 5-4 | 2 | 0.2 | RMSprop | 0.8093112 | 0.8093112 | 113.60549 | 1315715.0 |
| 2 | 17-5 | 5-15 | 5-5 | 5-4 | 2 | 0.2 | RMSprop | 0.8140809 | 0.8140809 | 111.72143 | 1315715.0 |
| 2 | 5-15 | 17-5 | 5-5 | 5-4 | 2 | 0.4 | Adam | 0.8112153 | 0.8112153 | 110.14508 | 1315715.0 |
| 2 | 17-5 | 5-15 | 5-5 | 5-4 | 2 | 0.4 | Adam | 0.8175788 | 0.8175789 | 100.69872 | 1315715.0 |
| 2 | 5-15 | 17-5 | 5-5 | 5-4 | 2 | 0.4 | Adagrad | 0.8269590 | 0.8269590 | 86.790696 | 1315715.0 |
| 2 | 17-5 | 5-15 | 5-5 | 5-4 | 2 | 0.4 | Adagrad | 0.8190090 | 0.8190090 | 87.558480 | 1315715.0 |
| 2 | 5-15 | 17-5 | 5-5 | 5-4 | 2 | 0.4 | RMSprop | 0.8237365 | 0.8237365 | 99.018107 | 1315715.0 |
| 2 | 17-5 | 5-15 | 5-5 | 5-4 | 2 | 0.4 | RMSprop | 0.8209071 | 0.8209071 | 104.62098 | 1315715.0 |
| 2 | 5-15 | 17-5 | 5-5 | 5-4 | 3 | 0.0 | Adam | 0.8131337 | 0.8131337 | 111.93072 | 1316010.0 |
| 2 | 17-5 | 5-15 | 5-5 | 5-4 | 3 | 0.0 | Adam | 0.8115242 | 0.8115241 | 117.91231 | 1316010.0 |
| 2 | 5-15 | 17-5 | 5-5 | 5-4 | 3 | 0.0 | Adagrad | 0.8067657 | 0.8067657 | 109.25902 | 1316010.0 |
| 2 | 17-5 | 5-15 | 5-5 | 5-4 | 3 | 0.0 | Adagrad | 0.8156045 | 0.8156045 | 93.726562 | 1316010.0 |
| 2 | 5-15 | 17-5 | 5-5 | 5-4 | 3 | 0.0 | RMSprop | 0.8168299 | 0.8168299 | 107.92139 | 1316010.0 |
| 2 | 17-5 | 5-15 | 5-5 | 5-4 | 3 | 0.0 | RMSprop | 0.8190398 | 0.8190398 | 97.880780 | 1316010.0 |
| 2 | 5-15 | 17-5 | 5-5 | 5-4 | 3 | 0.2 | Adam | 0.8089457 | 0.8089457 | 124.65505 | 1316010.0 |
| 2 | 17-5 | 5-15 | 5-5 | 5-4 | 3 | 0.2 | Adam | 0.8146811 | 0.8146811 | 129.45687 | 1316010.0 |
| 2 | 5-15 | 17-5 | 5-5 | 5-4 | 3 | 0.2 | Adagrad | 0.8133685 | 0.8133685 | 99.353067 | 1316010.0 |
| 2 | 17-5 | 5-15 | 5-5 | 5-4 | 3 | 0.2 | Adagrad | 0.8240741 | 0.8240741 | 102.70372 | 1316010.0 |
| 2 | 5-15 | 17-5 | 5-5 | 5-4 | 3 | 0.2 | RMSprop | 0.8183558 | 0.8183558 | 121.94228 | 1316010.0 |
| 2 | 17-5 | 5-15 | 5-5 | 5-4 | 3 | 0.2 | RMSprop | 0.8151414 | 0.8151414 | 125.52095 | 1316010.0 |
| 2 | 5-15 | 17-5 | 5-5 | 5-4 | 3 | 0.4 | Adam | 0.8097210 | 0.8097210 | 142.37708 | 1316010.0 |
| 2 | 17-5 | 5-15 | 5-5 | 5-4 | 3 | 0.4 | Adam | 0.8261599 | 0.8261599 | 109.61612 | 1316010.0 |
| 2 | 5-15 | 17-5 | 5-5 | 5-4 | 3 | 0.4 | Adagrad | 0.8237095 | 0.8237095 | 99.961130 | 1316010.0 |
| 2 | 17-5 | 5-15 | 5-5 | 5-4 | 3 | 0.4 | Adagrad | 0.8205047 | 0.8205047 | 91.720221 | 1316010.0 |
| 2 | 5-15 | 17-5 | 5-5 | 5-4 | 3 | 0.4 | RMSprop | 0.8299047 | 0.8299047 | 95.983894 | 1316010.0 |
| 2 | 17-5 | 5-15 | 5-5 | 5-4 | 3 | 0.4 | RMSprop | 0.8129571 | 0.8129571 | 129.72606 | 1316010.0 |
| 2 | 5-15 | 17-5 | 5-5 | 5-4 | 4 | 0.0 | Adam | 0.8250597 | 0.8250597 | 114.10051 | 1316305.0 |
| 2 | 17-5 | 5-15 | 5-5 | 5-4 | 4 | 0.0 | Adam | 0.8140354 | 0.8140354 | 121.68884 | 1316305.0 |
| 2 | 5-15 | 17-5 | 5-5 | 5-4 | 4 | 0.0 | Adagrad | 0.8229946 | 0.8229945 | 100.59635 | 1316305.0 |
| 2 | 17-5 | 5-15 | 5-5 | 5-4 | 4 | 0.0 | Adagrad | 0.8172964 | 0.8172964 | 100.38257 | 1316305.0 |
| 2 | 5-15 | 17-5 | 5-5 | 5-4 | 4 | 0.0 | RMSprop | 0.8119768 | 0.8119768 | 114.85813 | 1316305.0 |
| 2 | 17-5 | 5-15 | 5-5 | 5-4 | 4 | 0.0 | RMSprop | 0.8145885 | 0.8145885 | 111.62142 | 1316305.0 |
| 2 | 5-15 | 17-5 | 5-5 | 5-4 | 4 | 0.2 | Adam | 0.8143444 | 0.8143444 | 127.69288 | 1316305.0 |
| 2 | 17-5 | 5-15 | 5-5 | 5-4 | 4 | 0.2 | Adam | 0.8153878 | 0.8153878 | 124.22951 | 1316305.0 |
| 2 | 5-15 | 17-5 | 5-5 | 5-4 | 4 | 0.2 | Adagrad | 0.8051917 | 0.8051917 | 94.949227 | 1316305.0 |
| 2 | 17-5 | 5-15 | 5-5 | 5-4 | 4 | 0.2 | Adagrad | 0.8133343 | 0.8133343 | 101.70572 | 1316305.0 |
| 2 | 5-15 | 17-5 | 5-5 | 5-4 | 4 | 0.2 | RMSprop | 0.8122211 | 0.8122211 | 113.71589 | 1316305.0 |
| 2 | 17-5 | 5-15 | 5-5 | 5-4 | 4 | 0.2 | RMSprop | 0.8242412 | 0.8242412 | 92.872923 | 1316305.0 |
| 2 | 5-15 | 17-5 | 5-5 | 5-4 | 4 | 0.4 | Adam | 0.8087056 | 0.8087056 | 119.17000 | 1316305.0 |
| 2 | 17-5 | 5-15 | 5-5 | 5-4 | 4 | 0.4 | Adam | 0.8190505 | 0.8190505 | 109.75832 | 1316305.0 |
| 2 | 5-15 | 17-5 | 5-5 | 5-4 | 4 | 0.4 | Adagrad | 0.8196714 | 0.8196714 | 103.78031 | 1316305.0 |
| 2 | 17-5 | 5-15 | 5-5 | 5-4 | 4 | 0.4 | Adagrad | 0.8204035 | 0.8204035 | 95.665098 | 1316305.0 |
| 2 | 5-15 | 17-5 | 5-5 | 5-4 | 4 | 0.4 | RMSprop | 0.8197458 | 0.8197458 | 110.37416 | 1316305.0 |
| 2 | 17-5 | 5-15 | 5-5 | 5-4 | 4 | 0.4 | RMSprop | 0.8302948 | 0.8302949 | 97.411918 | 1316305.0 |
| 2 | 5-15 | 17-5 | 5-5 | 5-4 | 5 | 0.0 | Adam | 0.8144331 | 0.8144331 | 117.10984 | 1316600.0 |
| 2 | 17-5 | 5-15 | 5-5 | 5-4 | 5 | 0.0 | Adam | 0.8128138 | 0.8128138 | 110.28588 | 1316600.0 |
| 2 | 5-15 | 17-5 | 5-5 | 5-4 | 5 | 0.0 | Adagrad | 0.8069527 | 0.8069527 | 111.49114 | 1316600.0 |
| 2 | 17-5 | 5-15 | 5-5 | 5-4 | 5 | 0.0 | Adagrad | 0.8121045 | 0.8121045 | 107.69681 | 1316600.0 |
| 2 | 5-15 | 17-5 | 5-5 | 5-4 | 5 | 0.0 | RMSprop | 0.8152494 | 0.8152494 | 111.54898 | 1316600.0 |
| 2 | 17-5 | 5-15 | 5-5 | 5-4 | 5 | 0.0 | RMSprop | 0.8159457 | 0.8159457 | 113.00576 | 1316600.0 |
| 2 | 5-15 | 17-5 | 5-5 | 5-4 | 5 | 0.2 | Adam | 0.8101134 | 0.8101134 | 130.13491 | 1316600.0 |
| 2 | 17-5 | 5-15 | 5-5 | 5-4 | 5 | 0.2 | Adam | 0.8149339 | 0.8149339 | 127.58319 | 1316600.0 |
| 2 | 5-15 | 17-5 | 5-5 | 5-4 | 5 | 0.2 | Adagrad | 0.8087787 | 0.8087787 | 117.84496 | 1316600.0 |
| 2 | 17-5 | 5-15 | 5-5 | 5-4 | 5 | 0.2 | Adagrad | 0.8113701 | 0.8113701 | 115.99691 | 1316600.0 |
| 2 | 5-15 | 17-5 | 5-5 | 5-4 | 5 | 0.2 | RMSprop | 0.8105932 | 0.8105932 | 117.92733 | 1316600.0 |
| 2 | 17-5 | 5-15 | 5-5 | 5-4 | 5 | 0.2 | RMSprop | 0.8210451 | 0.8210451 | 110.34080 | 1316600.0 |
| 2 | 5-15 | 17-5 | 5-5 | 5-4 | 5 | 0.4 | Adam | 0.8082874 | 0.8082874 | 142.23038 | 1316600.0 |
| 2 | 17-5 | 5-15 | 5-5 | 5-4 | 5 | 0.4 | Adam | 0.8220825 | 0.8220825 | 115.82819 | 1316600.0 |
| 2 | 5-15 | 17-5 | 5-5 | 5-4 | 5 | 0.4 | Adagrad | 0.8107937 | 0.8107937 | 128.80516 | 1316600.0 |
| 2 | 17-5 | 5-15 | 5-5 | 5-4 | 5 | 0.4 | Adagrad | 0.8175750 | 0.8175750 | 114.05741 | 1316600.0 |
| 2 | 5-15 | 17-5 | 5-5 | 5-4 | 5 | 0.4 | RMSprop | 0.8237964 | 0.8237964 | 116.31420 | 1316600.0 |
| 2 | 17-5 | 5-15 | 5-5 | 5-4 | 5 | 0.4 | RMSprop | 0.8285993 | 0.8285993 | 121.80232 | 1316600.0 |
| 2 | 5-15 | 17-5 | 5-5 | 5-4 | 6 | 0.0 | Adam | 0.8142336 | 0.8142336 | 178.70200 | 1316895.0 |
| 2 | 17-5 | 5-15 | 5-5 | 5-4 | 6 | 0.0 | Adam | 0.8134102 | 0.8134102 | 164.58595 | 1316895.0 |
| 2 | 5-15 | 17-5 | 5-5 | 5-4 | 6 | 0.0 | Adagrad | 0.8112495 | 0.8112495 | 158.23809 | 1316895.0 |
| 2 | 17-5 | 5-15 | 5-5 | 5-4 | 6 | 0.0 | Adagrad | 0.8144311 | 0.8144311 | 147.85299 | 1316895.0 |
| 2 | 5-15 | 17-5 | 5-5 | 5-4 | 6 | 0.0 | RMSprop | 0.8084061 | 0.8084061 | 175.63803 | 1316895.0 |
| 2 | 17-5 | 5-15 | 5-5 | 5-4 | 6 | 0.0 | RMSprop | 0.8211530 | 0.8211530 | 149.34675 | 1316895.0 |
| 2 | 5-15 | 17-5 | 5-5 | 5-4 | 6 | 0.2 | Adam | 0.8133809 | 0.8133809 | 176.16204 | 1316895.0 |
| 2 | 17-5 | 5-15 | 5-5 | 5-4 | 6 | 0.2 | Adam | 0.8088048 | 0.8088048 | 203.14128 | 1316895.0 |
| 2 | 5-15 | 17-5 | 5-5 | 5-4 | 6 | 0.2 | Adagrad | 0.7989147 | 0.7989147 | 189.76351 | 1316895.0 |
| 2 | 17-5 | 5-15 | 5-5 | 5-4 | 6 | 0.2 | Adagrad | 0.8022333 | 0.8022333 | 186.32430 | 1316895.0 |
| 2 | 5-15 | 17-5 | 5-5 | 5-4 | 6 | 0.2 | RMSprop | 0.8227341 | 0.8227341 | 172.70355 | 1316895.0 |
| 2 | 17-5 | 5-15 | 5-5 | 5-4 | 6 | 0.2 | RMSprop | 0.8173564 | 0.8173564 | 170.54838 | 1316895.0 |
| 2 | 5-15 | 17-5 | 5-5 | 5-4 | 6 | 0.4 | Adam | 0.8163764 | 0.8163764 | 206.79680 | 1316895.0 |
| 2 | 17-5 | 5-15 | 5-5 | 5-4 | 6 | 0.4 | Adam | 0.8312194 | 0.8312194 | 168.25834 | 1316895.0 |
| 2 | 5-15 | 17-5 | 5-5 | 5-4 | 6 | 0.4 | Adagrad | 0.8176324 | 0.8176324 | 168.16277 | 1316895.0 |
| 2 | 17-5 | 5-15 | 5-5 | 5-4 | 6 | 0.4 | Adagrad | 0.8180759 | 0.8180759 | 174.13467 | 1316895.0 |
| 2 | 5-15 | 17-5 | 5-5 | 5-4 | 6 | 0.4 | RMSprop | 0.8272156 | 0.8272156 | 175.87480 | 1316895.0 |
| 2 | 17-5 | 5-15 | 5-5 | 5-4 | 6 | 0.4 | RMSprop | 0.8265675 | 0.8265675 | 198.91841 | 1316895.0 |
| 2 | 5-15 | 17-5 | 5-5 | 5-4 | 7 | 0.0 | Adam | 0.8121745 | 0.8121745 | 213.05428 | 1317190.0 |
| 2 | 17-5 | 5-15 | 5-5 | 5-4 | 7 | 0.0 | Adam | 0.8147391 | 0.8147391 | 172.85049 | 1317190.0 |
| 2 | 5-15 | 17-5 | 5-5 | 5-4 | 7 | 0.0 | Adagrad | 0.8090524 | 0.8090524 | 157.40053 | 1317190.0 |
| 2 | 17-5 | 5-15 | 5-5 | 5-4 | 7 | 0.0 | Adagrad | 0.8146764 | 0.8146764 | 154.47479 | 1317190.0 |
| 2 | 5-15 | 17-5 | 5-5 | 5-4 | 7 | 0.0 | RMSprop | 0.8137132 | 0.8137132 | 191.38908 | 1317190.0 |
| 2 | 17-5 | 5-15 | 5-5 | 5-4 | 7 | 0.0 | RMSprop | 0.8190614 | 0.8190614 | 150.56025 | 1317190.0 |
| 2 | 5-15 | 17-5 | 5-5 | 5-4 | 7 | 0.2 | Adam | 0.8068770 | 0.8068770 | 204.47807 | 1317190.0 |
| 2 | 17-5 | 5-15 | 5-5 | 5-4 | 7 | 0.2 | Adam | 0.8055523 | 0.8055523 | 210.92367 | 1317190.0 |
| 2 | 5-15 | 17-5 | 5-5 | 5-4 | 7 | 0.2 | Adagrad | 0.8057403 | 0.8057403 | 154.00413 | 1317190.0 |
| 2 | 17-5 | 5-15 | 5-5 | 5-4 | 7 | 0.2 | Adagrad | 0.8150451 | 0.8150451 | 142.90947 | 1317190.0 |
| 2 | 5-15 | 17-5 | 5-5 | 5-4 | 7 | 0.2 | RMSprop | 0.8183948 | 0.8183948 | 143.56887 | 1317190.0 |
| 2 | 17-5 | 5-15 | 5-5 | 5-4 | 7 | 0.2 | RMSprop | 0.8188539 | 0.8188539 | 144.43112 | 1317190.0 |
| 2 | 5-15 | 17-5 | 5-5 | 5-4 | 7 | 0.4 | Adam | 0.8142724 | 0.8142724 | 177.46370 | 1317190.0 |
| 2 | 17-5 | 5-15 | 5-5 | 5-4 | 7 | 0.4 | Adam | 0.8154697 | 0.8154697 | 168.23538 | 1317190.0 |
| 2 | 5-15 | 17-5 | 5-5 | 5-4 | 7 | 0.4 | Adagrad | 0.8183008 | 0.8183008 | 147.84358 | 1317190.0 |
| 2 | 17-5 | 5-15 | 5-5 | 5-4 | 7 | 0.4 | Adagrad | 0.8170353 | 0.8170353 | 146.25263 | 1317190.0 |
| 2 | 5-15 | 17-5 | 5-5 | 5-4 | 7 | 0.4 | RMSprop | 0.8276240 | 0.8276240 | 145.37814 | 1317190.0 |
| 2 | 17-5 | 5-15 | 5-5 | 5-4 | 7 | 0.4 | RMSprop | 0.8378050 | 0.8378050 | 121.13608 | 1317190.0 |
| 2 | 5-15 | 17-5 | 5-5 | 5-4 | 8 | 0.0 | Adam | 0.8143020 | 0.8143020 | 162.59345 | 1317485.0 |
| 2 | 17-5 | 5-15 | 5-5 | 5-4 | 8 | 0.0 | Adam | 0.8249020 | 0.8249020 | 145.28532 | 1317485.0 |
| 2 | 5-15 | 17-5 | 5-5 | 5-4 | 8 | 0.0 | Adagrad | 0.8021890 | 0.8021890 | 175.81673 | 1317485.0 |
| 2 | 17-5 | 5-15 | 5-5 | 5-4 | 8 | 0.0 | Adagrad | 0.8131558 | 0.8131558 | 153.69569 | 1317485.0 |
| 2 | 5-15 | 17-5 | 5-5 | 5-4 | 8 | 0.0 | RMSprop | 0.8074913 | 0.8074913 | 173.57810 | 1317485.0 |
| 2 | 17-5 | 5-15 | 5-5 | 5-4 | 8 | 0.0 | RMSprop | 0.8147252 | 0.8147253 | 160.14786 | 1317485.0 |
| 2 | 5-15 | 17-5 | 5-5 | 5-4 | 8 | 0.2 | Adam | 0.8117198 | 0.8117198 | 174.07998 | 1317485.0 |
| 2 | 17-5 | 5-15 | 5-5 | 5-4 | 8 | 0.2 | Adam | 0.8168545 | 0.8168545 | 164.75182 | 1317485.0 |
| 2 | 5-15 | 17-5 | 5-5 | 5-4 | 8 | 0.2 | Adagrad | 0.8002596 | 0.8002596 | 175.20035 | 1317485.0 |
| 2 | 17-5 | 5-15 | 5-5 | 5-4 | 8 | 0.2 | Adagrad | 0.8210658 | 0.8210658 | 148.74544 | 1317485.0 |
| 2 | 5-15 | 17-5 | 5-5 | 5-4 | 8 | 0.2 | RMSprop | 0.8104153 | 0.8104153 | 177.10189 | 1317485.0 |
| 2 | 17-5 | 5-15 | 5-5 | 5-4 | 8 | 0.2 | RMSprop | 0.8302196 | 0.8302196 | 121.42495 | 1317485.0 |
| 2 | 5-15 | 17-5 | 5-5 | 5-4 | 8 | 0.4 | Adam | 0.8208923 | 0.8208923 | 123.11796 | 1317485.0 |
| 2 | 17-5 | 5-15 | 5-5 | 5-4 | 8 | 0.4 | Adam | 0.8188392 | 0.8188392 | 126.91795 | 1317485.0 |
| 2 | 5-15 | 17-5 | 5-5 | 5-4 | 8 | 0.4 | Adagrad | 0.8127902 | 0.8127902 | 124.46030 | 1317485.0 |
| 2 | 17-5 | 5-15 | 5-5 | 5-4 | 8 | 0.4 | Adagrad | 0.8226124 | 0.8226124 | 111.86912 | 1317485.0 |
| 2 | 5-15 | 17-5 | 5-5 | 5-4 | 8 | 0.4 | RMSprop | 0.8311254 | 0.8311254 | 98.185172 | 1317485.0 |
| 2 | 17-5 | 5-15 | 5-5 | 5-4 | 8 | 0.4 | RMSprop | 0.8252632 | 0.8252632 | 92.393923 | 1317485.0 |
| 2 | 5-15 | 17-5 | 5-5 | 5-4 | 9 | 0.0 | Adam | 0.8080071 | 0.8080071 | 111.18657 | 1317780.0 |
| 2 | 17-5 | 5-15 | 5-5 | 5-4 | 9 | 0.0 | Adam | 0.8146322 | 0.8146322 | 106.66398 | 1317780.0 |
| 2 | 5-15 | 17-5 | 5-5 | 5-4 | 9 | 0.0 | Adagrad | 0.8128752 | 0.8128752 | 89.982173 | 1317780.0 |
| 2 | 17-5 | 5-15 | 5-5 | 5-4 | 9 | 0.0 | Adagrad | 0.8261500 | 0.8261500 | 78.667126 | 1317780.0 |
| 2 | 5-15 | 17-5 | 5-5 | 5-4 | 9 | 0.0 | RMSprop | 0.8130069 | 0.8130069 | 92.837307 | 1317780.0 |
| 2 | 17-5 | 5-15 | 5-5 | 5-4 | 9 | 0.0 | RMSprop | 0.8172709 | 0.8172709 | 88.808962 | 1317780.0 |
| 2 | 5-15 | 17-5 | 5-5 | 5-4 | 9 | 0.2 | Adam | 0.8019219 | 0.8019219 | 114.41394 | 1317780.0 |
| 2 | 17-5 | 5-15 | 5-5 | 5-4 | 9 | 0.2 | Adam | 0.8171117 | 0.8171117 | 99.731211 | 1317780.0 |
| 2 | 5-15 | 17-5 | 5-5 | 5-4 | 9 | 0.2 | Adagrad | 0.8079633 | 0.8079633 | 92.315656 | 1317780.0 |
| 2 | 17-5 | 5-15 | 5-5 | 5-4 | 9 | 0.2 | Adagrad | 0.8198925 | 0.8198924 | 82.902359 | 1317780.0 |
| 2 | 5-15 | 17-5 | 5-5 | 5-4 | 9 | 0.2 | RMSprop | 0.8067376 | 0.8067376 | 100.00361 | 1317780.0 |
| 2 | 17-5 | 5-15 | 5-5 | 5-4 | 9 | 0.2 | RMSprop | 0.8101312 | 0.8101312 | 98.206465 | 1317780.0 |
| 2 | 5-15 | 17-5 | 5-5 | 5-4 | 9 | 0.4 | Adam | 0.8213951 | 0.8213951 | 95.518124 | 1317780.0 |
| 2 | 17-5 | 5-15 | 5-5 | 5-4 | 9 | 0.4 | Adam | 0.8274829 | 0.8274829 | 81.728323 | 1317780.0 |
| 2 | 5-15 | 17-5 | 5-5 | 5-4 | 9 | 0.4 | Adagrad | 0.8286752 | 0.8286752 | 68.493414 | 1317780.0 |
| 2 | 17-5 | 5-15 | 5-5 | 5-4 | 9 | 0.4 | Adagrad | 0.8150534 | 0.8150534 | 91.643858 | 1317780.0 |
| 2 | 5-15 | 17-5 | 5-5 | 5-4 | 9 | 0.4 | RMSprop | 0.8251729 | 0.8251729 | 79.335110 | 1317780.0 |
| 2 | 17-5 | 5-15 | 5-5 | 5-4 | 9 | 0.4 | RMSprop | 0.8280848 | 0.8280848 | 82.841376 | 1317780.0 |
| 2 | 5-15 | 17-5 | 5-5 | 5-4 | 10 | 0.0 | Adam | 0.8167194 | 0.8167194 | 243.77609 | 1318075.0 |
| 2 | 17-5 | 5-15 | 5-5 | 5-4 | 10 | 0.0 | Adam | 0.8151895 | 0.8151895 | 256.97164 | 1318075.0 |
| 2 | 5-15 | 17-5 | 5-5 | 5-4 | 10 | 0.0 | Adagrad | 0.8056848 | 0.8056848 | 270.95594 | 1318075.0 |
| 2 | 17-5 | 5-15 | 5-5 | 5-4 | 10 | 0.0 | Adagrad | 0.8158208 | 0.8158208 | 237.51289 | 1318075.0 |
| 2 | 5-15 | 17-5 | 5-5 | 5-4 | 10 | 0.0 | RMSprop | 0.8136251 | 0.8136250 | 238.38254 | 1318075.0 |
| 2 | 17-5 | 5-15 | 5-5 | 5-4 | 10 | 0.0 | RMSprop | 0.8182696 | 0.8182696 | 252.11632 | 1318075.0 |
| 2 | 5-15 | 17-5 | 5-5 | 5-4 | 10 | 0.2 | Adam | 0.8134878 | 0.8134878 | 273.06760 | 1318075.0 |
| 2 | 17-5 | 5-15 | 5-5 | 5-4 | 10 | 0.2 | Adam | 0.8286328 | 0.8286328 | 243.08682 | 1318075.0 |
| 2 | 5-15 | 17-5 | 5-5 | 5-4 | 10 | 0.2 | Adagrad | 0.8102679 | 0.8102679 | 259.77937 | 1318075.0 |
| 2 | 17-5 | 5-15 | 5-5 | 5-4 | 10 | 0.2 | Adagrad | 0.8220298 | 0.8220298 | 206.93026 | 1318075.0 |
| 2 | 5-15 | 17-5 | 5-5 | 5-4 | 10 | 0.2 | RMSprop | 0.8146085 | 0.8146085 | 301.42714 | 1318075.0 |
| 2 | 17-5 | 5-15 | 5-5 | 5-4 | 10 | 0.2 | RMSprop | 0.8191132 | 0.8191132 | 256.73716 | 1318075.0 |
| 2 | 5-15 | 17-5 | 5-5 | 5-4 | 10 | 0.4 | Adam | 0.8180781 | 0.8180781 | 286.11427 | 1318075.0 |
| 2 | 17-5 | 5-15 | 5-5 | 5-4 | 10 | 0.4 | Adam | 0.8254074 | 0.8254074 | 238.62256 | 1318075.0 |
| 2 | 5-15 | 17-5 | 5-5 | 5-4 | 10 | 0.4 | Adagrad | 0.8209065 | 0.8209066 | 214.65609 | 1318075.0 |
| 2 | 17-5 | 5-15 | 5-5 | 5-4 | 10 | 0.4 | Adagrad | 0.8089054 | 0.8089054 | 248.41124 | 1318075.0 |
| 2 | 5-15 | 17-5 | 5-5 | 5-4 | 10 | 0.4 | RMSprop | 0.8220230 | 0.8220230 | 236.22920 | 1318075.0 |
| 2 | 17-5 | 5-15 | 5-5 | 5-4 | 10 | 0.4 | RMSprop | 0.8342894 | 0.8342894 | 207.33950 | 1318075.0 |
| 3 | 5-15 | 17-5 | 5-5 | 5-4 | 1 | 0.0 | Adam | 0.8173513 | 0.8173513 | 85.294063 | 1065010.0 |
| 3 | 17-5 | 5-15 | 5-5 | 5-4 | 1 | 0.0 | Adam | 0.8198132 | 0.8198132 | 72.750444 | 1065010.0 |
| 3 | 5-15 | 17-5 | 5-5 | 5-4 | 1 | 0.0 | Adagrad | 0.8374711 | 0.8374711 | 67.199950 | 1065010.0 |
| 3 | 17-5 | 5-15 | 5-5 | 5-4 | 1 | 0.0 | Adagrad | 0.8398957 | 0.8398957 | 51.285618 | 1065010.0 |
| 3 | 5-15 | 17-5 | 5-5 | 5-4 | 1 | 0.0 | RMSprop | 0.8275388 | 0.8275388 | 72.060024 | 1065010.0 |
| 3 | 17-5 | 5-15 | 5-5 | 5-4 | 1 | 0.0 | RMSprop | 0.8301277 | 0.8301277 | 73.269342 | 1065010.0 |
| 3 | 5-15 | 17-5 | 5-5 | 5-4 | 1 | 0.2 | Adam | 0.8433555 | 0.8433555 | 69.680417 | 1065010.0 |
| 3 | 17-5 | 5-15 | 5-5 | 5-4 | 1 | 0.2 | Adam | 0.8184394 | 0.8184394 | 82.965266 | 1065010.0 |
| 3 | 5-15 | 17-5 | 5-5 | 5-4 | 1 | 0.2 | Adagrad | 0.8422176 | 0.8422176 | 57.312114 | 1065010.0 |
| 3 | 17-5 | 5-15 | 5-5 | 5-4 | 1 | 0.2 | Adagrad | 0.8433751 | 0.8433751 | 45.946910 | 1065010.0 |
| 3 | 5-15 | 17-5 | 5-5 | 5-4 | 1 | 0.2 | RMSprop | 0.8397867 | 0.8397868 | 81.750983 | 1065010.0 |
| 3 | 17-5 | 5-15 | 5-5 | 5-4 | 1 | 0.2 | RMSprop | 0.8418523 | 0.8418523 | 76.759256 | 1065010.0 |
| 3 | 5-15 | 17-5 | 5-5 | 5-4 | 1 | 0.4 | Adam | 0.8872708 | 0.8872708 | 63.518783 | 1065010.0 |
| 3 | 17-5 | 5-15 | 5-5 | 5-4 | 1 | 0.4 | Adam | 0.8634010 | 0.8634010 | 67.711761 | 1065010.0 |
| 3 | 5-15 | 17-5 | 5-5 | 5-4 | 1 | 0.4 | Adagrad | 0.8579549 | 0.8579549 | 45.450573 | 1065010.0 |
| 3 | 17-5 | 5-15 | 5-5 | 5-4 | 1 | 0.4 | Adagrad | 0.8427450 | 0.8427450 | 57.812945 | 1065010.0 |
| 3 | 5-15 | 17-5 | 5-5 | 5-4 | 1 | 0.4 | RMSprop | 0.8598722 | 0.8598722 | 69.155747 | 1065010.0 |
| 3 | 17-5 | 5-15 | 5-5 | 5-4 | 1 | 0.4 | RMSprop | 0.8812667 | 0.8812667 | 59.063092 | 1065010.0 |
| 3 | 5-15 | 17-5 | 5-5 | 5-4 | 2 | 0.0 | Adam | 0.8234032 | 0.8234032 | 93.174970 | 1065395.0 |
| 3 | 17-5 | 5-15 | 5-5 | 5-4 | 2 | 0.0 | Adam | 0.8315745 | 0.8315745 | 80.200237 | 1065395.0 |
| 3 | 5-15 | 17-5 | 5-5 | 5-4 | 2 | 0.0 | Adagrad | 0.8135673 | 0.8135673 | 80.403717 | 1065395.0 |
| 3 | 17-5 | 5-15 | 5-5 | 5-4 | 2 | 0.0 | Adagrad | 0.8371566 | 0.8371566 | 63.998169 | 1065395.0 |
| 3 | 5-15 | 17-5 | 5-5 | 5-4 | 2 | 0.0 | RMSprop | 0.8171820 | 0.8171820 | 93.568554 | 1065395.0 |
| 3 | 17-5 | 5-15 | 5-5 | 5-4 | 2 | 0.0 | RMSprop | 0.8190905 | 0.8190905 | 94.639210 | 1065395.0 |
| 3 | 5-15 | 17-5 | 5-5 | 5-4 | 2 | 0.2 | Adam | 0.8484423 | 0.8484423 | 84.741862 | 1065395.0 |
| 3 | 17-5 | 5-15 | 5-5 | 5-4 | 2 | 0.2 | Adam | 0.8580286 | 0.8580286 | 80.537769 | 1065395.0 |
| 3 | 5-15 | 17-5 | 5-5 | 5-4 | 2 | 0.2 | Adagrad | 0.8245754 | 0.8245754 | 80.407691 | 1065395.0 |
| 3 | 17-5 | 5-15 | 5-5 | 5-4 | 2 | 0.2 | Adagrad | 0.8376372 | 0.8376372 | 75.850437 | 1065395.0 |
| 3 | 5-15 | 17-5 | 5-5 | 5-4 | 2 | 0.2 | RMSprop | 0.8291801 | 0.8291801 | 114.72575 | 1065395.0 |
| 3 | 17-5 | 5-15 | 5-5 | 5-4 | 2 | 0.2 | RMSprop | 0.8393439 | 0.8393439 | 74.721118 | 1065395.0 |
| 3 | 5-15 | 17-5 | 5-5 | 5-4 | 2 | 0.4 | Adam | 0.8575897 | 0.8575897 | 84.120471 | 1065395.0 |
| 3 | 17-5 | 5-15 | 5-5 | 5-4 | 2 | 0.4 | Adam | 0.8708717 | 0.8708717 | 82.357614 | 1065395.0 |
| 3 | 5-15 | 17-5 | 5-5 | 5-4 | 2 | 0.4 | Adagrad | 0.8417860 | 0.8417860 | 62.534955 | 1065395.0 |
| 3 | 17-5 | 5-15 | 5-5 | 5-4 | 2 | 0.4 | Adagrad | 0.8439729 | 0.8439729 | 83.302822 | 1065395.0 |
| 3 | 5-15 | 17-5 | 5-5 | 5-4 | 2 | 0.4 | RMSprop | 0.8512225 | 0.8512225 | 73.248815 | 1065395.0 |
| 3 | 17-5 | 5-15 | 5-5 | 5-4 | 2 | 0.4 | RMSprop | 0.8375228 | 0.8375228 | 93.093082 | 1065395.0 |
| 3 | 5-15 | 17-5 | 5-5 | 5-4 | 3 | 0.0 | Adam | 0.8073772 | 0.8073772 | 128.88924 | 1065780.0 |
| 3 | 17-5 | 5-15 | 5-5 | 5-4 | 3 | 0.0 | Adam | 0.8379633 | 0.8379633 | 92.369748 | 1065780.0 |
| 3 | 5-15 | 17-5 | 5-5 | 5-4 | 3 | 0.0 | Adagrad | 0.8283572 | 0.8283572 | 90.527142 | 1065780.0 |
| 3 | 17-5 | 5-15 | 5-5 | 5-4 | 3 | 0.0 | Adagrad | 0.8341202 | 0.8341202 | 81.523037 | 1065780.0 |
| 3 | 5-15 | 17-5 | 5-5 | 5-4 | 3 | 0.0 | RMSprop | 0.8242295 | 0.8242295 | 99.104777 | 1065780.0 |
| 3 | 17-5 | 5-15 | 5-5 | 5-4 | 3 | 0.0 | RMSprop | 0.8119968 | 0.8119968 | 117.98232 | 1065780.0 |
| 3 | 5-15 | 17-5 | 5-5 | 5-4 | 3 | 0.2 | Adam | 0.8533781 | 0.8533781 | 102.16512 | 1065780.0 |
| 3 | 17-5 | 5-15 | 5-5 | 5-4 | 3 | 0.2 | Adam | 0.8471355 | 0.8471355 | 79.012426 | 1065780.0 |
| 3 | 5-15 | 17-5 | 5-5 | 5-4 | 3 | 0.2 | Adagrad | 0.8390914 | 0.8390914 | 70.432537 | 1065780.0 |
| 3 | 17-5 | 5-15 | 5-5 | 5-4 | 3 | 0.2 | Adagrad | 0.8489460 | 0.8489460 | 54.815271 | 1065780.0 |
| 3 | 5-15 | 17-5 | 5-5 | 5-4 | 3 | 0.2 | RMSprop | 0.8456320 | 0.8456320 | 63.744244 | 1065780.0 |
| 3 | 17-5 | 5-15 | 5-5 | 5-4 | 3 | 0.2 | RMSprop | 0.8292165 | 0.8292165 | 82.612139 | 1065780.0 |
| 3 | 5-15 | 17-5 | 5-5 | 5-4 | 3 | 0.4 | Adam | 0.9100786 | 0.9100786 | 52.291008 | 1065780.0 |
| 3 | 17-5 | 5-15 | 5-5 | 5-4 | 3 | 0.4 | Adam | 0.8806044 | 0.8806044 | 62.966869 | 1065780.0 |
| 3 | 5-15 | 17-5 | 5-5 | 5-4 | 3 | 0.4 | Adagrad | 0.8483644 | 0.8483644 | 54.712975 | 1065780.0 |
| 3 | 17-5 | 5-15 | 5-5 | 5-4 | 3 | 0.4 | Adagrad | 0.8410472 | 0.8410472 | 61.516477 | 1065780.0 |
| 3 | 5-15 | 17-5 | 5-5 | 5-4 | 3 | 0.4 | RMSprop | 0.8519965 | 0.8519965 | 57.397948 | 1065780.0 |
| 3 | 17-5 | 5-15 | 5-5 | 5-4 | 3 | 0.4 | RMSprop | 0.8371120 | 0.8371120 | 73.207968 | 1065780.0 |
| 3 | 5-15 | 17-5 | 5-5 | 5-4 | 4 | 0.0 | Adam | 0.8165731 | 0.8165731 | 173.75205 | 1066165.0 |
| 3 | 17-5 | 5-15 | 5-5 | 5-4 | 4 | 0.0 | Adam | 0.8121209 | 0.8121209 | 172.35663 | 1066165.0 |
| 3 | 5-15 | 17-5 | 5-5 | 5-4 | 4 | 0.0 | Adagrad | 0.8204016 | 0.8204016 | 150.96798 | 1066165.0 |
| 3 | 17-5 | 5-15 | 5-5 | 5-4 | 4 | 0.0 | Adagrad | 0.8269676 | 0.8269676 | 143.72709 | 1066165.0 |
| 3 | 5-15 | 17-5 | 5-5 | 5-4 | 4 | 0.0 | RMSprop | 0.8261374 | 0.8261374 | 159.14251 | 1066165.0 |
| 3 | 17-5 | 5-15 | 5-5 | 5-4 | 4 | 0.0 | RMSprop | 0.8358466 | 0.8358466 | 135.75499 | 1066165.0 |
| 3 | 5-15 | 17-5 | 5-5 | 5-4 | 4 | 0.2 | Adam | 0.8254155 | 0.8254155 | 175.79831 | 1066165.0 |
| 3 | 17-5 | 5-15 | 5-5 | 5-4 | 4 | 0.2 | Adam | 0.8227169 | 0.8227169 | 172.09420 | 1066165.0 |
| 3 | 5-15 | 17-5 | 5-5 | 5-4 | 4 | 0.2 | Adagrad | 0.8403199 | 0.8403199 | 121.01702 | 1066165.0 |
| 3 | 17-5 | 5-15 | 5-5 | 5-4 | 4 | 0.2 | Adagrad | 0.8318148 | 0.8318148 | 129.22160 | 1066165.0 |
| 3 | 5-15 | 17-5 | 5-5 | 5-4 | 4 | 0.2 | RMSprop | 0.8399693 | 0.8399693 | 148.73893 | 1066165.0 |
| 3 | 17-5 | 5-15 | 5-5 | 5-4 | 4 | 0.2 | RMSprop | 0.8327849 | 0.8327849 | 153.69439 | 1066165.0 |
| 3 | 5-15 | 17-5 | 5-5 | 5-4 | 4 | 0.4 | Adam | 0.8622162 | 0.8622162 | 159.04149 | 1066165.0 |
| 3 | 17-5 | 5-15 | 5-5 | 5-4 | 4 | 0.4 | Adam | 0.8724069 | 0.8724069 | 137.31681 | 1066165.0 |
| 3 | 5-15 | 17-5 | 5-5 | 5-4 | 4 | 0.4 | Adagrad | 0.8451466 | 0.8451466 | 125.29164 | 1066165.0 |
| 3 | 17-5 | 5-15 | 5-5 | 5-4 | 4 | 0.4 | Adagrad | 0.8495004 | 0.8495004 | 105.82983 | 1066165.0 |
| 3 | 5-15 | 17-5 | 5-5 | 5-4 | 4 | 0.4 | RMSprop | 0.8525888 | 0.8525888 | 127.99579 | 1066165.0 |
| 3 | 17-5 | 5-15 | 5-5 | 5-4 | 4 | 0.4 | RMSprop | 0.8312967 | 0.8312967 | 169.60862 | 1066165.0 |
| 3 | 5-15 | 17-5 | 5-5 | 5-4 | 5 | 0.0 | Adam | 0.8155580 | 0.8155580 | 234.02317 | 1066550.0 |
| 3 | 17-5 | 5-15 | 5-5 | 5-4 | 5 | 0.0 | Adam | 0.8158789 | 0.8158789 | 195.90504 | 1066550.0 |
| 3 | 5-15 | 17-5 | 5-5 | 5-4 | 5 | 0.0 | Adagrad | 0.8131701 | 0.8131701 | 181.50777 | 1066550.0 |
| 3 | 17-5 | 5-15 | 5-5 | 5-4 | 5 | 0.0 | Adagrad | 0.8299511 | 0.8299511 | 142.99606 | 1066550.0 |
| 3 | 5-15 | 17-5 | 5-5 | 5-4 | 5 | 0.0 | RMSprop | 0.8190117 | 0.8190117 | 178.75977 | 1066550.0 |
| 3 | 17-5 | 5-15 | 5-5 | 5-4 | 5 | 0.0 | RMSprop | 0.8284208 | 0.8284208 | 171.78457 | 1066550.0 |
| 3 | 5-15 | 17-5 | 5-5 | 5-4 | 5 | 0.2 | Adam | 0.8335455 | 0.8335455 | 186.10272 | 1066550.0 |
| 3 | 17-5 | 5-15 | 5-5 | 5-4 | 5 | 0.2 | Adam | 0.8244819 | 0.8244819 | 182.59805 | 1066550.0 |
| 3 | 5-15 | 17-5 | 5-5 | 5-4 | 5 | 0.2 | Adagrad | 0.8334554 | 0.8334554 | 134.19975 | 1066550.0 |
| 3 | 17-5 | 5-15 | 5-5 | 5-4 | 5 | 0.2 | Adagrad | 0.8306083 | 0.8306083 | 152.08504 | 1066550.0 |
| 3 | 5-15 | 17-5 | 5-5 | 5-4 | 5 | 0.2 | RMSprop | 0.8453901 | 0.8453901 | 144.48178 | 1066550.0 |
| 3 | 17-5 | 5-15 | 5-5 | 5-4 | 5 | 0.2 | RMSprop | 0.8354326 | 0.8354326 | 146.18491 | 1066550.0 |
| 3 | 5-15 | 17-5 | 5-5 | 5-4 | 5 | 0.4 | Adam | 0.8987777 | 0.8987777 | 100.25855 | 1066550.0 |
| 3 | 17-5 | 5-15 | 5-5 | 5-4 | 5 | 0.4 | Adam | 0.8555291 | 0.8555291 | 154.61355 | 1066550.0 |
| 3 | 5-15 | 17-5 | 5-5 | 5-4 | 5 | 0.4 | Adagrad | 0.8401059 | 0.8401059 | 117.66362 | 1066550.0 |
| 3 | 17-5 | 5-15 | 5-5 | 5-4 | 5 | 0.4 | Adagrad | 0.8502823 | 0.8502823 | 94.944839 | 1066550.0 |
| 3 | 5-15 | 17-5 | 5-5 | 5-4 | 5 | 0.4 | RMSprop | 0.8476151 | 0.8476151 | 141.37722 | 1066550.0 |
| 3 | 17-5 | 5-15 | 5-5 | 5-4 | 5 | 0.4 | RMSprop | 0.8422128 | 0.8422128 | 133.02531 | 1066550.0 |
| 3 | 5-15 | 17-5 | 5-5 | 5-4 | 6 | 0.0 | Adam | 0.8231683 | 0.8231683 | 157.84317 | 1066935.0 |
| 3 | 17-5 | 5-15 | 5-5 | 5-4 | 6 | 0.0 | Adam | 0.8223727 | 0.8223727 | 157.50998 | 1066935.0 |
| 3 | 5-15 | 17-5 | 5-5 | 5-4 | 6 | 0.0 | Adagrad | 0.8163481 | 0.8163481 | 158.94908 | 1066935.0 |
| 3 | 17-5 | 5-15 | 5-5 | 5-4 | 6 | 0.0 | Adagrad | 0.8159576 | 0.8159576 | 169.58060 | 1066935.0 |
| 3 | 5-15 | 17-5 | 5-5 | 5-4 | 6 | 0.0 | RMSprop | 0.8426291 | 0.8426291 | 128.09075 | 1066935.0 |
| 3 | 17-5 | 5-15 | 5-5 | 5-4 | 6 | 0.0 | RMSprop | 0.8285392 | 0.8285392 | 150.48643 | 1066935.0 |
| 3 | 5-15 | 17-5 | 5-5 | 5-4 | 6 | 0.2 | Adam | 0.8219261 | 0.8219261 | 190.79252 | 1066935.0 |
| 3 | 17-5 | 5-15 | 5-5 | 5-4 | 6 | 0.2 | Adam | 0.8258552 | 0.8258552 | 164.56921 | 1066935.0 |
| 3 | 5-15 | 17-5 | 5-5 | 5-4 | 6 | 0.2 | Adagrad | 0.8359310 | 0.8359310 | 146.36452 | 1066935.0 |
| 3 | 17-5 | 5-15 | 5-5 | 5-4 | 6 | 0.2 | Adagrad | 0.8295927 | 0.8295927 | 140.82687 | 1066935.0 |
| 3 | 5-15 | 17-5 | 5-5 | 5-4 | 6 | 0.2 | RMSprop | 0.8268922 | 0.8268922 | 172.31940 | 1066935.0 |
| 3 | 17-5 | 5-15 | 5-5 | 5-4 | 6 | 0.2 | RMSprop | 0.8426816 | 0.8426816 | 149.87792 | 1066935.0 |
| 3 | 5-15 | 17-5 | 5-5 | 5-4 | 6 | 0.4 | Adam | 0.8395713 | 0.8395713 | 158.76134 | 1066935.0 |
| 3 | 17-5 | 5-15 | 5-5 | 5-4 | 6 | 0.4 | Adam | 0.8377458 | 0.8377458 | 162.61410 | 1066935.0 |
| 3 | 5-15 | 17-5 | 5-5 | 5-4 | 6 | 0.4 | Adagrad | 0.8387336 | 0.8387336 | 132.25563 | 1066935.0 |
| 3 | 17-5 | 5-15 | 5-5 | 5-4 | 6 | 0.4 | Adagrad | 0.8382878 | 0.8382878 | 135.40672 | 1066935.0 |
| 3 | 5-15 | 17-5 | 5-5 | 5-4 | 6 | 0.4 | RMSprop | 0.8476543 | 0.8476542 | 115.30117 | 1066935.0 |
| 3 | 17-5 | 5-15 | 5-5 | 5-4 | 6 | 0.4 | RMSprop | 0.8526849 | 0.8526849 | 91.393029 | 1066935.0 |
| 3 | 5-15 | 17-5 | 5-5 | 5-4 | 7 | 0.0 | Adam | 0.8149663 | 0.8149663 | 147.50851 | 1067320.0 |
| 3 | 17-5 | 5-15 | 5-5 | 5-4 | 7 | 0.0 | Adam | 0.8141667 | 0.8141667 | 139.92214 | 1067320.0 |
| 3 | 5-15 | 17-5 | 5-5 | 5-4 | 7 | 0.0 | Adagrad | 0.8207690 | 0.8207690 | 122.99052 | 1067320.0 |
| 3 | 17-5 | 5-15 | 5-5 | 5-4 | 7 | 0.0 | Adagrad | 0.8165849 | 0.8165849 | 113.54776 | 1067320.0 |
| 3 | 5-15 | 17-5 | 5-5 | 5-4 | 7 | 0.0 | RMSprop | 0.8258254 | 0.8258253 | 102.57316 | 1067320.0 |
| 3 | 17-5 | 5-15 | 5-5 | 5-4 | 7 | 0.0 | RMSprop | 0.8325944 | 0.8325944 | 100.04644 | 1067320.0 |
| 3 | 5-15 | 17-5 | 5-5 | 5-4 | 7 | 0.2 | Adam | 0.8178475 | 0.8178475 | 127.78661 | 1067320.0 |
| 3 | 17-5 | 5-15 | 5-5 | 5-4 | 7 | 0.2 | Adam | 0.8304550 | 0.8304550 | 103.17632 | 1067320.0 |
| 3 | 5-15 | 17-5 | 5-5 | 5-4 | 7 | 0.2 | Adagrad | 0.8398272 | 0.8398272 | 78.421036 | 1067320.0 |
| 3 | 17-5 | 5-15 | 5-5 | 5-4 | 7 | 0.2 | Adagrad | 0.8468361 | 0.8468361 | 70.364609 | 1067320.0 |
| 3 | 5-15 | 17-5 | 5-5 | 5-4 | 7 | 0.2 | RMSprop | 0.8358960 | 0.8358960 | 89.612089 | 1067320.0 |
| 3 | 17-5 | 5-15 | 5-5 | 5-4 | 7 | 0.2 | RMSprop | 0.8467320 | 0.8467320 | 78.374314 | 1067320.0 |
| 3 | 5-15 | 17-5 | 5-5 | 5-4 | 7 | 0.4 | Adam | 0.8393614 | 0.8393614 | 99.889833 | 1067320.0 |
| 3 | 17-5 | 5-15 | 5-5 | 5-4 | 7 | 0.4 | Adam | 0.8428481 | 0.8428481 | 97.154861 | 1067320.0 |
| 3 | 5-15 | 17-5 | 5-5 | 5-4 | 7 | 0.4 | Adagrad | 0.8489084 | 0.8489084 | 70.000592 | 1067320.0 |
| 3 | 17-5 | 5-15 | 5-5 | 5-4 | 7 | 0.4 | Adagrad | 0.8408279 | 0.8408279 | 82.833056 | 1067320.0 |
| 3 | 5-15 | 17-5 | 5-5 | 5-4 | 7 | 0.4 | RMSprop | 0.8551029 | 0.8551029 | 69.989756 | 1067320.0 |
| 3 | 17-5 | 5-15 | 5-5 | 5-4 | 7 | 0.4 | RMSprop | 0.8485650 | 0.8485650 | 81.152939 | 1067320.0 |
| 3 | 5-15 | 17-5 | 5-5 | 5-4 | 8 | 0.0 | Adam | 0.8222729 | 0.8222729 | 114.11094 | 1067705.0 |
| 3 | 17-5 | 5-15 | 5-5 | 5-4 | 8 | 0.0 | Adam | 0.8260546 | 0.8260546 | 107.27485 | 1067705.0 |
| 3 | 5-15 | 17-5 | 5-5 | 5-4 | 8 | 0.0 | Adagrad | 0.8155403 | 0.8155403 | 103.21128 | 1067705.0 |
| 3 | 17-5 | 5-15 | 5-5 | 5-4 | 8 | 0.0 | Adagrad | 0.8227821 | 0.8227821 | 91.200008 | 1067705.0 |
| 3 | 5-15 | 17-5 | 5-5 | 5-4 | 8 | 0.0 | RMSprop | 0.8223358 | 0.8223357 | 108.40706 | 1067705.0 |
| 3 | 17-5 | 5-15 | 5-5 | 5-4 | 8 | 0.0 | RMSprop | 0.8347885 | 0.8347885 | 83.573146 | 1067705.0 |
| 3 | 5-15 | 17-5 | 5-5 | 5-4 | 8 | 0.2 | Adam | 0.8275376 | 0.8275377 | 108.59606 | 1067705.0 |
| 3 | 17-5 | 5-15 | 5-5 | 5-4 | 8 | 0.2 | Adam | 0.8302760 | 0.8302760 | 106.52309 | 1067705.0 |
| 3 | 5-15 | 17-5 | 5-5 | 5-4 | 8 | 0.2 | Adagrad | 0.8279445 | 0.8279445 | 100.17177 | 1067705.0 |
| 3 | 17-5 | 5-15 | 5-5 | 5-4 | 8 | 0.2 | Adagrad | 0.8282397 | 0.8282397 | 104.45917 | 1067705.0 |
| 3 | 5-15 | 17-5 | 5-5 | 5-4 | 8 | 0.2 | RMSprop | 0.8349926 | 0.8349926 | 99.238223 | 1067705.0 |
| 3 | 17-5 | 5-15 | 5-5 | 5-4 | 8 | 0.2 | RMSprop | 0.8439271 | 0.8439271 | 86.441918 | 1067705.0 |
| 3 | 5-15 | 17-5 | 5-5 | 5-4 | 8 | 0.4 | Adam | 0.8487294 | 0.8487294 | 104.89023 | 1067705.0 |
| 3 | 17-5 | 5-15 | 5-5 | 5-4 | 8 | 0.4 | Adam | 0.8558966 | 0.8558966 | 103.90275 | 1067705.0 |
| 3 | 5-15 | 17-5 | 5-5 | 5-4 | 8 | 0.4 | Adagrad | 0.8396213 | 0.8396213 | 92.593994 | 1067705.0 |
| 3 | 17-5 | 5-15 | 5-5 | 5-4 | 8 | 0.4 | Adagrad | 0.8422669 | 0.8422669 | 83.958920 | 1067705.0 |
| 3 | 5-15 | 17-5 | 5-5 | 5-4 | 8 | 0.4 | RMSprop | 0.8475321 | 0.8475321 | 88.186435 | 1067705.0 |
| 3 | 17-5 | 5-15 | 5-5 | 5-4 | 8 | 0.4 | RMSprop | 0.8509126 | 0.8509126 | 84.961791 | 1067705.0 |
| 3 | 5-15 | 17-5 | 5-5 | 5-4 | 9 | 0.0 | Adam | 0.8087449 | 0.8087449 | 124.23964 | 1068090.0 |
| 3 | 17-5 | 5-15 | 5-5 | 5-4 | 9 | 0.0 | Adam | 0.8138718 | 0.8138718 | 127.52173 | 1068090.0 |
| 3 | 5-15 | 17-5 | 5-5 | 5-4 | 9 | 0.0 | Adagrad | 0.8272465 | 0.8272465 | 96.532151 | 1068090.0 |
| 3 | 17-5 | 5-15 | 5-5 | 5-4 | 9 | 0.0 | Adagrad | 0.8175254 | 0.8175254 | 114.70611 | 1068090.0 |
| 3 | 5-15 | 17-5 | 5-5 | 5-4 | 9 | 0.0 | RMSprop | 0.8336666 | 0.8336666 | 89.366230 | 1068090.0 |
| 3 | 17-5 | 5-15 | 5-5 | 5-4 | 9 | 0.0 | RMSprop | 0.8314720 | 0.8314720 | 93.904086 | 1068090.0 |
| 3 | 5-15 | 17-5 | 5-5 | 5-4 | 9 | 0.2 | Adam | 0.8300072 | 0.8300072 | 102.50280 | 1068090.0 |
| 3 | 17-5 | 5-15 | 5-5 | 5-4 | 9 | 0.2 | Adam | 0.8210976 | 0.8210976 | 112.95869 | 1068090.0 |
| 3 | 5-15 | 17-5 | 5-5 | 5-4 | 9 | 0.2 | Adagrad | 0.8321170 | 0.8321171 | 93.456271 | 1068090.0 |
| 3 | 17-5 | 5-15 | 5-5 | 5-4 | 9 | 0.2 | Adagrad | 0.8297019 | 0.8297019 | 98.988582 | 1068090.0 |
| 3 | 5-15 | 17-5 | 5-5 | 5-4 | 9 | 0.2 | RMSprop | 0.8420149 | 0.8420149 | 94.318477 | 1068090.0 |
| 3 | 17-5 | 5-15 | 5-5 | 5-4 | 9 | 0.2 | RMSprop | 0.8495037 | 0.8495036 | 84.635532 | 1068090.0 |
| 3 | 5-15 | 17-5 | 5-5 | 5-4 | 9 | 0.4 | Adam | 0.8441916 | 0.8441916 | 99.244294 | 1068090.0 |
| 3 | 17-5 | 5-15 | 5-5 | 5-4 | 9 | 0.4 | Adam | 0.8391916 | 0.8391916 | 101.00073 | 1068090.0 |
| 3 | 5-15 | 17-5 | 5-5 | 5-4 | 9 | 0.4 | Adagrad | 0.8410142 | 0.8410142 | 105.17535 | 1068090.0 |
| 3 | 17-5 | 5-15 | 5-5 | 5-4 | 9 | 0.4 | Adagrad | 0.8430896 | 0.8430896 | 84.002293 | 1068090.0 |
| 3 | 5-15 | 17-5 | 5-5 | 5-4 | 9 | 0.4 | RMSprop | 0.8557198 | 0.8557198 | 81.116518 | 1068090.0 |
| 3 | 17-5 | 5-15 | 5-5 | 5-4 | 9 | 0.4 | RMSprop | 0.8491345 | 0.8491345 | 86.317253 | 1068090.0 |
| 3 | 5-15 | 17-5 | 5-5 | 5-4 | 10 | 0.0 | Adam | 0.8170828 | 0.8170828 | 126.05268 | 1068475.0 |
| 3 | 17-5 | 5-15 | 5-5 | 5-4 | 10 | 0.0 | Adam | 0.8225841 | 0.8225841 | 124.40684 | 1068475.0 |
| 3 | 5-15 | 17-5 | 5-5 | 5-4 | 10 | 0.0 | Adagrad | 0.8229941 | 0.8229941 | 114.82895 | 1068475.0 |
| 3 | 17-5 | 5-15 | 5-5 | 5-4 | 10 | 0.0 | Adagrad | 0.8305534 | 0.8305534 | 94.917217 | 1068475.0 |
| 3 | 5-15 | 17-5 | 5-5 | 5-4 | 10 | 0.0 | RMSprop | 0.8293556 | 0.8293556 | 111.38379 | 1068475.0 |
| 3 | 17-5 | 5-15 | 5-5 | 5-4 | 10 | 0.0 | RMSprop | 0.8253712 | 0.8253712 | 109.19992 | 1068475.0 |
| 3 | 5-15 | 17-5 | 5-5 | 5-4 | 10 | 0.2 | Adam | 0.8147433 | 0.8147433 | 136.08261 | 1068475.0 |
| 3 | 17-5 | 5-15 | 5-5 | 5-4 | 10 | 0.2 | Adam | 0.8225175 | 0.8225175 | 122.25092 | 1068475.0 |
| 3 | 5-15 | 17-5 | 5-5 | 5-4 | 10 | 0.2 | Adagrad | 0.8326857 | 0.8326857 | 102.08534 | 1068475.0 |
| 3 | 17-5 | 5-15 | 5-5 | 5-4 | 10 | 0.2 | Adagrad | 0.8356720 | 0.8356720 | 106.08345 | 1068475.0 |
| 3 | 5-15 | 17-5 | 5-5 | 5-4 | 10 | 0.2 | RMSprop | 0.8429682 | 0.8429682 | 102.74785 | 1068475.0 |
| 3 | 17-5 | 5-15 | 5-5 | 5-4 | 10 | 0.2 | RMSprop | 0.8511850 | 0.8511850 | 89.514350 | 1068475.0 |
| 3 | 5-15 | 17-5 | 5-5 | 5-4 | 10 | 0.4 | Adam | 0.8477045 | 0.8477045 | 114.11880 | 1068475.0 |
| 3 | 17-5 | 5-15 | 5-5 | 5-4 | 10 | 0.4 | Adam | 0.8379408 | 0.8379408 | 124.68909 | 1068475.0 |
| 3 | 5-15 | 17-5 | 5-5 | 5-4 | 10 | 0.4 | Adagrad | 0.8336529 | 0.8336529 | 108.74886 | 1068475.0 |
| 3 | 17-5 | 5-15 | 5-5 | 5-4 | 10 | 0.4 | Adagrad | 0.8434020 | 0.8434019 | 98.456995 | 1068475.0 |
| 3 | 5-15 | 17-5 | 5-5 | 5-4 | 10 | 0.4 | RMSprop | 0.8469757 | 0.8469757 | 101.20900 | 1068475.0 |
| 3 | 17-5 | 5-15 | 5-5 | 5-4 | 10 | 0.4 | RMSprop | 0.8516732 | 0.8516732 | 93.371646 | 1068475.0 |
| 4 | 0-0 | 0-0 | 5-5 | 5-4 | 1 | 0.0 | Adam | 0.8126658 | 0.8126658 | 19.124131 | 4503215.0 |
| 4 | 0-0 | 0-0 | 5-5 | 5-4 | 1 | 0.0 | Adagrad | 0.7992173 | 0.7992173 | 17.023601 | 4503215.0 |
| 4 | 0-0 | 0-0 | 5-5 | 5-4 | 1 | 0.0 | RMSprop | 0.8057814 | 0.8057814 | 17.190833 | 4503215.0 |
| 4 | 0-0 | 0-0 | 5-5 | 5-4 | 1 | 0.2 | Adam | 0.8063349 | 0.8063349 | 21.735216 | 4503215.0 |
| 4 | 0-0 | 0-0 | 5-5 | 5-4 | 1 | 0.2 | Adagrad | 0.8006527 | 0.8006527 | 16.950059 | 4503215.0 |
| 4 | 0-0 | 0-0 | 5-5 | 5-4 | 1 | 0.2 | RMSprop | 0.8039427 | 0.8039427 | 20.241006 | 4503215.0 |
| 4 | 0-0 | 0-0 | 5-5 | 5-4 | 1 | 0.4 | Adam | 0.8019144 | 0.8019144 | 23.428281 | 4503215.0 |
| 4 | 0-0 | 0-0 | 5-5 | 5-4 | 1 | 0.4 | Adagrad | 0.7935616 | 0.7935616 | 21.235650 | 4503215.0 |
| 4 | 0-0 | 0-0 | 5-5 | 5-4 | 1 | 0.4 | RMSprop | 0.7947025 | 0.7947025 | 25.320858 | 4503215.0 |
| 4 | 0-0 | 0-0 | 5-5 | 5-4 | 2 | 0.0 | Adam | 0.8058516 | 0.8058516 | 20.053471 | 4503305.0 |
| 4 | 0-0 | 0-0 | 5-5 | 5-4 | 2 | 0.0 | Adagrad | 0.8019789 | 0.8019789 | 16.841049 | 4503305.0 |
| 4 | 0-0 | 0-0 | 5-5 | 5-4 | 2 | 0.0 | RMSprop | 0.8055340 | 0.8055340 | 18.927420 | 4503305.0 |
| 4 | 0-0 | 0-0 | 5-5 | 5-4 | 2 | 0.2 | Adam | 0.7998864 | 0.7998864 | 21.173744 | 4503305.0 |
| 4 | 0-0 | 0-0 | 5-5 | 5-4 | 2 | 0.2 | Adagrad | 0.7946791 | 0.7946791 | 22.687196 | 4503305.0 |
| 4 | 0-0 | 0-0 | 5-5 | 5-4 | 2 | 0.2 | RMSprop | 0.7960560 | 0.7960560 | 23.759186 | 4503305.0 |
| 4 | 0-0 | 0-0 | 5-5 | 5-4 | 2 | 0.4 | Adam | 0.7979078 | 0.7979078 | 28.270974 | 4503305.0 |
| 4 | 0-0 | 0-0 | 5-5 | 5-4 | 2 | 0.4 | Adagrad | 0.7915452 | 0.7915452 | 24.480074 | 4503305.0 |
| 4 | 0-0 | 0-0 | 5-5 | 5-4 | 2 | 0.4 | RMSprop | 0.7923964 | 0.7923964 | 26.366590 | 4503305.0 |
| 4 | 0-0 | 0-0 | 5-5 | 5-4 | 3 | 0.0 | Adam | 0.8051187 | 0.8051187 | 26.631140 | 4503395.0 |
| 4 | 0-0 | 0-0 | 5-5 | 5-4 | 3 | 0.0 | Adagrad | 0.7962365 | 0.7962365 | 21.429751 | 4503395.0 |
| 4 | 0-0 | 0-0 | 5-5 | 5-4 | 3 | 0.0 | RMSprop | 0.8078102 | 0.8078102 | 24.000701 | 4503395.0 |
| 4 | 0-0 | 0-0 | 5-5 | 5-4 | 3 | 0.2 | Adam | 0.7988875 | 0.7988875 | 30.329268 | 4503395.0 |
| 4 | 0-0 | 0-0 | 5-5 | 5-4 | 3 | 0.2 | Adagrad | 0.7924407 | 0.7924407 | 23.369576 | 4503395.0 |
| 4 | 0-0 | 0-0 | 5-5 | 5-4 | 3 | 0.2 | RMSprop | 0.8013954 | 0.8013954 | 25.941660 | 4503395.0 |
| 4 | 0-0 | 0-0 | 5-5 | 5-4 | 3 | 0.4 | Adam | 0.7925977 | 0.7925977 | 34.768806 | 4503395.0 |
| 4 | 0-0 | 0-0 | 5-5 | 5-4 | 3 | 0.4 | Adagrad | 0.7897919 | 0.7897919 | 26.685378 | 4503395.0 |
| 4 | 0-0 | 0-0 | 5-5 | 5-4 | 3 | 0.4 | RMSprop | 0.7946277 | 0.7946277 | 29.644704 | 4503395.0 |
| 4 | 0-0 | 0-0 | 5-5 | 5-4 | 4 | 0.0 | Adam | 0.8007934 | 0.8007934 | 25.750546 | 4503485.0 |
| 4 | 0-0 | 0-0 | 5-5 | 5-4 | 4 | 0.0 | Adagrad | 0.7935031 | 0.7935031 | 21.744237 | 4503485.0 |
| 4 | 0-0 | 0-0 | 5-5 | 5-4 | 4 | 0.0 | RMSprop | 0.8058323 | 0.8058323 | 24.275525 | 4503485.0 |
| 4 | 0-0 | 0-0 | 5-5 | 5-4 | 4 | 0.2 | Adam | 0.8037208 | 0.8037208 | 28.202992 | 4503485.0 |
| 4 | 0-0 | 0-0 | 5-5 | 5-4 | 4 | 0.2 | Adagrad | 0.7943635 | 0.7943635 | 25.111645 | 4503485.0 |
| 4 | 0-0 | 0-0 | 5-5 | 5-4 | 4 | 0.2 | RMSprop | 0.8030977 | 0.8030977 | 27.192404 | 4503485.0 |
| 4 | 0-0 | 0-0 | 5-5 | 5-4 | 4 | 0.4 | Adam | 0.7931980 | 0.7931981 | 33.945257 | 4503485.0 |
| 4 | 0-0 | 0-0 | 5-5 | 5-4 | 4 | 0.4 | Adagrad | 0.7910820 | 0.7910820 | 28.469564 | 4503485.0 |
| 4 | 0-0 | 0-0 | 5-5 | 5-4 | 4 | 0.4 | RMSprop | 0.7893704 | 0.7893704 | 31.305527 | 4503485.0 |
| 4 | 0-0 | 0-0 | 5-5 | 5-4 | 5 | 0.0 | Adam | 0.8072608 | 0.8072608 | 27.607256 | 4503575.0 |
| 4 | 0-0 | 0-0 | 5-5 | 5-4 | 5 | 0.0 | Adagrad | 0.7950379 | 0.7950379 | 23.996067 | 4503575.0 |
| 4 | 0-0 | 0-0 | 5-5 | 5-4 | 5 | 0.0 | RMSprop | 0.8069794 | 0.8069794 | 26.308777 | 4503575.0 |
| 4 | 0-0 | 0-0 | 5-5 | 5-4 | 5 | 0.2 | Adam | 0.8026629 | 0.8026629 | 30.649929 | 4503575.0 |
| 4 | 0-0 | 0-0 | 5-5 | 5-4 | 5 | 0.2 | Adagrad | 0.7948688 | 0.7948688 | 22.367818 | 4503575.0 |
| 4 | 0-0 | 0-0 | 5-5 | 5-4 | 5 | 0.2 | RMSprop | 0.7945106 | 0.7945106 | 26.755683 | 4503575.0 |
| 4 | 0-0 | 0-0 | 5-5 | 5-4 | 5 | 0.4 | Adam | 0.7971594 | 0.7971594 | 33.991247 | 4503575.0 |
| 4 | 0-0 | 0-0 | 5-5 | 5-4 | 5 | 0.4 | Adagrad | 0.7942965 | 0.7942965 | 29.942775 | 4503575.0 |
| 4 | 0-0 | 0-0 | 5-5 | 5-4 | 5 | 0.4 | RMSprop | 0.7937536 | 0.7937536 | 33.009366 | 4503575.0 |
| 4 | 0-0 | 0-0 | 5-5 | 5-4 | 6 | 0.0 | Adam | 0.8019789 | 0.8019789 | 26.793982 | 4503665.0 |
| 4 | 0-0 | 0-0 | 5-5 | 5-4 | 6 | 0.0 | Adagrad | 0.7999846 | 0.7999846 | 24.662219 | 4503665.0 |
| 4 | 0-0 | 0-0 | 5-5 | 5-4 | 6 | 0.0 | RMSprop | 0.8033591 | 0.8033592 | 23.393389 | 4503665.0 |
| 4 | 0-0 | 0-0 | 5-5 | 5-4 | 6 | 0.2 | Adam | 0.7956895 | 0.7956895 | 31.206008 | 4503665.0 |
| 4 | 0-0 | 0-0 | 5-5 | 5-4 | 6 | 0.2 | Adagrad | 0.7944347 | 0.7944347 | 25.298845 | 4503665.0 |
| 4 | 0-0 | 0-0 | 5-5 | 5-4 | 6 | 0.2 | RMSprop | 0.7982337 | 0.7982336 | 30.008785 | 4503665.0 |
| 4 | 0-0 | 0-0 | 5-5 | 5-4 | 6 | 0.4 | Adam | 0.7959306 | 0.7959306 | 36.632882 | 4503665.0 |
| 4 | 0-0 | 0-0 | 5-5 | 5-4 | 6 | 0.4 | Adagrad | 0.7897435 | 0.7897435 | 31.989743 | 4503665.0 |
| 4 | 0-0 | 0-0 | 5-5 | 5-4 | 6 | 0.4 | RMSprop | 0.7975399 | 0.7975399 | 32.511062 | 4503665.0 |
| 4 | 0-0 | 0-0 | 5-5 | 5-4 | 7 | 0.0 | Adam | 0.8055677 | 0.8055677 | 28.301097 | 4503755.0 |
| 4 | 0-0 | 0-0 | 5-5 | 5-4 | 7 | 0.0 | Adagrad | 0.7998597 | 0.7998597 | 26.936187 | 4503755.0 |
| 4 | 0-0 | 0-0 | 5-5 | 5-4 | 7 | 0.0 | RMSprop | 0.8009466 | 0.8009466 | 27.552401 | 4503755.0 |
| 4 | 0-0 | 0-0 | 5-5 | 5-4 | 7 | 0.2 | Adam | 0.8020357 | 0.8020357 | 32.252628 | 4503755.0 |
| 4 | 0-0 | 0-0 | 5-5 | 5-4 | 7 | 0.2 | Adagrad | 0.7864319 | 0.7864319 | 27.973923 | 4503755.0 |
| 4 | 0-0 | 0-0 | 5-5 | 5-4 | 7 | 0.2 | RMSprop | 0.7969027 | 0.7969027 | 31.738284 | 4503755.0 |
| 4 | 0-0 | 0-0 | 5-5 | 5-4 | 7 | 0.4 | Adam | 0.7979030 | 0.7979030 | 35.216326 | 4503755.0 |
| 4 | 0-0 | 0-0 | 5-5 | 5-4 | 7 | 0.4 | Adagrad | 0.7913260 | 0.7913260 | 33.342519 | 4503755.0 |
| 4 | 0-0 | 0-0 | 5-5 | 5-4 | 7 | 0.4 | RMSprop | 0.7962409 | 0.7962409 | 34.851038 | 4503755.0 |
| 4 | 0-0 | 0-0 | 5-5 | 5-4 | 8 | 0.0 | Adam | 0.8094027 | 0.8094027 | 28.928526 | 4503845.0 |
| 4 | 0-0 | 0-0 | 5-5 | 5-4 | 8 | 0.0 | Adagrad | 0.7977157 | 0.7977157 | 27.519525 | 4503845.0 |
| 4 | 0-0 | 0-0 | 5-5 | 5-4 | 8 | 0.0 | RMSprop | 0.8033410 | 0.8033410 | 27.734185 | 4503845.0 |
| 4 | 0-0 | 0-0 | 5-5 | 5-4 | 8 | 0.2 | Adam | 0.7923414 | 0.7923414 | 32.449631 | 4503845.0 |
| 4 | 0-0 | 0-0 | 5-5 | 5-4 | 8 | 0.2 | Adagrad | 0.7950193 | 0.7950193 | 30.073573 | 4503845.0 |
| 4 | 0-0 | 0-0 | 5-5 | 5-4 | 8 | 0.2 | RMSprop | 0.7918075 | 0.7918075 | 31.057625 | 4503845.0 |
| 4 | 0-0 | 0-0 | 5-5 | 5-4 | 8 | 0.4 | Adam | 0.7943264 | 0.7943264 | 40.746023 | 4503845.0 |
| 4 | 0-0 | 0-0 | 5-5 | 5-4 | 8 | 0.4 | Adagrad | 0.7907638 | 0.7907638 | 34.807405 | 4503845.0 |
| 4 | 0-0 | 0-0 | 5-5 | 5-4 | 8 | 0.4 | RMSprop | 0.7945432 | 0.7945432 | 36.943798 | 4503845.0 |
| 4 | 0-0 | 0-0 | 5-5 | 5-4 | 9 | 0.0 | Adam | 0.8045421 | 0.8045421 | 32.816232 | 4503935.0 |
| 4 | 0-0 | 0-0 | 5-5 | 5-4 | 9 | 0.0 | Adagrad | 0.7933806 | 0.7933806 | 28.508729 | 4503935.0 |
| 4 | 0-0 | 0-0 | 5-5 | 5-4 | 9 | 0.0 | RMSprop | 0.8063129 | 0.8063129 | 29.975747 | 4503935.0 |
| 4 | 0-0 | 0-0 | 5-5 | 5-4 | 9 | 0.2 | Adam | 0.8002602 | 0.8002602 | 34.176999 | 4503935.0 |
| 4 | 0-0 | 0-0 | 5-5 | 5-4 | 9 | 0.2 | Adagrad | 0.7932762 | 0.7932762 | 32.594343 | 4503935.0 |
| 4 | 0-0 | 0-0 | 5-5 | 5-4 | 9 | 0.2 | RMSprop | 0.7969360 | 0.7969360 | 32.097303 | 4503935.0 |
| 4 | 0-0 | 0-0 | 5-5 | 5-4 | 9 | 0.4 | Adam | 0.7925151 | 0.7925151 | 41.193744 | 4503935.0 |
| 4 | 0-0 | 0-0 | 5-5 | 5-4 | 9 | 0.4 | Adagrad | 0.7933124 | 0.7933124 | 36.515713 | 4503935.0 |
| 4 | 0-0 | 0-0 | 5-5 | 5-4 | 9 | 0.4 | RMSprop | 0.7954380 | 0.7954380 | 39.137739 | 4503935.0 |
| 4 | 0-0 | 0-0 | 5-5 | 5-4 | 10 | 0.0 | Adam | 0.8080107 | 0.8080107 | 33.989325 | 4504025.0 |
| 4 | 0-0 | 0-0 | 5-5 | 5-4 | 10 | 0.0 | Adagrad | 0.8004226 | 0.8004226 | 30.877059 | 4504025.0 |
| 4 | 0-0 | 0-0 | 5-5 | 5-4 | 10 | 0.0 | RMSprop | 0.8072476 | 0.8072476 | 32.498455 | 4504025.0 |
| 4 | 0-0 | 0-0 | 5-5 | 5-4 | 10 | 0.2 | Adam | 0.8002239 | 0.8002239 | 36.748008 | 4504025.0 |
| 4 | 0-0 | 0-0 | 5-5 | 5-4 | 10 | 0.2 | Adagrad | 0.7898286 | 0.7898286 | 36.292107 | 4504025.0 |
| 4 | 0-0 | 0-0 | 5-5 | 5-4 | 10 | 0.2 | RMSprop | 0.7901034 | 0.7901034 | 35.409499 | 4504025.0 |
| 4 | 0-0 | 0-0 | 5-5 | 5-4 | 10 | 0.4 | Adam | 0.7928993 | 0.7928993 | 43.020846 | 4504025.0 |
| 4 | 0-0 | 0-0 | 5-5 | 5-4 | 10 | 0.4 | Adagrad | 0.7902668 | 0.7902668 | 40.831910 | 4504025.0 |
| 4 | 0-0 | 0-0 | 5-5 | 5-4 | 10 | 0.4 | RMSprop | 0.7940365 | 0.7940365 | 38.320860 | 4504025.0 |
