| 3 | 5-15 | 17-5 | 5-5 | 5-4 | 4 | 0.0 | Adam | 0.8165731 | 0.8165731 | 173.75205 | 1066165.0 |
| 3 | 17-5 | 5-15 | 5-5 | 5-4 | 4 | 0.0 | Adam | 0.8121209 | 0.8121209 | 172.35663 | 1066165.0 |
| 3 | 5-15 | 17-5 | 5-5 | 5-4 | 4 | 0.0 | Adagrad | 0.8204016 | 0.8204016 | 150.96798 | 1066165.0 |
| 3 | 17-5 | 5-15 | 5-5 | 5-4 | 4 | 0.0 | Adagrad | 0.8269676 | 0.8269676 | 143.72709 | 1066165.0 |
| 3 | 5-15 | 17-5 | 5-5 | 5-4 | 4 | 0.0 | RMSprop | 0.8261374 | 0.8261374 | 159.14251 | 1066165.0 |
| 3 | 17-5 | 5-15 | 5-5 | 5-4 | 4 | 0.0 | RMSprop | 0.8358466 | 0.8358466 | 135.75499 | 1066165.0 |
| 3 | 5-15 | 17-5 | 5-5 | 5-4 | 4 | 0.2 | Adam | 0.8254155 | 0.8254155 | 175.79831 | 1066165.0 |
| 3 | 17-5 | 5-15 | 5-5 | 5-4 | 4 | 0.2 | Adam | 0.8227169 | 0.8227169 | 172.09420 | 1066165.0 |
| 3 | 5-15 | 17-5 | 5-5 | 5-4 | 4 | 0.2 | Adagrad | 0.8403199 | 0.8403199 | 121.01702 | 1066165.0 |
| 3 | 17-5 | 5-15 | 5-5 | 5-4 | 4 | 0.2 | Adagrad | 0.8318148 | 0.8318148 | 129.22160 | 1066165.0 |
| 3 | 5-15 | 17-5 | 5-5 | 5-4 | 4 | 0.2 | RMSprop | 0.8399693 | 0.8399693 | 148.73893 | 1066165.0 |
| 3 | 17-5 | 5-15 | 5-5 | 5-4 | 4 | 0.2 | RMSprop | 0.8327849 | 0.8327849 | 153.69439 | 1066165.0 |
| 3 | 5-15 | 17-5 | 5-5 | 5-4 | 4 | 0.4 | Adam | 0.8622162 | 0.8622162 | 159.04149 | 1066165.0 |
| 3 | 17-5 | 5-15 | 5-5 | 5-4 | 4 | 0.4 | Adam | 0.8724069 | 0.8724069 | 137.31681 | 1066165.0 |
| 3 | 5-15 | 17-5 | 5-5 | 5-4 | 4 | 0.4 | Adagrad | 0.8451466 | 0.8451466 | 125.29164 | 1066165.0 |
| 3 | 17-5 | 5-15 | 5-5 | 5-4 | 4 | 0.4 | Adagrad | 0.8495004 | 0.8495004 | 105.82983 | 1066165.0 |
| 3 | 5-15 | 17-5 | 5-5 | 5-4 | 4 | 0.4 | RMSprop | 0.8525888 | 0.8525888 | 127.99579 | 1066165.0 |
| 3 | 17-5 | 5-15 | 5-5 | 5-4 | 4 | 0.4 | RMSprop | 0.8312967 | 0.8312967 | 169.60862 | 1066165.0 |
| 3 | 5-15 | 17-5 | 5-5 | 5-4 | 5 | 0.0 | Adam | 0.8155580 | 0.8155580 | 234.02317 | 1066550.0 |
| 3 | 17-5 | 5-15 | 5-5 | 5-4 | 5 | 0.0 | Adam | 0.8158789 | 0.8158789 | 195.90504 | 1066550.0 |
| 3 | 5-15 | 17-5 | 5-5 | 5-4 | 5 | 0.0 | Adagrad | 0.8131701 | 0.8131701 | 181.50777 | 1066550.0 |
| 3 | 17-5 | 5-15 | 5-5 | 5-4 | 5 | 0.0 | Adagrad | 0.8299511 | 0.8299511 | 142.99606 | 1066550.0 |
| 3 | 5-15 | 17-5 | 5-5 | 5-4 | 5 | 0.0 | RMSprop | 0.8190117 | 0.8190117 | 178.75977 | 1066550.0 |
| 3 | 17-5 | 5-15 | 5-5 | 5-4 | 5 | 0.0 | RMSprop | 0.8284208 | 0.8284208 | 171.78457 | 1066550.0 |
| 3 | 5-15 | 17-5 | 5-5 | 5-4 | 5 | 0.2 | Adam | 0.8335455 | 0.8335455 | 186.10272 | 1066550.0 |
| 3 | 17-5 | 5-15 | 5-5 | 5-4 | 5 | 0.2 | Adam | 0.8244819 | 0.8244819 | 182.59805 | 1066550.0 |
| 3 | 5-15 | 17-5 | 5-5 | 5-4 | 5 | 0.2 | Adagrad | 0.8334554 | 0.8334554 | 134.19975 | 1066550.0 |
| 3 | 17-5 | 5-15 | 5-5 | 5-4 | 5 | 0.2 | Adagrad | 0.8306083 | 0.8306083 | 152.08504 | 1066550.0 |
| 3 | 5-15 | 17-5 | 5-5 | 5-4 | 5 | 0.2 | RMSprop | 0.8453901 | 0.8453901 | 144.48178 | 1066550.0 |
| 3 | 17-5 | 5-15 | 5-5 | 5-4 | 5 | 0.2 | RMSprop | 0.8354326 | 0.8354326 | 146.18491 | 1066550.0 |
| 3 | 5-15 | 17-5 | 5-5 | 5-4 | 5 | 0.4 | Adam | 0.8987777 | 0.8987777 | 100.25855 | 1066550.0 |
| 3 | 17-5 | 5-15 | 5-5 | 5-4 | 5 | 0.4 | Adam | 0.8555291 | 0.8555291 | 154.61355 | 1066550.0 |
| 3 | 5-15 | 17-5 | 5-5 | 5-4 | 5 | 0.4 | Adagrad | 0.8401059 | 0.8401059 | 117.66362 | 1066550.0 |
| 3 | 17-5 | 5-15 | 5-5 | 5-4 | 5 | 0.4 | Adagrad | 0.8502823 | 0.8502823 | 94.944839 | 1066550.0 |
| 3 | 5-15 | 17-5 | 5-5 | 5-4 | 5 | 0.4 | RMSprop | 0.8476151 | 0.8476151 | 141.37722 | 1066550.0 |
| 3 | 17-5 | 5-15 | 5-5 | 5-4 | 5 | 0.4 | RMSprop | 0.8422128 | 0.8422128 | 133.02531 | 1066550.0 |
| 3 | 5-15 | 17-5 | 5-5 | 5-4 | 6 | 0.0 | Adam | 0.8231683 | 0.8231683 | 157.84317 | 1066935.0 |
| 3 | 17-5 | 5-15 | 5-5 | 5-4 | 6 | 0.0 | Adam | 0.8223727 | 0.8223727 | 157.50998 | 1066935.0 |
| 3 | 5-15 | 17-5 | 5-5 | 5-4 | 6 | 0.0 | Adagrad | 0.8163481 | 0.8163481 | 158.94908 | 1066935.0 |
| 3 | 17-5 | 5-15 | 5-5 | 5-4 | 6 | 0.0 | Adagrad | 0.8159576 | 0.8159576 | 169.58060 | 1066935.0 |
| 3 | 5-15 | 17-5 | 5-5 | 5-4 | 6 | 0.0 | RMSprop | 0.8426291 | 0.8426291 | 128.09075 | 1066935.0 |
| 3 | 17-5 | 5-15 | 5-5 | 5-4 | 6 | 0.0 | RMSprop | 0.8285392 | 0.8285392 | 150.48643 | 1066935.0 |
| 3 | 5-15 | 17-5 | 5-5 | 5-4 | 6 | 0.2 | Adam | 0.8219261 | 0.8219261 | 190.79252 | 1066935.0 |
| 3 | 17-5 | 5-15 | 5-5 | 5-4 | 6 | 0.2 | Adam | 0.8258552 | 0.8258552 | 164.56921 | 1066935.0 |
| 3 | 5-15 | 17-5 | 5-5 | 5-4 | 6 | 0.2 | Adagrad | 0.8359310 | 0.8359310 | 146.36452 | 1066935.0 |
| 3 | 17-5 | 5-15 | 5-5 | 5-4 | 6 | 0.2 | Adagrad | 0.8295927 | 0.8295927 | 140.82687 | 1066935.0 |
| 3 | 5-15 | 17-5 | 5-5 | 5-4 | 6 | 0.2 | RMSprop | 0.8268922 | 0.8268922 | 172.31940 | 1066935.0 |
| 3 | 17-5 | 5-15 | 5-5 | 5-4 | 6 | 0.2 | RMSprop | 0.8426816 | 0.8426816 | 149.87792 | 1066935.0 |
| 3 | 5-15 | 17-5 | 5-5 | 5-4 | 6 | 0.4 | Adam | 0.8395713 | 0.8395713 | 158.76134 | 1066935.0 |
| 3 | 17-5 | 5-15 | 5-5 | 5-4 | 6 | 0.4 | Adam | 0.8377458 | 0.8377458 | 162.61410 | 1066935.0 |
| 3 | 5-15 | 17-5 | 5-5 | 5-4 | 6 | 0.4 | Adagrad | 0.8387336 | 0.8387336 | 132.25563 | 1066935.0 |
| 3 | 17-5 | 5-15 | 5-5 | 5-4 | 6 | 0.4 | Adagrad | 0.8382878 | 0.8382878 | 135.40672 | 1066935.0 |
| 3 | 5-15 | 17-5 | 5-5 | 5-4 | 6 | 0.4 | RMSprop | 0.8476543 | 0.8476542 | 115.30117 | 1066935.0 |
| 3 | 17-5 | 5-15 | 5-5 | 5-4 | 6 | 0.4 | RMSprop | 0.8526849 | 0.8526849 | 91.393029 | 1066935.0 |
| 3 | 5-15 | 17-5 | 5-5 | 5-4 | 7 | 0.0 | Adam | 0.8149663 | 0.8149663 | 147.50851 | 1067320.0 |
| 3 | 17-5 | 5-15 | 5-5 | 5-4 | 7 | 0.0 | Adam | 0.8141667 | 0.8141667 | 139.92214 | 1067320.0 |
| 3 | 5-15 | 17-5 | 5-5 | 5-4 | 7 | 0.0 | Adagrad | 0.8207690 | 0.8207690 | 122.99052 | 1067320.0 |
| 3 | 17-5 | 5-15 | 5-5 | 5-4 | 7 | 0.0 | Adagrad | 0.8165849 | 0.8165849 | 113.54776 | 1067320.0 |
| 3 | 5-15 | 17-5 | 5-5 | 5-4 | 7 | 0.0 | RMSprop | 0.8258254 | 0.8258253 | 102.57316 | 1067320.0 |
| 3 | 17-5 | 5-15 | 5-5 | 5-4 | 7 | 0.0 | RMSprop | 0.8325944 | 0.8325944 | 100.04644 | 1067320.0 |
| 3 | 5-15 | 17-5 | 5-5 | 5-4 | 7 | 0.2 | Adam | 0.8178475 | 0.8178475 | 127.78661 | 1067320.0 |
| 3 | 17-5 | 5-15 | 5-5 | 5-4 | 7 | 0.2 | Adam | 0.8304550 | 0.8304550 | 103.17632 | 1067320.0 |
| 3 | 5-15 | 17-5 | 5-5 | 5-4 | 7 | 0.2 | Adagrad | 0.8398272 | 0.8398272 | 78.421036 | 1067320.0 |
| 3 | 17-5 | 5-15 | 5-5 | 5-4 | 7 | 0.2 | Adagrad | 0.8468361 | 0.8468361 | 70.364609 | 1067320.0 |
| 3 | 5-15 | 17-5 | 5-5 | 5-4 | 7 | 0.2 | RMSprop | 0.8358960 | 0.8358960 | 89.612089 | 1067320.0 |
| 3 | 17-5 | 5-15 | 5-5 | 5-4 | 7 | 0.2 | RMSprop | 0.8467320 | 0.8467320 | 78.374314 | 1067320.0 |
| 3 | 5-15 | 17-5 | 5-5 | 5-4 | 7 | 0.4 | Adam | 0.8393614 | 0.8393614 | 99.889833 | 1067320.0 |
| 3 | 17-5 | 5-15 | 5-5 | 5-4 | 7 | 0.4 | Adam | 0.8428481 | 0.8428481 | 97.154861 | 1067320.0 |
| 3 | 5-15 | 17-5 | 5-5 | 5-4 | 7 | 0.4 | Adagrad | 0.8489084 | 0.8489084 | 70.000592 | 1067320.0 |
| 3 | 17-5 | 5-15 | 5-5 | 5-4 | 7 | 0.4 | Adagrad | 0.8408279 | 0.8408279 | 82.833056 | 1067320.0 |
| 3 | 5-15 | 17-5 | 5-5 | 5-4 | 7 | 0.4 | RMSprop | 0.8551029 | 0.8551029 | 69.989756 | 1067320.0 |
| 3 | 17-5 | 5-15 | 5-5 | 5-4 | 7 | 0.4 | RMSprop | 0.8485650 | 0.8485650 | 81.152939 | 1067320.0 |
